"Age","power_predict","r.squared","adj.r.squared","sigma","statistic","p.value","df","logLik","AIC","BIC","deviance","df.residual","GHI","Wind_speed","Ambient_temp"
0,NA,NA,NA,NA,NA,NA,NA,NA,NA,NA,NA,NA,513.1,1.24687693023013,20.7394137447101
1,43.2882396356794,0.947690721409989,0.947520147675456,3.13196207183516,5555.90064324129,0,4,-2363.98839653038,4737.97679306076,4762.12035341897,9024.45150586089,920,513.1,1.24687693023013,20.7394137447101
2,44.3174475513277,0.976766732713352,0.976690223600443,2.1573200400523,12766.6717803577,0,4,-1999.83743070116,4009.67486140232,4033.76948172869,4239.82110699744,911,513.1,1.24687693023013,20.7394137447101
3,45.2632488966371,0.984775547291533,0.984728315276925,2.0218260603616,20849.7468396415,0,4,-2059.37024656007,4128.74049312015,4153.13212546161,3952.88385795153,967,513.1,1.24687693023013,20.7394137447101
4,45.7125283286285,0.982659776931756,0.982615008713852,2.66238999443858,21949.9417875776,0,4,-2794.25432430569,5598.50864861137,5623.81532044592,8236.62840064952,1162,513.1,1.24687693023013,20.7394137447101
5,45.5224538148331,0.991663158585299,0.991644424110209,2.18422229729814,52932.5296739223,0,4,-2944.06262467862,5898.12524935725,5924.1236410857,6369.05410375918,1335,513.1,1.24687693023013,20.7394137447101
6,45.0082119733179,0.991012346950414,0.990993954754541,2.44019578616826,53882.2201455655,0,4,-3395.19198396495,6800.38396792989,6826.84905632876,8729.37832610564,1466,513.1,1.24687693023013,20.7394137447101
7,44.6515533873363,0.991554259419926,0.991537601154482,2.34287616164884,59523.2596549259,0,4,-3460.23207345691,6930.46414691382,6957.11289535902,8348.8735061189,1521,513.1,1.24687693023013,20.7394137447101
8,43.5158147121644,0.992086978335874,0.99207181929054,2.18903232954842,65445.2148209185,0,4,-3455.7624974414,6921.52499488281,6948.31914937452,7504.05673733961,1566,513.1,1.24687693023013,20.7394137447101
9,43.6672353226645,0.993294268720708,0.99328061142686,2.09053657145469,72729.9478056886,0,4,-3182.93997150851,6375.87994301701,6402.36878442967,6437.51546965635,1473,513.1,1.24687693023013,20.7394137447101
10,45.5119941259483,0.99166902334721,0.99165104282206,2.15658431219653,55152.3948872164,0,4,-3047.3221729111,6104.64434582219,6130.8440087788,6464.68969490095,1390,513.1,1.24687693023013,20.7394137447101
11,43.68397915727,0.990963739426784,0.99094201764656,2.00426389966447,45620.7423702941,0,4,-2644.99447184991,5299.98894369983,5325.65143145813,5013.30807681377,1248,513.1,1.24687693023013,20.7394137447101
12,46.0364162458554,0.990097346492006,0.990069659669524,1.7957093299867,35760.5986425207,0,4,-2156.66899957139,4323.33799914279,4348.24767252857,3459.96575364076,1073,513.1,1.24687693023013,20.7394137447101
13,43.6477173603727,0.974736397633003,0.974658020376435,2.22878741731794,12436.4699699678,0,4,-2154.00059078268,4318.00118156535,4342.39281390681,4803.56607099213,967,513.1,1.24687693023013,20.7394137447101
14,44.2786700056512,0.965647502323868,0.965520740339823,2.37929719016176,7617.80047543944,0,4,-1865.4476737655,3740.895347531,3764.4235430053,4602.43781183775,813,513.1,1.24687693023013,20.7394137447101
15,45.4319084717267,0.984087084161613,0.984036352230141,1.9380145722988,19397.7847010337,0,4,-1964.1651799803,3938.33035996059,3962.58628459806,3534.30235397838,941,513.1,1.24687693023013,20.7394137447101
16,45.6071596210538,0.990718972662619,0.990694068295882,1.91004999054688,39780.934127685,0,4,-2316.12466407747,4642.24932815494,4667.36366858535,4078.78930042195,1118,513.1,1.24687693023013,20.7394137447101
17,45.9519671764558,0.993177678668138,0.993162301535159,1.95713805746241,64587.9618780988,0,4,-2788.71005347307,5587.42010694615,5613.40353980032,5098.24825941307,1331,513.1,1.24687693023013,20.7394137447101
18,44.8405931575116,0.989804031282054,0.989783123622345,2.52009042578621,47341.6941480955,0,4,-3435.52054490748,6881.04108981495,6907.49596370567,9291.30196830585,1463,513.1,1.24687693023013,20.7394137447101
19,43.838837413696,0.992816239585806,0.992802144568642,2.16330894267476,70437.3913197917,0,4,-3356.15269463444,6722.30538926887,6748.98029866323,7155.57563404715,1529,513.1,1.24687693023013,20.7394137447101
20,43.0833728099096,0.991207094456792,0.991190249810158,2.32728746830057,58844.0420250078,0,4,-3551.91530296783,7113.83060593566,7140.62476042737,8481.87405953048,1566,513.1,1.24687693023013,20.7394137447101
21,42.7203739737644,0.993776364882239,0.993763950716446,1.97099655069714,80051.8038360773,0,4,-3160.99388229131,6331.98776458263,6358.58046232547,5842.78041390148,1504,513.1,1.24687693023013,20.7394137447101
22,44.3748055985665,0.988917620194836,0.988894451456567,2.4302918988234,42683.2747095938,0,4,-3317.69813031798,6645.39626063596,6671.75477917039,8475.56735385335,1435,513.1,1.24687693023013,20.7394137447101
23,43.7423927905528,0.992424520123419,0.992406454591122,1.90579604748532,54934.6957400806,0,4,-2602.56079263401,5215.12158526802,5240.82385048352,4569.12968686021,1258,513.1,1.24687693023013,20.7394137447101
24,43.1769959991312,0.992157069430332,0.992135323781802,1.64044693041563,45625.5451788797,0,4,-2076.49958820557,4162.99917641114,4187.95045891361,2911.73355429388,1082,513.1,1.24687693023013,20.7394137447101
25,44.1488583540055,0.9842179386561,0.984168875252958,1.85419348884301,20060.12375078,0,4,-1971.25617936248,3952.51235872496,3976.89368178441,3317.70232177543,965,513.1,1.24687693023013,20.7394137447101
26,44.0112015963202,0.961913722676945,0.961785486052961,2.37424691685066,7501.08426748532,0,4,-2041.83437269124,4093.66874538248,4117.65286397385,5022.61014415782,891,513.1,1.24687693023013,20.7394137447101
27,44.2989971375384,0.980784488305086,0.98072655208892,2.13358665738022,16928.6942299132,0,4,-2172.56221580173,4355.12443160345,4379.65820549669,4529.43106442814,995,513.1,1.24687693023013,20.7394137447101
28,47.517932359071,0.98876948667619,0.988735895908521,1.8000197301426,29435.7514075394,0,4,-2018.77932960675,4047.5586592135,4072.1323136771,3249.79124198936,1003,513.1,1.24687693023013,20.7394137447101
29,45.8779394198771,0.991410345589112,0.991388507484678,1.97164014149751,45398.1868510844,0,4,-2481.79689182034,4973.59378364068,4998.9770527179,4587.09052012588,1180,513.1,1.24687693023013,20.7394137447101
30,45.8513450102898,0.990249544262104,0.990228035903859,2.47637319103101,46040.2199445313,0,4,-3170.2976921383,6350.59538427661,6376.68626846862,8340.09688650969,1360,513.1,1.24687693023013,20.7394137447101
31,45.8160943352256,0.990040353443954,0.990020500327896,2.46706950783745,49868.2600012771,0,4,-3501.84938855367,7013.69877710733,7040.29478940117,9160.08009453447,1505,513.1,1.24687693023013,20.7394137447101
32,45.0342021139226,0.99203637142575,0.992021027247379,2.14564713784713,64652.2966220116,0,4,-3404.69220112757,6819.38440225515,6846.14981185773,7168.11915371602,1557,513.1,1.24687693023013,20.7394137447101
33,43.9947127908298,0.99280784495654,0.992793479799995,2.0918230826217,69112.2189901718,0,4,-3246.40094723098,6502.80189446195,6529.38795650375,6572.3371611014,1502,513.1,1.24687693023013,20.7394137447101
34,43.0078019445884,0.990849959491735,0.990830817147575,2.21142362034989,51762.2058841415,0,4,-3179.68008252873,6369.36016505747,6395.71520774887,7012.82561067181,1434,513.1,1.24687693023013,20.7394137447101
35,40.7254984052773,0.982247142593208,0.982206487194567,2.56630156449014,24160.3126623969,0,4,-3100.88222046729,6211.76444093459,6237.66859692981,8627.53387307492,1310,513.1,1.24687693023013,20.7394137447101
36,40.5576117180468,0.971639350706939,0.971559983218245,2.95712959554287,12242.2841733349,0,4,-2691.39385068633,5392.78770137266,5417.69273007627,9374.22775686368,1072,513.1,1.24687693023013,20.7394137447101
37,43.0645027946107,0.979421019797837,0.979360075137811,2.06073149180328,16070.6618000269,0,4,-2176.4095948871,4362.8191897742,4387.44225175445,4301.82026696679,1013,513.1,1.24687693023013,20.7394137447101
38,43.2145074874568,0.968121954562371,0.96801327940747,2.02725247427008,8908.4018830637,0,4,-1877.04349593696,3764.08699187392,3788.00927718711,3616.58228310206,880,513.1,1.24687693023013,20.7394137447101
39,45.4610494452787,0.983371415686913,0.983307295181849,1.39992799483904,15336.3017760986,0,4,-1370.68586834442,2751.37173668883,2774.68101039156,1524.7231479911,778,513.1,1.24687693023013,20.7394137447101
40,46.0792165270403,0.990768564685583,0.990741386760222,1.57845941514673,36454.9004941095,0,4,-1916.51785114391,3843.03570228782,3867.68817611758,2538.87327364539,1019,513.1,1.24687693023013,20.7394137447101
41,44.8311104894862,0.991754191764042,0.991734242227988,1.98714988604823,49713.1456612797,0,4,-2617.41284718074,5244.82569436149,5270.45613072798,4896.46819033066,1240,513.1,1.24687693023013,20.7394137447101
42,44.9064296863965,0.989006494043855,0.988982082113531,2.60193625932672,40513.244175953,0,4,-3216.38547609224,6442.77095218448,6468.82873585105,9146.36767405643,1351,513.1,1.24687693023013,20.7394137447101
43,42.8793207346662,0.987246419565539,0.987220895388552,2.90115699331126,38678.8737623837,0,4,-3731.5217091511,7473.0434183022,7499.61951025097,12616.6511378584,1499,513.1,1.24687693023013,20.7394137447101
44,42.7536540816791,0.989570971134943,0.98955097938632,2.55663361269391,49498.9702897175,0,4,-3697.11880845826,7404.23761691652,7431.02858568018,10229.4275472556,1565,513.1,1.24687693023013,20.7394137447101
45,41.4348929606682,0.993739038288809,0.993726482884308,2.00360610704794,79148.3092564314,0,4,-3168.82804419137,6347.65608838274,6374.22219031819,6005.59839857088,1496,513.1,1.24687693023013,20.7394137447101
46,40.7592313859735,0.993734495697857,0.993720785622797,1.91190577306212,72482.0609218261,0,4,-2840.17579928367,5690.35159856735,5716.48264361785,5011.53103222858,1371,513.1,1.24687693023013,20.7394137447101
47,43.5422258698204,0.988211315364272,0.98818496211993,2.35401550550297,37498.6587053024,0,4,-3060.2293018247,6130.4586036494,6156.48306620042,7436.54403819917,1342,513.1,1.24687693023013,20.7394137447101
48,43.730697243984,0.990160682492907,0.990134721232993,1.89577226849368,38139.931798549,0,4,-2346.81894373394,4703.63788746788,4728.8361892172,4086.32398566627,1137,513.1,1.24687693023013,20.7394137447101
49,45.0332941960872,0.977163731038609,0.977095290672092,2.29824217501774,14277.5934840523,0,4,-2260.33451697292,4530.66903394584,4555.23274804831,5287.19901212528,1001,513.1,1.24687693023013,20.7394137447101
50,44.7789115308517,0.975797826947397,0.975708629749415,1.79432862758942,10939.7811704593,0,4,-1636.91491357533,3283.82982715067,3307.36413883368,2620.76679216256,814,513.1,1.24687693023013,20.7394137447101
51,44.2933358842014,0.978802679689363,0.978732644490099,1.95460621512161,13975.8677061326,0,4,-1903.27968222748,3816.55936445496,3840.63756440533,3469.00079422236,908,513.1,1.24687693023013,20.7394137447101
52,44.9815114825649,0.987085370575704,0.987049059527651,2.0014874912085,27184.1608407,0,4,-2260.83631076231,4531.67262152463,4556.55436187687,4274.35097335419,1067,513.1,1.24687693023013,20.7394137447101
53,46.6362401605485,0.985405690722833,0.985366841629815,2.29684484874102,25364.9600072114,0,4,-2543.28357754377,5096.56715508755,5121.72144246813,5945.48428410508,1127,513.1,1.24687693023013,20.7394137447101
54,45.3771320310349,0.987541811491182,0.987514510858949,2.56998130606308,36172.855012174,0,4,-3242.17249918185,6494.3449983637,6520.46876539254,9041.97655760022,1369,513.1,1.24687693023013,20.7394137447101
55,44.910965422246,0.987549648154295,0.987524664170658,2.77178438904566,39527.3092757346,0,4,-3653.20364163442,7316.40728326885,7342.97005075936,11485.7691055391,1495,513.1,1.24687693023013,20.7394137447101
56,45.2289961976014,0.988262909324295,0.988240177709042,2.70357011725622,43475.2611426393,0,4,-3746.18108758922,7502.36217517843,7529.10189429418,11322.0923459484,1549,513.1,1.24687693023013,20.7394137447101
57,43.4136777420552,0.986838808151273,0.98681283211473,2.80917444212364,37990.3533973388,0,4,-3734.58504187882,7479.17008375764,7505.81555243887,11995.0207903466,1520,513.1,1.24687693023013,20.7394137447101
58,42.0969461558312,0.988066696322263,0.988040848011047,2.69513538892235,38225.5803132237,0,4,-3346.02462071554,6702.04924143107,6728.23093814484,10060.300349001,1385,513.1,1.24687693023013,20.7394137447101
59,42.7956387268701,0.98991959085266,0.989897140052778,2.21226331837129,44092.8428396324,0,4,-2987.69876638093,5985.39753276187,6011.44053445167,6592.3648092756,1347,513.1,1.24687693023013,20.7394137447101
60,42.6187560869978,0.984520929808521,0.98448150942603,2.31734202405403,24974.920779434,0,4,-2668.55939872497,5347.11879744993,5372.49361343976,6325.94723849435,1178,513.1,1.24687693023013,20.7394137447101
61,43.3564877183394,0.986628611011664,0.98659094512719,1.8370995994426,26194.2238921232,0,4,-2164.99453772281,4339.98907544562,4364.86147000075,3594.30570925985,1065,513.1,1.24687693023013,20.7394137447101
62,43.1039510466137,0.975101154525669,0.975023988682257,2.00206346952687,12636.4348707645,0,4,-2051.94551643783,4113.89103287566,4138.28781189796,3879.99387566151,968,513.1,1.24687693023013,20.7394137447101
63,42.8735640483616,0.975351133625941,0.975273945109112,2.04593848049236,12635.9615872236,0,4,-2051.66874751061,4113.33749502122,4137.68256727455,4010.05796678908,958,513.1,1.24687693023013,20.7394137447101
64,43.7844868880632,0.98250767103991,0.982455867499061,2.18228616767581,18966.0331115091,0,4,-2234.69591433326,4479.39182866653,4504.01489064677,4824.28376555833,1013,513.1,1.24687693023013,20.7394137447101
65,35.9539408886907,0.651208214044281,0.64891353124194,12.4754535985961,283.790079125594,6.99209611308362e-104,4,-1811.63395961065,3633.26791922129,3653.92405166871,70970.4457757707,456,513.1,1.24687693023013,20.7394137447101
66,37.1585532832226,0.855953937186473,0.853381686064803,7.85554237748436,332.764530638328,1.98288393046851e-70,4,-596.563527632841,1203.12705526568,1218.86452764975,10367.2037354681,168,513.1,1.24687693023013,20.7394137447101
91,NA,NA,NA,NA,NA,NA,NA,NA,NA,NA,NA,NA,513.1,1.24687693023013,20.7394137447101
