"Age","power_predict","r.squared","adj.r.squared","sigma","statistic","p.value","df","logLik","AIC","BIC","deviance","df.residual","GHI","Wind_speed","Ambient_temp"
0,79.9022948857047,0.414496386517556,0.36702312055952,18.0837086674257,8.73115380104564,0.000165089595171193,4,-174.767539536075,359.535079072151,368.102939405672,12099.7592092281,37,550.4,2.68482038773939,24.1200362916529
1,53.9613075367449,0.658054744735164,0.657317263954578,13.2643056091943,892.300873539609,1.48219693752374e-323,4,-5583.59829182955,11177.1965836591,11203.3998321304,244735.048382099,1391,550.4,2.68482038773939,24.1200362916529
2,56.2203384217632,0.768099547734852,0.767533936875668,11.1260134469353,1358.00000170426,0,4,-4722.02572705873,9454.05145411745,9479.64153513978,152259.455522305,1230,550.4,2.68482038773939,24.1200362916529
3,59.5548751021431,0.737759750903804,0.737075050514519,10.0079054551405,1077.49281649174,0,4,-4289.82440262858,8589.64880525716,8614.8994178585,115081.739167288,1149,550.4,2.68482038773939,24.1200362916529
4,58.8267302596296,0.707539366407261,0.706708512334554,9.19549219610901,851.580788552114,2.6467997047619e-281,4,-3853.90725050176,7717.81450100352,7742.64462193905,89292.273025509,1056,550.4,2.68482038773939,24.1200362916529
5,61.859773570981,0.74462209928673,0.743868030682262,9.43443273859913,987.472618372373,1.55218792935475e-300,4,-3734.56674701388,7479.13349402776,7503.77128355915,90432.6574367375,1016,550.4,2.68482038773939,24.1200362916529
6,57.4259642792198,0.722823089401197,0.7220664645315,9.99918984878782,955.325575924005,1.40411014980787e-305,4,-4102.74756113384,8215.49512226767,8240.52406736394,109882.193597679,1099,550.4,2.68482038773939,24.1200362916529
7,59.6428542369307,0.728963157545062,0.728296673506238,11.5077571933461,1093.74435857717,0,4,-4725.03561767452,9460.07123534905,9485.62063266441,161562.74025763,1220,550.4,2.68482038773939,24.1200362916529
8,56.2793485093534,0.771732113188429,0.771227839506224,11.4588017211635,1530.38348107633,0,4,-5252.17993168683,10514.3598633737,10540.4434108072,178311.017889749,1358,550.4,2.68482038773939,24.1200362916529
9,57.4153360175648,0.765670193702372,0.765195200851768,11.8356973395288,1611.96151211513,0,4,-5770.84440494455,11551.6888098891,11578.2012920077,207323.922639135,1480,550.4,2.68482038773939,24.1200362916529
10,56.2742185202881,0.768225427224421,0.767785348921682,11.234423609735,1745.65622173155,0,4,-6077.26454742775,12164.5290948555,12191.3676377174,199415.392671896,1580,550.4,2.68482038773939,24.1200362916529
11,51.2925488098662,0.760758370453313,0.76031091104643,10.3462878685286,1700.17292909996,0,4,-6036.94816459165,12083.8963291833,12110.810061432,171701.258944173,1604,550.4,2.68482038773939,24.1200362916529
12,47.9763156527026,0.757737104876084,0.756946257557943,10.8036328176533,958.133242023352,2.53334201582851e-282,4,-3504.30742084947,7018.61484169894,7042.75298787145,107264.285011922,919,550.4,2.68482038773939,24.1200362916529
13,48.7112193803254,0.770083859486401,0.769590829878438,10.5507702696323,1561.94242099872,0,4,-5294.51491826291,10599.0298365258,10625.2616769263,155734.935842298,1399,550.4,2.68482038773939,24.1200362916529
14,57.4008774722872,0.693243315024243,0.692521534589006,11.7347848393753,960.462879264026,0,4,-4962.43028505349,9934.86057010698,9960.62973911487,175574.098413701,1275,550.4,2.68482038773939,24.1200362916529
15,56.902632817556,0.693038855445115,0.692090468798705,10.3698129969793,730.755602757713,1.97448861464651e-248,4,-3661.88747033077,7333.77494066154,7358.18712801653,104414.563966144,971,550.4,2.68482038773939,24.1200362916529
16,60.8132337314573,0.703570390464815,0.702707003252577,9.74074932210958,814.895542222302,2.35570216169543e-271,4,-3818.8914256091,7647.78285121821,7672.48880149355,97728.6632768635,1030,550.4,2.68482038773939,24.1200362916529
17,56.7638768576054,0.698355617351653,0.697435034291688,9.87682028738162,758.601420906692,3.10948223813931e-255,4,-3658.90641715749,7327.81283431498,7352.28618451215,95893.2021464163,983,550.4,2.68482038773939,24.1200362916529
18,65.9146864561576,0.654622974415479,0.653600140183738,11.0514352406635,640.00886370538,2.87684988177983e-233,4,-3884.46037554567,7778.92075109134,7803.54381307158,123721.96575,1013,550.4,2.68482038773939,24.1200362916529
19,60.8341127317229,0.716654082380914,0.715916842352416,11.3579972645441,972.07700976541,4.18473306082214e-315,4,-4451.12828812421,8912.25657624841,8937.52450488438,148741.729446184,1153,550.4,2.68482038773939,24.1200362916529
20,59.8369224095022,0.739417211562492,0.738816328883543,11.7717638078948,1230.55171577906,0,4,-5067.4551294164,10144.9102588328,10170.7800504316,180285.32451667,1301,550.4,2.68482038773939,24.1200362916529
21,57.8324903417232,0.770435771761594,0.769968544702765,11.6423690634408,1648.95366653442,0,4,-5723.16254400932,11456.3250880186,11482.8173135262,199792.972421403,1474,550.4,2.68482038773939,24.1200362916529
22,55.8053997754464,0.791666515995385,0.791264844753731,11.6259269604481,1970.93153280077,0,4,-6038.59233475631,12087.1846695126,12113.9468750138,210312.348485131,1556,550.4,2.68482038773939,24.1200362916529
23,57.2013938082938,0.737056984393578,0.73656793972723,11.0977164023064,1507.13633152917,0,4,-6184.11867167763,12378.2373433553,12405.1789826531,198655.965975132,1613,550.4,2.68482038773939,24.1200362916529
24,43.7033446236113,0.805837863436385,0.805454900642374,10.4475599119592,2104.21972065798,0,4,-5740.09052168397,11490.1810433679,11516.8297918131,166019.443841359,1521,550.4,2.68482038773939,24.1200362916529
25,54.7971013154474,0.735413710426684,0.734868171685296,11.1118572038063,1348.05038512061,0,4,-5581.51918248631,11173.0383649726,11199.4658977152,179653.754103371,1455,550.4,2.68482038773939,24.1200362916529
26,53.4030173820729,0.730044936076578,0.72942387381295,10.3658452918562,1175.4778527559,0,4,-4912.74785104495,9835.4957020899,9861.37697474998,140115.776193565,1304,550.4,2.68482038773939,24.1200362916529
27,57.623995011184,0.709028703498481,0.708293308477837,10.5476012627239,964.146728757376,1.44538954097421e-317,4,-4493.82749952458,8997.65499904916,9023.06774189594,132055.996275731,1187,550.4,2.68482038773939,24.1200362916529
28,60.6076367586043,0.729273636534679,0.728489679883717,9.20828214771915,930.247400338246,2.46808064220757e-293,4,-3782.59966352559,7575.19932705119,7599.93420701186,87844.9886760353,1036,550.4,2.68482038773939,24.1200362916529
29,65.2017827004165,0.760446564400588,0.759683655370017,9.21837927954769,996.772267633347,1.06787991019634e-291,4,-3441.5660922069,6893.13218441379,6917.39339725905,80049.7625821817,942,550.4,2.68482038773939,24.1200362916529
30,62.8099856546232,0.664596288250571,0.663641628729462,10.1565273810274,696.16054054426,1.99259995441245e-249,4,-3951.80053062579,7913.60106125158,7938.42173931367,108725.421057403,1054,550.4,2.68482038773939,24.1200362916529
31,57.7432765359611,0.799122916932986,0.798594293030178,10.2837692248401,1511.70409186612,0,4,-4287.43065249587,8584.86130499173,8610.07273585143,120561.736795536,1140,550.4,2.68482038773939,24.1200362916529
32,58.8664673248572,0.746261619402953,0.745684066184599,11.784447739905,1292.10884068694,0,4,-5134.91776011216,10279.8355202243,10305.7700253264,183034.88884854,1318,550.4,2.68482038773939,24.1200362916529
33,55.8762556948784,0.794202406116572,0.79377395866227,11.6350170965757,1853.67516632587,0,4,-5594.42124680013,11198.8424936003,11225.221816603,195073.390508996,1441,550.4,2.68482038773939,24.1200362916529
34,54.4068162153115,0.78694292962814,0.786529226578875,10.8901766543793,1902.19272259373,0,4,-5894.73013571522,11799.4602714304,11826.1870956325,183230.738985745,1545,550.4,2.68482038773939,24.1200362916529
35,52.0811841212316,0.833169123747091,0.832850744212257,10.1453849418404,2616.90539934368,0,4,-5885.8663984459,11781.7327968918,11808.5460232439,161804.129591687,1572,550.4,2.68482038773939,24.1200362916529
36,52.9263099159074,0.809322173631987,0.80895406972008,10.6290975021206,2198.62421303381,0,4,-5891.18512121322,11792.3702424264,11819.1260335586,175567.367104696,1554,550.4,2.68482038773939,24.1200362916529
37,53.1566107103082,0.76978605146763,0.769318453738722,10.8151190672593,1646.25703650304,0,4,-5625.62490881771,11261.2498176354,11287.7521817068,172759.964248396,1477,550.4,2.68482038773939,24.1200362916529
38,53.7307379187089,0.723865518875062,0.723242659143201,10.7598538401468,1162.16458031819,0,4,-5060.20750811664,10130.4150162333,10156.3947023657,153980.024699557,1330,550.4,2.68482038773939,24.1200362916529
39,56.8272430792524,0.70385323402124,0.703116550523781,11.1862061788183,955.435049717316,4.84722864478389e-318,4,-4636.67684008077,9283.35368016155,9308.8455583545,150908.237662089,1206,550.4,2.68482038773939,24.1200362916529
40,56.7371296419832,0.666977618833751,0.666058513825933,10.2342580899658,725.681628497271,6.26489283206966e-259,4,-4083.44139965232,8176.88279930465,8201.85704923381,113852.422014758,1087,550.4,2.68482038773939,24.1200362916529
41,65.6405095133867,0.701283071246868,0.70037327349432,9.51374356764199,770.812050571831,7.71954272794838e-258,4,-3629.28348650973,7268.56697301945,7293.05044467757,89153.6469207867,985,550.4,2.68482038773939,24.1200362916529
42,68.8137135736274,0.766006583807823,0.765271525955911,9.08582607065055,1042.10380423078,1.34671133102689e-300,4,-3474.99815467762,6959.99630935524,6984.32576472965,78837.3847937382,955,550.4,2.68482038773939,24.1200362916529
43,67.7741342786172,0.8167809222687,0.816277573154053,9.66890850156037,1622.69267691558,0,4,-4039.88428336298,8089.76856672596,8114.7656790635,102088.668439809,1092,550.4,2.68482038773939,24.1200362916529
44,62.1756728491179,0.765552391626362,0.76499594951788,11.5812301072507,1375.79881169523,0,4,-4903.03195808713,9816.06391617427,9841.78989684925,169533.861967521,1264,550.4,2.68482038773939,24.1200362916529
45,56.7215987225165,0.777161535446528,0.776684365286884,12.1176191990254,1628.68846624295,0,4,-5496.60382526014,11003.2076505203,11029.4466134291,205718.209768676,1401,550.4,2.68482038773939,24.1200362916529
46,56.5971735627042,0.751006652485004,0.750318825558167,12.1835618080304,1091.85410338402,0,4,-4269.73486140702,8549.46972281404,8574.43938769016,161204.947666486,1086,550.4,2.68482038773939,24.1200362916529
47,52.3197940755308,0.75590625553548,0.755444539751499,10.9975564664495,1637.16788934143,0,4,-6066.40999069078,12142.8199813816,12169.6774278576,191820.749697134,1586,550.4,2.68482038773939,24.1200362916529
48,49.6159933646599,0.742877238393826,0.74238086240617,10.5419315325563,1496.60188419026,0,4,-5878.35576391239,11766.7115278248,11793.4673189569,172699.62595926,1554,550.4,2.68482038773939,24.1200362916529
49,45.9578884615858,0.709869507224203,0.709274571148791,10.9982367119715,1193.18618682336,0,4,-5597.05728443357,11204.1145688671,11230.5694427579,176966.251360251,1463,550.4,2.68482038773939,24.1200362916529
50,53.3593304444749,0.662647330523089,0.661894311171578,10.7211403080422,879.987120109811,1.77720225008487e-316,4,-5108.47538917956,10226.9507783591,10252.9826648165,154483.189734354,1344,550.4,2.68482038773939,24.1200362916529
51,52.3818015745837,0.78001461563312,0.779462351069856,10.3193601161083,1412.39302232771,0,4,-4497.79604066032,9005.59208132064,9031.03829709578,127254.585881084,1195,550.4,2.68482038773939,24.1200362916529
52,58.358906508125,0.712713535185606,0.711934981080418,10.2360096192459,915.432248621244,3.375725488726e-299,4,-4158.52517565174,8327.05035130349,8352.11543025169,115986.913468301,1107,550.4,2.68482038773939,24.1200362916529
53,56.8202404134675,0.764194578756883,0.76344993005822,9.29719740183525,1026.24845800377,1.97667490113703e-297,4,-3478.80935814478,6967.61871628956,6991.92203464681,82115.9855522575,950,550.4,2.68482038773939,24.1200362916529
54,59.8549290644751,0.716746026492099,0.715916990472076,9.39463466128563,864.553540716007,3.7642184267973e-280,4,-3763.18662252191,7536.37324504382,7561.05495872299,90465.6394295051,1025,550.4,2.68482038773939,24.1200362916529
55,59.5513807277801,0.691488828472862,0.690676956968843,10.9770245773539,851.722009024797,1.71850304564832e-290,4,-4362.06242657117,8734.12485314234,8759.33628400204,137364.378171887,1140,550.4,2.68482038773939,24.1200362916529
56,54.4648505223223,0.798944088178471,0.798464241133551,11.0516989779705,1664.99741248063,0,4,-4816.93694968845,9643.8738993769,9669.57220105672,153530.04322669,1257,550.4,2.68482038773939,24.1200362916529
57,54.7272500519642,0.782822868029312,0.782359144615851,11.6630486399467,1688.12452704832,0,4,-5458.38523089046,10926.7704617809,10953.0236393404,191117.518526756,1405,550.4,2.68482038773939,24.1200362916529
58,54.7568562821987,0.778938936168872,0.778504346921497,12.1614438100731,1792.35666983209,0,4,-5991.32736078057,11992.6547215611,12019.3198366331,225696.491922531,1526,550.4,2.68482038773939,24.1200362916529
59,55.2461036124167,0.757757998498748,0.757300362475761,10.766881863166,1655.80933413509,0,4,-6040.29571449596,12090.5914289919,12117.4551608239,184090.083147931,1588,550.4,2.68482038773939,24.1200362916529
60,50.6940620390974,0.770370527266703,0.769935348228042,11.2063952049159,1770.23812920213,0,4,-6084.81401271854,12179.6280254371,12206.4760290397,198798.353592711,1583,550.4,2.68482038773939,24.1200362916529
61,46.3370509138605,0.766317470430438,0.765849481385906,11.2306233598516,1637.46882407695,0,4,-5762.04671105543,11534.0934221109,11560.6661862725,188938.097774166,1498,550.4,2.68482038773939,24.1200362916529
62,45.914380948179,0.750595898868262,0.750041667532414,10.8790599024278,1354.30072303544,0,4,-5151.02094599632,10312.0418919926,10338.09598426,159777.824886826,1350,550.4,2.68482038773939,24.1200362916529
63,51.259403012936,0.74086620776178,0.740235711916918,10.5104152559701,1175.05327560742,0,4,-4663.10132625948,9336.20265251896,9361.80487438092,136208.065975661,1233,550.4,2.68482038773939,24.1200362916529
64,53.8787200772007,0.729594397975188,0.728872674838111,9.97815837786114,1010.90620557097,1.41942095656315e-318,4,-4193.40866634737,8396.81733269475,8421.95833985504,111909.536545777,1124,550.4,2.68482038773939,24.1200362916529
65,59.1786723512127,0.748419718817734,0.747668732903757,8.82997496867564,996.582898412049,1.51549698179032e-300,4,-3627.46055459947,7264.92110919895,7289.50468430071,78358.3002371756,1005,550.4,2.68482038773939,24.1200362916529
66,58.735019702396,0.67896567013389,0.678052776304887,8.71195291180687,743.750969239537,1.08616701403572e-259,4,-3793.06516346992,7596.13032693984,7620.95572866785,80072.520332105,1055,550.4,2.68482038773939,24.1200362916529
67,61.8607413957415,0.771302005468643,0.770677147560087,9.7938234373759,1234.36383681457,0,4,-4076.15724690562,8162.31449381125,8187.33890375981,105319.037319698,1098,550.4,2.68482038773939,24.1200362916529
68,56.2049615842304,0.759523856892575,0.758937329714264,11.0739424889183,1294.95083088906,0,4,-4716.23691556607,9442.47383113215,9468.06391215447,150837.608764881,1230,550.4,2.68482038773939,24.1200362916529
69,56.4119440780831,0.771166782631825,0.770666053490976,11.4247886108377,1540.08768358014,0,4,-5298.24254054,10606.48508108,10632.6161261305,178950.86467399,1371,550.4,2.68482038773939,24.1200362916529
70,55.2556577171442,0.765937464388342,0.765468401190723,10.9119335991408,1632.90888792177,0,4,-5714.99944966199,11439.998899324,11466.5683334821,178248.23142347,1497,550.4,2.68482038773939,24.1200362916529
71,57.0126348255329,0.743610961821295,0.74312751297495,10.5418886297766,1538.13783493747,0,4,-6017.99840716918,12045.9968143384,12072.8699594145,176810.082669238,1591,550.4,2.68482038773939,24.1200362916529
72,50.4163155040887,0.777080226218595,0.7766590931447,10.8995304402534,1845.21300840303,0,4,-6059.78940549712,12129.5788109942,12156.4425428263,188654.024943,1588,550.4,2.68482038773939,24.1200362916529
73,47.443132370328,0.786630416015192,0.786198785029384,10.2043727777315,1822.46048564197,0,4,-5561.98678992752,11133.973579855,11160.4961595873,154423.638875985,1483,550.4,2.68482038773939,24.1200362916529
74,48.9852572007855,0.76937243828504,0.768862200316644,10.5876189564198,1507.86982925589,0,4,-5136.92546003898,10283.850920078,10309.9271199716,152004.447525556,1356,550.4,2.68482038773939,24.1200362916529
75,51.5925280896326,0.713818721231838,0.713132435191626,10.3274462977223,1040.11837543998,0,4,-4708.94499076549,9427.88998153098,9453.56443578881,133426.839937456,1251,550.4,2.68482038773939,24.1200362916529
76,56.7182590844813,0.698662672130235,0.697886696178639,10.0696475725244,900.366397558176,8.05396999977911e-303,4,-4356.5712688295,8723.142537659,8748.46205746636,118128.439603596,1165,550.4,2.68482038773939,24.1200362916529
77,56.9569153013717,0.758309097613456,0.757601709606471,8.42334775339774,1071.98466771508,1.8560206809043e-315,4,-3650.89041093941,7311.78082187883,7336.462535558,72726.6070590375,1025,550.4,2.68482038773939,24.1200362916529
78,54.9906952996619,0.760451433593086,0.759732068528801,8.82912071945352,1057.11476877028,2.23775359674942e-309,4,-3605.78094731302,7221.56189462605,7246.11564856586,77875.4193060048,999,550.4,2.68482038773939,24.1200362916529
79,57.5893400509564,0.739058380219719,0.738334212912281,10.2033760184686,1020.56302822349,9.89276559070638e-315,4,-4057.69434559274,8125.38869118548,8150.33536751535,112541.701630376,1081,550.4,2.68482038773939,24.1200362916529
80,59.3886025535105,0.740854555638965,0.740209915230107,11.0506290736542,1149.25242888678,0,4,-4621.92201295274,9253.84402590549,9279.33590409844,147272.381925731,1206,550.4,2.68482038773939,24.1200362916529
81,54.0682611798858,0.782711629630983,0.78222588811749,11.0964123723091,1611.37479068469,0,4,-5147.20129324244,10304.4025864849,10330.4270490359,165240.95323376,1342,550.4,2.68482038773939,24.1200362916529
82,54.7230120557953,0.754056255322042,0.75355805732472,11.6792047363382,1513.56741571701,0,4,-5754.96870620746,11519.9374124149,11546.4532626711,202014.062267763,1481,550.4,2.68482038773939,24.1200362916529
83,54.3995835997196,0.760361926300416,0.759905762454541,10.7342472101045,1666.86144282692,0,4,-5989.95444694579,11989.9088938916,12016.7347945217,181593.123552194,1576,550.4,2.68482038773939,24.1200362916529
84,53.9126753627423,0.793521119699849,0.793126574068702,10.3702226484681,2011.2277441608,0,4,-5912.89589277301,11835.791785546,11862.5986626909,168840.182912716,1570,550.4,2.68482038773939,24.1200362916529
85,44.6887102482648,0.809185849054673,0.808753817014797,9.76299320476793,1872.97647944473,0,4,-4912.02441127864,9834.04882255728,9860.00973285085,126293.748119157,1325,550.4,2.68482038773939,24.1200362916529
86,42.1170059528943,0.828024461030251,0.827641442012501,9.7627390331526,2161.83641714291,0,4,-4993.33511432193,9996.67022864387,10022.7132303337,128384.015909458,1347,550.4,2.68482038773939,24.1200362916529
87,52.9132710649346,0.708156332774666,0.707457584968061,11.0115764720281,1013.46483821599,0,4,-4797.07908461671,9604.15816923342,9629.84058527637,151932.284948351,1253,550.4,2.68482038773939,24.1200362916529
88,56.2717302503098,0.704227196911982,0.703474594359595,9.92198522562633,935.722573194291,3.10359245763205e-311,4,-4391.29372427466,8792.58744854932,8817.96649286921,116067.587373888,1179,550.4,2.68482038773939,24.1200362916529
89,53.647159248514,0.748561144452506,0.747815772351081,9.05864728388455,1004.2784577274,9.13901481669314e-303,4,-3678.61692169707,7367.23384339413,7391.85198653483,83043.7997011948,1012,550.4,2.68482038773939,24.1200362916529
90,57.0689543377302,0.669231541086419,0.668260596490782,8.97950499207026,689.258217300797,6.26313231950827e-245,4,-3705.84034738002,7421.68069476004,7446.3478098887,82405.4031204722,1022,550.4,2.68482038773939,24.1200362916529
91,56.4396533464332,0.743983962992759,0.743264816821391,9.04298646329608,1034.53789036634,2.32873995866219e-315,4,-3879.63109039495,7769.26218078989,7794.14858749804,87336.3452592804,1068,550.4,2.68482038773939,24.1200362916529
92,56.3141103998847,0.783260235245896,0.782708734572221,9.86983880100272,1420.23441245711,0,4,-4385.05990135932,8780.11980271863,8805.49884703853,114850.773472221,1179,550.4,2.68482038773939,24.1200362916529
93,56.225395537429,0.739644620262874,0.739055136384224,11.2287491233901,1254.73256699851,0,4,-5097.92272682447,10205.8454536489,10231.8063639425,167062.369110744,1325,550.4,2.68482038773939,24.1200362916529
94,52.0507947724433,0.786777484006449,0.786340850867896,11.248114247796,1801.91885254793,0,4,-5637.69250039932,11285.3850007986,11311.8466866795,185351.908602606,1465,550.4,2.68482038773939,24.1200362916529
95,53.7426122667954,0.758158776313038,0.757693100015823,10.7274101480073,1628.08109591863,0,4,-5920.69640069856,11851.3928013971,11878.1614130491,179290.477777402,1558,550.4,2.68482038773939,24.1200362916529
96,51.2240676873958,0.75530974939235,0.754851241739743,10.4249064591971,1647.3220132721,0,4,-6037.83131025685,12085.6626205137,12112.5670156915,173994.558167499,1601,550.4,2.68482038773939,24.1200362916529
97,39.7539029901349,0.820088806071885,0.819725837960395,9.74347481015297,2259.39629436684,0,4,-5508.0420012223,11026.0840024446,11052.6200140184,141168.793146239,1487,550.4,2.68482038773939,24.1200362916529
98,48.8559127661078,0.75149637584,0.750983291963551,10.4402580654645,1464.66574050509,0,4,-5483.03086412604,10976.0617282521,11002.4824022831,158375.530251989,1453,550.4,2.68482038773939,24.1200362916529
99,46.2775616362782,0.742775758377137,0.741889796580503,9.44422505751041,838.383507278503,3.15322036317715e-256,4,-3204.29464961518,6418.58929923036,6442.46041866214,77687.4400220464,871,550.4,2.68482038773939,24.1200362916529
