"Age","power_predict","r.squared","adj.r.squared","sigma","statistic","p.value","df","logLik","AIC","BIC","deviance","df.residual","GHI","Wind_speed","Ambient_temp"
0,26.6060400822486,0.994226165189155,0.993648781708071,0.8581463944769,1721.95117761557,1.18007438796904e-33,4,-40.9147972808253,91.8295945616505,99.4613971847313,22.0924570306111,30,442,1.19667117577495,20.9660235570515
1,25.7825365284418,0.969362271923389,0.969270082169898,1.83352582404245,10514.8591380639,0,4,-2025.20049884048,4060.40099768096,4084.94477157753,3351.73149658825,997,442,1.19667117577495,20.9660235570515
2,26.3670299695447,0.990240483387679,0.990215001621067,1.39193538767045,38860.7469204658,0,4,-2015.32415248272,4040.64830496545,4065.89891756679,2226.16925784324,1149,442,1.19667117577495,20.9660235570515
3,25.730101636959,0.972808256618363,0.972739358619929,2.63200613859902,14119.5430744117,0,4,-2833.37826162356,5676.75652324711,5702.15665574672,8202.10827532954,1184,442,1.19667117577495,20.9660235570515
4,25.3466501052893,0.972148453690474,0.972066936969568,2.68716413038573,11925.7551443012,0,4,-2475.23637011484,4960.47274022969,4985.15445390886,7401.37234022248,1025,442,1.19667117577495,20.9660235570515
5,25.3642145088861,0.985319230200766,0.985285814184531,2.04359987257347,29486.436182939,0,4,-2818.68415773214,5647.36831546429,5673.30282056635,5504.36397884227,1318,442,1.19667117577495,20.9660235570515
6,24.926325876307,0.9942835663198,0.994272102883276,1.20172819478066,86735.2093063736,0,4,-2402.04615299812,4814.09230599624,4840.65840793169,2160.44937857966,1496,442,1.19667117577495,20.9660235570515
7,24.4110024834946,0.993222151077281,0.993206127793776,1.22582969652278,61986.1809692186,0,4,-2063.5112136201,4137.02242724019,4162.76808523298,1906.87356654909,1269,442,1.19667117577495,20.9660235570515
8,24.5440635310533,0.970774159085975,0.970707635927597,2.42068933726822,14593.0256884563,0,4,-3042.55091538709,6095.10183077419,6121.03633587624,7723.13319144942,1318,442,1.19667117577495,20.9660235570515
9,23.6800318158622,0.945242281230123,0.945098685813769,2.95222637441837,6582.67725549184,0,4,-2869.71635173976,5749.43270347952,5774.66158636392,9970.69280728828,1144,442,1.19667117577495,20.9660235570515
10,24.3692438961,0.69697078671658,0.696105812749073,6.03422594281052,805.770824207645,7.16046957164122e-272,4,-3391.28355360785,6792.56710721569,6817.37358744524,38268.8887480608,1051,442,1.19667117577495,20.9660235570515
11,25.9305794258937,0.734322013322844,0.733507882618011,5.54920896489583,901.970665107771,3.57124373802649e-281,4,-3077.33574503536,6164.67149007071,6189.12453567145,30147.0520132226,979,442,1.19667117577495,20.9660235570515
12,25.7847736918677,0.97865818050376,0.978590997441337,1.50085702166515,14567.0373634947,0,4,-1744.4967170058,3498.9934340116,3523.31245096887,2146.70092490595,953,442,1.19667117577495,20.9660235570515
13,25.3905511148192,0.985116849045541,0.985074647294252,1.37879745261904,23343.0324326564,0,4,-1846.03578032843,3702.07156065686,3726.91110666587,2011.34519543899,1058,442,1.19667117577495,20.9660235570515
14,25.9404041594087,0.989506731833334,0.989479020737823,1.40863978916793,35707.9615079159,0,4,-2006.17839813166,4022.35679626331,4047.55071397026,2254.12623919235,1136,442,1.19667117577495,20.9660235570515
15,25.5861274139827,0.991782165088781,0.991762410677937,1.34704526699354,50205.6058723809,0,4,-2147.49554717992,4304.99109435984,4330.65358211814,2264.53462725946,1248,442,1.19667117577495,20.9660235570515
16,24.9019744338361,0.989599783674998,0.989577321004749,1.55310665766945,44055.3047670789,0,4,-2587.85680759751,5185.71361519502,5211.90969006392,3350.46286294499,1389,442,1.19667117577495,20.9660235570515
17,24.5341966103969,0.990791615754506,0.990772065044855,1.48854678358001,50678.0384679034,0,4,-2572.31614238432,5154.63228476864,5180.91377096709,3130.88516751872,1413,442,1.19667117577495,20.9660235570515
18,24.1440716779269,0.993677145542366,0.993663420098536,1.20962654750141,72396.7223106263,0,4,-2228.41789498248,4466.83578996496,4493.00667586371,2022.1374032687,1382,442,1.19667117577495,20.9660235570515
19,22.2408197723707,0.99309556924087,0.993080858095786,1.17654226136878,67506.3405066397,0,4,-2231.10111858779,4472.20223717558,4498.46604926585,1949.02638344375,1408,442,1.19667117577495,20.9660235570515
20,21.1210497862311,0.993314648373561,0.993299511728369,1.01610184056648,65623.170509579,0,4,-1904.99518382502,3819.99036765005,3845.95127794361,1368.01340928344,1325,442,1.19667117577495,20.9660235570515
21,19.2438092078125,0.992927730054091,0.992910536529101,0.889039945960522,57750.0966572278,0,4,-1609.03763483269,3228.07526966537,3253.68153193159,975.343759483643,1234,442,1.19667117577495,20.9660235570515
22,23.6362021327617,0.901464869584657,0.901196625127991,3.55486974520301,3360.6095007093,0,4,-2970.1025678473,5950.20513569461,5975.24766160502,13926.0829937064,1102,442,1.19667117577495,20.9660235570515
23,25.3620857377159,0.975332861752081,0.975257657062301,1.63478964072378,12969.0430823151,0,4,-1885.52317759503,3781.04635519006,3805.5247686788,2629.7765747071,984,442,1.19667117577495,20.9660235570515
24,25.584163480372,0.976555425893103,0.976482691950682,1.47483562033459,13426.4057934101,0,4,-1753.0638750169,3516.12775003379,3540.51938237525,2103.36048347645,967,442,1.19667117577495,20.9660235570515
25,25.6341059099651,0.979021290767885,0.978955595436261,1.6108551011545,14902.4484169226,0,4,-1821.66278015309,3653.32556030618,3677.67063255951,2485.87028232503,958,442,1.19667117577495,20.9660235570515
26,26.1561143981129,0.991194157086378,0.99116987626952,1.17196461922732,40822.1091945561,0,4,-1720.75740682672,3451.51481365344,3476.49364443496,1494.36916276805,1088,442,1.19667117577495,20.9660235570515
27,25.320493825817,0.99049313054842,0.99047022242926,1.4540806915529,43237.6452912447,0,4,-2237.84398696417,4485.68797392833,4511.33846647896,2632.36656864595,1245,442,1.19667117577495,20.9660235570515
28,25.6343437988196,0.992123497043117,0.992106714721476,1.41080878891344,59117.1780794765,0,4,-2487.4967371883,4984.99347437659,5011.25728646686,2802.45706593658,1408,442,1.19667117577495,20.9660235570515
29,25.5593769454944,0.992364509666614,0.992348378349009,1.41592027667244,61517.8830347525,0,4,-2513.80393829107,5037.60787658214,5063.914002042,2846.85892644685,1420,442,1.19667117577495,20.9660235570515
30,25.2690548259975,0.988946455404354,0.988920426649419,1.69220120323892,37994.3819011503,0,4,-2483.66686441616,4977.33372883232,5003.098987007,3648.15621819789,1274,442,1.19667117577495,20.9660235570515
31,24.6420134541388,0.99447839160841,0.99446668501818,1.09611501306034,84950.3033855821,0,4,-2141.69559546048,4293.39119092096,4319.67972930676,1700.07739242661,1415,442,1.19667117577495,20.9660235570515
32,23.5672830405549,0.99287960323102,0.992864079110158,1.20327581661912,63957.2193503689,0,4,-2211.49807655947,4432.99615311894,4459.1453470097,1992.27282262392,1376,442,1.19667117577495,20.9660235570515
33,23.2980720119458,0.966279591962246,0.966199432513662,2.46983731678887,12054.4690492382,0,4,-2939.02980939379,5888.05961878757,5913.77770680109,7698.32162071038,1262,442,1.19667117577495,20.9660235570515
34,25.5381448764228,0.987679078380213,0.98764273347868,1.377748945342,27175.1755187842,0,4,-1773.91275303364,3557.82550606729,3582.46819515811,1930.46142304963,1017,442,1.19667117577495,20.9660235570515
35,25.6707008951314,0.978415029853974,0.978336156637849,1.57438690114119,12404.9085092665,0,4,-1543.05881576513,3096.11763153026,3119.69454846193,2035.00786799216,821,442,1.19667117577495,20.9660235570515
36,24.079868480377,0.974063811151712,0.973958379489727,1.43797521233402,9238.8168109416,0,4,-1320.36810934131,2650.73621868262,2673.78296489845,1526.01626092985,738,442,1.19667117577495,20.9660235570515
37,25.4915095508925,0.98146027505947,0.981406588597287,1.38139829728251,18281.336395644,0,4,-1809.7123133605,3629.424626721,3654.15950668167,1976.95866094147,1036,442,1.19667117577495,20.9660235570515
38,24.9306369432174,0.982339923969034,0.982291847537008,1.59407858339445,20432.8791170114,0,4,-2083.06563412819,4176.13126825637,4201.17379416679,2800.2773561006,1102,442,1.19667117577495,20.9660235570515
39,25.9712956998399,0.988539867337915,0.988512073968484,1.55039957470071,35567.471219673,0,4,-2303.09373516463,4616.18747032926,4641.80583425528,2973.42494660416,1237,442,1.19667117577495,20.9660235570515
40,25.900296443099,0.9828109231845,0.982771317016723,2.00344858152515,24814.5927346989,0,4,-2758.63085760046,5527.26171520092,5553.1353367501,5225.97569689729,1302,442,1.19667117577495,20.9660235570515
41,25.4340586372893,0.984339430083835,0.984299206017269,1.97547840061969,24471.4051594246,0,4,-2458.90256005892,4927.80512011784,4953.13745496852,4558.13741641584,1168,442,1.19667117577495,20.9660235570515
42,25.1935569745804,0.991359755878406,0.991341463195015,1.40288313710915,54194.3319467432,0,4,-2495.35925873237,5000.71851746474,5027.01409810522,2788.77091357784,1417,442,1.19667117577495,20.9660235570515
43,24.6975350273709,0.993118388836062,0.993103695004395,1.15314742586233,67587.4347384732,0,4,-2198.05713921577,4406.11427843153,4432.36745599103,1868.29732501096,1405,442,1.19667117577495,20.9660235570515
44,22.0349231378289,0.989328606340436,0.989305836652685,1.47132996731602,43449.3708097827,0,4,-2543.19558088039,5096.39116176079,5122.64788667765,3043.72549304734,1406,442,1.19667117577495,20.9660235570515
45,20.4100863384829,0.995105013687372,0.995093820883304,0.837205306147924,88905.7833583599,0,4,-1631.48535320376,3272.97070640753,3298.88246696696,919.597494730618,1312,442,1.19667117577495,20.9660235570515
46,20.5431458392545,0.990614308672553,0.990590446745449,0.945591698105486,41514.4302624155,0,4,-1611.78165365581,3233.56330731162,3258.94657638884,1055.0895182407,1180,442,1.19667117577495,20.9660235570515
47,19.8392735696905,0.978687706991254,0.978627502773715,1.1102271459248,16256.1319954038,0,4,-1622.05061059878,3254.10122119756,3278.95956422118,1309.02578311232,1062,442,1.19667117577495,20.9660235570515
48,23.4253152198488,0.954945060744135,0.954813577458369,1.93437628977252,7262.86276753545,0,4,-2143.23874210564,4296.47748421127,4321.17375394148,3846.58235608627,1028,442,1.19667117577495,20.9660235570515
49,24.6554106112206,0.979644646326812,0.979585358888929,1.43586867360098,16523.6461771024,0,4,-1839.24875883545,3688.4975176709,3713.20346794624,2123.57041326349,1030,442,1.19667117577495,20.9660235570515
50,25.1133024968576,0.988265859676173,0.988233623026931,1.26057209034652,30656.593750772,0,4,-1806.9489348851,3623.8978697702,3648.89498210774,1735.23385849697,1092,442,1.19667117577495,20.9660235570515
51,24.6960708920899,0.987996909568094,0.987967001535456,1.53560987701488,33034.5001805527,0,4,-2230.21898983078,4470.43797966157,4495.92158655404,2839.14962404031,1204,442,1.19667117577495,20.9660235570515
52,24.5785289384729,0.977433614013883,0.977383092254213,2.31742889020996,19346.7848386593,0,4,-3034.62640761728,6079.25281523457,6105.26984283998,7196.43872598087,1340,442,1.19667117577495,20.9660235570515
53,24.5616743513593,0.991345476031959,0.991326538342751,1.50750981241378,52347.7529462758,0,4,-2513.4189115714,5036.83782314279,5062.9688681933,3115.71517913216,1371,442,1.19667117577495,20.9660235570515
54,24.6606873398045,0.991961690724744,0.991944955868515,1.42598516443454,59275.1845106867,0,4,-2561.14032416164,5132.28064832329,5158.65997132602,2930.17794611905,1441,442,1.19667117577495,20.9660235570515
55,24.0708576561134,0.992515676376609,0.99250028708883,1.24933255943245,64493.9317922156,0,4,-2399.58196948032,4809.16393896064,4835.60516096574,2277.25366048066,1459,442,1.19667117577495,20.9660235570515
56,23.4407170932722,0.990381639831008,0.990360469559176,1.38254123765513,46781.7157801131,0,4,-2380.48916994699,4770.97833989398,4797.0802090776,2605.26583321254,1363,442,1.19667117577495,20.9660235570515
57,23.0340191803023,0.990588918686341,0.990567880501586,1.26977009177055,47085.2846968709,0,4,-2229.36134748247,4468.72269496495,4494.74715751597,2163.72818735159,1342,442,1.19667117577495,20.9660235570515
58,24.3144602682502,0.988493460068503,0.988465211607132,1.38694815399737,34992.8248165831,0,4,-2138.64703454027,4287.29406908055,4312.85162966303,2350.66997225335,1222,442,1.19667117577495,20.9660235570515
59,23.6490499221788,0.988278784709621,0.9882444452117,1.06863005000076,28779.651554087,0,4,-1524.90098204295,3059.8019640859,3084.47881631598,1169.37746817498,1024,442,1.19667117577495,20.9660235570515
60,24.2569801823249,0.970869711520605,0.970779524868966,1.6758304027865,10765.1153898791,0,4,-1880.99153805166,3771.98307610331,3796.38499651424,2721.34690519754,969,442,1.19667117577495,20.9660235570515
61,24.3860971983095,0.977565862989763,0.977499226939238,1.48387118416184,14670.2251301091,0,4,-1836.97921607348,3683.95843214696,3708.56672306772,2223.89242809773,1010,442,1.19667117577495,20.9660235570515
62,24.1471604186912,0.982024507878617,0.981974062157041,1.58933557973356,19466.9533353775,0,4,-2017.65543546882,4045.31087093763,4070.20193965079,2700.2807283725,1069,442,1.19667117577495,20.9660235570515
63,23.7551515534542,0.989233899046913,0.989207489968532,1.40094501431173,37458.1000062507,0,4,-2152.71370562483,4315.42741124967,4340.98904847322,2400.31719921175,1223,442,1.19667117577495,20.9660235570515
64,23.1613987645213,0.988902007885153,0.988877509006312,1.52360424883798,40365.1944366281,0,4,-2505.94060878413,5021.88121756826,5047.96843472674,3154.74170371784,1359,442,1.19667117577495,20.9660235570515
65,22.8388526003372,0.990139155741372,0.990118175221673,1.4547501651522,47193.2616511297,0,4,-2534.39177955706,5078.78355911413,5105.05444834641,2983.98024064458,1410,442,1.19667117577495,20.9660235570515
66,22.8679657363648,0.990085621434639,0.990065221478744,1.44311779985916,48533.7138223077,0,4,-2608.75563768208,5227.51127536415,5253.9490785657,3036.41473906615,1458,442,1.19667117577495,20.9660235570515
67,21.7918011934613,0.992605198395569,0.992590013998024,1.16019444343079,65370.074476234,0,4,-2294.42307135146,4598.84614270292,4625.29419531018,1966.58072513538,1461,442,1.19667117577495,20.9660235570515
68,20.5355649069437,0.992383440937984,0.99236737224798,1.12254889917685,61758.8266794199,0,4,-2186.25185090439,4382.50370180877,4408.81684481365,1791.88499614337,1422,442,1.19667117577495,20.9660235570515
69,18.3410070929343,0.992784589666334,0.992768302058357,0.990566051966901,60953.3696469251,0,4,-1876.80691145435,3763.6138229087,3789.58975950959,1304.04284629805,1329,442,1.19667117577495,20.9660235570515
70,16.3168439050518,0.986785160553406,0.986753419545929,1.01426980686117,31088.6527859383,0,4,-1793.68047917704,3597.36095835409,3623.02743812857,1284.90030814663,1249,442,1.19667117577495,20.9660235570515
71,19.6340645047339,0.830701803962116,0.830239661479756,3.87642558532698,1797.50149720059,0,4,-3057.55514427503,6125.11028855006,6150.13923364633,16514.3161751168,1099,442,1.19667117577495,20.9660235570515
72,23.4320622285673,0.976547122381011,0.976477044061432,1.3435001571696,13935.0818948359,0,4,-1725.92655487403,3461.85310974805,3486.43172699121,1812.21264300399,1004,442,1.19667117577495,20.9660235570515
73,23.5172811368286,0.976467867028278,0.976392524019831,1.44199884550657,12960.2983362507,0,4,-1677.65135105038,3365.30270210077,3389.5374177987,1948.36094820442,937,442,1.19667117577495,20.9660235570515
74,23.235964701513,0.978150964890787,0.978088360205661,1.64516791843209,15624.2454204738,0,4,-2012.53300520786,4035.06601041572,4059.8534972701,2833.78662139056,1047,442,1.19667117577495,20.9660235570515
75,24.2375253620639,0.977293301083711,0.977233807549432,1.84618872887029,16426.8825669197,0,4,-2332.83563453539,4675.67126907078,4700.90450546002,3902.6326818858,1145,442,1.19667117577495,20.9660235570515
76,23.1263919252628,0.989060336582307,0.989035398139865,1.44109138258844,39660.0685427908,0,4,-2353.32479244149,4716.64958488298,4742.57651996088,2732.99559482938,1316,442,1.19667117577495,20.9660235570515
77,22.3687947762534,0.988383193122474,0.988358246507848,1.55111729563873,39619.9327218847,0,4,-2600.9347099869,5211.8694199738,5238.09412770549,3361.13291616696,1397,442,1.19667117577495,20.9660235570515
78,22.8690255948902,0.989086766961288,0.989063596615134,1.52399686564003,42687.6128811924,0,4,-2605.66675300626,5221.33350601252,5247.61499221097,3281.78638887715,1413,442,1.19667117577495,20.9660235570515
79,22.7912107839102,0.989499194641239,0.98947774983792,1.47701447633079,46141.6773052634,0,4,-2662.59733022121,5335.19466044241,5361.66994252473,3204.72892027408,1469,442,1.19667117577495,20.9660235570515
80,22.0531415200942,0.991135057602949,0.991116640132595,1.29382819929146,53814.9397584633,0,4,-2425.63287685872,4861.26575371744,4887.65544658217,2417.24359500288,1444,442,1.19667117577495,20.9660235570515
81,21.7765374960196,0.991659891421739,0.991641233460714,1.18412841470824,53149.4245315872,0,4,-2133.78374740955,4277.5674948191,4303.58824127928,1880.29669747858,1341,442,1.19667117577495,20.9660235570515
82,21.1426179112688,0.992797809847892,0.992780620849915,0.995153844008583,57757.747787941,0,4,-1781.15245340601,3572.30490681202,3598.00320849185,1244.84628476904,1257,442,1.19667117577495,20.9660235570515
83,23.33785670512,0.985508402741662,0.985468699735475,1.29668912837162,24822.0096507124,0,4,-1842.94559588262,3695.89119176524,3720.90197153726,1841.13595172269,1095,442,1.19667117577495,20.9660235570515
84,23.2079708779895,0.978421053249631,0.978357210211908,1.37875843623209,15325.4150827688,0,4,-1769.44019891269,3548.88039782539,3573.50837381094,1927.58847303789,1014,442,1.19667117577495,20.9660235570515
85,24.4183015984807,0.970643471568029,0.970531708134913,1.49617628921302,8684.80364731674,0,4,-1440.90111941352,2891.80223882703,2915.1750457861,1763.97226886175,788,442,1.19667117577495,20.9660235570515
86,24.3800298644569,0.973636033696408,0.973553388034015,1.65876458231616,11780.848570833,0,4,-1847.93200345274,3705.86400690548,3730.20387895033,2633.18544214602,957,442,1.19667117577495,20.9660235570515
87,24.5963055018435,0.987481985344968,0.987450024456487,1.37181670346897,30896.5749163717,0,4,-2043.6493826694,4097.2987653388,4122.66087484149,2211.21025480186,1175,442,1.19667117577495,20.9660235570515
88,23.4585969215742,0.98547577585057,0.985441028902844,1.57857728145853,28361.5062716934,0,4,-2357.32866352399,4724.65732704798,4750.34371923428,3124.85041685541,1254,442,1.19667117577495,20.9660235570515
89,23.7844136412798,0.986546095649683,0.986517791503084,1.71220288746698,34855.1789816397,0,4,-2796.10581506997,5602.21163013993,5628.5387787562,4180.51682591449,1426,442,1.19667117577495,20.9660235570515
90,23.4131902230159,0.988182274405382,0.988157447250772,1.61241467516592,39802.4779684503,0,4,-2714.03062748436,5438.06125496872,5464.39539170632,3712.6301889379,1428,442,1.19667117577495,20.9660235570515
91,22.1814976545702,0.974696233214776,0.974641344349732,2.31548278565279,17757.6313963817,0,4,-3130.61531683245,6271.2306336649,6297.40512576647,7414.89991389505,1383,442,1.19667117577495,20.9660235570515
92,21.3019063556192,0.993027948976772,0.993012976784167,1.18538198105559,66324.8179576264,0,4,-2224.19118687729,4458.38237375459,4484.60708148627,1962.96722609274,1397,442,1.19667117577495,20.9660235570515
93,20.3020826522415,0.9947258609176,0.994713283479407,0.977948269077394,79088.1136228341,0,4,-1760.55653937164,3531.11307874328,3556.81534395879,1203.12958377527,1258,442,1.19667117577495,20.9660235570515
94,20.110938870132,0.988565627930548,0.988538053078291,1.2578199205031,35850.260182662,0,4,-2055.09831816733,4120.19663633465,4145.8431240793,1968.14602480355,1244,442,1.19667117577495,20.9660235570515
95,23.2900574957322,0.985709799119759,0.985669545032773,1.39381876670554,24487.1980191241,0,4,-1869.80009848018,3749.60019696036,3774.47259151549,2069.0082534579,1065,442,1.19667117577495,20.9660235570515
96,23.0059045917138,0.980642631278631,0.980561183724404,1.45907079658805,12040.1728521056,0,4,-1286.25577983128,2582.51155966255,2605.38693886555,1517.8968512822,713,442,1.19667117577495,20.9660235570515
99,23.6238950713724,0.985071555170779,0.985002120543666,1.48066086893279,14187.0360097496,0,4,-1173.60996952054,2357.21993904107,2379.59710262459,1414.07001266878,645,442,1.19667117577495,20.9660235570515
100,23.0097838357535,0.988366071977741,0.98833821740147,1.43573692879748,35483.076905714,0,4,-2236.23211587179,4482.46423174358,4508.14664778653,2582.85968247717,1253,442,1.19667117577495,20.9660235570515
101,23.4051932420477,0.98814673937267,0.987985835382253,1.56652774259651,6141.21959819882,1.70655512315832e-212,4,-418.237025408773,846.474050817546,863.554552828568,542.33602619972,221,442,1.19667117577495,20.9660235570515
143,NA,NA,NA,NA,NA,NA,NA,NA,NA,NA,NA,NA,442,1.19667117577495,20.9660235570515
