"Age","power_predict","r.squared","adj.r.squared","sigma","statistic","p.value","df","logLik","AIC","BIC","deviance","df.residual","GHI","Wind_speed","Ambient_temp"
0,NA,NA,NA,NA,NA,NA,NA,NA,NA,NA,NA,NA,537.7,1.78044301818856,24.6758938042512
1,131.579520475843,0.577460203941094,0.57644080756942,25.7018622493471,566.472689119712,8.35848969147249e-156,3,-3880.1949394639,7768.3898789278,7787.28520869109,547625.564436981,829,537.7,1.78044301818856,24.6758938042512
2,128.804043763299,0.92334347884903,0.922702895106821,12.1025071431461,1441.40948014921,8.70440184350583e-200,4,-1418.17237244281,2846.34474488563,2865.81675905695,52582.9738148148,359,537.7,1.78044301818856,24.6758938042512
3,116.046819050878,0.910581504247311,0.909977325221955,15.8076547094178,1507.13855667325,2.64845682846402e-232,4,-1870.37692630009,3750.75385260019,3771.27781876226,110947.584651008,444,537.7,1.78044301818856,24.6758938042512
4,109.761940806984,0.989826686122443,0.989760193874877,5.8421252003892,14886.3472413672,0,4,-1472.19866740315,2954.39733480631,2975.08597007674,15665.8659273733,459,537.7,1.78044301818856,24.6758938042512
5,108.303659058343,0.991166955904182,0.991095529671601,5.67790352272961,13876.7917625187,0,4,-1181.30948175442,2372.61896350884,2392.25359363869,11960.5163013808,371,537.7,1.78044301818856,24.6758938042512
6,103.881465109657,0.991510079837683,0.991472121923395,5.55080794113298,26121.3003519179,0,4,-2112.68941766764,4235.37883533527,4257.95239878963,20674.4955643605,671,537.7,1.78044301818856,24.6758938042512
7,102.462968448193,0.991041444484075,0.991024562783982,5.17635909738093,58705.0734839999,0,4,-4886.61007229933,9783.22014459866,9810.09642348871,42657.152060021,1592,537.7,1.78044301818856,24.6758938042512
8,106.004984453485,0.930389466522358,0.930252347940327,14.2253901872257,6785.2908974313,0,4,-6218.94489713339,12447.8897942668,12474.5450957929,308196.908665741,1523,537.7,1.78044301818856,24.6758938042512
9,105.594616161393,0.985437164009709,0.985405551485852,6.04576922297232,31172.3660045658,0,4,-4458.55710889869,8927.11421779737,8953.28510369612,50513.9318374612,1382,537.7,1.78044301818856,24.6758938042512
10,107.376794805377,0.946616265273947,0.94648834897668,10.8547465146693,7400.27881903755,0,4,-4775.24428481506,9560.48856963012,9586.16700636526,147517.553415953,1252,537.7,1.78044301818856,24.6758938042512
11,86.7574294235008,0.990810019366401,0.990785248529114,2.89361103248475,39999.0524290122,0,4,-2769.76907644575,5549.53815289149,5574.63016188684,9319.13209054434,1113,537.7,1.78044301818856,24.6758938042512
12,96.8098266567969,0.916278718072324,0.916020052937635,9.12947333212479,3542.33561153867,0,4,-3537.68126339106,7085.36252678212,7109.77471413711,80930.2121056403,971,537.7,1.78044301818856,24.6758938042512
13,130.285236882202,0.991047125889259,0.991017382121449,3.22221650124224,33319.4883791311,0,4,-2346.22584225915,4702.4516845183,4726.50239676888,9375.55930033262,903,537.7,1.78044301818856,24.6758938042512
14,126.27275836512,0.987418729172307,0.987378998843378,4.7017966726885,24853.021753811,0,4,-2828.4024060051,5666.8048120102,5691.10813036744,21001.5473537395,950,537.7,1.78044301818856,24.6758938042512
15,123.834767819268,0.991676422191461,0.991655206615059,4.66171431134084,46742.8460760381,0,4,-3491.7746413253,6993.54928265061,7018.91986673159,25578.0700372992,1177,537.7,1.78044301818856,24.6758938042512
16,118.145956320257,0.990604353548084,0.990583427832155,5.47449558269544,47339.0901860072,0,4,-4211.81828147205,8433.6365629441,8459.67956463391,40369.7272390302,1347,537.7,1.78044301818856,24.6758938042512
17,117.419248771842,0.987224149688182,0.987198252694306,6.98792268714553,38121.1871324368,0,4,-4988.87014257406,9987.74028514811,10014.2527672667,72269.9739526543,1480,537.7,1.78044301818856,24.6758938042512
18,114.222342595441,0.988350253730723,0.988328161923638,6.79620380578003,44738.3163335629,0,4,-5287.78759655402,10585.575193108,10612.420045119,73070.0269204637,1582,537.7,1.78044301818856,24.6758938042512
19,108.793479214092,0.980755736879498,0.980718417687926,8.1612573000625,26280.1978170866,0,4,-5454.93774870947,10919.8754974189,10946.6087732348,103039.668750473,1547,537.7,1.78044301818856,24.6758938042512
20,105.854044877546,0.983832775926519,0.983801504700071,7.13218774823523,31461.2788715114,0,4,-5259.42787034078,10528.8557406816,10555.6018948046,78896.4263199951,1551,537.7,1.78044301818856,24.6758938042512
21,113.06838797682,0.987204681441232,0.987175085484658,5.99914028751903,33356.0660212952,0,4,-4174.92859261098,8359.85718522196,8385.71162761453,46678.6203935662,1297,537.7,1.78044301818856,24.6758938042512
22,109.345433955839,0.978065398417703,0.978014109403871,6.82292368173271,19069.6861829892,0,4,-4295.5815268642,8601.1630537284,8626.96339976638,59726.584948139,1283,537.7,1.78044301818856,24.6758938042512
23,118.336997956887,0.984673652309725,0.984633530980693,5.3496581430117,24542.3986708185,0,4,-3558.36338625628,7126.72677251256,7151.96435861935,32797.1932151667,1146,537.7,1.78044301818856,24.6758938042512
24,126.277942383257,0.992300190612585,0.992275875425046,3.53248032387944,40809.8925419606,0,4,-2555.61140936746,5121.22281873492,5145.52613709216,11854.4963766656,950,537.7,1.78044301818856,24.6758938042512
25,128.933629855949,0.992631000039161,0.992603605987262,3.04729039040103,36235.2748581302,0,4,-2052.41322209663,4114.82644419327,4138.31778446384,7493.78482980841,807,537.7,1.78044301818856,24.6758938042512
26,120.398855978527,0.993084264936556,0.993063496963392,3.48873198571442,47818.0637618565,0,4,-2674.47830747983,5358.95661495966,5383.51036889947,12159.0796172787,999,537.7,1.78044301818856,24.6758938042512
27,118.802951900729,0.992334193720784,0.992314654707328,4.43931561869975,50787.3233189667,0,4,-3434.04377837642,6878.08755675284,6903.45814083383,23195.7547621819,1177,537.7,1.78044301818856,24.6758938042512
28,115.040220272378,0.989463541104978,0.989439075643147,5.85766415665789,40443.2807342137,0,4,-4127.9464334421,8265.89286688419,8291.72805626876,44331.4003488754,1292,537.7,1.78044301818856,24.6758938042512
29,112.068104072344,0.990407077263928,0.990387499870589,5.61139480799602,50589.3231094721,0,4,-4631.8668733266,9273.7337466532,9300.21242201694,46286.9949860709,1470,537.7,1.78044301818856,24.6758938042512
30,112.085138042639,0.985745619854981,0.985717941446932,7.24771411130951,35614.2455203642,0,4,-5264.01600749079,10538.0320149816,10564.7588391837,81157.8609516799,1545,537.7,1.78044301818856,24.6758938042512
31,112.938244718555,0.970902533658719,0.970846541100012,9.68922381793577,17339.8493671882,0,4,-5765.39374810724,11540.7874962145,11567.5593078666,146360.56972453,1559,537.7,1.78044301818856,24.6758938042512
32,111.901369825115,0.988324900365879,0.988302361563497,6.11325419557701,43849.9297165173,0,4,-5029.39914790176,10068.7982958035,10095.5540869357,58075.8966400359,1554,537.7,1.78044301818856,24.6758938042512
33,110.286748305605,0.987444852840237,0.987418822818483,5.83916810655836,37934.8454695675,0,4,-4617.2947300431,9244.5894600862,9270.98950135063,49336.7444036101,1447,537.7,1.78044301818856,24.6758938042512
34,107.119190056326,0.967069462814666,0.966993410765739,8.5602973730948,12715.8896632044,0,4,-4644.59064563503,9299.18129127006,9325.04341415568,95189.0197594421,1299,537.7,1.78044301818856,24.6758938042512
35,95.490024115862,0.98781904041521,0.987788228544423,3.91227485385335,32059.6904750527,0,4,-3309.83510617224,6629.67021234447,6655.078755275,18152.7909150626,1186,537.7,1.78044301818856,24.6758938042512
36,99.6225777382506,0.98601575793823,0.985973721138445,3.79342974796461,23456.0138493905,0,4,-2755.70950528166,5521.41901056332,5545.96777697155,14361.3290342373,998,537.7,1.78044301818856,24.6758938042512
37,126.310237279792,0.96418570007294,0.964078471630044,6.45429124326679,8991.8838140136,0,4,-3301.3818676225,6612.763735245,6637.3324219983,41741.1912038162,1002,537.7,1.78044301818856,24.6758938042512
38,124.705121114091,0.993585549080254,0.993567256919837,3.19976521744462,54317.5615346274,0,4,-2724.60506766185,5459.2101353237,5484.02135264503,10770.8993140004,1052,537.7,1.78044301818856,24.6758938042512
39,118.422275329389,0.992414702209456,0.99239531899534,4.19511628864051,51199.6976504705,0,4,-3358.66519786522,6727.33039573043,6752.68826255149,20661.2267927047,1174,537.7,1.78044301818856,24.6758938042512
40,116.251816002294,0.991206497307834,0.991186141977528,5.30229037551097,48695.1811839941,0,4,-4011.1975455091,8032.3950910182,8058.24568873545,36436.1110612022,1296,537.7,1.78044301818856,24.6758938042512
41,113.522774950791,0.988474945042382,0.988450681768787,6.28100535972992,40739.5540083543,0,4,-4651.49081071644,9312.98162143288,9339.30527232253,56217.7153687622,1425,537.7,1.78044301818856,24.6758938042512
42,111.194991673973,0.979935191532489,0.979895035144629,8.81463630635663,24402.9715755938,0,4,-5401.8115247547,10813.6230495094,10840.1991414582,116469.022006797,1499,537.7,1.78044301818856,24.6758938042512
43,107.0391456343,0.978146637591184,0.978105815619063,8.47103885965336,23961.27836965,0,4,-5722.50012589504,11455.0002517901,11481.92019908,115244.149974982,1606,537.7,1.78044301818856,24.6758938042512
44,98.172754691632,0.991140636832089,0.991123599595227,4.79094010494279,58174.9637512816,0,4,-4667.57779438618,9345.15558877236,9371.93059837789,35806.8470590727,1560,537.7,1.78044301818856,24.6758938042512
45,109.84334567482,0.970981772770918,0.970922023504146,8.81440938777726,16250.9403918077,0,4,-5250.76904863381,10511.5380972676,10537.9724793264,113199.885330225,1457,537.7,1.78044301818856,24.6758938042512
46,91.5873948493709,0.950790117232853,0.950679615999094,9.58534205349726,8604.33938059232,0,4,-4928.089626805,9866.17925361,9892.18137807473,122750.053129477,1336,537.7,1.78044301818856,24.6758938042512
47,104.364541188713,0.894880587580587,0.894610125970589,14.030344023381,3308.71574559357,0,4,-4748.38488204483,9506.76976408965,9532.09355922861,229527.745281216,1166,537.7,1.78044301818856,24.6758938042512
48,106.049456147643,0.986859979307618,0.986822148153993,3.88180658807148,26085.9076382506,0,4,-2900.89636301002,5811.79272602003,5836.55636924316,15701.2961274573,1042,537.7,1.78044301818856,24.6758938042512
49,118.723171214958,0.984577254102061,0.984526353950583,4.16838577022988,19343.3069550086,0,4,-2596.82033180158,5203.64066360317,5227.72434300614,15794.2748958745,909,537.7,1.78044301818856,24.6758938042512
50,128.301838148284,0.992821694274447,0.992800643524519,3.46516126190145,47163.2458537457,0,4,-2731.55963804758,5473.11927609516,5497.79126214481,12283.511450115,1023,537.7,1.78044301818856,24.6758938042512
51,121.021514292383,0.992627412482332,0.992608459815191,4.02636656544852,52374.0223537876,0,4,-3290.61777902976,6591.23555805953,6616.56362487752,18918.9695484951,1167,537.7,1.78044301818856,24.6758938042512
52,118.56243952912,0.989964932289097,0.989941522333318,5.34756349622978,42288.2017208725,0,4,-3991.29453695365,7992.5890739073,8018.40106139408,36775.0158552252,1286,537.7,1.78044301818856,24.6758938042512
53,112.846572428119,0.983138850823673,0.983103178434725,7.36794967553021,27560.2189761636,0,4,-4855.66010061054,9721.32020122109,9747.6192992729,76978.5156731847,1418,537.7,1.78044301818856,24.6758938042512
54,112.015094817411,0.988798744349184,0.988776723532046,6.17000680762567,44902.9088319783,0,4,-4953.11424698562,9916.22849397125,9942.89360904318,58093.2695933806,1526,537.7,1.78044301818856,24.6758938042512
55,110.089099110108,0.969327846907633,0.969269828963575,9.86272710422721,16707.3801499566,0,4,-5893.24246143776,11796.4849228755,11823.3423693516,154275.590088879,1586,537.7,1.78044301818856,24.6758938042512
56,98.2962082885719,0.990229957147859,0.990211252534869,5.85764232603983,52940.4140914519,0,4,-5004.28071940416,10018.5614388083,10045.3587769996,53766.8626622475,1567,537.7,1.78044301818856,24.6758938042512
57,104.658721161246,0.973422950523103,0.973368932129857,8.43059944668762,18020.2129688505,0,4,-5253.19078133621,10516.3815626724,10542.8805495062,104906.710377003,1476,537.7,1.78044301818856,24.6758938042512
58,103.122051184855,0.98388218251793,0.983846523629696,6.00676657038393,27591.4990967496,0,4,-4366.07922810002,8742.15845620003,8768.23465609368,48926.1677197471,1356,537.7,1.78044301818856,24.6758938042512
59,101.44987301549,0.908699129206122,0.908476805657111,12.8129110502458,4087.28240102397,0,4,-4904.16511000189,9818.33022000378,9843.92839819387,202258.28956442,1232,537.7,1.78044301818856,24.6758938042512
60,108.05795039283,0.975155658427968,0.975086901025093,5.52209768282787,14182.5551527312,0,4,-3400.92992840024,6811.85985680048,6836.82033893756,33055.0220954631,1084,537.7,1.78044301818856,24.6758938042512
61,121.714827056878,0.990015211389497,0.989985076212604,3.45337084986227,32852.4771866801,0,4,-2650.96874772049,5311.93749544098,5336.46626182254,11854.2156053184,994,537.7,1.78044301818856,24.6758938042512
62,106.972124978054,0.982131305317003,0.982078229986261,4.17452809392952,18504.4782876437,0,4,-2885.80705649886,5781.61411299772,5806.22240391847,17600.9516550769,1010,537.7,1.78044301818856,24.6758938042512
63,102.825975895008,0.982566960710364,0.982516430161698,5.12358900395578,19445.0087453537,0,4,-3169.848798713,6349.697597426,6374.4276673815,27169.9550313075,1035,537.7,1.78044301818856,24.6758938042512
64,116.420317884511,0.988166581108091,0.98813824890005,5.6607623140328,34877.8527839502,0,4,-3960.68566676977,7931.37133353954,7957.05374958249,40151.4201598954,1253,537.7,1.78044301818856,24.6758938042512
65,111.596417302692,0.989889722269038,0.989867885816055,5.56160329304924,45331.9833150558,0,4,-4364.8082949983,8739.61658999661,8765.81266486551,42963.7579218768,1389,537.7,1.78044301818856,24.6758938042512
66,109.562465645357,0.988696087008999,0.988673717788041,6.02113899897291,44198.9503722868,0,4,-4883.60412901153,9777.20825802306,9803.84058609226,54961.2381049479,1516,537.7,1.78044301818856,24.6758938042512
67,99.4307769785284,0.991963840782808,0.991948857266555,4.8635449602583,66203.6750261264,0,4,-4838.13648907525,9686.27297815051,9713.20223354113,38059.3979549504,1609,537.7,1.78044301818856,24.6758938042512
68,101.251160910056,0.960103911010199,0.960028350235597,10.6826107282169,12706.3799447354,0,4,-6012.63606673951,12035.272133479,12062.1232866881,180763.184401454,1584,537.7,1.78044301818856,24.6758938042512
69,97.1629459263427,0.987938466599338,0.987914165323178,5.38238991456051,40653.7689667683,0,4,-4629.38936498751,9268.77872997503,9295.32144396272,43136.5104554281,1489,537.7,1.78044301818856,24.6758938042512
70,101.939143502419,0.910551137571582,0.910349676169716,13.0327105036149,4519.72997873857,0,4,-5323.8286330458,10657.6572660916,10683.6444428621,226242.255370617,1332,537.7,1.78044301818856,24.6758938042512
71,116.774191524349,0.928212523376416,0.927367964827903,12.9235315045675,1099.05053357281,1.7244325351998e-145,4,-1028.28337270132,2066.56674540264,2084.35088571113,42589.5049701352,255,537.7,1.78044301818856,24.6758938042512
