"Age","power_predict","r.squared","adj.r.squared","sigma","statistic","p.value","df","logLik","AIC","BIC","deviance","df.residual","GHI","Wind_speed","Ambient_temp"
1,88.0413425871592,0.58271666967576,0.573443706779666,19.8978443221464,62.8403969912573,1.71231700346132e-25,4,-610.898099511949,1231.7961990239,1246.46856868955,53449.7681702307,135,620.6,2.57711347576741,20.2911039912065
2,100.843471475685,0.921773256881977,0.920518282393452,10.2318528929381,734.495613505079,3.5548332934024e-103,4,-713.167606593503,1436.33521318701,1452.59658032724,19577.1821474496,187,620.6,2.57711347576741,20.2911039912065
3,102.01147682858,0.941678001824664,0.938809706832435,9.13341222828624,328.305841754676,1.39685912318621e-37,4,-233.942877555767,477.885755111534,488.757691461012,5088.57235484033,61,620.6,2.57711347576741,20.2911039912065
4,99.2610533848426,0.960859113439566,0.959684886842753,9.68184333349951,818.291048803899,3.3745186659165e-70,4,-381.636370627409,773.272741254817,786.494695750524,9373.80903344289,100,620.6,2.57711347576741,20.2911039912065
5,87.0399494943386,0.990473050009859,0.990261340010078,4.20063194471479,4678.44244974203,3.52246700262874e-136,4,-394.700776667091,799.401553334182,814.073922999835,2382.11667921937,135,620.6,2.57711347576741,20.2911039912065
6,89.4878034872069,0.988382201062349,0.988076469511358,4.69153553431092,3232.84331584088,4.3933858430119e-110,4,-347.799734849211,705.599469698422,719.45289282075,2509.19764634603,114,620.6,2.57711347576741,20.2911039912065
7,85.9643233778999,0.993601494022206,0.99353835087111,3.44526274309805,15735.6970117211,0,4,-816.016019874858,1642.03203974972,1660.68253866458,3608.42995216978,304,620.6,2.57711347576741,20.2911039912065
8,86.3004721591006,0.995539763884841,0.995476046226053,2.75770509814121,15624.2364019892,1.7628224767383e-246,4,-518.715271687031,1047.43054337406,1064.26042344917,1597.03685574594,210,620.6,2.57711347576741,20.2911039912065
9,87.9216587228037,0.990969687026971,0.990948895822889,3.98558416310626,47662.9291458927,0,4,-3659.71744302677,7329.43488605353,7355.31233462165,20698.000100928,1303,620.6,2.57711347576741,20.2911039912065
10,87.237565985958,0.990482068117858,0.990459460203649,4.06033229869192,43811.2980678094,0,4,-3571.19448127989,7152.38896255978,7178.11099846139,20822.1948486365,1263,620.6,2.57711347576741,20.2911039912065
11,89.3204596796105,0.978756926375058,0.978698726173346,6.13424570637632,16817.0710338004,0,4,-3550.87174583638,7111.74349167277,7136.75427144479,41203.722572885,1095,620.6,2.57711347576741,20.2911039912065
12,93.5766462354492,0.950319918662322,0.950156497342132,8.66458683275698,5815.15262243022,0,4,-3275.61104043012,6561.22208086025,6585.32216268362,68468.4592639358,912,620.6,2.57711347576741,20.2911039912065
13,98.3811653388079,0.943240306056437,0.942998432360655,7.75137549622966,3899.72255149927,0,4,-2452.49499061028,4914.98998122056,4937.80220168903,42299.0107468189,704,620.6,2.57711347576741,20.2911039912065
14,111.210591560306,0.911330998476206,0.911041860427759,10.0875389378219,3151.88887581764,0,4,-3444.73688882503,6899.47377765007,6923.61733800827,93617.766476307,920,620.6,2.57711347576741,20.2911039912065
15,101.970491363011,0.901906703518743,0.901580088769083,12.4071487712592,2761.37775301719,0,4,-3561.17184196707,7132.34368393414,7156.38335865264,138697.543909574,901,620.6,2.57711347576741,20.2911039912065
16,98.410140270533,0.966710717224537,0.966609738611467,8.36099277640443,9573.42042866891,0,4,-3515.71405741649,7041.42811483299,7065.93176815321,69137.2320048092,989,620.6,2.57711347576741,20.2911039912065
17,89.0456549441586,0.982769143477406,0.98272971359978,5.66804354621504,24924.4786605053,0,4,-4145.22098922833,8300.44197845667,8326.34993817973,42118.1268283867,1311,620.6,2.57711347576741,20.2911039912065
18,88.043285258904,0.991460976510751,0.99144253369544,4.31294303313615,53758.6566780673,0,4,-4010.61586934228,8031.23173868456,8057.42781355346,25837.4523962309,1389,620.6,2.57711347576741,20.2911039912065
19,87.7396752896931,0.995812408288993,0.995803684139595,2.83784410458077,114144.355268045,0,4,-3553.10093526144,7116.20187052288,7142.57773212014,11596.8371931415,1440,620.6,2.57711347576741,20.2911039912065
20,87.3108694139385,0.995487406033069,0.995478540426061,2.71308373872206,112286.435115587,0,4,-3698.46178836586,7406.92357673171,7433.59195871,11239.9772910567,1527,620.6,2.57711347576741,20.2911039912065
21,87.3351194563975,0.995877785406153,0.995869119222704,2.59982136298868,114915.382449673,0,4,-3395.73679594168,6801.47359188336,6827.80423578114,9645.19448745846,1427,620.6,2.57711347576741,20.2911039912065
22,85.3883977693266,0.99020651515497,0.990184832162694,3.93846439631961,45667.4292234851,0,4,-3789.23935088386,7588.47870176772,7614.55122383847,21018.0849404596,1355,620.6,2.57711347576741,20.2911039912065
23,86.4711723683593,0.966714854760557,0.966628772488386,6.87713338955932,11230.1270677486,0,4,-3894.06802764224,7798.13605528448,7823.43414342594,54862.1578430383,1160,620.6,2.57711347576741,20.2911039912065
24,92.6084891512423,0.928512161595405,0.92828876210039,10.3258904574441,4156.28585702809,0,4,-3616.45940549048,7242.91881098097,7267.27426745402,102359.053189569,960,620.6,2.57711347576741,20.2911039912065
25,97.3299344039901,0.889083805676883,0.88873019400529,11.2458122426337,2514.29428692416,0,4,-3625.78871355872,7261.57742711744,7285.83335175491,119006.663709773,941,620.6,2.57711347576741,20.2911039912065
26,106.858799610094,0.915281839107454,0.914958075435254,9.9281612939976,2827.00598521677,0,4,-2928.58852286955,5867.17704573911,5890.53087734334,77376.1835435112,785,620.6,2.57711347576741,20.2911039912065
27,99.9534755823493,0.94059506072434,0.940400503062956,9.1711726675861,4834.53107956467,0,4,-3342.19903632473,6694.39807264946,6718.51994099967,77045.1338183893,916,620.6,2.57711347576741,20.2911039912065
28,95.497039588061,0.948358451110569,0.948225125252852,9.500072947912,7113.08719360809,0,4,-4277.49408185613,8564.98816371226,8590.29483554681,104872.110550185,1162,620.6,2.57711347576741,20.2911039912065
29,90.5293539388994,0.985237999752825,0.985197994332101,5.6223168917604,24627.6125065338,0,4,-3492.84950457313,6995.69900914626,7020.76408809446,34992.7650851314,1107,620.6,2.57711347576741,20.2911039912065
30,88.973589366114,0.966816748992049,0.966676141996252,8.47362990219069,6876.02166247813,0,4,-2529.79338797237,5069.58677594474,5092.4271655018,50836.1018332645,708,620.6,2.57711347576741,20.2911039912065
31,89.4128048027888,0.987369482141496,0.987343775524416,4.58025149227718,38409.1566416288,0,4,-4344.34071625073,8698.68143250145,8725.17365800899,30922.6093017157,1474,620.6,2.57711347576741,20.2911039912065
32,89.0931163928442,0.951694537903388,0.951490430317065,8.84227645233422,4662.7102649385,0,4,-2567.31116301679,5144.62232603358,5167.47674084528,55511.955530248,710,620.6,2.57711347576741,20.2911039912065
33,89.3024094449179,0.991697993302199,0.991680366961015,3.70889322196801,56262.2715022718,0,4,-3865.94245588799,7741.88491177597,7768.16639797442,19437.0710608598,1413,620.6,2.57711347576741,20.2911039912065
34,87.5790613756585,0.985665090701632,0.985632461924777,4.79462572825891,30208.4597003736,0,4,-3946.06295928978,7902.12591857956,7928.06042368162,30298.7584820405,1318,620.6,2.57711347576741,20.2911039912065
35,90.3909860425037,0.97598317869249,0.975919809770834,6.61182013183517,15401.6062320781,0,4,-3772.19344442983,7554.38688885965,7579.58519060896,49705.2801231774,1137,620.6,2.57711347576741,20.2911039912065
36,93.1554142149145,0.950033511013386,0.949895609019863,8.7873870589088,6889.19345355786,0,4,-3917.14755277895,7844.29510555791,7869.26935548707,83936.1522281855,1087,620.6,2.57711347576741,20.2911039912065
37,97.6382877207257,0.926619733574129,0.92639826395715,9.14275632617076,4183.95871276532,0,4,-3622.63262098413,7255.26524196825,7279.79400834981,83088.4532802971,994,620.6,2.57711347576741,20.2911039912065
38,100.464493300952,0.905362704085201,0.905057093872344,9.71844666430989,2962.47529040548,0,4,-3443.53142101171,6897.06284202342,6921.25486802765,87742.3829717765,929,620.6,2.57711347576741,20.2911039912065
39,98.4130677978896,0.921502188247591,0.921248696928692,9.92056616741477,3635.2416021573,0,4,-3462.73647540684,6935.47295081369,6959.66497681792,91429.9811332286,929,620.6,2.57711347576741,20.2911039912065
40,94.5632659423823,0.966838713374106,0.966743422320583,7.65546606280003,10146.1645939715,0,4,-3618.16382268367,7246.32764536734,7271.10083969175,61184.831706785,1044,620.6,2.57711347576741,20.2911039912065
41,90.4913205753021,0.980077347499831,0.98002564511445,5.82118175078619,18956.1340405551,0,4,-3687.30905996385,7384.61811992769,7409.89899634819,39172.3974638932,1156,620.6,2.57711347576741,20.2911039912065
42,94.012834682914,0.905941610447961,0.905729129146262,13.8225812093945,4263.62980273816,0,4,-5386.25947826401,10782.518956528,10808.4911407835,253732.661713525,1328,620.6,2.57711347576741,20.2911039912065
43,89.6755337129783,0.927500318517007,0.927341327987439,11.8023744995335,5833.68280511641,0,4,-5331.28936170846,10672.5787234169,10698.6988474584,190556.987955663,1368,620.6,2.57711347576741,20.2911039912065
44,88.4978897268674,0.989621076415913,0.989600137094627,4.24752499021894,47261.3731314317,0,4,-4270.12232440314,8550.24464880628,8576.78066038011,26827.6637227487,1487,620.6,2.57711347576741,20.2911039912065
45,88.311901188684,0.989373497408433,0.989350775022279,4.41836740236384,43541.7957728216,0,4,-4084.92242635084,8179.84485270168,8206.09092798725,27389.3246146867,1403,620.6,2.57711347576741,20.2911039912065
46,87.8773477425503,0.983006658319871,0.982958290174672,5.19384979574973,20323.4309329658,0,4,-3242.26193313096,6494.52386626192,6519.34454432401,28432.7837886533,1054,620.6,2.57711347576741,20.2911039912065
47,89.1746511126911,0.981383766836323,0.981332388087941,5.8018198220901,19100.9667955185,0,4,-3464.22351354748,6938.44702709496,6963.42127702413,36589.6301005734,1087,620.6,2.57711347576741,20.2911039912065
48,91.8155702396356,0.955526429124529,0.955385243185242,8.81956963672512,6767.85828637469,0,4,-3410.51588915763,6831.03177831526,6855.30882230831,73506.6441053063,945,620.6,2.57711347576741,20.2911039912065
49,98.4158771802609,0.940475347019347,0.940286379867028,8.92333425451297,4976.92501302586,0,4,-3421.61595998649,6853.23191997299,6877.50896396604,75246.4700357875,945,620.6,2.57711347576741,20.2911039912065
50,97.9345979367798,0.91079364455641,0.91048318160243,8.87346892422378,2933.66288273816,0,4,-3117.33112358722,6244.66224717445,6268.48167171726,67872.5445457804,862,620.6,2.57711347576741,20.2911039912065
51,96.6024420814506,0.938077593270669,0.937855383677143,9.0463185212558,4221.58907895941,0,4,-3039.88421145861,6089.76842291722,6113.4354323764,68414.7946667812,836,620.6,2.57711347576741,20.2911039912065
52,97.4393733408027,0.944049737308672,0.943878286044041,9.74838695572756,5506.22790295041,0,4,-3631.20359765134,7272.40719530269,7296.86024090342,93035.3962255886,979,620.6,2.57711347576741,20.2911039912065
53,93.7769297718952,0.974485997396234,0.974422212389724,7.48384545443901,15277.6655631819,0,4,-4129.74576105918,8269.49152211836,8294.95854524771,67209.5313431128,1200,620.6,2.57711347576741,20.2911039912065
54,88.8651102730877,0.984922927504047,0.984843295078893,5.56740911684639,12368.3653435256,0,4,-1791.70965860754,3593.41931721508,3615.16501217198,17605.7531478276,568,620.6,2.57711347576741,20.2911039912065
55,90.4077755014522,0.994145419506449,0.994131981295676,3.59232320570207,73979.001838886,0,4,-3534.73101350779,7079.46202701559,7105.35475443441,16866.5553205928,1307,620.6,2.57711347576741,20.2911039912065
56,89.845182225443,0.992128566935636,0.992111417843992,3.96834050041069,57853.1264256175,0,4,-3861.04979662032,7732.09959324064,7758.25240900769,21684.6191525541,1377,620.6,2.57711347576741,20.2911039912065
57,89.3885586436071,0.992602145883465,0.992586516614205,3.73073497424667,63509.1845532257,0,4,-3893.41154481268,7796.82308962537,7823.12921508523,19764.1044962556,1420,620.6,2.57711347576741,20.2911039912065
58,88.4242547134979,0.989504804892705,0.989469781994683,4.35032969178139,28253.0818628365,0,4,-2606.93427767874,5223.86855535748,5247.89716812457,17013.9062160481,899,620.6,2.57711347576741,20.2911039912065
59,88.4640410880875,0.954533175499197,0.954416892060576,8.67079014083267,8208.67689173213,0,4,-4210.36007521391,8430.72015042783,8456.07377096413,88189.1917546415,1173,620.6,2.57711347576741,20.2911039912065
60,89.6886922020205,0.962168697491509,0.962047701854489,8.16397648228326,7952.09415134886,0,4,-3312.5827850893,6635.16557017859,6659.40559655147,62518.1802590712,938,620.6,2.57711347576741,20.2911039912065
61,96.8184417839212,0.932446100718227,0.932205695382705,9.18109385178759,3878.6414564898,0,4,-3077.75916156922,6165.51832313845,6189.22682661171,71058.5642778248,843,620.6,2.57711347576741,20.2911039912065
62,98.0293298965458,0.92942023349755,0.929171128439306,8.82258199335433,3731.03717784564,0,4,-3069.19545177989,6148.39090355978,6172.14055952872,66162.2600750411,850,620.6,2.57711347576741,20.2911039912065
63,98.5916078934839,0.929332514545519,0.929095109779155,9.34192849204918,3914.5486789381,0,4,-3275.14129038451,6560.28258076902,6584.27786007932,77933.5637598504,893,620.6,2.57711347576741,20.2911039912065
64,96.3222200816555,0.952994645650871,0.952831432614937,8.6362566820867,5838.96157677915,0,4,-3101.015319906,6212.03063981199,6235.86159838529,64441.3790697585,864,620.6,2.57711347576741,20.2911039912065
65,91.7276587015252,0.931039460451529,0.930799179825925,12.8272288907997,3874.80038438177,0,4,-3432.48538848802,6874.97077697604,6898.7844245107,141667.046675608,861,620.6,2.57711347576741,20.2911039912065
66,88.5852727691935,0.963621118776647,0.963532891902217,8.89068155199348,10922.0815652932,0,4,-4470.48909565682,8950.97819131365,8976.59655523967,97777.69823373,1237,620.6,2.57711347576741,20.2911039912065
67,87.8275193338801,0.991083172291975,0.991064280707847,4.05620602352596,52461.6234202652,0,4,-4001.24213979846,8012.48427959691,8038.77634034989,23297.1751442882,1416,620.6,2.57711347576741,20.2911039912065
68,88.0436104819098,0.996218791197288,0.996211069191564,2.57992152791049,129010.366845223,0,4,-3484.14272079724,6978.28544159447,7004.76072367678,9777.65678746857,1469,620.6,2.57711347576741,20.2911039912065
69,88.48910888775,0.996066726777422,0.996050315345338,2.53678057928746,60693.4679274153,0,4,-1696.92466168358,3403.84932336716,3426.76636947796,4626.94885365657,719,620.6,2.57711347576741,20.2911039912065
