"Age","power_predict","r.squared","adj.r.squared","sigma","statistic","p.value","df","logLik","AIC","BIC","deviance","df.residual","GHI","Wind_speed","Ambient_temp"
1,55.7009269066836,0.915697206168794,0.915087788382062,5.57490736909157,1502.57709260473,2.0180307846489e-222,4,-1312.483156731,2634.966313462,2655.15566806161,12898.0307521899,415,762.67037037,2.1074915420469,25.6525990992691
2,58.3799805448185,0.91500206660744,0.914758519520356,5.48451366945771,3756.98218180385,0,4,-3278.02735669736,6566.05471339473,6590.84220024911,31493.6450294205,1047,762.67037037,2.1074915420469,25.6525990992691
3,85.2816819474777,0.908438693732763,0.908196468054807,8.32807797791158,3750.38146822353,0,4,-4024.89053405717,8059.78106811434,8084.96620618777,78650.7051022033,1134,762.67037037,2.1074915420469,25.6525990992691
4,81.2898111250074,0.956374712022885,0.956270095025338,6.10439687823798,9141.67615633285,0,4,-4049.07135073728,8108.14270147456,8133.81715573239,46616.840220049,1251,762.67037037,2.1074915420469,25.6525990992691
5,77.0260304375272,0.974473035348656,0.974417461405293,4.58021754019373,17534.710988311,0,4,-4062.02380882821,8134.04761765642,8160.20405267805,28908.2251619567,1378,762.67037037,2.1074915420469,25.6525990992691
6,75.2302276799917,0.983683071154208,0.983649816543788,3.65680122398707,29580.3516789943,0,4,-4006.11560341687,8022.23120683374,8048.71666185954,19683.8713222609,1472,762.67037037,2.1074915420469,25.6525990992691
7,74.3234886136559,0.972556560072341,0.972502784553215,4.88452043338589,18085.489008129,0,4,-4610.68719102026,9231.37438204053,9258.05581034063,36527.4245320355,1531,762.67037037,2.1074915420469,25.6525990992691
8,69.5717347490497,0.893316358700595,0.89311146054189,8.49348181451736,4359.80666856032,0,4,-5570.19745589776,11150.3949117955,11177.1763111783,112681.482466985,1562,762.67037037,2.1074915420469,25.6525990992691
9,70.8064846990097,0.882716180563482,0.882480038645153,9.79841589874968,3738.07491194892,0,4,-5527.52925650459,11065.0585130092,11091.6045748376,143053.341646057,1490,762.67037037,2.1074915420469,25.6525990992691
10,71.5258290762664,0.852385389478979,0.852062381578496,9.83446399343437,2638.89950741985,0,4,-5092.14037528123,10194.2807505625,10220.411795613,132598.571074313,1371,762.67037037,2.1074915420469,25.6525990992691
11,76.7891615768299,0.979303833459675,0.979257044839011,3.48749536050487,20930.3847722863,0,4,-3549.26783659619,7108.53567319237,7134.50410228435,16139.8019014236,1327,762.67037037,2.1074915420469,25.6525990992691
12,78.8082792602352,0.971542838350692,0.9714729190346,3.85527564933382,13895.1993906371,0,4,-3389.26350405552,6788.52700811103,6814.08048872592,18147.9065557948,1221,762.67037037,2.1074915420469,25.6525990992691
13,79.1180973331026,0.942583711417396,0.942406500650166,5.8659377453689,5318.99797145311,0,4,-3109.58235993797,6229.16471987594,6253.582032808,33445.7673148324,972,762.67037037,2.1074915420469,25.6525990992691
14,83.9632562847196,0.972649635789637,0.972507185976042,4.80299380886089,6828.01620611891,0,4,-1731.13629236055,3472.27258472111,3494.08772523881,13287.5997281027,576,762.67037037,2.1074915420469,25.6525990992691
15,65.4333057097898,0.94304727754431,0.942877775394144,4.47864002612377,5563.6301759132,0,4,-2951.27310054887,5912.54620109774,5937.14462034698,20218.6822154667,1008,762.67037037,2.1074915420469,25.6525990992691
16,63.7648625624696,0.973688005577705,0.973610389074984,4.03788069974228,12544.8580063225,0,4,-2871.76240894949,5753.52481789899,5778.16750698981,16581.6567146222,1017,762.67037037,2.1074915420469,25.6525990992691
17,63.7159228020012,0.906664362164656,0.906456949636133,6.9755224272164,4371.30952802677,0,4,-4549.25919638124,9108.51839276249,9134.57248502985,65688.1827290086,1350,762.67037037,2.1074915420469,25.6525990992691
18,59.5818624645126,0.982502759941446,0.982466231256564,3.2627430722044,26896.7460260609,0,4,-3746.7685292847,7503.53705856941,7529.9025215494,15297.572514448,1437,762.67037037,2.1074915420469,25.6525990992691
19,59.152021372274,0.970133454753268,0.970074777847086,4.03822368993088,16533.4799987773,0,4,-4307.36960131955,8624.73920263909,8651.40758461738,24901.1716202662,1527,762.67037037,2.1074915420469,25.6525990992691
20,59.4443168459143,0.893091586474558,0.892866831575766,8.42812939829609,3973.62456290965,0,4,-5078.78184976057,10167.5636995211,10193.8943434189,101364.612075361,1427,762.67037037,2.1074915420469,25.6525990992691
21,72.6005161700106,0.982632665531144,0.982598477864866,3.79202673627447,28742.314774035,0,4,-4202.80762674998,8415.61525349996,8442.2738283486,21914.3073553775,1524,762.67037037,2.1074915420469,25.6525990992691
22,73.4865013932353,0.982487033984883,0.982448768217916,3.49865886082594,25675.351936328,0,4,-3676.40231375065,7362.80462750129,7388.94293999493,16806.3627809505,1373,762.67037037,2.1074915420469,25.6525990992691
23,77.9067126615986,0.974987829406977,0.974932817301567,3.92483497317833,17723.1506073564,0,4,-3809.60463338597,7629.20926677194,7655.31479226286,21011.5055289566,1364,762.67037037,2.1074915420469,25.6525990992691
24,78.8928994005149,0.954199417879528,0.954089408474915,5.70489870594504,8673.79858329217,0,4,-3957.80729344579,7925.61458689158,7951.28106666606,40649.7906871216,1249,762.67037037,2.1074915420469,25.6525990992691
25,82.6846313070898,0.971046330360209,0.970969257592756,4.29525833608776,12599.0847669267,0,4,-3251.26167065354,6512.52334130707,6537.67762868765,20792.2981837953,1127,762.67037037,2.1074915420469,25.6525990992691
26,84.495131980603,0.977351432114444,0.977283622030954,4.10142265368377,14413.0692931982,0,4,-2845.25008332974,5700.50016665949,5725.06885341279,16855.3111197187,1002,762.67037037,2.1074915420469,25.6525990992691
27,83.5116198152663,0.988276614675421,0.988242032417827,3.03734054839125,28577.562120437,0,4,-2581.04525591527,5172.09051183054,5196.73320092137,9382.270046219,1017,762.67037037,2.1074915420469,25.6525990992691
28,79.7403036194126,0.977481202757034,0.977422712374585,4.45062240040091,16711.8278565704,0,4,-3372.98424074171,6755.96848148341,6781.24504570011,22878.2859123476,1155,762.67037037,2.1074915420469,25.6525990992691
29,76.6212781078781,0.983872525668933,0.983835648822139,3.87092885281208,26679.9526319509,0,4,-3646.51881533716,7303.03763067431,7328.94939123374,19659.1263207954,1312,762.67037037,2.1074915420469,25.6525990992691
30,74.4771442142842,0.977916623773497,0.977870230125962,4.54604513176615,21078.6751147921,0,4,-4198.33414039172,8406.66828078344,8433.00241752104,29511.7996135981,1428,762.67037037,2.1074915420469,25.6525990992691
31,73.110261166154,0.983120391150585,0.983087444614119,3.97980213194047,29839.8707908213,0,4,-4313.06034935337,8636.12069870674,8662.82163288334,24344.2740394445,1537,762.67037037,2.1074915420469,25.6525990992691
32,72.3499881225134,0.950115612446669,0.950020413233781,6.17384153269248,9980.28852994931,0,4,-5103.07088993923,10216.1417798785,10242.9550062306,59918.8538936954,1572,762.67037037,2.1074915420469,25.6525990992691
33,64.7990799088468,0.944202634504216,0.944091410519839,6.19540763740281,8489.19987710539,0,4,-4891.3023369004,9792.6046738008,9819.20068609464,57766.5290693515,1505,762.67037037,2.1074915420469,25.6525990992691
34,73.5006842396831,0.970226635066378,0.97016574883952,4.44464152119154,15935.075716339,0,4,-4279.54540793615,8569.09081587229,8595.5593044753,28980.3477155371,1467,762.67037037,2.1074915420469,25.6525990992691
35,75.2705468800979,0.925798437409366,0.925637595871959,6.5513908177885,5755.96610385621,0,4,-4576.47598028687,9162.95196057374,9189.13005627908,59402.2787600065,1384,762.67037037,2.1074915420469,25.6525990992691
36,76.9470553611582,0.97234633353719,0.972276910106739,4.54546193869139,14006.0254474103,0,4,-3514.74505937012,7039.49011874024,7064.93633451538,24690.16296213,1195,762.67037037,2.1074915420469,25.6525990992691
37,76.9183139507125,0.970829685609881,0.970752651328921,4.12882636888964,12602.5669807477,0,4,-3232.09865247571,6474.19730495142,6499.39122265836,19365.627361522,1136,762.67037037,2.1074915420469,25.6525990992691
38,81.4746643221707,0.98012672403622,0.980064098166586,3.97491121532549,15650.5088035988,0,4,-2673.7833478931,5357.5666957862,5381.88048535146,15041.5230495738,952,762.67037037,2.1074915420469,25.6525990992691
39,77.8166323920126,0.982948929731809,0.982901078271749,3.43377472718407,20541.6705883375,0,4,-2844.23466024437,5698.46932048873,5723.36038920189,12604.3746895643,1069,762.67037037,2.1074915420469,25.6525990992691
40,76.0521955071414,0.974905438564499,0.974841692853824,3.98305115983934,15293.6633422071,0,4,-3317.16583487413,6644.33166974827,6669.71916001611,18736.2066159809,1181,762.67037037,2.1074915420469,25.6525990992691
41,75.0288580947768,0.949645985747812,0.949528336181803,7.04546470137134,8071.81885965339,0,4,-4340.26044603052,8690.52089206105,8716.32512159437,63735.9275500181,1284,762.67037037,2.1074915420469,25.6525990992691
42,71.8124080723602,0.986076689176698,0.986047294431821,3.4700364235858,33546.0196477355,0,4,-3792.91985166049,7595.83970332097,7622.14933878449,17110.4781018183,1421,762.67037037,2.1074915420469,25.6525990992691
43,70.9878773906407,0.983937412696808,0.983905287522202,3.94410777906184,30628.2354805094,0,4,-4195.90392626825,8401.80785253649,8428.38727005904,23333.9792592841,1500,762.67037037,2.1074915420469,25.6525990992691
44,70.4629370624438,0.98337662714071,0.983344983664455,3.6513723121814,31076.7571557663,0,4,-4286.18320167662,8582.36640335325,8609.19230398335,21012.0511451719,1576,762.67037037,2.1074915420469,25.6525990992691
45,70.6363568248733,0.984570235806515,0.984539701972359,3.5614420560493,32245.2211791396,0,4,-4085.43554711421,8180.87109422843,8207.50342229763,19228.7461901926,1516,762.67037037,2.1074915420469,25.6525990992691
46,70.6573990693477,0.986277625115995,0.986248957201892,3.24019456058902,34403.5363567049,0,4,-3734.180768577,7478.361537154,7504.72352911685,15076.3640951159,1436,762.67037037,2.1074915420469,25.6525990992691
47,72.1304990638758,0.981702673085194,0.981662518015154,3.71825869458948,24447.7888374234,0,4,-3743.83504942881,7497.67009885761,7523.78657725542,18899.38703309,1367,762.67037037,2.1074915420469,25.6525990992691
48,73.1103366981632,0.976140673386779,0.976083134817776,3.94950187349579,16964.980017783,0,4,-3483.07172725144,6976.14345450288,7001.78994224752,19404.614920641,1244,762.67037037,2.1074915420469,25.6525990992691
49,75.2789721968555,0.974825005251312,0.974754749452013,4.20276694519236,13875.3670868825,0,4,-3078.19777114006,6166.39554228012,6191.31449210641,18987.9937452716,1075,762.67037037,2.1074915420469,25.6525990992691
50,79.1069211910608,0.980878372474498,0.9808238949032,3.6533687550111,18005.1780780367,0,4,-2867.31595649281,5744.63191298561,5769.44786291497,14054.4997328762,1053,762.67037037,2.1074915420469,25.6525990992691
51,79.7349800273512,0.984686467077923,0.984645041831065,2.91913735714347,23770.2015497486,0,4,-2769.61869254081,5549.23738508163,5574.31145683801,9450.19146704643,1109,762.67037037,2.1074915420469,25.6525990992691
52,76.1717187775304,0.973009292194478,0.972939368080992,4.62462070642071,13915.2181370446,0,4,-3426.28336952664,6862.56673905328,6887.85622874034,24766.2811134195,1158,762.67037037,2.1074915420469,25.6525990992691
53,73.741575832034,0.977282131923393,0.977228383024158,4.37322088204748,18182.3655151114,0,4,-3679.72238513215,7369.44477026429,7395.18649898379,24250.5771998674,1268,762.67037037,2.1074915420469,25.6525990992691
54,71.7519045019709,0.980031374961795,0.979988493161427,4.20309931924292,22854.2497409847,0,4,-3997.51690748152,8005.03381496304,8031.25852269473,24679.4633107262,1397,762.67037037,2.1074915420469,25.6525990992691
55,71.0824035784239,0.987770603920495,0.987745931298949,3.07530829415242,40035.0891813131,0,4,-3788.63175078752,7587.26350157503,7613.79951314886,14063.3338817709,1487,762.67037037,2.1074915420469,25.6525990992691
56,70.2095125771105,0.983577182489419,0.983545801309463,3.51217198371473,31342.899911733,0,4,-4208.72003669534,8427.44007339069,8454.24695053557,19366.5027078093,1570,762.67037037,2.1074915420469,25.6525990992691
57,71.0026466432628,0.986915861431352,0.986890537292187,3.19927291766786,38971.3488382066,0,4,-4010.21113113307,8030.42226226613,8057.16519992077,15864.7881626707,1550,762.67037037,2.1074915420469,25.6525990992691
58,70.4143928924928,0.976947784380905,0.9769012768847,4.00792384828141,21006.2433821046,0,4,-4183.55025067246,8377.10050134493,8403.63651291875,23886.3554639772,1487,762.67037037,2.1074915420469,25.6525990992691
59,71.4866415751149,0.974360601588739,0.9743046203695,4.30858093129673,17405.1336294863,0,4,-3966.01304064753,7942.02608129507,7968.16802355293,25506.7568874675,1374,762.67037037,2.1074915420469,25.6525990992691
60,72.9225973438965,0.976270525284952,0.976215722802931,3.83691465603944,17814.3487171384,0,4,-3598.97697758183,7207.95395516367,7233.81607804929,19123.7663869716,1299,762.67037037,2.1074915420469,25.6525990992691
61,74.4183829635588,0.95144034525452,0.951317925956842,5.33928057475317,7771.98009875517,0,4,-3692.26780962178,7394.53561924356,7419.96094071332,33924.4212965645,1190,762.67037037,2.1074915420469,25.6525990992691
62,77.1991560585495,0.968380392215012,0.968290563783805,4.74835937469313,10780.3328990538,0,4,-3153.33817548934,6316.67635097867,6341.5064719142,23809.5440893053,1056,762.67037037,2.1074915420469,25.6525990992691
63,81.0491033613207,0.978215384364632,0.978151995570348,4.08342088800922,15431.9922854568,0,4,-2922.77532535223,5855.55065070445,5880.26143423295,17191.2302592376,1031,762.67037037,2.1074915420469,25.6525990992691
64,75.5560764735703,0.978387197350562,0.978329665489029,4.05435092162957,17006.0062593312,0,4,-3185.97911150658,6381.95822301315,6407.11251039373,18525.3570929748,1127,762.67037037,2.1074915420469,25.6525990992691
65,73.235931907597,0.974314740864803,0.974251268231026,4.61168972678363,15350.1545923546,0,4,-3588.09172994626,7186.18345989252,7211.70828713387,25818.9661132517,1214,762.67037037,2.1074915420469,25.6525990992691
66,72.1910396440529,0.973294997035689,0.973236561580625,4.77627919449259,16655.8983063862,0,4,-4099.07258767261,8208.14517534522,8234.27622039573,31276.4076758714,1371,762.67037037,2.1074915420469,25.6525990992691
67,70.6023396977833,0.983990844685019,0.983958415606056,3.71978002473334,30342.8551206326,0,4,-4055.91285545909,8121.82571091817,8148.34156117436,20492.2466433921,1481,762.67037037,2.1074915420469,25.6525990992691
68,77.9529526485822,0.915584738604465,0.915415456663163,7.34218869407473,5408.63798918364,0,4,-5116.86060646175,10243.7212129235,10270.2873148589,80645.9712898205,1496,762.67037037,2.1074915420469,25.6525990992691
69,87.2173789736491,0.961894913751224,0.961813434593172,5.09114240574259,11805.4105706717,0,4,-4284.33932883768,8578.67865767536,8604.92473296093,36365.3825867573,1403,762.67037037,2.1074915420469,25.6525990992691
70,103.815781907489,0.699794585503002,0.698983219517875,13.3277332146079,862.489429346052,2.06455593234948e-289,4,-4463.78356080792,8937.56712161585,8962.64568371828,197167.604630136,1110,762.67037037,2.1074915420469,25.6525990992691
71,89.0488833701754,0.696530222220844,0.695530870592592,15.0510431710586,696.982125740116,2.55458033291094e-235,4,-3777.29865528838,7564.59731057677,7588.69193090315,206372.383389271,911,762.67037037,2.1074915420469,25.6525990992691
