"Age","power_predict","r.squared","adj.r.squared","sigma","statistic","p.value","df","logLik","AIC","BIC","deviance","df.residual","GHI","Wind_speed","Ambient_temp"
0,42.7757039179099,0.978097530634729,0.976321654740247,3.29597055626171,550.76907889463,9.75553240211332e-31,4,-104.972797535366,219.945595070732,228.513455404254,401.946610586532,37,515.74,0.730010465090661,22.836919407786
1,46.4940586664826,0.466753914223807,0.465256031960391,14.591747377086,311.609213636902,2.69722108364787e-145,4,-4392.54732839513,8795.09465679026,8819.98106349842,227397.589739831,1068,515.74,0.730010465090661,22.836919407786
2,72.3123905611879,0.762129797477747,0.761457214435743,14.6662610436657,1133.13858643594,0,4,-4369.27619108652,8748.55238217304,8773.40603256375,228220.264994004,1061,515.74,0.730010465090661,22.836919407786
3,75.1948298949071,0.753322690820968,0.752544528962359,12.1301139798407,968.079689960174,1.93842047346409e-288,4,-3736.4671180579,7482.9342361158,7507.2427928182,139929.821570895,951,515.74,0.730010465090661,22.836919407786
4,80.9403159100384,0.960191803471845,0.960067273138598,4.78926819537691,7710.50537191287,0,4,-2872.85529239949,5755.71058479898,5780.06085185797,21996.6691635116,959,515.74,0.730010465090661,22.836919407786
5,84.8349071292375,0.98857976895366,0.988547447545039,3.35967313828107,30585.9122825931,0,4,-2797.14851554622,5604.29703109244,5629.14598444195,11964.6478118526,1060,515.74,0.730010465090661,22.836919407786
6,82.1820710019133,0.987400639469277,0.987368742354009,4.06695688177901,30955.7974501412,0,4,-3353.15672884674,6716.31345769348,6741.71779717693,19600.0638597259,1185,515.74,0.730010465090661,22.836919407786
7,49.718078239224,0.886724011731426,0.886463806551636,9.28105834559617,3407.78770217837,0,4,-4775.4544366988,9560.90887339761,9586.79778547858,112496.285482754,1306,515.74,0.730010465090661,22.836919407786
8,45.1864714281437,0.992085426102974,0.992069339570663,2.37303232881742,61671.8014125899,0,4,-3376.99585099173,6763.99170198345,6790.49068881724,8311.77287201222,1476,515.74,0.730010465090661,22.836919407786
9,43.8375718028289,0.992736096945795,0.992721983144524,2.35618192053362,70337.9676300927,0,4,-3521.21601791878,7052.43203583757,7079.15563110832,8571.6599666508,1544,515.74,0.730010465090661,22.836919407786
10,73.9400141187252,0.957327258748396,0.957246131863887,9.82792467396061,11800.3700566746,0,4,-5857.98859090693,11725.9771818139,11752.8094075555,152416.027160535,1578,515.74,0.730010465090661,22.836919407786
11,76.0398557598591,0.993795328389774,0.993782885866492,3.52505483829731,79870.883567843,0,4,-4016.2491180506,8042.4982361012,8069.06433803665,18589.3133730529,1496,515.74,0.730010465090661,22.836919407786
12,73.8709390408868,0.993412600793429,0.993398026901379,3.25531188400952,68163.8506302625,0,4,-3532.94525784185,7075.89051568371,7101.96671557736,14369.6072067074,1356,515.74,0.730010465090661,22.836919407786
13,68.5827678209218,0.990816341709518,0.990793795903567,2.95271680716078,43946.8140499028,0,4,-3065.03707784236,6140.07415568472,6165.6317162672,10654.0516559001,1222,515.74,0.730010465090661,22.836919407786
14,67.2371895115786,0.977090839383212,0.977028074559604,3.7425477873347,15567.4912032142,0,4,-3007.83329952053,6025.66659904106,6050.67737881308,15337.2970148299,1095,515.74,0.730010465090661,22.836919407786
15,74.6973219639325,0.945855464126298,0.945673159291707,5.08780456165794,5188.31805116562,0,4,-2723.97304482361,5457.94608964722,5481.93020823859,23064.207934546,891,515.74,0.730010465090661,22.836919407786
16,83.1786311540954,0.955465179547406,0.955316399523622,4.84729045323643,6421.99910477454,0,4,-2701.61284042518,5413.22568085037,5437.24875345068,21099.6098147573,898,515.74,0.730010465090661,22.836919407786
17,74.9614420463108,0.881518099551043,0.881178933805483,9.26824147630025,2599.07762234532,0,4,-3833.09605643543,7676.19211287086,7700.98435483735,90023.5144660369,1048,515.74,0.730010465090661,22.836919407786
18,71.4027987091265,0.834425751581812,0.834006576269361,13.6939575733649,1990.63667824936,0,4,-4796.67366174009,9603.34732348018,9628.75166296363,222216.501715024,1185,515.74,0.730010465090661,22.836919407786
19,73.806578192024,0.991982283279646,0.991964184596304,3.41218251009296,54809.638057838,0,4,-3525.50243241873,7061.00486483747,7086.98080143836,15473.5330218229,1329,515.74,0.730010465090661,22.836919407786
20,69.7766483118635,0.993822429359863,0.993809822072842,3.38390923736317,78829.206293869,0,4,-3886.36528760405,7782.7305752081,7809.20925057184,16832.7373382664,1470,515.74,0.730010465090661,22.836919407786
21,69.466280109162,0.994267774219633,0.994256736557668,3.4215581528948,90079.5637150137,0,4,-4135.78944998883,8281.57889997766,8308.34751162966,18239.5997816925,1558,515.74,0.730010465090661,22.836919407786
22,69.0863567997977,0.994094858342402,0.994083667296936,3.38885987908459,88829.4897340946,0,4,-4186.7761849287,8383.55236985739,8410.40037346002,18179.7597363496,1583,515.74,0.730010465090661,22.836919407786
23,67.3483999015832,0.995407161433494,0.995397839027744,2.8436499670931,106775.781708498,0,4,-3649.68525064449,7309.37050128898,7335.87624031826,11951.6181100452,1478,515.74,0.730010465090661,22.836919407786
24,65.3102341676234,0.99507580730408,0.995065232802943,2.55858854917153,94101.4421819486,0,4,-3302.10754207741,6614.21508415483,6640.43979188651,9145.28638344046,1397,515.74,0.730010465090661,22.836919407786
25,67.1766366706355,0.984282504245705,0.984245550885781,4.17120099309274,26635.8054118204,0,4,-3642.33931389504,7294.67862779009,7320.45170457466,22201.0190168166,1276,515.74,0.730010465090661,22.836919407786
26,66.9499310036151,0.987869649380844,0.987837330507081,3.00138741894204,30566.3389329745,0,4,-2843.35135417993,5696.70270835986,5721.85257291839,10143.3755698451,1126,515.74,0.730010465090661,22.836919407786
27,63.5189884130705,0.95040473461494,0.950254748933332,4.48822744735267,6336.63643372721,0,4,-2906.71076677525,5823.42153355051,5847.94026983843,19983.0321342165,992,515.74,0.730010465090661,22.836919407786
28,57.012847626923,0.907522854559124,0.906381161405532,5.54445986898829,794.892087864952,2.80782960222496e-125,4,-771.522850608169,1553.04570121634,1570.59264289948,7470.07156303366,243,515.74,0.730010465090661,22.836919407786
29,66.1606165991122,0.976691485491722,0.976620996032523,3.31367857521922,13855.8515925396,0,4,-2604.52544084974,5219.05088169947,5243.5696179874,10892.6219742679,992,515.74,0.730010465090661,22.836919407786
30,68.1396867391054,0.988434859477221,0.988403545919849,3.01529801871075,31565.7160165541,0,4,-2803.168964901,5616.33792980199,5641.40750717605,10073.9605329382,1108,515.74,0.730010465090661,22.836919407786
31,69.2493632454424,0.984163050861629,0.984126277759914,4.58851353963868,26763.1231790814,0,4,-3811.46998301591,7632.93996603182,7658.77515541639,27202.3578024541,1292,515.74,0.730010465090661,22.836919407786
32,70.4938883682751,0.993599081165003,0.993585874317338,3.25717434940295,75233.6292780924,0,4,-3788.50359386961,7587.00718773922,7613.43129230206,15425.754615462,1454,515.74,0.730010465090661,22.836919407786
33,69.7318759753151,0.996595607218733,0.996589085393481,2.58068787749757,152809.308558842,0,4,-3714.17883767875,7438.3576753575,7465.15182984921,10429.4815763845,1566,515.74,0.730010465090661,22.836919407786
34,76.95127591031,0.990540349604092,0.990521801269982,4.68837915644822,53403.1974920142,0,4,-4544.81244398249,9099.62488796498,9126.30305787461,33630.7756453658,1530,515.74,0.730010465090661,22.836919407786
35,80.3804056650436,0.993789914894808,0.993774415514346,3.55047585574742,64118.0411899571,0,4,-3237.33700282545,6484.67400565089,6510.14932753733,15152.2663202989,1202,515.74,0.730010465090661,22.836919407786
36,80.3250555757775,0.995628646827862,0.995619312977673,2.90290108230557,106668.590838889,0,4,-3498.86779872566,7007.73559745132,7033.98877501081,11839.7027445795,1405,515.74,0.730010465090661,22.836919407786
37,78.7561156519152,0.994537056946643,0.994517070569618,2.85910010138507,49760.747319468,0,4,-2032.81818779825,4075.63637559651,4099.20722824605,6703.0517795869,820,515.74,0.730010465090661,22.836919407786
