"Age","power_predict","r.squared","adj.r.squared","sigma","statistic","p.value","df","logLik","AIC","BIC","deviance","df.residual","GHI","Wind_speed","Ambient_temp"
0,56.1722828135756,0.962973795752087,0.960505382135559,12.9003039504688,390.118491206008,3.30596323097499e-32,4,-192.746914606644,395.493829213288,404.952930703842,7488.80289065168,45,499.9,1.75099137949053,19.1431909929161
1,111.07895359491,0.980529147156281,0.980483476664857,9.10167179483976,21469.6430142491,0,4,-4651.94676951584,9313.89353903168,9339.67832085476,105952.909280596,1279,499.9,1.75099137949053,19.1431909929161
2,110.564200403019,0.985135828744486,0.985100605589852,7.0790830825975,27968.4156340674,0,4,-4285.62215777264,8581.24431554528,8606.97817644254,63443.5862895428,1266,499.9,1.75099137949053,19.1431909929161
3,119.95893760711,0.980178456681444,0.980125739810916,7.53876373204128,18593.2595554858,0,4,-3890.94076834639,7791.88153669278,7817.0402429866,64107.5773093062,1128,499.9,1.75099137949053,19.1431909929161
4,131.442930558149,0.981587972392397,0.981532121954761,6.51906158098139,17575.2959856021,0,4,-3268.60924765293,6547.21849530585,6571.72214862608,42030.6840937647,989,499.9,1.75099137949053,19.1431909929161
5,134.150037263467,0.982363724436105,0.982302699261143,5.86219152274176,16097.6797699416,0,4,-2774.27483629293,5558.54967258585,5582.39788247011,29794.7059525477,867,499.9,1.75099137949053,19.1431909929161
6,136.90905327134,0.983115656052695,0.983062671709764,5.58946063488184,18554.833403055,0,4,-3012.22429681195,6034.44859362389,6058.7832600462,29867.4191005824,956,499.9,1.75099137949053,19.1431909929161
7,135.328844795108,0.985301015309343,0.985254302434267,6.32334192674874,21092.7076036578,0,4,-3091.49646401837,6192.99292803674,6217.26470054801,37745.5125477141,944,499.9,1.75099137949053,19.1431909929161
8,133.156974528975,0.982776700450429,0.982732763461782,7.99632260272919,22367.8665907054,0,4,-4125.54255004992,8261.08510009984,8286.45144868714,75194.8219962953,1176,499.9,1.75099137949053,19.1431909929161
9,133.259546572848,0.988282527111725,0.988255507573935,7.43065175120554,36576.588940633,0,4,-4467.03742816759,8944.07485633517,8969.94464793396,71834.1756674499,1301,499.9,1.75099137949053,19.1431909929161
10,132.129093242281,0.980779804624626,0.98074003870316,9.9217737425081,24663.8269266823,0,4,-5397.67377753418,10805.3475550684,10831.7579233588,142740.311586409,1450,499.9,1.75099137949053,19.1431909929161
11,127.141265562184,0.978726464159488,0.978683660264437,10.6568073876696,22865.3598693714,0,4,-5656.77775131236,11323.5555026247,11350.1049100538,169329.207653552,1491,499.9,1.75099137949053,19.1431909929161
12,123.892491692208,0.983959101456923,0.98392673918683,9.00191912344257,30404.5142262918,0,4,-5390.01441113631,10790.0288222726,10816.5648338465,120498.372734737,1487,499.9,1.75099137949053,19.1431909929161
13,122.996159011363,0.988566231284784,0.988541571826735,7.5150605932646,40088.7249563692,0,4,-4791.00455612099,9592.00911224197,9618.21236071325,78558.3047871299,1391,499.9,1.75099137949053,19.1431909929161
14,122.078441472157,0.967544124174421,0.96746985443569,10.9268137042109,13027.4340626788,0,4,-5008.35508298997,10026.7101659799,10052.618125703,156527.182879481,1311,499.9,1.75099137949053,19.1431909929161
15,130.999636111465,0.975113924362115,0.975050439475284,9.23280085466846,15359.7804616508,0,4,-4295.20376702831,8600.40753405663,8625.77388264393,100247.663267433,1176,499.9,1.75099137949053,19.1431909929161
16,134.979503008594,0.987547101221414,0.987510653712794,5.60687922745807,27095.0508993831,0,4,-3232.07396464571,6474.14792929142,6498.82964297059,32223.0220380834,1025,499.9,1.75099137949053,19.1431909929161
17,136.437778352664,0.984431880359349,0.9843828211588,5.25606098867827,20066.2030640051,0,4,-2940.87012375139,5891.74024750279,5916.05403706804,26300.1206151037,952,499.9,1.75099137949053,19.1431909929161
18,139.005020378388,0.981894549159785,0.981828790863755,5.7067687305892,14931.8733671908,0,4,-2621.28611028549,5252.57222057099,5276.17934907494,26900.5149184997,826,499.9,1.75099137949053,19.1431909929161
19,133.113861829969,0.990325779010265,0.990295765915157,5.0657193505906,32996.4562286723,0,4,-2951.22894796238,5912.45789592476,5936.84952826622,24814.6826251627,967,499.9,1.75099137949053,19.1431909929161
20,131.59922306395,0.988715881929337,0.98868613469365,6.57463378081071,33237.2356318154,0,4,-3769.06025251315,7548.12050502629,7573.32318697737,49190.9710423226,1138,499.9,1.75099137949053,19.1431909929161
21,127.523200553721,0.986643586668128,0.986613185120332,7.61282683706609,32453.7287797548,0,4,-4557.27500580974,9124.55001161948,9150.48451672153,76384.8645706205,1318,499.9,1.75099137949053,19.1431909929161
22,124.331267938617,0.986612206518413,0.986584545788079,7.75306568301689,35668.3353841442,0,4,-5045.98837094088,10101.9767418818,10128.3939830255,87279.7599084728,1452,499.9,1.75099137949053,19.1431909929161
23,120.482753315961,0.986147236676214,0.986119751034699,8.09666441984494,35878.6327079893,0,4,-5319.7496732645,10649.499346529,10676.11849936,99120.6337881054,1512,499.9,1.75099137949053,19.1431909929161
24,116.884652801609,0.988086417993383,0.988062430915517,6.90698657257369,41192.4463465983,0,4,-5005.09645487667,10020.1929097533,10046.7389715818,71082.6306354327,1490,499.9,1.75099137949053,19.1431909929161
25,117.537136382214,0.991186513618354,0.991167326057291,6.09220661973022,51657.7646507164,0,4,-4456.25845805298,8922.51691610595,8948.67335112759,51144.444503534,1378,499.9,1.75099137949053,19.1431909929161
26,117.181702314855,0.98923482196691,0.989210299921277,5.92011218295639,40340.6321296892,0,4,-4221.62224969926,8453.24449939853,8479.17522092114,46157.8581168247,1317,499.9,1.75099137949053,19.1431909929161
27,116.325029484382,0.986718299425351,0.986685260369195,5.85694769334856,29865.2084602859,0,4,-3853.74291378865,7717.48582757731,7742.97770577026,41370.4265568409,1206,499.9,1.75099137949053,19.1431909929161
28,124.334112969957,0.975152926342393,0.975079486715818,7.35268849640279,13278.2936383402,0,4,-3476.8667123171,6963.7334246342,6988.36630980032,54872.9585470109,1015,499.9,1.75099137949053,19.1431909929161
29,133.546621771018,0.985292965780784,0.985245625541881,4.99870125060065,20813.01211425,0,4,-2832.31290993025,5674.6258198605,5698.83389724288,23287.897227649,932,499.9,1.75099137949053,19.1431909929161
30,131.810163360917,0.985060821841257,0.985010465060946,4.85328969371587,19561.6323317318,0,4,-2678.73970658926,5367.47941317852,5391.45794205439,20963.4345575045,890,499.9,1.75099137949053,19.1431909929161
31,131.670206021841,0.985312774268202,0.985267721428534,5.63582048260414,21870.1591625984,0,4,-3089.41172745663,6188.82345491325,6213.27141145503,31063.6981168732,978,499.9,1.75099137949053,19.1431909929161
32,130.969813109073,0.986958906712202,0.986920625616445,6.85223401778544,25781.8875662218,0,4,-3428.44070241744,6866.88140483488,6891.54851996354,47986.0794772549,1022,499.9,1.75099137949053,19.1431909929161
33,130.136276787726,0.984544461871823,0.984508518759897,7.7120232309276,27391.7423705272,0,4,-4477.46142147057,8964.92284294114,8990.75031031645,76723.1399855334,1290,499.9,1.75099137949053,19.1431909929161
34,127.554937933359,0.977549080145098,0.977501073901645,10.3813583745053,20362.9571870172,0,4,-5286.84017730773,10583.6803546155,10609.926429901,151204.960184976,1403,499.9,1.75099137949053,19.1431909929161
35,124.785513883572,0.983720108014252,0.983686633253487,9.07965490330508,29386.9197422459,0,4,-5301.33527457821,10612.6705491564,10639.1117711615,120280.15428498,1459,499.9,1.75099137949053,19.1431909929161
36,127.490622373453,0.972866880932858,0.972813258167903,11.577615477464,18142.7959142437,0,4,-5885.11173297784,11780.2234659557,11806.8623686478,203474.511458612,1518,499.9,1.75099137949053,19.1431909929161
37,125.91415625132,0.987403930965482,0.987377597720114,7.92460562749831,37496.4770636671,0,4,-5018.54027168014,10047.0805433603,10073.4390618947,90117.1021942274,1435,499.9,1.75099137949053,19.1431909929161
38,124.256930341601,0.983086727893964,0.983049364258973,8.26478708848807,26311.3245840339,0,4,-4807.1407471839,9624.2814943678,9650.36504180135,92760.5062292972,1358,499.9,1.75099137949053,19.1431909929161
39,125.590021831333,0.982188896197095,0.982146115323269,7.6631232178907,22958.5982790145,0,4,-4327.56058116111,8665.12116232222,8690.7876420967,73345.5983582669,1249,499.9,1.75099137949053,19.1431909929161
40,129.528405408918,0.98388513752872,0.983838918993907,6.60120870913284,21287.6747720551,0,4,-3469.4970491511,6948.99409830221,6973.77682551797,45580.4504169217,1046,499.9,1.75099137949053,19.1431909929161
41,126.410643782172,0.982818258434573,0.982765714882385,5.36637094599312,18704.8308976309,0,4,-3050.59998365967,6111.19996731934,6135.6631755252,28250.7763245291,981,499.9,1.75099137949053,19.1431909929161
42,129.591449325826,0.981259478780957,0.981194707394256,4.99400414061664,15149.5826899487,0,4,-2637.69335401271,5285.38670802543,5309.24065514497,21647.9871454386,868,499.9,1.75099137949053,19.1431909929161
43,131.923331988196,0.989325826983352,0.989288677889326,4.20397558665833,26631.2235314644,0,4,-2470.39867583221,4950.79735166442,4974.61677620724,15234.480052035,862,499.9,1.75099137949053,19.1431909929161
44,129.239438267814,0.987450319316146,0.987414360345705,6.0363778266955,27460.4725110422,0,4,-3378.79272816294,6767.58545632587,6792.37294318026,38150.4365581523,1047,499.9,1.75099137949053,19.1431909929161
45,126.847880108736,0.985472876384829,0.985437386669156,7.55056359579621,27767.8436616947,0,4,-4236.76758050539,8483.53516101077,8509.11713173124,70009.5210341921,1228,499.9,1.75099137949053,19.1431909929161
46,125.176761519403,0.971564447264638,0.971501629401452,11.9526533145061,15466.3721112832,0,4,-5309.64971842997,10629.2994368599,10655.3829842935,194011.921066699,1358,499.9,1.75099137949053,19.1431909929161
47,115.70328965544,0.98072295095895,0.98068239615732,10.2258361956429,24182.6593044979,0,4,-5351.7112937501,10713.4225875002,10739.7497361165,149113.577133571,1426,499.9,1.75099137949053,19.1431909929161
48,111.966643327302,0.979633728652338,0.979594105556331,10.1441541790642,24723.8057439071,0,4,-5773.60006491471,11557.2001298294,11583.9172609752,158677.758301301,1542,499.9,1.75099137949053,19.1431909929161
49,116.57718128325,0.988068363577384,0.988043191348644,7.88122009754796,39252.3194427847,0,4,-4965.35590617341,9940.71181234682,9967.02495535169,88325.5821813632,1422,499.9,1.75099137949053,19.1431909929161
50,115.924487503783,0.985601422417555,0.98556901751677,7.95858047011962,30415.196421542,0,4,-4668.39094160005,9346.78188320011,9372.77280108562,84430.8911314595,1333,499.9,1.75099137949053,19.1431909929161
51,116.673495058013,0.981780868884362,0.981737490000753,7.44844869965035,22632.6910056371,0,4,-4329.65444376885,8669.3088875377,8695.01907041123,69904.028919467,1260,499.9,1.75099137949053,19.1431909929161
52,119.568944622693,0.978289523379052,0.97822819434905,7.16403702522919,15951.4918683102,0,4,-3609.61722811663,7229.23445623326,7254.09279925689,54505.4789417837,1062,499.9,1.75099137949053,19.1431909929161
53,130.121907963786,0.972580925293074,0.972495948821875,7.03377432943585,11445.2966988209,0,4,-3273.30732181949,6556.61464363898,6581.01142266128,47890.8139152729,968,499.9,1.75099137949053,19.1431909929161
54,139.64030516896,0.985739333546625,0.985686188205805,4.17363152005532,18547.9915706001,0,4,-2301.80461130782,4613.60922261563,4637.08821720093,14022.4560524854,805,499.9,1.75099137949053,19.1431909929161
55,134.160947917668,0.979426575171172,0.979359850550106,5.8991167497293,14678.63825252,0,4,-2964.9812283368,5939.9624566736,5964.13300036767,32189.6100449165,925,499.9,1.75099137949053,19.1431909929161
56,131.570157726901,0.979677513541283,0.979619059601325,7.91004893404368,16759.8200266037,0,4,-3648.9610786811,7307.9221573622,7332.69057841655,65259.3357269411,1043,499.9,1.75099137949053,19.1431909929161
57,129.448027175514,0.98673029554094,0.986695558094712,7.06816871747472,28405.3781348002,0,4,-3878.71746533833,7767.43493067667,7792.67251678345,57253.0243354167,1146,499.9,1.75099137949053,19.1431909929161
58,122.080673766207,0.984122301491833,0.984087379867549,8.59504370609042,28180.8856731647,0,4,-4881.92705400547,9773.85410801094,9799.95963350185,100765.194886301,1364,499.9,1.75099137949053,19.1431909929161
59,115.616245712005,0.985809784831853,0.985780844896092,8.70218971972829,34063.9935407223,0,4,-5282.20428142318,10574.4085628464,10600.8906291902,111396.043805591,1471,499.9,1.75099137949053,19.1431909929161
60,114.455140894976,0.972996678761293,0.97293426738709,12.0768149346348,15590.0537550894,0,4,-5089.11120812244,10188.2224162449,10214.0807003587,189312.597737113,1298,499.9,1.75099137949053,19.1431909929161
61,115.621772156923,0.984994857222631,0.984964746568229,8.48166367957303,32712.5024932299,0,4,-5329.70821023775,10669.4164204755,10695.979187966,107548.235066215,1495,499.9,1.75099137949053,19.1431909929161
62,117.810896895356,0.981587708175139,0.981546301222009,9.35261964001445,23705.8666236136,0,4,-4887.84513143899,9785.69026287798,9811.68491908142,116686.973170466,1334,499.9,1.75099137949053,19.1431909929161
63,115.296425544617,0.988064905606232,0.988036398215164,6.59808876627222,34659.9554919712,0,4,-4163.20220354709,8336.40440709418,8362.09874209391,54679.6778617152,1256,499.9,1.75099137949053,19.1431909929161
64,122.422314770606,0.986420388972084,0.986384336907408,6.3384231601579,27360.9957665462,0,4,-3701.15120890381,7412.30241780763,7437.46995022907,45398.4372176654,1130,499.9,1.75099137949053,19.1431909929161
65,123.072602033524,0.987677493154975,0.987640927852765,5.22251765919838,27011.3313288702,0,4,-3115.99294968043,6241.98589936085,6266.59911881823,27574.712298346,1011,499.9,1.75099137949053,19.1431909929161
66,120.473042693863,0.978937393274669,0.978870457024483,5.65836972937188,14624.9213325831,0,4,-2986.16225272129,5982.32450544259,6006.59627795386,30224.1877065928,944,499.9,1.75099137949053,19.1431909929161
67,120.984250657566,0.980681227452121,0.980618094208501,5.58704582946135,15533.5156442588,0,4,-2892.51249743049,5795.02499486098,5819.15772097876,28655.4444502603,918,499.9,1.75099137949053,19.1431909929161
68,120.473178054929,0.98805990392622,0.988026238241802,5.6799226968655,29349.1702601996,0,4,-3368.47198005944,6746.94396011888,6771.81167521649,34326.2592402793,1064,499.9,1.75099137949053,19.1431909929161
69,118.587041133074,0.990145098724265,0.990119699494173,6.27361106850126,38983.2721359609,0,4,-3800.17604677035,7610.3520935407,7635.66733435764,45812.9399563882,1164,499.9,1.75099137949053,19.1431909929161
70,119.173086571702,0.979048028781667,0.978998960933381,9.67359325003533,19952.9439943093,0,4,-4737.51167461543,9485.02334923086,9510.81591921751,119873.938556292,1281,499.9,1.75099137949053,19.1431909929161
71,116.172997360893,0.983609575959592,0.983575943078524,9.03627807312861,29245.4748070713,0,4,-5305.18980361829,10620.3796072366,10646.8310716488,119378.617908591,1462,499.9,1.75099137949053,19.1431909929161
72,114.974736460138,0.984774539026645,0.984744626529645,8.75244542500684,32921.8433019385,0,4,-5491.64131209778,10993.2826241956,11019.9510061738,116976.294501363,1527,499.9,1.75099137949053,19.1431909929161
73,116.898625011558,0.982077296666181,0.982041283196656,9.27031458928172,27269.721845958,0,4,-5455.69382839898,10921.387656798,10947.9437487201,128306.527748284,1493,499.9,1.75099137949053,19.1431909929161
74,112.542726732161,0.987915622739132,0.987889856476315,7.34235617157466,38341.4401141724,0,4,-4813.17340144763,9636.34680289526,9662.60707265453,75851.6431694165,1407,499.9,1.75099137949053,19.1431909929161
75,111.627876300729,0.989535412103772,0.989511056972905,6.11769947119938,40629.4434413916,0,4,-4174.54807979349,8359.09615958698,8384.91976148084,48242.4321508681,1289,499.9,1.75099137949053,19.1431909929161
76,109.462361548993,0.990410564206263,0.99038550470506,4.95014693739995,39522.3574554595,0,4,-3475.14239402468,6960.28478804937,6985.53106225565,28130.5399977239,1148,499.9,1.75099137949053,19.1431909929161
77,123.216313802431,0.983720499269718,0.983671660767527,5.86594312820148,20142.3150821795,0,4,-3198.85022111156,6407.70044222311,6432.25917872437,34409.2887832941,1000,499.9,1.75099137949053,19.1431909929161
78,124.394125869299,0.97995249272171,0.979882559556786,5.74811614574945,14012.7004659797,0,4,-2734.98380731708,5479.96761463416,5503.77547847818,28415.1217335219,860,499.9,1.75099137949053,19.1431909929161
79,121.284617575914,0.984598941594203,0.984546675558889,5.23925845909063,18838.2175093814,0,4,-2728.70071532398,5467.40143064797,5491.34628936293,24265.649013819,884,499.9,1.75099137949053,19.1431909929161
80,114.525137030891,0.983968353172369,0.983922285221715,5.82193206107651,21359.0650159413,0,4,-3331.23427661937,6672.46855323874,6697.24174756315,35386.2682124373,1044,499.9,1.75099137949053,19.1431909929161
81,117.632023083397,0.987339978313523,0.987308169213808,6.2685615049812,31039.5448839181,0,4,-3896.87020655966,7803.74041311932,7829.1824570127,46918.0668300283,1194,499.9,1.75099137949053,19.1431909929161
82,114.82505609758,0.979952953992061,0.979906512958838,8.9460888169332,21101.0153302578,0,4,-4687.5882155737,9385.17643114741,9411.02318123076,103642.094130992,1295,499.9,1.75099137949053,19.1431909929161
83,110.847817026048,0.98787678483593,0.987851351517404,7.21943744651548,38841.8359100572,0,4,-4867.45332859255,9744.9066571851,9771.2477722909,74531.9961731345,1430,499.9,1.75099137949053,19.1431909929161
84,109.816354146388,0.987356311991099,0.987331422841475,7.67363462510177,39670.1505239916,0,4,-5279.87915491669,10569.7583098334,10596.416884682,89740.2345799706,1524,499.9,1.75099137949053,19.1431909929161
85,107.696625902841,0.988591895454613,0.9885689569066,7.2681515709585,43097.4050699407,0,4,-5088.04836640028,10186.0967328006,10212.6494835932,78816.4326695725,1492,499.9,1.75099137949053,19.1431909929161
86,107.660293904577,0.987898333568104,0.987872082664781,6.97115795050525,37632.927195429,0,4,-4659.31558086324,9328.63116172649,9354.80565382806,67209.7107053444,1383,499.9,1.75099137949053,19.1431909929161
87,107.942212307708,0.981961011322187,0.981919446832146,7.70150210234234,23624.9984145722,0,4,-4517.21915211717,9044.43830423435,9070.31192578353,77225.7012913632,1302,499.9,1.75099137949053,19.1431909929161
88,109.354862145417,0.987056631367359,0.987024881485186,5.95203609680935,31088.5132102318,0,4,-3927.67514853192,7865.35029706384,7890.9119342874,43326.8953123133,1223,499.9,1.75099137949053,19.1431909929161
89,106.208572203494,0.985862384789604,0.98582175945854,4.91747773332589,24267.1840194452,0,4,-3154.29369516271,6318.58739032541,6343.36058464982,25245.5770970972,1044,499.9,1.75099137949053,19.1431909929161
90,112.197538711713,0.979418101554301,0.979353174429867,5.39840103079239,15084.8833994512,0,4,-2963.31027711578,5936.62055423156,5960.92911093396,27714.7397384866,951,499.9,1.75099137949053,19.1431909929161
91,109.547438325945,0.984682096012002,0.984633825306158,4.1904850132814,20399.1650584818,0,4,-2724.27359891352,5458.54719782704,5482.8609873923,16717.2767435023,952,499.9,1.75099137949053,19.1431909929161
92,108.86785570509,0.976426584407921,0.976352763691035,6.27863809571919,13226.9994874663,0,4,-3130.35597505699,6270.71195011398,6295.05702236731,37765.6018908616,958,499.9,1.75099137949053,19.1431909929161
93,116.422200669068,0.983436341889983,0.98339173598843,6.91323261749394,22047.2248660038,0,4,-3745.95264621881,7501.90529243762,7527.00177570619,53241.1627390704,1114,499.9,1.75099137949053,19.1431909929161
94,113.45380681524,0.988393046595419,0.988365498446516,6.91344155297548,35878.7463384814,0,4,-4248.84777480932,8507.69554961865,8533.42153029364,60413.7320704997,1264,499.9,1.75099137949053,19.1431909929161
95,103.34822989558,0.739236072498214,0.738325371936509,34.3605169281305,811.722429503621,3.82113165812747e-250,4,-4274.89103088399,8559.78206176798,8583.5841352234,1014174.16114521,859,499.9,1.75099137949053,19.1431909929161
96,108.831106422495,0.989096256395619,0.989074521358534,6.99810069934987,45506.9964923891,0,4,-5075.14451556433,10160.2890311287,10186.8850434225,73704.9871643529,1505,499.9,1.75099137949053,19.1431909929161
97,110.737042159995,0.988794881505717,0.988768963729709,7.13949339888789,38151.224132296,0,4,-4401.33596033283,8812.67192066567,8838.52636305823,66111.1586926147,1297,499.9,1.75099137949053,19.1431909929161
98,110.58794837998,0.986412703670417,0.986383483678311,7.49529345986801,33758.1440840512,0,4,-4801.06326684412,9612.12653368823,9638.34409856156,78370.2965491085,1395,499.9,1.75099137949053,19.1431909929161
99,108.0803546023,0.990489775585204,0.990467828913477,5.94151616808585,45131.6622370269,0,4,-4171.97428326277,8353.94856652554,8379.81452523797,45892.0986883132,1300,499.9,1.75099137949053,19.1431909929161
100,106.227417732429,0.989337710810403,0.989277129621826,5.34534469672958,16330.7741898923,0,4,-1644.61999197046,3299.23998394093,3320.62320138764,15086.3908413795,528,499.9,1.75099137949053,19.1431909929161
