"Age","power_predict","r.squared","adj.r.squared","sigma","statistic","p.value","df","logLik","AIC","BIC","deviance","df.residual","GHI","Wind_speed","Ambient_temp"
1,34.351312652433,0.957577208288853,0.957443241578186,1.98430308654909,7147.8743004347,0,4,-2005.40860156173,4020.81720312345,4045.1205214807,3740.58580232382,950,846,4.51235869590382,26.5211784096127
2,35.889526788278,0.956679786122414,0.956567460589456,1.93313628744228,8517.02868374131,0,4,-2410.65002346014,4831.30004692029,4856.58523182878,4323.72740304084,1157,846,4.51235869590382,26.5211784096127
3,35.5017885610097,0.957387398210465,0.957276620216212,1.99362466098122,8642.39693687833,0,4,-2440.09457715205,4890.1891543041,4915.46140259476,4586.61833935884,1154,846,4.51235869590382,26.5211784096127
4,33.5336820658857,0.948854856596757,0.94870589015966,2.28899036220718,6369.58817763783,0,4,-2321.44516357201,4652.89032714403,4677.59627741937,5396.6611846257,1030,846,4.51235869590382,26.5211784096127
5,32.9283394578603,0.962809855651372,0.962721307688637,2.02687342236464,10873.314596008,0,4,-2684.54408124849,5379.08816249697,5404.7983453705,5176.35199656307,1260,846,4.51235869590382,26.5211784096127
6,31.1801273198167,0.961972865277583,0.961888485540773,2.06497164792725,11400.5198599112,0,4,-2905.33566461501,5820.67132923003,5846.73280157253,5765.07388991704,1352,846,4.51235869590382,26.5211784096127
7,31.1648042545652,0.968275020224212,0.968205346037296,1.93250706387402,13897.1843530871,0,4,-2844.52373987025,5699.04747974049,5725.1603098346,5101.44113192678,1366,846,4.51235869590382,26.5211784096127
8,24.4394726341601,0.726633319739656,0.725868301044898,5.10970412099003,949.82426536532,2.77831212659302e-301,4,-3279.88238964172,6569.76477928343,6594.66980798704,27988.929690755,1072,846,4.51235869590382,26.5211784096127
9,25.1281126475908,0.807183549439417,0.80666053917569,4.49771516565448,1543.34169981258,0,4,-3241.98033439464,6493.96066878928,6519.02124526081,22373.7625327623,1106,846,4.51235869590382,26.5211784096127
10,27.9926720076982,0.865195081693286,0.864767581952355,3.72664392289265,2023.84937078635,0,4,-2595.72005641838,5201.44011283676,5225.72242275974,13137.9296819189,946,846,4.51235869590382,26.5211784096127
11,29.6674835630532,0.899818318824123,0.899562317935258,3.46983231483353,3514.90310370865,0,4,-3135.06337315806,6280.12674631612,6305.48461313718,14134.650408056,1174,846,4.51235869590382,26.5211784096127
12,27.5111177234262,0.846445394071471,0.845829533352506,4.24666954638999,1374.41042756293,9.2370966786443e-304,4,-2152.52998865447,4315.05997730895,4338.1736589287,13489.5832727046,748,846,4.51235869590382,26.5211784096127
13,30.8075057880603,0.826766516833407,0.826070800033541,4.09418698342446,1188.36646893225,8.4496805052108e-284,4,-2122.20318043587,4254.40636087175,4277.51338913057,12521.488190266,747,846,4.51235869590382,26.5211784096127
14,34.8775080194405,0.925142584656753,0.924916656843846,2.71090006300704,4094.85920636439,0,4,-2409.38278228848,4828.76556457697,4853.29433095852,7304.88527670188,994,846,4.51235869590382,26.5211784096127
15,32.6848258763144,0.778103837419645,0.777268594649581,4.38182866037669,931.590030237505,5.4883685045425e-260,4,-2318.01513249325,4646.03026498651,4669.45956972185,15302.7366598922,797,846,4.51235869590382,26.5211784096127
16,33.5957235340407,0.882719399678884,0.882066631959101,3.40592243070223,1352.27183104512,2.49926065354443e-250,4,-1433.93130423564,2877.86260847128,2899.34815507095,6252.56579853476,539,846,4.51235869590382,26.5211784096127
17,29.931875408218,0.769225894088722,0.768184807896641,4.97955771566448,738.868596990199,3.28674095512841e-211,4,-2021.23705486001,4052.47410972001,4075.00303002065,16489.3367040164,665,846,4.51235869590382,26.5211784096127
18,27.4025202674924,0.774238478915456,0.773388686489793,5.31415878946529,911.091291865954,5.33540593984387e-257,4,-2472.53491196842,4955.06982393684,4978.49912867219,22507.506060802,797,846,4.51235869590382,26.5211784096127
19,30.2263538835167,0.930314399714633,0.929952709747754,2.64316259495987,2572.13217093659,0,4,-1389.50544276123,2789.01088552247,2810.84323776112,4038.08631496229,578,846,4.51235869590382,26.5211784096127
20,27.6770530153617,0.866672591700396,0.865757300567904,3.57476904222179,946.881883735924,9.70290212359945e-191,4,-1185.53291920958,2381.06583841916,2401.5110627964,5584.41150918433,437,846,4.51235869590382,26.5211784096127
21,26.8942026945534,0.827748869994612,0.827075136761214,3.9062547661093,1228.6003257105,2.35497534629609e-292,4,-2142.54485413572,4295.08970827143,4318.32815013925,11703.5197703755,767,846,4.51235869590382,26.5211784096127
22,22.5149820613367,0.777717572548141,0.77511270035144,4.6882134545478,298.562660207652,2.86468660721857e-83,4,-768.621886054954,1547.24377210991,1565.04718026499,5626.71242122317,256,846,4.51235869590382,26.5211784096127
23,26.9070298144594,0.800011574808234,0.798821167515426,4.50478317782593,672.048617008246,1.14495427377849e-175,4,-1483.42385769537,2976.84771539073,2998.00012262863,10227.7080255286,504,846,4.51235869590382,26.5211784096127
24,27.0721516204193,0.820854418431669,0.820089928040908,4.29337219107705,1073.72758160446,6.09666943048185e-262,4,-2031.33410909381,4072.66821818762,4095.47337151711,12958.4304740929,703,846,4.51235869590382,26.5211784096127
25,26.9949351244747,0.783803111712612,0.782355364692831,4.3304691853963,541.395078700176,1.52036829647485e-148,4,-1301.83681855021,2613.67363710043,2634.24204799959,8401.32758781877,448,846,4.51235869590382,26.5211784096127
26,31.1263915272276,0.874276555302658,0.873598191392421,3.22306428079664,1288.80169199541,7.65107440742135e-250,4,-1447.98462787909,2905.96925575817,2927.60893967682,5775.80770712983,556,846,4.51235869590382,26.5211784096127
27,33.2442820324398,0.881276105586419,0.88033135311098,3.29811142467118,932.811639552809,5.177519499489e-174,4,-993.271361863247,1996.54272372649,2016.25672060213,4100.83219151904,377,846,4.51235869590382,26.5211784096127
28,32.5009773105563,0.788309846285979,0.787231628185568,4.49236389529261,731.122808998946,4.51793132884025e-198,4,-1730.33454697729,3470.66909395459,3492.59506594958,11886.8053535921,589,846,4.51235869590382,26.5211784096127
29,34.1453537250039,0.895858740890219,0.89553397604892,3.61814464408962,2758.48437690419,0,4,-2610.92914959871,5231.85829919742,5256.22411836848,12593.5137802633,962,846,4.51235869590382,26.5211784096127
30,30.9073939950891,0.925156892170255,0.92494366394282,3.22376058686271,4338.81059416273,0,4,-2735.08406600381,5480.16813200761,5504.98408193696,10943.4418344441,1053,846,4.51235869590382,26.5211784096127
31,28.6456796619324,0.905903646524591,0.905579548866237,3.16709144515107,2795.15640787337,0,4,-2248.27856747242,4506.55713494485,4530.42825437663,8736.53782131768,871,846,4.51235869590382,26.5211784096127
32,28.4770406761144,0.970074504549132,0.970010056245935,1.67498972281988,15051.9789728632,0,4,-2700.83668252185,5411.6733650437,5437.88377683998,3908.18766617225,1393,846,4.51235869590382,26.5211784096127
33,29.0093207152841,0.96210753321543,0.96202521793639,2.02806294211456,11688.0795939766,0,4,-2942.5343285123,5895.06865702461,5921.23593411771,5680.10726940333,1381,846,4.51235869590382,26.5211784096127
34,30.6830258970431,0.957078498341173,0.956987755208702,2.1898876509927,10547.1176967144,0,4,-3132.56561029965,6275.13122059931,6301.43383358976,6804.96764411391,1419,846,4.51235869590382,26.5211784096127
35,32.1739381754868,0.950373549985378,0.95026318723516,2.3620943727013,8611.36160624376,0,4,-3080.79022580002,6171.58045160004,6197.6308497409,7526.73177466313,1349,846,4.51235869590382,26.5211784096127
36,31.6034251276427,0.953805531839975,0.953699823674849,2.17551752575577,9023.00716982299,0,4,-2886.00667469,5782.01334938001,5807.92130910307,6204.80109788526,1311,846,4.51235869590382,26.5211784096127
37,32.064321091737,0.93778775604793,0.937638566014471,2.39848772020689,6285.8606189043,0,4,-2876.68688495128,5763.37376990256,5789.04822416039,7196.68192332304,1251,846,4.51235869590382,26.5211784096127
38,35.4821162841434,0.939840112714779,0.93968729335673,2.33396910703254,6150.00694096946,0,4,-2683.80958149734,5377.61916299467,5403.00665326252,6433.39332703966,1181,846,4.51235869590382,26.5211784096127
39,35.2935037176081,0.941742103267255,0.941589993876308,2.22796299536027,6191.21605446885,0,4,-2557.68678464449,5125.37356928898,5150.62418189033,5703.42815589023,1149,846,4.51235869590382,26.5211784096127
40,34.1463976249797,0.948379294103755,0.948246820093756,2.13438598796162,7158.98381962999,0,4,-2551.75546252552,5113.51092505103,5138.8475242943,5325.50054481449,1169,846,4.51235869590382,26.5211784096127
41,32.387441872796,0.950153185915917,0.950031211656331,2.27058171452189,7789.78441141661,0,4,-2751.93549123985,5513.87098247969,5539.44482972152,6320.69366116573,1226,846,4.51235869590382,26.5211784096127
42,31.6502947491996,0.950974226962815,0.950859947771586,2.35503009664833,8321.49945004661,0,4,-2935.65711947731,5881.31423895463,5907.13010090886,7137.91661512571,1287,846,4.51235869590382,26.5211784096127
43,30.5994803131868,0.960114670427792,0.960025772962178,2.1403895084907,10800.2479462716,0,4,-2940.89761580696,5891.79523161393,5917.83453097109,6166.38571588479,1346,846,4.51235869590382,26.5211784096127
44,29.6469983613795,0.970857785144028,0.970793642338035,1.67661560424761,15135.8795444029,0,4,-2644.12053048544,5298.24106097089,5324.34293015451,3831.44736244618,1363,846,4.51235869590382,26.5211784096127
45,29.6211840676546,0.960945300952147,0.96085896042367,1.9489263493875,11129.7129853209,0,4,-2837.33861554288,5684.67723108577,5710.75710609902,5154.31198311214,1357,846,4.51235869590382,26.5211784096127
46,27.9773220361698,0.948749000012651,0.948638226957924,2.35422719755148,8564.79946630396,0,4,-3165.00738657463,6340.01477314926,6366.20725735373,7692.83134839521,1388,846,4.51235869590382,26.5211784096127
47,29.2186379668719,0.95918649150737,0.959095794821831,2.21527879450602,10575.7612398419,0,4,-2996.18198089735,6002.3639617947,6028.41805406206,6625.07118547383,1350,846,4.51235869590382,26.5211784096127
48,29.5480592349348,0.954577769222026,0.954472867996211,2.25273779371924,9099.77706937217,0,4,-2905.10042729621,5820.20085459242,5846.06297747804,6592.2010098591,1299,846,4.51235869590382,26.5211784096127
49,30.8137714272324,0.947971291479288,0.947846322603738,2.30791751856082,7585.65912757119,0,4,-2823.86783330824,5657.73566661649,5683.40214639097,6652.77760732744,1249,846,4.51235869590382,26.5211784096127
50,32.4024090321437,0.934120027735603,0.933954638683893,2.47028311961851,5648.01610553245,0,4,-2783.59894587135,5577.1978917427,5602.64410751784,7292.24693583121,1195,846,4.51235869590382,26.5211784096127
51,32.9474149607849,0.939683939701777,0.939524373404692,2.26554315889435,5888.9875673418,0,4,-2543.42146891821,5096.84293783642,5122.02807590985,5820.46570265794,1134,846,4.51235869590382,26.5211784096127
52,32.7707101426638,0.945426882617857,0.945284269941771,2.21097017116835,6629.33273932435,0,4,-2546.64669507436,5103.29339014872,5128.539664355,5611.87068427005,1148,846,4.51235869590382,26.5211784096127
53,31.0761206312328,0.944435797108304,0.944242642289446,2.26899003011854,4889.52749244651,0,4,-1938.57836229894,3887.15672459788,3910.98191948178,4442.99649809884,863,846,4.51235869590382,26.5211784096127
54,30.0938859490701,0.957163671817621,0.957063820236776,2.16861412981414,9585.86397651767,0,4,-2829.19455453144,5668.38910906288,5694.20497101711,6052.61588306602,1287,846,4.51235869590382,26.5211784096127
55,28.2260512136396,0.960729580032604,0.960640799881962,2.03538790142849,10821.4457069872,0,4,-2832.52779567485,5675.0555913497,5701.02402044168,5497.50078761654,1327,846,4.51235869590382,26.5211784096127
56,26.6644701897849,0.795573365101341,0.795115351729649,4.5898258487,1737.0090357009,0,4,-3950.15138174239,7910.30276348479,7936.3160694674,28208.0452693475,1339,846,4.51235869590382,26.5211784096127
57,28.0456556477055,0.967351556890998,0.967281244378919,1.87153648871674,13757.8864455115,0,4,-2855.83762619746,5721.67525239492,5747.8856641912,4879.1898182373,1393,846,4.51235869590382,26.5211784096127
58,27.9528304791537,0.956125556062018,0.956031202419141,2.120427450591,10133.4249203772,0,4,-3034.60530000643,6079.21060001285,6105.42816488618,6272.2165396417,1395,846,4.51235869590382,26.5211784096127
59,29.2794179118478,0.959016686766971,0.958927138376804,2.13650730731795,10709.4799245422,0,4,-2997.25583945821,6004.51167891643,6030.64999141007,6267.28295010818,1373,846,4.51235869590382,26.5211784096127
60,28.3443184933391,0.952060739438273,0.9519535726859,2.28694722390495,8883.91892403814,0,4,-3021.32349825971,6052.64699651942,6078.67145907044,7018.83124581144,1342,846,4.51235869590382,26.5211784096127
61,30.4161719517022,0.950787090672345,0.950670472403797,2.27815961233765,8152.9858272017,0,4,-2845.72605132831,5701.45210265661,5727.18596355387,6570.55420361662,1266,846,4.51235869590382,26.5211784096127
62,32.3676121579305,0.946918377825823,0.946786004703194,2.23849261013037,7153.40364433842,0,4,-2683.25934403903,5376.51868807805,5401.99815418354,6028.05154622673,1203,846,4.51235869590382,26.5211784096127
63,33.2015512326149,0.934742832042273,0.93457478783294,2.48621673640683,5562.4816573646,0,4,-2721.416694918,5452.83338983599,5478.15290964335,7201.18381435369,1165,846,4.51235869590382,26.5211784096127
64,32.659598954226,0.935536986425823,0.935369694868105,2.39032228282972,5592.2546193294,0,4,-2654.82195803462,5319.64391606924,5344.92479248974,6604.96855185591,1156,846,4.51235869590382,26.5211784096127
65,30.970247136644,0.943543760391685,0.943403901829484,2.28570083384235,6746.41398814215,0,4,-2726.41433430649,5462.82866861299,5488.34116539186,6326.78267351325,1211,846,4.51235869590382,26.5211784096127
66,29.6647119031742,0.960930708615097,0.960837686492752,2.00208055158053,10330.1309881013,0,4,-2668.9873960884,5347.9747921768,5373.68497505034,5050.49143412141,1260,846,4.51235869590382,26.5211784096127
67,28.4440408000594,0.966054059057192,0.965977947081983,2.02732037001671,12692.5369682759,0,4,-2850.62392924884,5711.24785849767,5737.25744008533,5499.21730703211,1338,846,4.51235869590382,26.5211784096127
68,27.5045967344569,0.962826708052788,0.962745187675711,2.03687501813719,11810.8716197519,0,4,-2920.84456791928,5851.68913583856,5877.80925987999,5675.64026045158,1368,846,4.51235869590382,26.5211784096127
69,27.6424091213594,0.967130062754692,0.967059171445033,1.82655732835375,13642.4346990382,0,4,-2817.81035143868,5645.62070287737,5671.82395134864,4640.80953820402,1391,846,4.51235869590382,26.5211784096127
70,28.1317021819322,0.960819577650427,0.96073327716067,2.09135994871218,11133.4197564628,0,4,-2944.12177429879,5898.24354859758,5924.34175879823,5957.09712457543,1362,846,4.51235869590382,26.5211784096127
71,28.2900517552462,0.95719456079322,0.957100482904854,2.1470003724168,10174.4902804766,0,4,-2986.53807124756,5983.07614249513,6009.18532162157,6292.1184678505,1365,846,4.51235869590382,26.5211784096127
72,29.0839253901515,0.961556072943124,0.961470388113131,2.05895481050419,11222.0106292008,0,4,-2888.53199967568,5787.06399935136,5813.10329870853,5706.09095114598,1346,846,4.51235869590382,26.5211784096127
73,30.1476050549385,0.951081331892966,0.950964858873663,2.20566263842672,8165.67937869928,0,4,-2791.39450149989,5592.78900299978,5618.49918587331,6129.83406993493,1260,846,4.51235869590382,26.5211784096127
74,32.0938975675149,0.933998163001933,0.933833843075797,2.50093367586333,5684.02253435409,0,4,-2821.74030699795,5653.4806139959,5678.96835824898,7536.87644753607,1205,846,4.51235869590382,26.5211784096127
75,32.8695798046148,0.946829037988159,0.946691170325207,2.03218773936148,6867.6658305107,0,4,-2468.66428029289,4947.32856058578,4972.61374549427,4778.16356826886,1157,846,4.51235869590382,26.5211784096127
76,32.6744175940214,0.931001543415668,0.930824169491286,2.34964809765691,5248.80726782709,0,4,-2659.91858265148,5329.83716530296,5355.16523212095,6442.82749535412,1167,846,4.51235869590382,26.5211784096127
77,31.5000690065863,0.931470094062314,0.931299196541272,2.53414085669494,5450.45995041387,0,4,-2832.99007136929,5675.98014273859,5701.45960884407,7725.50946752941,1203,846,4.51235869590382,26.5211784096127
78,29.6942252361036,0.932666622126018,0.932504111962203,2.79832660324733,5739.12794271876,0,4,-3050.60306757217,6111.20613514434,6136.84861487274,9733.4753006031,1243,846,4.51235869590382,26.5211784096127
79,27.8196643095811,0.965207591631715,0.965129347834784,1.86093600566796,12335.8991958563,0,4,-2727.54125334186,5465.08250668372,5491.07716288716,4619.75247813334,1334,846,4.51235869590382,26.5211784096127
80,27.1249046894764,0.967319049878539,0.967246371709255,1.76141346331854,13309.6232253177,0,4,-2683.7766206708,5377.5532413416,5403.60363948245,4185.37689743697,1349,846,4.51235869590382,26.5211784096127
81,27.7781019625343,0.962860190056768,0.962779509803452,1.85826305642578,11934.2732636567,0,4,-2821.43143677736,5652.86287355473,5679.03015064784,4768.78853147695,1381,846,4.51235869590382,26.5211784096127
82,27.6281685920258,0.961240835473813,0.961155211399013,1.9305299294574,11226.2916442338,0,4,-2826.5075031885,5663.01500637699,5689.09855381054,5061.19240798484,1358,846,4.51235869590382,26.5211784096127
83,28.0047794954715,0.953800523143143,0.953697399310873,2.09645865008416,9249.0795013128,0,4,-2908.58258195929,5827.16516391858,5853.19705037594,5907.06664331306,1344,846,4.51235869590382,26.5211784096127
84,28.6322704432135,0.954089967993159,0.953986567020171,2.18588785976578,9227.08887952514,0,4,-2938.48039147072,5886.96078294143,5912.94795971192,6364.43683964794,1332,846,4.51235869590382,26.5211784096127
85,30.4459553425124,0.952035121352829,0.951924005803839,2.11105684378825,8567.97387953377,0,4,-2811.79618501278,5633.59237002556,5659.43912010891,5771.24649202825,1295,846,4.51235869590382,26.5211784096127
86,31.2812143659469,0.935830982753232,0.935673448341006,2.27338488524661,5940.48607874987,0,4,-2744.49221997488,5498.98443994976,5524.54200053224,6315.6367381636,1222,846,4.51235869590382,26.5211784096127
87,31.8300965200244,0.93690156385201,0.93673738752205,2.18043183750805,5706.6786916228,0,4,-2541.61646829762,5093.23293659524,5118.50086523121,5481.68829671561,1153,846,4.51235869590382,26.5211784096127
88,32.4739374217417,0.922707936629923,0.92250838741296,2.53960446213859,4623.96170065699,0,4,-2739.20062198167,5488.40124396334,5513.70791579789,7494.42453762074,1162,846,4.51235869590382,26.5211784096127
89,30.4148011054163,0.952397810251711,0.952272870121138,2.07512244738822,7622.83347939767,0,4,-2462.85212875096,4935.70425750192,4960.92878308757,4921.91021520109,1143,846,4.51235869590382,26.5211784096127
90,28.5021119195377,0.946515359576173,0.946171775162316,2.09424540948554,2754.82624182299,1.84884883675235e-296,4,-1014.47155346315,2038.94310692631,2059.71739739639,2048.19841101563,467,846,4.51235869590382,26.5211784096127
