"Age","power_predict","r.squared","adj.r.squared","sigma","statistic","p.value","df","logLik","AIC","BIC","deviance","df.residual","GHI","Wind_speed","Ambient_temp"
0,71.2405685392822,0.936399156079857,0.929332395644285,6.69559441001577,132.507556272372,2.90328056057241e-16,4,-100.790706823415,211.58141364683,218.751349669255,1210.43658159273,27,471.7,1.29821828487437,18.3036375410128
1,92.9267052390942,0.982947925115721,0.982905044793296,5.47214346196522,22923.0535017214,0,4,-3730.971540832,7471.94308166401,7497.3809501918,35723.6144035162,1193,471.7,1.29821828487437,18.3036375410128
2,92.3952514743777,0.987681111332664,0.987642003749593,4.30099817345349,25255.4884187514,0,4,-2729.01436670339,5468.02873340679,5492.30577739984,17481.1630972075,945,471.7,1.29821828487437,18.3036375410128
3,95.3549526237685,0.980447139302052,0.98037534177195,4.5913761727129,13655.7223890663,0,4,-2414.29526266664,4838.59052533327,4862.14314088054,17222.9606251937,817,471.7,1.29821828487437,18.3036375410128
4,99.6419788970954,0.968314135468613,0.968062660353285,4.82461323890933,3850.53659963073,7.04989613855258e-283,4,-1141.18905401022,2292.37810802045,2312.10521106348,8798.66551811238,378,471.7,1.29821828487437,18.3036375410128
5,98.6487306759383,0.966780028489695,0.966650935336158,5.59978125677961,7489.01085764554,0,4,-2435.92769703989,4881.85539407977,4905.12615668069,24208.0286955583,772,471.7,1.29821828487437,18.3036375410128
6,79.2769874375,0.792100394836204,0.791337926846606,18.072313577061,1038.86380233948,2.04358371396185e-278,4,-3543.54388158759,7097.08776317519,7120.64646515047,267165.767746595,818,471.7,1.29821828487437,18.3036375410128
7,91.2492236104698,0.919685704857788,0.919401574096672,12.3931127845136,3236.83962005539,0,4,-3351.53496555233,6713.06993110466,6736.8078637388,130243.679327245,848,471.7,1.29821828487437,18.3036375410128
8,90.1914012614853,0.960104630057823,0.960001184846218,10.008434622654,9281.28634631798,0,4,-4319.66432371492,8649.32864742984,8674.61383233833,115895.259480501,1157,471.7,1.29821828487437,18.3036375410128
9,90.506604101934,0.981188360192621,0.98114781786545,6.45116820521983,24201.5796491487,0,4,-4581.34400070786,9172.68800141571,9198.89483283232,57931.6591271586,1392,471.7,1.29821828487437,18.3036375410128
10,92.689186136201,0.980930844552429,0.980890214249628,6.24053004404112,24142.8386437484,0,4,-4587.00232254397,9184.00464508794,9210.26845717821,54833.4550446565,1408,471.7,1.29821828487437,18.3036375410128
11,99.3012875764982,0.985008706727347,0.984977775585794,5.12573837292602,31845.2102726892,0,4,-4449.58198134825,8909.1639626965,8935.58806725934,38201.2238836158,1454,471.7,1.29821828487437,18.3036375410128
12,99.8123136815838,0.984050300177819,0.984015576593301,5.29059440065407,28339.5367679429,0,4,-4261.28624577126,8532.57249154252,8558.72892656416,38570.756196656,1378,471.7,1.29821828487437,18.3036375410128
13,96.3810322424566,0.990092534038717,0.990065781205339,4.25088901960076,37008.8850036826,0,4,-3193.66074696633,6397.32149393266,6422.40454235213,20075.8338346851,1111,471.7,1.29821828487437,18.3036375410128
14,95.3076780231811,0.981087807536565,0.981033514161072,5.11558266188865,18070.1199478926,0,4,-3198.73627772397,6407.47255544793,6432.25051848991,27346.7993392934,1045,471.7,1.29821828487437,18.3036375410128
15,97.5461405050103,0.97603608118708,0.975952680077522,5.01571432124434,11702.9148216729,0,4,-2623.28682109389,5256.57364218778,5280.39306673059,21685.6703113133,862,471.7,1.29821828487437,18.3036375410128
16,100.084149855978,0.971120970158128,0.971016462209363,4.65990521952342,9292.31682030418,0,4,-2461.95390641847,4933.90781283694,4957.53298104777,18001.5001069466,829,471.7,1.29821828487437,18.3036375410128
17,99.4672494327336,0.938410831639591,0.938170248950684,6.85073616533312,3900.57504095419,0,4,-2579.01826978761,5168.03653957523,5191.28146232535,36044.2260533784,768,471.7,1.29821828487437,18.3036375410128
18,107.854232083649,0.887296956792704,0.886960864218527,12.6697095159727,2640.03737352993,0,4,-3995.73015547867,8001.46031095734,8026.04883900652,161484.668454445,1006,471.7,1.29821828487437,18.3036375410128
19,92.2992620403437,0.6881847616177,0.687160177044702,24.3982394931337,671.671992487872,1.84388121292677e-230,4,-4228.52882679187,8467.05765358373,8491.16319094502,543485.244502614,913,471.7,1.29821828487437,18.3036375410128
20,91.0342660896098,0.97534198292935,0.975275697937225,7.3229779685518,14714.3712574351,0,4,-3817.14669736675,7644.29339473351,7669.39881455495,59846.6230619309,1116,471.7,1.29821828487437,18.3036375410128
21,92.6301662269138,0.972418146079905,0.972357482178321,7.6132392105936,16029.6011415757,0,4,-4715.99277070007,9441.98554140013,9468.09106689105,79059.36498281,1364,471.7,1.29821828487437,18.3036375410128
22,92.7468838105453,0.963859297510729,0.963766944778643,8.82386071636837,10436.7166595937,0,4,-4234.55347651315,8479.10695302629,8504.46481984735,91408.248063754,1174,471.7,1.29821828487437,18.3036375410128
23,93.6056044022014,0.976316212126441,0.976267877865475,6.83506479563128,20199.2580957057,0,4,-4922.63788977669,9855.27577955337,9881.75445491712,68675.6228179028,1470,471.7,1.29821828487437,18.3036375410128
24,94.1606280996883,0.985042531515847,0.985008919227118,5.55811511116545,29306.0237425172,0,4,-4194.68755993621,8399.37511987241,8425.37351160087,41241.6791912693,1335,471.7,1.29821828487437,18.3036375410128
25,93.2277548852054,0.983386082104434,0.983346208701485,5.41326699518742,24662.7077040157,0,4,-3895.16712447058,7800.33424894116,7826.00471754713,36629.3244514818,1250,471.7,1.29821828487437,18.3036375410128
26,93.3057807426969,0.975727749823197,0.975663875480626,5.97508934031454,15275.7384351271,0,4,-3666.27549057914,7342.55098115828,7367.76241201798,40699.9295922041,1140,471.7,1.29821828487437,18.3036375410128
27,94.3444613178569,0.979769445774505,0.979702383163813,4.84619118448178,14609.7719080857,0,4,-2722.3882172249,5454.77643444979,5478.83815992068,21254.4399418767,905,471.7,1.29821828487437,18.3036375410128
28,98.2875246760312,0.888531468025702,0.888050308894877,9.53167572045905,1846.64783665955,0,4,-2565.81204677998,5141.62409355996,5164.37234727112,63142.7252177921,695,471.7,1.29821828487437,18.3036375410128
29,100.212725708861,0.975442043289561,0.975347831179418,4.33141466616451,10353.6800291992,0,4,-2265.47342300535,4540.94684601071,4564.28162997285,14671.2216540273,782,471.7,1.29821828487437,18.3036375410128
30,99.2773665995007,0.96260804592236,0.962482147087081,6.81750115169735,7645.88523630809,0,4,-2985.89174376311,5981.78348752622,6005.76760611759,41412.1848604746,891,471.7,1.29821828487437,18.3036375410128
31,87.8891674520561,0.850444316108284,0.849956103864894,16.4699702088603,1741.9561422785,0,4,-3893.49617264362,7796.99234528725,7821.13049145976,249287.865267605,919,471.7,1.29821828487437,18.3036375410128
32,90.6268703160917,0.975623872877936,0.975562626327378,7.63751623131626,15929.4501321316,0,4,-4133.50581118125,8277.0116223625,8302.45366625588,69647.9950952414,1194,471.7,1.29821828487437,18.3036375410128
33,90.2733739219938,0.969213766595057,0.96914081343533,8.2810193415816,13285.425473239,0,4,-4484.78568946196,8979.57137892391,9005.30523982117,86816.3061709311,1266,471.7,1.29821828487437,18.3036375410128
34,90.9974696057768,0.955073450020618,0.954979787998423,9.71655275838607,10197.0193216142,0,4,-5326.66351653745,10663.3270330749,10689.6994308688,135858.001011854,1439,471.7,1.29821828487437,18.3036375410128
35,96.7310833861831,0.946459990523552,0.946349901401941,9.92007272694522,8597.21629784981,0,4,-5430.84598455266,10871.6919691053,10898.1331911104,143577.0428026,1459,471.7,1.29821828487437,18.3036375410128
36,93.2711487439405,0.953057867256873,0.952955298867777,9.07655016425979,9291.92586188488,0,4,-4989.11633910683,9988.23267821366,10014.3709907073,113112.906440177,1373,471.7,1.29821828487437,18.3036375410128
37,93.4009741073645,0.973451154282077,0.97338888177453,6.9516484112657,15632.1174883355,0,4,-4306.20483090358,8622.40966180716,8648.19444363024,61808.2065956979,1279,471.7,1.29821828487437,18.3036375410128
38,93.4921677235344,0.975462003396815,0.975397486315474,5.79976936494554,15119.4378779793,0,4,-3635.38290306333,7280.76580612666,7305.9816057066,38380.1874673658,1141,471.7,1.29821828487437,18.3036375410128
39,93.8320441735235,0.979823863187079,0.979760548950218,5.00759273770367,15475.5693469681,0,4,-2906.693909421,5823.38781884199,5847.7224852643,23972.6416855276,956,471.7,1.29821828487437,18.3036375410128
40,99.276332657536,0.971206785151738,0.971099079859288,4.81102146331426,9017.26148326347,0,4,-2407.81247425293,4825.62494850586,4849.08536721839,18563.0338714174,802,471.7,1.29821828487437,18.3036375410128
41,109.630832725864,0.779587930858509,0.778551510470696,13.1992316561765,752.192778167762,5.53437031212167e-209,4,-2565.41411584764,5140.82823169527,5163.15117321372,111152.179007957,638,471.7,1.29821828487437,18.3036375410128
42,93.6083331886651,0.814156333772358,0.813412959107448,13.8567231486479,1095.21668171232,1.6819068049482e-273,4,-3049.96731788286,6109.93463576571,6133.06159760575,144006.582313705,750,471.7,1.29821828487437,18.3036375410128
43,95.450857427572,0.862173532439613,0.861778614194455,13.3808932339728,2183.1696636177,0,4,-4215.41361255793,8440.82722511586,8465.61471197024,187463.57401471,1047,471.7,1.29821828487437,18.3036375410128
44,90.0423564764844,0.971107492251887,0.971032251346293,7.83151558029163,12906.6427973556,0,4,-4017.51787225569,8045.03574451138,8070.29934975754,70655.1969995719,1152,471.7,1.29821828487437,18.3036375410128
45,90.4502273056844,0.976085805517297,0.976030405838958,7.19572570761104,17618.9796546586,0,4,-4404.75793923357,8819.51587846714,8845.3626285505,67053.1166546309,1295,471.7,1.29821828487437,18.3036375410128
46,90.3232271634364,0.969271435572204,0.969204731018453,7.90210612837666,14530.8135812671,0,4,-4829.68715639831,9669.37431279662,9695.54519869537,86296.6147070249,1382,471.7,1.29821828487437,18.3036375410128
47,89.228693594089,0.961779817484627,0.961698440232997,8.38798721885749,11818.7797968675,0,4,-5008.12654388488,10026.2530877698,10052.5204396832,99134.8863834568,1409,471.7,1.29821828487437,18.3036375410128
48,91.2989076555923,0.947596815044786,0.947482480823066,9.91091882252195,8287.95439183157,0,4,-5117.63883778458,10245.2776755692,10271.4232449581,135061.178871602,1375,471.7,1.29821828487437,18.3036375410128
49,93.7116526564997,0.977450886492877,0.977397871335729,6.28758209068959,18437.1968144253,0,4,-4167.61622811409,8345.23245622817,8371.00553301274,50444.9865861768,1276,471.7,1.29821828487437,18.3036375410128
50,92.2134783899475,0.972329923580026,0.972255408113904,6.42092961829411,13048.6994738503,0,4,-3663.36102441917,7336.72204883834,7361.81853210691,45928.3675996785,1114,471.7,1.29821828487437,18.3036375410128
51,92.9228922137088,0.976463519407541,0.97638996790569,5.08080715059079,13275.915444662,0,4,-2932.80579707056,5875.61159414112,5899.96705061418,24782.0172494347,960,471.7,1.29821828487437,18.3036375410128
52,94.6784551104401,0.948653492363248,0.948465409917692,6.13722577028075,5043.81729809787,0,4,-2659.01036029715,5328.02072059431,5351.58550159769,30848.0773872711,819,471.7,1.29821828487437,18.3036375410128
53,98.0418583450948,0.963032673574779,0.962850568518497,5.39669288010413,5288.33571805999,0,4,-1901.18979122459,3812.37958244917,3834.47140712885,17736.6950716794,609,471.7,1.29821828487437,18.3036375410128
54,99.7383210171609,0.95664290906486,0.956496432406296,6.39958082468805,6531.02629756235,0,4,-2919.44805679612,5848.89611359223,5872.86344425513,36367.7156417629,888,471.7,1.29821828487437,18.3036375410128
55,115.743667099103,0.705182541492208,0.702798572825029,21.0868612180021,295.801933641473,5.17914849628762e-98,4,-1673.33501511099,3356.67003022198,3376.30466035183,164967.270646122,371,471.7,1.29821828487437,18.3036375410128
56,90.6548160983913,0.970984846410739,0.970901229253421,7.7753990992065,11612.2680746115,0,4,-3624.04513293993,7258.09026587986,7282.84912670185,62935.5612291708,1041,471.7,1.29821828487437,18.3036375410128
57,85.8124597072334,0.91675124265106,0.916545690163779,12.7453912365485,4459.93748251914,0,4,-4830.24468989746,9670.48937979491,9696.01831044232,197370.672293815,1215,471.7,1.29821828487437,18.3036375410128
58,90.0617655039252,0.957114730762476,0.957021501916308,9.41132497845358,10266.2938575073,0,4,-5064.61666288185,10139.2333257637,10165.3969914446,122230.792233089,1380,471.7,1.29821828487437,18.3036375410128
59,115.443980652074,0.656728463188731,0.656029810128735,36.327179540888,939.992251937866,0,4,-7405.00129740345,14820.0025948069,14846.4948203144,1945184.69678558,1474,471.7,1.29821828487437,18.3036375410128
60,104.114243073672,0.761863014770919,0.761296920511262,22.0988233292381,1345.82360052974,0,4,-5713.30686174049,11436.613723481,11462.3318114945,616307.786581539,1262,471.7,1.29821828487437,18.3036375410128
61,89.1252500422391,0.955614607337706,0.955514339131391,8.80034234080662,9530.5844440016,0,4,-4784.8442271584,9579.68845431681,9605.66063857231,102848.321618843,1328,471.7,1.29821828487437,18.3036375410128
62,89.5815908174872,0.96558647669635,0.965498085797453,7.74276301505319,10924.0486153275,0,4,-4059.79362239533,8129.58724479066,8154.91957964135,70022.0427972979,1168,471.7,1.29821828487437,18.3036375410128
63,89.0699190353011,0.968653512931363,0.968563609048757,6.09855788580827,10774.3234758401,0,4,-3386.33658825866,6782.67317651732,6807.45590373308,38903.2590677358,1046,471.7,1.29821828487437,18.3036375410128
64,93.0299486563538,0.980050343068111,0.97998347270968,4.41827212315786,14655.9756230507,0,4,-2609.30935759062,5228.61871518123,5252.62513035359,17471.4100560751,895,471.7,1.29821828487437,18.3036375410128
65,83.2105459739815,0.873185055736556,0.872636073293857,9.20987879155307,1590.55187893411,3.48317984048588e-310,4,-2534.52724940038,5079.05449880075,5101.78842585455,58781.5540770837,693,471.7,1.29821828487437,18.3036375410128
66,112.381581444201,0.519633666203178,0.516802430444061,14.8959930747269,183.535992906953,1.18792053751193e-80,4,-2111.56795662923,4233.13591325846,4254.33729248431,112942.320328296,509,471.7,1.29821828487437,18.3036375410128
67,99.1939453007737,0.619546639952605,0.617954784889646,24.6576031517043,389.197895190693,5.8159606519248e-150,4,-3331.9156132795,6673.831226559,6696.73442224543,435934.130915033,717,471.7,1.29821828487437,18.3036375410128
68,86.9335787462462,0.954571354497612,0.954445046864148,9.63462315313001,7557.51119961509,0,4,-3988.09506238464,7986.19012476928,8011.12757600429,100159.214403752,1079,471.7,1.29821828487437,18.3036375410128
69,88.3942459226477,0.976318349694727,0.976260869960976,7.01722778061259,16985.4361874714,0,4,-4173.45716228876,8356.91432457751,8382.52865787051,60862.4763561014,1236,471.7,1.29821828487437,18.3036375410128
70,87.3156384590857,0.976226341651965,0.9761737450627,6.99529710989042,18560.6396780394,0,4,-4573.27724948343,9156.55449896685,9182.6306988605,66354.7503250495,1356,471.7,1.29821828487437,18.3036375410128
71,89.2995220197119,0.959091765845816,0.959006658562555,8.92528676741112,11269.2090394081,0,4,-5214.91505784862,10439.8301156972,10466.2128977108,114870.792675716,1442,471.7,1.29821828487437,18.3036375410128
72,88.2284433467405,0.883200824796054,0.882954931795624,14.103490519904,3591.80954014093,0,4,-5807.3978567648,11624.7957135296,11651.1193644192,283444.533904157,1425,471.7,1.29821828487437,18.3036375410128
73,87.0929095544247,0.947292245990214,0.947165239354046,9.79673670069775,7458.60432628096,0,4,-4620.53064483904,9251.06128967809,9276.71178222871,119490.182228584,1245,471.7,1.29821828487437,18.3036375410128
74,88.0357117110715,0.977393417984415,0.977335353133348,5.82257248088295,16832.7895450798,0,4,-3725.75436470386,7461.50872940772,7486.8410642584,39597.9451447181,1168,471.7,1.29821828487437,18.3036375410128
75,89.7432054822687,0.975319866871109,0.975248052710695,5.58182025097761,13581.163676504,0,4,-3246.29546285389,6502.59092570779,6527.30170923629,32122.5755509647,1031,471.7,1.29821828487437,18.3036375410128
76,87.607344451939,0.835985792927058,0.835385008285765,12.7232346801291,1391.48995408421,6.52166652510445e-321,4,-3259.02428218275,6528.0485643655,6551.61334536888,132580.2938943,819,471.7,1.29821828487437,18.3036375410128
77,94.7378983582632,0.971623502118172,0.971503601422896,4.5670960250851,8103.56853967361,0,4,-2095.59506717985,4201.1901343597,4224.0445491714,14809.4399326672,710,471.7,1.29821828487437,18.3036375410128
78,93.7216917475946,0.951157813719917,0.950971630036512,6.29508145412557,5108.70660801981,0,4,-2575.63227382635,5161.2645476527,5184.63103749154,31187.2757545776,787,471.7,1.29821828487437,18.3036375410128
79,93.4205635271109,0.941681318267069,0.941501507326474,8.29014630980007,5237.06352434275,0,4,-3450.71990429528,6911.43980859056,6935.86224185077,66870.9096402687,973,471.7,1.29821828487437,18.3036375410128
80,90.3330218766359,0.980630732039242,0.980579445363264,5.86615641307613,19120.5749515407,0,4,-3622.90957043386,7255.81914086771,7280.99988333647,38988.5592740099,1133,471.7,1.29821828487437,18.3036375410128
81,86.5456716435312,0.97070509008589,0.970636268840986,7.63305443914937,14104.730180932,0,4,-4419.27436867589,8848.54873735179,8874.32571886127,74402.5151306899,1277,471.7,1.29821828487437,18.3036375410128
82,88.0426994097703,0.980282290935184,0.980237948261125,6.41320335618043,22106.9728369368,0,4,-4383.02095627968,8776.04191255935,8802.03656876279,54866.3225018237,1334,471.7,1.29821828487437,18.3036375410128
83,91.0012365266299,0.938353530219305,0.938224020829009,10.6477007316034,7245.4478248852,0,4,-5417.08975338485,10844.1795067697,10870.5136435073,161897.402082057,1428,471.7,1.29821828487437,18.3036375410128
84,90.565818757022,0.965153185781882,0.965080487282123,7.967700930343,13276.108708887,0,4,-5036.827597246,10083.655194492,10110.0241260812,91290.363169929,1438,471.7,1.29821828487437,18.3036375410128
85,94.4323685658655,0.984140287503878,0.984105934336016,5.06599536589705,28647.7302899018,0,4,-4222.62557187219,8455.25114374438,8481.43284045816,35545.0680304972,1385,471.7,1.29821828487437,18.3036375410128
86,89.5907515002899,0.978617836644257,0.978566063851628,5.64599827256406,18902.1643792424,0,4,-3913.30452250711,7836.60904501421,7862.23546047177,39495.9703558136,1239,471.7,1.29821828487437,18.3036375410128
87,91.0508486312559,0.985208237820486,0.985166609971951,4.39337950780406,23667.0467604634,0,4,-3099.96614587484,6209.93229174968,6234.80936138696,20575.7012105658,1066,471.7,1.29821828487437,18.3036375410128
88,90.2633474763641,0.873915714168684,0.87348879220763,9.53432251398946,2047.01513131554,0,4,-3267.71017040373,6545.42034080746,6569.37644812109,80540.328939479,886,471.7,1.29821828487437,18.3036375410128
89,91.8205794765816,0.974036580341453,0.973931465282107,3.94328315145561,9266.3847254473,0,4,-2077.25399811417,4164.50799622834,4187.57491732023,11522.1661713023,741,471.7,1.29821828487437,18.3036375410128
90,95.2790610617341,0.854488472829959,0.853936595988606,10.0596141055148,1548.33181753969,0,4,-2961.33148520152,5932.66297040304,5956.05468097631,80045.9062379311,791,471.7,1.29821828487437,18.3036375410128
91,92.5417559065541,0.863686869199548,0.862987827503136,11.3813905500231,1235.52983124172,1.27833338960069e-252,4,-2266.18396643841,4542.36793287681,4564.26006379507,75778.5897485108,585,471.7,1.29821828487437,18.3036375410128
92,77.8775198188004,0.860996285155209,0.860487734978948,14.5611446616859,1693.04097283922,0,4,-3374.16636622357,6758.33273244713,6781.90358509668,173862.085764006,820,471.7,1.29821828487437,18.3036375410128
93,86.8748089889899,0.970394617532129,0.970324016461061,7.7093501858584,13744.7577331615,0,4,-4366.24883698502,8742.49767397005,8768.19993918555,74768.0730025493,1258,471.7,1.29821828487437,18.3036375410128
94,85.3170900094085,0.952355197098561,0.952247969485129,10.3454684073141,8881.62262145378,0,4,-5019.08328435572,10048.1665687114,10074.1574865969,142669.279183456,1333,471.7,1.29821828487437,18.3036375410128
95,87.3083824994155,0.963288530568704,0.963207964066661,8.52474941444264,11956.4397874058,0,4,-4881.37865048253,9772.75730096505,9798.87377936286,99341.7389755479,1367,471.7,1.29821828487437,18.3036375410128
96,93.2448032026645,0.971617079142117,0.971557742025341,6.88786227891593,16374.5246134725,0,4,-4816.77551614738,9643.55103229477,9669.9095508292,68080.1981197042,1435,471.7,1.29821828487437,18.3036375410128
97,85.7181410776845,0.97047256779317,0.970406313270642,6.84740443300178,14647.6426175583,0,4,-4480.70280577338,8971.40561154675,8997.41146596316,62687.8487661766,1337,471.7,1.29821828487437,18.3036375410128
98,NA,NA,NA,NA,NA,NA,NA,NA,NA,NA,NA,NA,471.7,1.29821828487437,18.3036375410128
101,83.868497558021,0.950655668152435,0.950350445481213,5.86611282104507,3114.6299334391,2.21094603784155e-316,4,-1556.98770536504,3123.97541073007,3144.93722317745,16689.4706201762,485,471.7,1.29821828487437,18.3036375410128
102,78.800472958207,0.906606705294115,0.906061608243303,7.49749907893757,1663.20236725308,4.05494218516281e-264,4,-1776.54940376183,3563.09880752365,3584.34868373495,28893.2211134762,514,471.7,1.29821828487437,18.3036375410128
103,74.7855255679287,0.429945833125444,0.424886180756735,15.4606452366105,84.9753702021905,5.43971234752805e-41,4,-1419.76303057738,2849.52606115476,2868.70011484008,80792.6642827264,338,471.7,1.29821828487437,18.3036375410128
104,71.9718383527385,0.594746056470461,0.593122876456324,22.9099303228616,366.407946925511,2.09425590494001e-146,4,-3424.52793723536,6859.05587447071,6882.17620060971,393123.81564138,749,471.7,1.29821828487437,18.3036375410128
105,81.6469465696131,0.967583824679107,0.967501689099747,7.90983681217211,11780.3250700141,0,4,-4140.60689824809,8291.21379649619,8316.6139289958,74077.5737799085,1184,471.7,1.29821828487437,18.3036375410128
106,80.5331446521986,0.978165639485357,0.978114822509761,6.85079420910102,19248.7968440241,0,4,-4320.88783637245,8651.7756727449,8677.59927463876,60497.1284898377,1289,471.7,1.29821828487437,18.3036375410128
107,79.4317994785934,0.968390918388796,0.968322153164116,8.0793314952035,14082.567502634,0,4,-4849.90362501799,9709.80725003599,9735.96730169431,90015.0488275451,1379,471.7,1.29821828487437,18.3036375410128
108,64.7061666003141,0.548534917079496,0.547572988635773,24.8089642933325,570.245032943057,1.59126135294551e-242,4,-6535.75990309737,13081.5198061947,13107.783618285,866602.470705446,1408,471.7,1.29821828487437,18.3036375410128
109,32.7023298677478,0.971979213319428,0.971914450330182,2.54800485425378,15008.2512347088,0,4,-3063.22934869536,6136.45869739071,6162.31698150455,8427.04270101649,1298,471.7,1.29821828487437,18.3036375410128
110,31.3263309525265,0.984088651715618,0.98404757250318,1.8375109776471,23955.8792222948,0,4,-2361.88719740428,4733.77439480855,4759.08106664311,3923.43094103534,1162,471.7,1.29821828487437,18.3036375410128
111,29.899692035425,0.983225377662351,0.983108072611038,1.81219742907481,8381.78208579683,0,4,-869.826978182648,1749.6539563653,1770.00764500531,1408.86153491456,429,471.7,1.29821828487437,18.3036375410128
