"Age","power_predict","r.squared","adj.r.squared","sigma","statistic","p.value","df","logLik","AIC","BIC","deviance","df.residual","GHI","Wind_speed","Ambient_temp"
0,3.56302200355523,0.997670018982942,0.997464432422613,0.105687270527875,4852.797855016,8.34810502044211e-45,4,33.5899141005244,-57.1798282010489,-48.991897402417,0.379773171155499,34,322.8,2.11536669725694,17.4615528263328
1,3.7549253687979,0.901250279353113,0.900749011735616,0.919656478428146,1797.94235233778,1.41624543204371e-296,4,-792.427406635393,1594.85481327079,1616.79762029851,499.848910644081,591,322.8,2.11536669725694,17.4615528263328
2,3.56503621196521,0.973052580830581,0.972986533234578,0.539559070159121,14732.5964866206,0,4,-982.7735584269,1975.5471168538,2001.11282739734,356.335763993754,1224,322.8,2.11536669725694,17.4615528263328
3,3.39634033622239,0.993750237083668,0.99373679673331,0.269856112973864,73937.8223510449,0,4,-150.589081960482,311.178163920963,337.395728794291,101.587138784562,1395,322.8,2.11536669725694,17.4615528263328
4,3.26201733375755,0.989923502747906,0.989903719049113,0.346035743492108,50037.3319007085,0,4,-546.03258825573,1102.06517651146,1128.73682326296,182.963844262879,1528,322.8,2.11536669725694,17.4615528263328
5,3.37529305365214,0.99277255809167,0.992757532224917,0.288137051266859,66070.9012260265,0,4,-250.671637825274,511.343275650549,537.729514283706,119.802131731313,1443,322.8,2.11536669725694,17.4615528263328
6,3.47922410101553,0.988711751818941,0.988686996888719,0.361048470715275,39939.9934868482,0,4,-547.065265700757,1104.13053140151,1130.25065544294,178.327005545587,1368,322.8,2.11536669725694,17.4615528263328
7,3.5075063824603,0.993346557758137,0.993331934808155,0.260014093757271,67930.6541411214,0,4,-96.4543073876767,202.908614775353,229.017793901796,92.2840040200464,1365,322.8,2.11536669725694,17.4615528263328
8,3.51539267154135,0.991999910989011,0.991980493297237,0.259567157161519,51087.426998135,0,4,-85.0431773160792,180.086354632158,205.700687925154,83.2756348190641,1236,322.8,2.11536669725694,17.4615528263328
9,3.72452619582166,0.839084007886686,0.838631148621826,1.09315934770185,1852.85821224725,0,4,-1611.56750988433,3233.13501976865,3258.01208940593,1273.86718519282,1066,322.8,2.11536669725694,17.4615528263328
10,3.66717919522063,0.948409217076175,0.948245089452875,0.526081551261091,5778.48626580808,0,4,-733.47336631214,1476.94673262428,1501.21322809021,260.986376058372,943,322.8,2.11536669725694,17.4615528263328
11,4.260281542749,0.671723152333698,0.670559050037009,1.14779208339169,577.031034337997,4.4615194210844e-204,4,-1321.25717657226,2652.51435314451,2676.24053489193,1114.54296002535,846,322.8,2.11536669725694,17.4615528263328
12,3.61264989697893,0.765896284998094,0.765061194457065,1.12711868415596,917.141612038855,1.39046454618499e-264,4,-1298.11484756608,2606.22969513215,2629.92637826894,1068.40348019389,841,322.8,2.11536669725694,17.4615528263328
13,4.14400803214482,0.886119169933448,0.885815217540032,0.933621325053507,2915.32223179599,0,4,-1521.08315678952,3052.16631357903,3077.30732073932,979.733227140406,1124,322.8,2.11536669725694,17.4615528263328
14,3.52244590517113,0.984735198077608,0.984698679412722,0.37935630901249,26965.2573868407,0,4,-563.668020495286,1137.33604099057,1163.02243317687,180.464656321225,1254,322.8,2.11536669725694,17.4615528263328
15,3.32453373002974,0.992873698903548,0.992857490485588,0.284257268106016,61256.6693028509,0,4,-211.083261169867,432.166522339733,458.104808160308,106.578094507375,1319,322.8,2.11536669725694,17.4615528263328
16,3.36198042235709,0.991856192949711,0.991839561621494,0.300056507245724,59637.8220671539,0,4,-314.919222615554,639.838445231108,666.313727313421,132.259810177,1469,322.8,2.11536669725694,17.4615528263328
17,3.31931011036448,0.993008869169611,0.992995302939021,0.274588062454181,73197.1097371438,0,4,-194.003089794287,398.006179588575,424.736230638141,116.566241849459,1546,322.8,2.11536669725694,17.4615528263328
18,3.29917006781748,0.9935436871411,0.993530825960106,0.261142478513896,77251.3572134714,0,4,-113.133951311061,236.267902622122,262.867227271166,102.702263491077,1506,322.8,2.11536669725694,17.4615528263328
19,3.39471553903842,0.993266123240237,0.993251537225595,0.260940919650694,68097.1565991899,0,4,-102.835048872977,215.670097745954,241.851794459726,94.3048765141879,1385,322.8,2.11536669725694,17.4615528263328
20,3.48013115988231,0.990950562984067,0.990929452322288,0.285430937565777,46940.7626041187,0,4,-211.083419603634,432.166839207267,457.978826694046,104.771474673906,1286,322.8,2.11536669725694,17.4615528263328
21,3.44153210326024,0.962401169803222,0.962303679318702,0.523803688670627,9871.74465831967,0,4,-894.637111940772,1799.27422388154,1824.55940879003,317.446442034553,1157,322.8,2.11536669725694,17.4615528263328
22,3.58826891293086,0.869447502704055,0.869055060327413,0.870423141531789,2215.47812992466,0,4,-1280.719039971,2571.438079942,2595.98684635022,756.121172423441,998,322.8,2.11536669725694,17.4615528263328
23,4.04543859871272,0.683977113952423,0.682753799554819,1.1823437444199,559.118011929178,2.54520003119772e-193,4,-1233.82944648952,2477.65889297905,2500.9489482084,1083.40096572587,775,322.8,2.11536669725694,17.4615528263328
24,3.939732069012,0.960223512785443,0.960104658739982,0.480626463116406,8079.01413077169,0,4,-689.75984899924,1389.51969799848,1414.09831524164,231.925804235977,1004,322.8,2.11536669725694,17.4615528263328
25,4.30197746210063,0.837110233838576,0.836646160430709,1.10778663620324,1803.83150520432,0,4,-1606.01298708707,3222.02597417415,3246.8419241035,1292.23236661207,1053,322.8,2.11536669725694,17.4615528263328
26,3.68779806746754,0.97817969967445,0.978126908625275,0.45492395705052,18529.2718172178,0,4,-783.350811271329,1576.70162254266,1602.33205890915,256.625200306145,1240,322.8,2.11536669725694,17.4615528263328
27,3.34900508913171,0.965174525028468,0.965099253828961,0.63317217531839,12822.627131763,0,4,-1336.99760944043,2683.99521888085,2710.18770308532,556.458920993222,1388,322.8,2.11536669725694,17.4615528263328
28,3.28572709754631,0.983149382691166,0.983114007007522,0.431905256395227,27791.6716069725,0,4,-828.262363416281,1666.52472683256,1692.8623539717,266.568733067111,1429,322.8,2.11536669725694,17.4615528263328
29,3.29861889799877,0.992595556214974,0.992562744794951,0.282153139307796,30251.5269238938,0,4,-102.618329376837,215.236658753674,237.854470284422,53.8962367523826,677,322.8,2.11536669725694,17.4615528263328
30,3.26343575249365,0.994220623631317,0.9942092618167,0.253024432142844,87505.4431987212,0,4,-66.341422329061,142.682844658122,169.347959730054,97.6966003366043,1526,322.8,2.11536669725694,17.4615528263328
31,3.39138916725445,0.989981873472961,0.989959983902982,0.328920062490832,45226.1910318176,0,4,-420.733341435776,851.466682871553,877.604995365196,148.54268350982,1373,322.8,2.11536669725694,17.4615528263328
32,3.42182610684975,0.993343849283313,0.993328721668048,0.252317007795635,65664.2723832763,0,4,-53.4322153781372,116.864430756274,142.806494438759,84.0363115982841,1320,322.8,2.11536669725694,17.4615528263328
33,3.40690788635878,0.992078750639694,0.992058370066726,0.252618726687385,48677.6673152326,0,4,-48.3821520251849,106.76430405037,132.088099189329,74.4097137712995,1166,322.8,2.11536669725694,17.4615528263328
34,3.43606063412202,0.990981281361836,0.990956275672451,0.229024420687408,39630.2323886004,0,4,61.7207768953658,-113.441553790732,-88.4902712882622,56.7532644634414,1082,322.8,2.11536669725694,17.4615528263328
35,3.88776728066794,0.75879793295845,0.757902380729335,1.05061915625121,847.296124435522,6.00089662018744e-249,4,-1190.26943297297,2390.53886594593,2414.03636764674,891.870894077453,808,322.8,2.11536669725694,17.4615528263328
36,3.52433292151795,0.971921502949783,0.971836416595085,0.365557538542566,11422.765805442,0,4,-408.12726857087,826.254537141739,850.763223175022,132.295990845447,990,322.8,2.11536669725694,17.4615528263328
37,3.74288751129512,0.949797027259433,0.949658345014293,0.598976305146383,6848.72837400883,0,4,-985.978091954841,1981.95618390968,2006.9258487858,389.627058941719,1086,322.8,2.11536669725694,17.4615528263328
38,3.45693043799442,0.979077311665578,0.979021960638238,0.426565099046756,17688.5120064,0,4,-643.183579636807,1296.36715927361,1321.55229734704,206.340126743888,1134,322.8,2.11536669725694,17.4615528263328
39,3.43251929348352,0.897951789894813,0.897702283268639,1.08196611651283,3598.9095907554,0,4,-1841.68809091401,3693.37618182801,3718.95409245893,1436.38838102483,1227,322.8,2.11536669725694,17.4615528263328
40,3.35618922232235,0.938494733157755,0.938223386392275,0.875089795193114,3458.6545798543,0,4,-877.282803887823,1764.56560777565,1787.20539736376,520.731861762765,680,322.8,2.11536669725694,17.4615528263328
43,NA,NA,NA,NA,NA,NA,NA,NA,NA,NA,NA,NA,322.8,2.11536669725694,17.4615528263328
