"Age","power_predict","r.squared","adj.r.squared","sigma","statistic","p.value","df","logLik","AIC","BIC","deviance","df.residual","GHI","Wind_speed","Ambient_temp"
0,52.7085137943374,0.99318867863568,0.992604851090166,1.68900647484862,1701.16789841193,5.79765288491723e-38,4,-73.6699162774619,157.339832554924,165.657640785572,99.8460005228198,35,573.59,0.449446440977112,24.7308540903885
1,52.7660294931402,0.961617449927961,0.961510136181254,3.69539848747029,8960.80399240562,0,4,-2933.92727696764,5877.85455393529,5902.76422732107,14652.8557898251,1073,573.59,0.449446440977112,24.7308540903885
2,57.1891004726292,0.974668346330029,0.974591969484793,2.54338096088279,12761.3066933724,0,4,-2348.07636854563,4706.15273709125,4730.6865109845,6436.44277862015,995,573.59,0.449446440977112,24.7308540903885
3,59.7697452346227,0.925611163611516,0.925361815556583,4.6266196252714,3712.12506092539,0,4,-2650.73330124093,5311.46660248186,5335.47301765422,19158.0201954671,895,573.59,0.449446440977112,24.7308540903885
4,55.1859430289701,0.977634914219096,0.977566797206565,2.60231597743367,14352.2870116897,0,4,-2347.20754309873,4704.41508619746,4728.89855785558,6670.46771971046,985,573.59,0.449446440977112,24.7308540903885
5,58.4555254109847,0.984235598021653,0.984192759972799,2.72549445592477,22975.7335907482,0,4,-2681.11632458464,5372.23264916927,5397.28420850581,8200.86531232141,1104,573.59,0.449446440977112,24.7308540903885
6,56.0290040305131,0.985274084756186,0.985238486250359,2.91007323182297,27677.3999881167,0,4,-3094.45717091004,6198.91434182008,6224.54879586458,10509.4410322846,1241,573.59,0.449446440977112,24.7308540903885
7,55.5182031580042,0.985935284928211,0.985904973042281,2.89418839914386,32526.359039032,0,4,-3462.37111903763,6934.74223807527,6960.94906949188,11659.8464737166,1392,573.59,0.449446440977112,24.7308540903885
8,52.6831349861848,0.993496317541241,0.993481875611281,2.05453766113636,68792.489665636,0,4,-2896.32764313899,5802.65528627797,5828.71306994454,5702.73987638835,1351,573.59,0.449446440977112,24.7308540903885
9,50.2897045380902,0.991908263959004,0.991892015493058,2.18356483180906,61046.2715230594,0,4,-3293.44350797204,6596.88701594408,6623.44644676446,7123.32532982174,1494,573.59,0.449446440977112,24.7308540903885
10,52.9602195495169,0.969555309938008,0.969492494208857,4.17122443507917,15434.912927666,0,4,-4149.13926210465,8308.27852420931,8334.70262877215,25298.3107204634,1454,573.59,0.449446440977112,24.7308540903885
11,53.8196479776174,0.985491813768948,0.98545954945561,2.71841437742945,30544.3293784245,0,4,-3270.88684662614,6551.77369325227,6577.82409139312,9968.80880528304,1349,573.59,0.449446440977112,24.7308540903885
12,49.1816227630172,0.981810694094497,0.981764722807457,2.49662294549222,21357.0416951711,0,4,-2777.64477228032,5565.28954456064,5590.70228740742,7398.72071863446,1187,573.59,0.449446440977112,24.7308540903885
13,52.0017116630773,0.968992187661887,0.968866649960113,3.35211405762697,7718.7344835127,0,4,-1956.24926935446,3922.49853870893,3945.56545980083,8326.37147360721,741,573.59,0.449446440977112,24.7308540903885
14,50.9247720056149,0.918792681610239,0.918199927461409,4.37139116814734,1550.04006875905,1.29766089046128e-223,4,-1199.00853131754,2408.01706263509,2428.15845523624,7853.82396617715,411,573.59,0.449446440977112,24.7308540903885
15,57.613546820168,0.931229579652258,0.931006540451131,4.04674809270696,4175.18344283623,0,4,-2614.85133084498,5239.70266168995,5263.87320538402,15147.9573663903,925,573.59,0.449446440977112,24.7308540903885
16,57.61822281938,0.974280610170027,0.974198264204723,2.67102497058013,11831.5524819261,0,4,-2257.71390503503,4525.42781007006,4549.66252576799,6684.90880667445,937,573.59,0.449446440977112,24.7308540903885
17,57.2057144173462,0.9851428333252,0.985101601595297,2.4345925348612,23892.8329143409,0,4,-2502.95526801084,5015.91053602168,5040.85721235155,6407.34731647684,1081,573.59,0.449446440977112,24.7308540903885
18,54.985495357909,0.98205892570164,0.982015024214777,2.86721753687864,22369.6051285755,0,4,-3038.90187073541,6087.80374147082,6113.37758871266,10078.8680310397,1226,573.59,0.449446440977112,24.7308540903885
19,55.5314397256901,0.984759346304529,0.984726021260006,3.10322282710072,29550.1284508841,0,4,-3508.69559077823,7027.39118155646,7053.52586164893,13212.3489068847,1372,573.59,0.449446440977112,24.7308540903885
20,53.6404969494136,0.984739652441235,0.984708635474652,3.18480275076088,31748.4190406143,0,4,-3812.44404906074,7634.88809812147,7661.38708495526,14971.021596411,1476,573.59,0.449446440977112,24.7308540903885
21,49.2826307845628,0.988427326251619,0.988403836386095,2.74284496642933,42078.8839860602,0,4,-3596.19581582481,7202.39163164962,7228.8973706789,11119.287397583,1478,573.59,0.449446440977112,24.7308540903885
22,52.8295659703843,0.989817293966559,0.989796298696387,2.53828115528738,47144.7752686977,0,4,-3427.26831268404,6864.53662536809,6890.9641581107,9374.37762988261,1455,573.59,0.449446440977112,24.7308540903885
23,49.7765266259125,0.992045748377196,0.992028556190691,1.96537848440476,57703.2914405957,0,4,-2913.71285600658,5837.42571201316,5863.61819621763,5361.44507070208,1388,573.59,0.449446440977112,24.7308540903885
24,48.561739495669,0.990668874763064,0.990645985657822,1.89097500354366,43281.2407603798,0,4,-2520.74689770518,5051.49379541036,5077.05543263392,4373.18684550496,1223,573.59,0.449446440977112,24.7308540903885
25,49.426684995513,0.981594032043503,0.981542856970408,2.48444683682666,19181.0968246505,0,4,-2520.29091560493,5050.58183120985,5075.51928244486,6660.10169573444,1079,573.59,0.449446440977112,24.7308540903885
26,53.2704887005992,0.981008210282732,0.980952352077682,2.32476924582814,17562.4728612528,0,4,-2314.85682539697,4639.71365079394,4664.37100982194,5512.6430872753,1020,573.59,0.449446440977112,24.7308540903885
27,55.4775830993304,0.944660016033232,0.944469407592474,3.74313812470742,4956.02404739304,0,4,-2394.50042022874,4799.00084045748,4822.87195988927,12203.6533109759,871,573.59,0.449446440977112,24.7308540903885
28,53.3311255974671,0.964693312942998,0.964589367838807,2.99769442634825,9280.79605526136,0,4,-2572.66406760767,5155.32813521533,5179.98060904509,9156.90913936081,1019,573.59,0.449446440977112,24.7308540903885
29,53.0198514174352,0.984501911924245,0.984459987429901,2.42699265153862,23482.7378918647,0,4,-2564.11966145676,5138.23932291351,5163.31339466989,6532.33530366033,1109,573.59,0.449446440977112,24.7308540903885
30,53.9138468885012,0.977580762235283,0.977525632962091,3.2513986207495,17732.5167852644,0,4,-3177.97783383721,6365.95566767442,6391.50506498978,12897.3434490343,1220,573.59,0.449446440977112,24.7308540903885
31,52.7903670816625,0.99024371047965,0.990222439499591,2.37413442651487,46553.7416582369,0,4,-3149.32569996691,6308.65139993382,6334.80059382458,7755.84364262444,1376,573.59,0.449446440977112,24.7308540903885
32,52.2460842689702,0.990653456405065,0.990634459365238,2.43933968203916,52147.7801500249,0,4,-3417.78284479714,6845.56568959428,6872.06467642807,8782.75805253146,1476,573.59,0.449446440977112,24.7308540903885
33,52.1760516931436,0.987301988460143,0.987276659979678,2.89622717771711,38979.9139280759,0,4,-3741.37729737381,7492.75459474761,7519.34729249045,12615.7503248806,1504,573.59,0.449446440977112,24.7308540903885
34,53.5179143103985,0.990874648635726,0.99085666174079,2.38549412963303,55088.699419943,0,4,-3490.01156693745,6990.0231338749,7016.67515993413,8661.06617310577,1522,573.59,0.449446440977112,24.7308540903885
35,51.151663107805,0.974902669314408,0.974849194888231,3.71388208381464,18231.1945918444,0,4,-3854.19210186874,7718.38420373747,7744.64801582774,19420.431546531,1408,573.59,0.449446440977112,24.7308540903885
36,48.0891882006805,0.993276622606351,0.993260827671205,1.70005157025498,62885.7677128342,0,4,-2495.43078068431,5000.86156136862,5026.6385428781,3690.75391112925,1277,573.59,0.449446440977112,24.7308540903885
37,51.2212671035701,0.972600537918516,0.972528116432838,3.32747378976681,13429.7236353835,0,4,-2983.48852544732,5976.97705089463,6002.16658071187,12566.8128674991,1135,573.59,0.449446440977112,24.7308540903885
38,53.274603567223,0.985029883373447,0.984987314321429,2.29850901478584,23139.5776194945,0,4,-2382.01615710254,4774.03231420508,4798.85771593309,5573.71659405964,1055,573.59,0.449446440977112,24.7308540903885
39,53.2268906205987,0.942691575154282,0.94251791326081,3.80153325432026,5428.31565582902,0,4,-2735.81291352404,5481.62582704808,5506.13451308136,14307.1385328657,990,573.59,0.449446440977112,24.7308540903885
40,52.0293211949858,0.936564114013112,0.936374941390885,3.75587451517548,4950.84385354548,0,4,-2767.67831079197,5545.35662158394,5569.94514963311,14191.2329339871,1006,573.59,0.449446440977112,24.7308540903885
41,52.5127334885393,0.984144587997831,0.984101502639129,2.30482447788862,22841.740620405,0,4,-2495.36528981184,5000.73057962368,5025.78213896021,5864.68632475749,1104,573.59,0.449446440977112,24.7308540903885
42,52.2373590685806,0.978123188774504,0.978069038251669,3.36747942413948,18063.042378149,0,4,-3199.85001496333,6409.70002992665,6435.21664023928,13743.9802184674,1212,573.59,0.449446440977112,24.7308540903885
43,52.3669723931199,0.98264322945262,0.982604399988308,3.19001662641529,25306.6388338939,0,4,-3466.70449054345,6943.4089810869,6969.42972754708,13646.2923489968,1341,573.59,0.449446440977112,24.7308540903885
44,51.5917118849211,0.992779073839231,0.992764215966472,2.18236599177579,66818.3857781616,0,4,-3213.44423795116,6436.88847590232,6463.32627910387,6944.04768756281,1458,573.59,0.449446440977112,24.7308540903885
45,50.0833523528259,0.993580935829868,0.993568071973815,2.00193765110442,77238.188283898,0,4,-3169.69148989871,6349.38297979741,6375.95241395558,5999.6082752875,1497,573.59,0.449446440977112,24.7308540903885
46,51.5486533184245,0.988964958572848,0.988943335369529,2.62836548370606,45736.2835645124,0,4,-3659.4339596568,7328.8679193136,7355.54934761371,10576.6151325002,1531,573.59,0.449446440977112,24.7308540903885
47,50.6087737083092,0.989816030768394,0.989795018452235,2.2345676973035,47106.4695243675,0,4,-3239.11130391324,6488.22260782648,6514.64671238932,7260.24772223213,1454,573.59,0.449446440977112,24.7308540903885
48,48.0824229670152,0.987218170486159,0.987189120873628,2.28933103522262,33983.8670624997,0,4,-2973.28736802138,5956.57473604276,5982.51679972524,6918.1682972602,1320,573.59,0.449446440977112,24.7308540903885
49,47.3797499578538,0.986720121373994,0.986686614531372,2.06863247490755,29448.3169451116,0,4,-2557.96739404667,5125.93478809334,5151.35592020383,5088.01673601192,1189,573.59,0.449446440977112,24.7308540903885
50,48.6295161576812,0.980813365121559,0.980757427410543,2.31811232542819,17534.0275336513,0,4,-2332.25767986329,4674.51535972659,4699.21647207219,5529.48045114784,1029,573.59,0.449446440977112,24.7308540903885
51,51.8555050259331,0.969103786117899,0.968993442496892,2.57356289288502,8782.5990960728,0,4,-1993.4052066889,3996.8104133778,4020.50117585078,5563.50980945314,840,573.59,0.449446440977112,24.7308540903885
52,50.8766628938929,0.931298894953843,0.931089227288392,4.06185386833261,4441.78597090768,0,4,-2781.90644248283,5573.81288496567,5598.28623516283,16218.1796812779,983,573.59,0.449446440977112,24.7308540903885
53,49.1954249699001,0.982201469079637,0.982149527841542,2.33127962814203,18909.8586231945,0,4,-2335.84334773587,4681.68669547174,4706.38296520195,5587.04091631854,1028,573.59,0.449446440977112,24.7308540903885
54,48.6717774851196,0.983302893749702,0.983258915418928,2.61626117241597,22358.8043579089,0,4,-2719.11921678451,5448.23843356902,5473.44549188799,7796.25285288988,1139,573.59,0.449446440977112,24.7308540903885
55,47.6518450054474,0.99321676437862,0.993201050319266,1.89263804273799,63205.6136463053,0,4,-2669.92323673163,5349.84647346325,5375.6932235466,4638.79199526074,1295,573.59,0.449446440977112,24.7308540903885
56,46.8491557184553,0.973949616998987,0.973894619709048,3.76117935263104,17709.0474472964,0,4,-3907.72850385168,7825.45700770337,7851.76664316688,20102.1340442971,1421,573.59,0.449446440977112,24.7308540903885
57,47.6006280292637,0.992843034585419,0.992827576776748,2.0839663424801,64229.2226362478,0,4,-2997.42075157865,6004.84150315729,6031.03757802619,6032.30993034336,1389,573.59,0.449446440977112,24.7308540903885
58,48.2228246936013,0.991340098541264,0.991321231653555,2.12097183986477,52543.9125836062,0,4,-2995.88975686802,6001.77951373605,6027.9323295031,6194.46416815262,1377,573.59,0.449446440977112,24.7308540903885
59,45.6443097071252,0.995562026076835,0.995552728645431,1.5170541238406,107079.254784897,0,4,-2634.07520570103,5278.15041140205,5304.49849515009,3295.68100339564,1432,573.59,0.449446440977112,24.7308540903885
60,45.7450123365792,0.963212176409902,0.963128377267328,3.90889420266727,11494.2963235738,0,4,-3673.27399097235,7356.5479819447,7382.47870346731,20123.0407700295,1317,573.59,0.449446440977112,24.7308540903885
61,46.3169118915393,0.98311918638394,0.983076012947582,2.43844575276686,22771.3906816913,0,4,-2717.21896757345,5444.43793514691,5469.79155568321,6974.67874941603,1173,573.59,0.449446440977112,24.7308540903885
62,43.7872928136914,0.849217609732018,0.848799929980584,6.71640390389437,2033.17878545634,0,4,-3610.63147502094,7231.26295004187,7256.21883447748,48854.2181564681,1083,573.59,0.449446440977112,24.7308540903885
63,49.2895766712528,0.962691236091994,0.962579421614747,2.80351470653737,8609.71906139982,0,4,-2460.05748693588,4930.11497387177,4954.67868797423,7867.55440448108,1001,573.59,0.449446440977112,24.7308540903885
64,47.9211516154593,0.909867576858169,0.909599325598819,4.12639503298867,3391.84829573789,0,4,-2868.37483484572,5746.74966969144,5771.34808894068,17163.3530560197,1008,573.59,0.449446440977112,24.7308540903885
65,47.7212498011957,0.976516012147624,0.976449169677455,2.32346407905595,14609.214915195,0,4,-2391.18982159247,4792.37964318494,4817.20032124703,5690.00353430315,1054,573.59,0.449446440977112,24.7308540903885
66,48.801149241836,0.981723132690162,0.981675536681542,2.59711811219161,20626.1651169342,0,4,-2741.5786643186,5493.1573286372,5518.42093388336,7770.26590695212,1152,573.59,0.449446440977112,24.7308540903885
67,49.0421748935956,0.985422657084986,0.985389017062875,2.61774771003498,29293.1631797607,0,4,-3103.15061473016,6216.30122946031,6242.16718817275,8908.38399541139,1300,573.59,0.449446440977112,24.7308540903885
68,48.419480208284,0.99295034011715,0.99293569400936,1.90639472046908,67796.1922965578,0,4,-2986.88992306507,5983.77984613014,6010.16953899487,5247.98815885557,1444,573.59,0.449446440977112,24.7308540903885
69,46.719934163319,0.99176889109502,0.99175242887721,2.17951027716796,60245.1566698994,0,4,-3303.84760256853,6617.69520513705,6644.2746226596,7125.39757242112,1500,573.59,0.449446440977112,24.7308540903885
70,46.1284973033098,0.986508739860043,0.9864823553878,2.76205703350639,37389.7469237224,0,4,-3742.89549171388,7495.79098342775,7522.48217417808,11702.8231924288,1534,573.59,0.449446440977112,24.7308540903885
71,49.0616867343809,0.987796799849859,0.987771861429934,2.58526701631339,39609.4380801374,0,4,-3484.82278794,6979.64557587999,7006.11746237644,9811.53294099648,1468,573.59,0.449446440977112,24.7308540903885
72,46.8215726333612,0.993331853412102,0.993317187400545,1.70385642800513,67730.1970991994,0,4,-2668.10420691596,5346.20841383193,5372.31393932284,3959.86485597498,1364,573.59,0.449446440977112,24.7308540903885
73,43.3696360140331,0.949882436188049,0.949666722140078,4.04993395527403,4403.43336524535,0,4,-1973.15928596808,3956.31857193615,3979.08111137133,11432.1696343308,697,573.59,0.449446440977112,24.7308540903885
