"Age","power_predict","r.squared","adj.r.squared","sigma","statistic","p.value","df","logLik","AIC","BIC","deviance","df.residual","GHI","Wind_speed","Ambient_temp"
0,NA,NA,NA,NA,NA,NA,NA,NA,NA,NA,NA,NA,462.2,1.67184576479997,20.8771859539953
1,29.1818362560742,0.988650981469544,0.988606417260654,1.09282865696358,22184.8655257638,0,4,-1155.91449149491,2321.82898298982,2345.04793165556,912.425697739349,764,462.2,1.67184576479997,20.8771859539953
2,28.6340676613413,0.988379913562394,0.98833386302169,1.11193730301143,21462.938294657,0,4,-1158.5519500091,2327.1039000182,2350.27706680751,935.958256332041,757,462.2,1.67184576479997,20.8771859539953
3,26.305073339586,0.990806912295744,0.990779606094642,1.12796347537294,36285.0514651848,0,4,-1558.89928287039,3127.79856574079,3152.40685666154,1285.02461779315,1010,462.2,1.67184576479997,20.8771859539953
4,24.5925213797009,0.988792718169249,0.988761442033908,1.39515809356178,31614.9264405156,0,4,-1888.34630984244,3786.69261968487,3811.61156951116,2092.45106398326,1075,462.2,1.67184576479997,20.8771859539953
5,22.4132242344393,0.985698703318076,0.985662466924456,1.58372011239851,27201.8985570652,0,4,-2229.91018116781,4469.82036233561,4495.22049483522,2969.67256298802,1184,462.2,1.67184576479997,20.8771859539953
6,21.2161525972722,0.982113793672571,0.982074769222402,1.84325098817912,25166.6273175153,0,4,-2798.01437867349,5606.02875734697,5632.17432673594,4671.66453245706,1375,462.2,1.67184576479997,20.8771859539953
7,20.4927359825336,0.985763240677954,0.985734440760242,1.55386972613359,34227.9880988926,0,4,-2763.35180031111,5536.70360062223,5563.22618035453,3580.71999955323,1483,462.2,1.67184576479997,20.8771859539953
8,21.3568363294678,0.974527938886302,0.974476166404363,2.06111390040328,18823.2802909777,0,4,-3168.43123777791,6346.86247555581,6373.3614623896,6270.329193403,1476,462.2,1.67184576479997,20.8771859539953
9,22.6051716103022,0.975661556070563,0.97560200033501,2.02871573684071,16382.327361197,0,4,-2613.39676634968,5236.79353269935,5262.36737994118,5045.83292514973,1226,462.2,1.67184576479997,20.8771859539953
10,23.7163569406871,0.979574919689277,0.979527493032209,1.81934256714734,20654.5217445911,0,4,-2612.56511709714,5235.13023419428,5260.96542357884,4276.52953061147,1292,462.2,1.67184576479997,20.8771859539953
11,25.6881377013055,0.983175720841218,0.983131869548884,1.58513281230375,22420.6783543434,0,4,-2168.94230224753,4347.88460449505,4373.14388260983,2892.05558357094,1151,462.2,1.67184576479997,20.8771859539953
12,28.0990409948137,0.974300587490149,0.974223643141317,1.71465513541729,12662.4060412655,0,4,-1967.8954227054,3945.7908454108,3970.3595321641,2945.92231787973,1002,462.2,1.67184576479997,20.8771859539953
13,32.9700736492469,0.986739728319916,0.986691333167799,1.19357711671541,20389.2267128833,0,4,-1316.20301727026,2642.40603454052,2665.98900840812,1171.04284617537,822,462.2,1.67184576479997,20.8771859539953
14,33.5751111149005,0.983841091034831,0.983785562138044,1.29872062351283,17717.6415875766,0,4,-1471.63446660173,2953.26893320346,2977.15146816532,1472.46750017949,873,462.2,1.67184576479997,20.8771859539953
15,30.3841775762026,0.987238029590488,0.987196817630069,1.23105688944347,23955.1338876311,0,4,-1515.81091705398,3041.62183410795,3065.81386011219,1407.90048942795,929,462.2,1.67184576479997,20.8771859539953
16,27.4218074461151,0.984382522312348,0.984341531557263,1.53107316213806,24014.7447943881,0,4,-2114.10533348523,4238.21066697046,4263.43519255611,2679.40348679763,1143,462.2,1.67184576479997,20.8771859539953
17,24.766110762204,0.976187987362159,0.976133704658577,2.00927903549537,17983.4076593629,0,4,-2792.06010636378,5594.12021272755,5620.04714780546,5312.95815110525,1316,462.2,1.67184576479997,20.8771859539953
18,23.2908932163022,0.985775102509276,0.985744555127407,1.59044498175909,32270.3630284745,0,4,-2636.0134140572,5282.02682811441,5308.25153584609,3533.73279028374,1397,462.2,1.67184576479997,20.8771859539953
19,21.0215940680307,0.984071996657332,0.984038951007243,1.6253646635084,29779.168938156,0,4,-2759.76979787447,5529.53959574894,5555.93618992602,3820.05767844602,1446,462.2,1.67184576479997,20.8771859539953
20,22.086406523408,0.983379373405687,0.983345886582461,1.655634671425,29366.1589449754,0,4,-2869.21988902577,5748.43977805153,5774.98249203923,4081.5368600194,1489,462.2,1.67184576479997,20.8771859539953
21,22.9340992717124,0.983165322118692,0.983129705733894,1.72965746048008,27604.2986307502,0,4,-2794.87483540902,5599.74967081804,5626.04876886986,4242.25177158285,1418,462.2,1.67184576479997,20.8771859539953
22,23.8634038228557,0.978728245711606,0.978679973954521,1.74814573196802,20275.3805710117,0,4,-2620.1542568976,5250.30851379519,5276.25812464892,4040.04984726178,1322,462.2,1.67184576479997,20.8771859539953
23,28.6808893844434,0.934009964645769,0.933836001459422,3.43105599930209,5369.00929593016,0,4,-3026.35964751834,6062.71929503669,6087.92197698777,13396.7013176547,1138,462.2,1.67184576479997,20.8771859539953
24,35.2452216323416,0.96699762930879,0.966899407967447,2.22251846501004,9845.08678142607,0,4,-2242.18652113423,4494.37304226846,4518.9714615177,4979.10503392906,1008,462.2,1.67184576479997,20.8771859539953
25,40.5956632991317,0.978485077739617,0.97841438248575,1.68365245218326,13840.887813653,0,4,-1776.88763486515,3563.7752697303,3587.88080709159,2588.06793430508,913,462.2,1.67184576479997,20.8771859539953
26,42.1964395037845,0.98340276976355,0.983335392644863,1.43611744518581,14595.5005042392,0,4,-1321.18976463243,2652.37952926485,2675.43300948844,1524.13822079523,739,462.2,1.67184576479997,20.8771859539953
27,37.8095974861919,0.97963767986422,0.979569729963878,1.72695601682683,14417.0583758839,0,4,-1772.66043146157,3555.32086292313,3579.34947569022,2681.15699856491,899,462.2,1.67184576479997,20.8771859539953
28,32.4339272790414,0.971635151489738,0.971554263138473,2.29897010712869,12012.0528641568,0,4,-2375.47436635138,4760.94873270277,4785.7599500241,5560.0972582518,1052,462.2,1.67184576479997,20.8771859539953
29,27.5408259312942,0.949966268894075,0.949851862496729,3.26201274350989,8303.43661659237,0,4,-3421.28530868461,6852.57061736921,6878.48237792864,13960.634006133,1312,462.2,1.67184576479997,20.8771859539953
30,24.0306774248927,0.985476171645951,0.985443162945147,1.79928755282376,29855.0426894401,0,4,-2654.3769868313,5318.7539736626,5344.69603734509,4273.4151210254,1320,462.2,1.67184576479997,20.8771859539953
31,23.1460750978074,0.979929039621425,0.979888161901713,2.14015119770176,23972.2040888352,0,4,-3217.58406092354,6445.16812184708,6471.65696325974,6746.70405051276,1473,462.2,1.67184576479997,20.8771859539953
32,22.015643010779,0.98404177432492,0.984009921579061,1.7953253696578,30893.4676683157,0,4,-3018.21341936359,6046.42683872718,6073.01621972032,4844.4593539542,1503,462.2,1.67184576479997,20.8771859539953
33,23.0044475227091,0.985289474155496,0.985258890941682,1.77067197647463,32216.6754661498,0,4,-2877.95793801754,5765.91587603508,5792.30211466824,4524.20795525732,1443,462.2,1.67184576479997,20.8771859539953
34,23.5233429269789,0.986628299135644,0.986598867659054,1.56198901539997,33522.8949895367,0,4,-2547.31338902533,5104.62677805067,5130.72864723429,3325.46059960571,1363,462.2,1.67184576479997,20.8771859539953
35,24.9176435255502,0.970839786696932,0.970769066697006,2.24420063532419,13727.9381745555,0,4,-2762.06108669779,5534.12217339558,5559.74053732161,6230.07194009618,1237,462.2,1.67184576479997,20.8771859539953
36,28.2677656675513,0.986477618505359,0.986438946298988,1.51506724508887,25508.6976166702,0,4,-1929.6176620014,3869.2353240028,3894.03231656347,2407.9047662411,1049,462.2,1.67184576479997,20.8771859539953
37,32.319564424037,0.973624430363037,0.97354157517046,1.88158266739842,11750.9162682836,0,4,-1964.95449379862,3939.90898759723,3964.23844297165,3381.03743421273,955,462.2,1.67184576479997,20.8771859539953
38,35.2313502375564,0.986797574158407,0.986749565337165,1.30240050004231,20554.5053726894,0,4,-1393.32454742892,2796.64909485784,2820.25019563351,1399.40382657113,825,462.2,1.67184576479997,20.8771859539953
39,32.9391006374628,0.984175928081384,0.984127038054859,1.51529290472321,20130.4028251372,0,4,-1786.67949386221,3583.35898772442,3607.77117507941,2229.52532207847,971,462.2,1.67184576479997,20.8771859539953
40,29.937561159488,0.985576081420521,0.98553427296087,1.60653525120644,23573.6042335838,0,4,-1964.84223227424,3939.68446454848,3964.41453450397,2671.28895633684,1035,462.2,1.67184576479997,20.8771859539953
41,27.2303395477117,0.98657633812347,0.98654373003794,1.76515399025272,30255.5737967144,0,4,-2460.1084064773,4930.21681295461,4955.82711236275,3847.97423249182,1235,462.2,1.67184576479997,20.8771859539953
42,25.4315015033124,0.980376805718214,0.980334115665389,2.16096390080209,22964.9939704309,0,4,-3026.06579077524,6062.13158155048,6088.2916332088,6439.6059082057,1379,462.2,1.67184576479997,20.8771859539953
43,23.8469205954156,0.985350370953497,0.985320268976004,1.7898413918118,32733.7421997848,0,4,-2927.55721509679,5865.11443019357,5891.55906866618,4677.15702345051,1460,462.2,1.67184576479997,20.8771859539953
44,23.6886801116516,0.982466867847651,0.982431894844688,1.91110479484579,28092.1506475754,0,4,-3114.46035504723,6238.92071009446,6265.5134078373,5493.09159147139,1504,462.2,1.67184576479997,20.8771859539953
45,23.1019804795159,0.98237535012041,0.982338733811796,1.88572893038471,26828.90185555,0,4,-2971.10754725721,5952.21509451442,5978.60478737915,5134.82587679694,1444,462.2,1.67184576479997,20.8771859539953
46,24.5809907526561,0.981659405704328,0.981619273112872,1.91872083773757,24460.4041272944,0,4,-2845.06832720015,5700.1366544003,5726.2676994508,5047.3223144938,1371,462.2,1.67184576479997,20.8771859539953
47,26.4263255009719,0.988040948219228,0.98801311489468,1.44211222937911,35498.4883863525,0,4,-2306.06318565362,4622.12637130724,4647.9499732011,2680.71742225885,1289,462.2,1.67184576479997,20.8771859539953
48,28.4651820017467,0.993512323276649,0.993494597383962,0.956430582068199,56048.648202593,0,4,-1512.57575643968,3035.15151287935,3060.17592282792,1004.40588523022,1098,462.2,1.67184576479997,20.8771859539953
49,30.9227478238243,0.989217429203978,0.989185590904384,1.04908978078348,31070.0458818868,0,4,-1494.19474304417,2998.38948608834,3023.02727561973,1118.19879803464,1016,462.2,1.67184576479997,20.8771859539953
50,37.7295921741534,0.960419217900923,0.960277011498172,2.06688924092664,6753.69884421735,0,4,-1797.63614551338,3605.27229102675,3628.93334455909,3567.14599710568,835,462.2,1.67184576479997,20.8771859539953
51,38.8185870849247,0.987214703412182,0.987164630449044,1.17510770138576,19715.523938497,0,4,-1214.82450689637,2439.64901379273,2462.88096636697,1057.75263214979,766,462.2,1.67184576479997,20.8771859539953
52,35.1986219630795,0.988985760390652,0.988951340891873,1.29037296869351,28733.2993061462,0,4,-1611.60635793571,3233.21271587143,3257.56817234448,1598.45990240151,960,462.2,1.67184576479997,20.8771859539953
53,25.9206311873722,0.908234320296493,0.908009954331448,4.42019464076073,4048.0039836404,0,4,-3574.2022513937,7158.40450278741,7183.98241341833,23973.2740525316,1227,462.2,1.67184576479997,20.8771859539953
54,22.1216484052818,0.9867989975565,0.986769176014836,1.82073949973543,33090.1402971435,0,4,-2686.21444301674,5382.42888603348,5408.40107028898,4402.44260879098,1328,462.2,1.67184576479997,20.8771859539953
55,21.4965192465954,0.985380859708118,0.985350487532997,1.88002751288733,32443.5393830619,0,4,-2966.72295204052,5943.44590408103,5969.83559694576,5103.82298066403,1444,462.2,1.67184576479997,20.8771859539953
56,20.533925075575,0.974832253370004,0.974767995293502,2.30878741606978,15170.5794265079,0,4,-2657.42090894163,5324.84181788326,5350.20392738595,6263.33671580757,1175,462.2,1.67184576479997,20.8771859539953
57,20.2234267054009,0.979687351755853,0.979644797325174,2.01941659535956,23021.9823440732,0,4,-3044.82617230951,6099.65234461901,6126.00042836705,5839.75812819867,1432,462.2,1.67184576479997,20.8771859539953
58,20.814452288152,0.990428636040845,0.99040704649808,1.41049449975322,45875.387303058,0,4,-2349.67742828923,4709.35485657846,4735.33454271084,2646.02799599934,1330,462.2,1.67184576479997,20.8771859539953
59,21.2414569885214,0.982570869479753,0.98252982757115,1.64890939237139,23940.671935471,0,4,-2450.54612247577,4911.09224495153,4936.85750312622,3463.88138273525,1274,462.2,1.67184576479997,20.8771859539953
60,25.3695219220375,0.987684105340947,0.987649574795174,1.53163486976205,28603.1999561355,0,4,-1979.82080057751,3969.64160115502,3994.53732753036,2510.11875046998,1070,462.2,1.67184576479997,20.8771859539953
61,28.363205906087,0.984959271131313,0.984912657302174,1.45273404077238,21130.1943937053,0,4,-1740.19492896833,3490.38985793666,3514.78663695896,2042.90223503583,968,462.2,1.67184576479997,20.8771859539953
62,30.4161048777585,0.991858218383249,0.99182457465756,0.931673973418211,29481.2241530655,0,4,-982.155821908464,1974.31164381693,1997.27686648764,630.179901132781,726,462.2,1.67184576479997,20.8771859539953
63,29.5231064307317,0.985498450946724,0.98544967892076,1.44484222932543,20206.2233722973,0,4,-1599.0925661785,3208.18513235699,3232.17483442186,1862.11160833674,892,462.2,1.67184576479997,20.8771859539953
64,27.7803956874524,0.991369540807434,0.99134447655034,1.2513672072429,39553.1188937652,0,4,-1701.96886970446,3413.93773940891,3438.65817545006,1617.59524364588,1033,462.2,1.67184576479997,20.8771859539953
65,25.560693685902,0.989817933090954,0.989790684026969,1.37613838406228,36324.841603271,0,4,-1953.49375314961,3916.98750629922,3942.11519787241,2122.90143119238,1121,462.2,1.67184576479997,20.8771859539953
66,23.1033364152149,0.983420969841759,0.983381837591188,1.86205874509775,25130.7030776976,0,4,-2599.78896397314,5209.57792794628,5235.33143523424,4406.89098091784,1271,462.2,1.67184576479997,20.8771859539953
67,21.1610524783482,0.983771848663648,0.983737612057453,1.93509238458012,28734.5025691254,0,4,-2962.7846668818,5935.5693337636,5961.88247676847,5324.79636741489,1422,462.2,1.67184576479997,20.8771859539953
68,21.0831540956332,0.97724691783934,0.977199117246565,2.2900062748996,20444.2426571904,0,4,-3216.40730765711,6442.81461531422,6469.14875205182,7488.6158394056,1428,462.2,1.67184576479997,20.8771859539953
69,20.7575815951011,0.981583606105697,0.981544670812052,2.00720874370331,25210.6383232619,0,4,-3008.61495429202,6027.22990858405,6053.5325215745,5716.99056899378,1419,462.2,1.67184576479997,20.8771859539953
70,20.3781942799947,0.984703065133204,0.984669197380731,1.78732134525213,29074.9457298508,0,4,-2715.53033912764,5441.06067825527,5467.13320032603,4328.57133606772,1355,462.2,1.67184576479997,20.8771859539953
71,21.2810531738345,0.979936405044858,0.979888973378298,1.8186772252607,20659.961500456,0,4,-2565.69891796969,5141.39783593938,5167.14349393216,4197.32771224643,1269,462.2,1.67184576479997,20.8771859539953
72,25.2768232103114,0.980054965366119,0.980002060764968,1.83316851208739,18524.9476235745,0,4,-2296.3537957864,4602.7075915728,4627.87953122238,3800.73318368453,1131,462.2,1.67184576479997,20.8771859539953
73,27.2964071615721,0.975744611402294,0.975670511437127,1.88336943068294,13167.9496638761,0,4,-2021.26887505775,4052.53775011551,4077.00603188852,3483.23296500724,982,462.2,1.67184576479997,20.8771859539953
74,29.8176579054748,0.963987808635321,0.963872137785114,2.03195982181455,8333.88711939077,0,4,-1994.002777462,3998.00555492399,4022.22430466903,3856.35591011568,934,462.2,1.67184576479997,20.8771859539953
75,29.7378548465551,0.96852757159726,0.968417528141306,1.9152538300261,8801.31910801969,0,4,-1781.29120063223,3572.58240126446,3596.37867761777,3147.31322628264,858,462.2,1.67184576479997,20.8771859539953
76,27.4789164893155,0.979875366604166,0.979816176505943,1.76812516961461,16554.7176980813,0,4,-2034.586974768,4079.17394953601,4103.831308564,3188.79194773319,1020,462.2,1.67184576479997,20.8771859539953
77,25.2555856991857,0.98266085071588,0.982615460272728,1.85606977867263,21649.0693299037,0,4,-2341.00624125147,4692.01248250294,4717.25006860972,3947.96429670392,1146,462.2,1.67184576479997,20.8771859539953
78,22.6556506603048,0.985692420980628,0.985658570241624,1.80971972570827,29118.7858805743,0,4,-2557.40142867334,5124.80285734667,5150.54458606617,4152.80839576313,1268,462.2,1.67184576479997,20.8771859539953
79,21.6628073209023,0.980759226245623,0.98071854807701,1.98679885880876,24110.2109476581,0,4,-2994.07140710562,5998.14281421123,6024.44542720168,5601.31761191119,1419,462.2,1.67184576479997,20.8771859539953
80,21.0116785805533,0.977628259644598,0.97758321587207,2.19518104232009,21703.960498521,0,4,-3292.57068312203,6595.14136624406,6621.68742807253,7180.04151475668,1490,462.2,1.67184576479997,20.8771859539953
81,20.957504668917,0.978969030832919,0.978926052013095,2.11403934050988,22777.9412009887,0,4,-3188.61472982447,6387.22945964894,6413.70134614538,6560.73030517204,1468,462.2,1.67184576479997,20.8771859539953
82,20.3570587836234,0.984902705124613,0.984870491835405,1.66825470138868,30574.4222134964,0,4,-2720.30745680699,5450.61491361397,5476.87163853083,3913.00169067983,1406,462.2,1.67184576479997,20.8771859539953
83,20.4033370258441,0.985312971038244,0.985279336620775,1.58771156944777,29294.7832953184,0,4,-2469.9361238061,4949.8722476122,4975.77640360742,3302.28471636339,1310,462.2,1.67184576479997,20.8771859539953
84,22.7499995703891,0.980610881746089,0.980561335447314,1.61108064990144,19791.8089946785,0,4,-2231.3004731387,4472.6009462774,4497.95881309846,3047.21193021157,1174,462.2,1.67184576479997,20.8771859539953
85,25.6547813183382,0.952320059904603,0.952167239583784,2.41344035332972,6231.63238241819,0,4,-2159.9880201085,4329.976040217,4354.20543959332,5451.91390137914,936,462.2,1.67184576479997,20.8771859539953
86,30.7598504489975,0.97224254798102,0.972139742603172,1.75099761683965,9457.11759765913,0,4,-1609.00218937736,3228.00437875472,3251.51418058473,2483.4540498843,810,462.2,1.67184576479997,20.8771859539953
87,29.9983633157139,0.974980333679001,0.974889131979167,1.70176417308998,10690.3745813795,0,4,-1611.14465149747,3232.28930299494,3255.87832647006,2383.40907056878,823,462.2,1.67184576479997,20.8771859539953
88,28.8826798236033,0.968777398891555,0.968683637326665,1.9580256959004,10332.3510014556,0,4,-2095.14382770317,4200.28765540634,4224.84140934615,3830.03076118044,999,462.2,1.67184576479997,20.8771859539953
89,24.354312084353,0.988185431283558,0.988155445068542,1.34964312321806,32954.65702306,0,4,-2036.46820243356,4082.93640486712,4108.3281127649,2153.05621397886,1182,462.2,1.67184576479997,20.8771859539953
90,22.4628894943346,0.983899807192837,0.983861924386232,1.79973141269331,25972.1994056445,0,4,-2564.40753395643,5138.81506791285,5164.58423692075,4129.7672762397,1275,462.2,1.67184576479997,20.8771859539953
91,20.4380245895018,0.983976361225352,0.983941728000334,1.74822133389519,28411.3408651725,0,4,-2750.72921463205,5511.4584292641,5537.65091346857,4242.11363121333,1388,462.2,1.67184576479997,20.8771859539953
92,17.439029983872,0.905717858042182,0.905063120945252,4.554923284027,1383.33059527249,4.7401764193969e-221,4,-1277.71495781746,2565.42991563492,2585.81812685167,8962.84488529639,432,462.2,1.67184576479997,20.8771859539953
93,21.7442205439458,0.981895187524519,0.981856991717609,1.95547858806388,25706.8842616811,0,4,-2977.72899892832,5965.45799785664,5991.77114086151,5437.58083491109,1422,462.2,1.67184576479997,20.8771859539953
94,21.8863384031966,0.987451603143116,0.987424402860912,1.59860149349068,36302.9911134395,0,4,-2618.63509917141,5247.27019834282,5273.44829404815,3536.84900122705,1384,462.2,1.67184576479997,20.8771859539953
95,21.9383114637727,0.986238036668432,0.986206351411337,1.48667629360062,31126.0859810409,0,4,-2370.83123558289,4751.66247116579,4777.53991973391,2879.89894174618,1303,462.2,1.67184576479997,20.8771859539953
96,24.6565358541887,0.972039193220694,0.971970380734773,2.0973029761823,14125.9130549958,0,4,-2639.1762161348,5288.3524322696,5313.89774294804,5361.9906443879,1219,462.2,1.67184576479997,20.8771859539953
97,26.6927328397552,0.985923163239984,0.985885049061031,1.34705404612826,25867.6217177046,0,4,-1907.14310534211,3824.28621068421,3849.35578805827,2010.52650033508,1108,462.2,1.67184576479997,20.8771859539953
98,29.6461328474437,0.948883915473084,0.948718847385268,2.34623552096294,5748.43949566286,0,4,-2117.53907647104,4245.07815294209,4269.27017894633,5113.97882032041,929,462.2,1.67184576479997,20.8771859539953
99,30.8792971357265,0.981692705846956,0.981633839949358,1.33621755013296,16676.7644069149,0,4,-1599.1239206415,3208.24784128301,3232.4612576942,1665.85035941734,933,462.2,1.67184576479997,20.8771859539953
100,29.0995711356605,0.985280219442206,0.985232324277702,1.41771245193141,20571.6011131866,0,4,-1635.14807078418,3280.29614156835,3304.45051274158,1853.13572584517,922,462.2,1.67184576479997,20.8771859539953
101,26.6578726596344,0.989241471763517,0.98921127944854,1.37011340602719,32764.6777846156,0,4,-1858.39805006947,3726.79610013895,3751.6871688521,2006.73828680635,1069,462.2,1.67184576479997,20.8771859539953
102,24.6936481546368,0.98661701895734,0.986584614644888,1.63501748515879,30447.0900414865,0,4,-2372.86267056541,4755.72534113081,4781.35175658836,3312.19661702419,1239,462.2,1.67184576479997,20.8771859539953
103,22.9594687195644,0.982696984499864,0.982659122321527,1.85534324702426,25954.5812643419,0,4,-2798.88343034357,5607.76686068714,5633.89790573764,4719.39133162586,1371,462.2,1.67184576479997,20.8771859539953
104,21.5312247217558,0.98325730020741,0.983219248616973,1.7746176904793,25840.1104631133,0,4,-2636.09814936226,5282.19629872451,5308.13836240699,4157.03369051794,1320,462.2,1.67184576479997,20.8771859539953
105,19.5912241612706,0.983138610571944,0.983102658782119,1.70285927858916,27346.0268695902,0,4,-2751.20710004909,5512.41420009817,5538.67446985743,4079.91971980679,1407,462.2,1.67184576479997,20.8771859539953
106,22.4809474772121,0.985297307156731,0.985265823874412,1.73815841444206,31295.8889468232,0,4,-2768.32655594904,5546.65311189809,5572.89207480693,4232.6937378477,1401,462.2,1.67184576479997,20.8771859539953
107,23.3259988592278,0.98669541364413,0.986664231019859,1.58429184700847,31642.4751506156,0,4,-2410.73053476316,4831.46106952632,4857.24974694757,3212.7752403168,1280,462.2,1.67184576479997,20.8771859539953
108,25.545396654419,0.966875125257178,0.966728121375183,2.27334540824438,6577.20811271874,0,4,-1521.32399346391,3052.64798692781,3075.25845091866,3493.63515734562,676,462.2,1.67184576479997,20.8771859539953
