"Age","power_predict","r.squared","adj.r.squared","sigma","statistic","p.value","df","logLik","AIC","BIC","deviance","df.residual","GHI","Wind_speed","Ambient_temp"
0,NA,NA,NA,NA,NA,NA,NA,NA,NA,NA,NA,NA,513.6,2.31116918044698,22.1270984493631
1,113.047192682226,0.98302201442415,0.982976003623131,7.43546591438597,21365.027181933,0,4,-3803.39334229787,7616.78668459573,7641.85176354393,61201.7717739432,1107,513.6,2.31116918044698,22.1270984493631
2,109.042702550006,0.984523170696685,0.984490679102627,6.15622812270874,30300.8577823767,0,4,-4635.76242367913,9281.52484735826,9307.8624744974,54157.8777746281,1429,513.6,2.31116918044698,22.1270984493631
3,103.744193404428,0.988776205398009,0.988751537717565,4.95454473008101,40083.874430157,0,4,-4131.34185635848,8272.68371271697,8298.79289184341,33507.3559034398,1365,513.6,2.31116918044698,22.1270984493631
4,98.9074017819646,0.972077564705385,0.972012779472682,7.29785355719649,15004.616394216,0,4,-4416.25179951036,8842.50359902072,8868.3426449423,68863.4558391751,1293,513.6,2.31116918044698,22.1270984493631
5,84.3992830767195,0.769536852201504,0.768885212763808,19.6572992248982,1180.92430826826,0,4,-4681.21367125666,9372.42734251331,9397.28099290403,409980.386999032,1061,513.6,2.31116918044698,22.1270984493631
6,80.8313669482911,0.948134108883278,0.947985920622945,6.32216270138426,6398.17288326043,0,4,-3437.1980713674,6884.3961427348,6909.19788138031,41968.228283913,1050,513.6,2.31116918044698,22.1270984493631
7,85.2872982738675,0.846807631486216,0.846291252715944,12.5625385832322,1639.89629364798,0,4,-3528.9895768833,7067.97915376661,7091.95768264247,140457.464333127,890,513.6,2.31116918044698,22.1270984493631
8,114.327006327042,0.964926181837004,0.964786630836356,6.40791395050995,6914.5056456262,0,4,-2481.560718657,4973.12143731401,4996.27485424222,30960.2663426436,754,513.6,2.31116918044698,22.1270984493631
9,112.448446649231,0.977851797569412,0.977787225550664,6.25288750911533,15143.5841178287,0,4,-3357.29341190643,6724.58682381286,6749.28793615845,40232.4616654984,1029,513.6,2.31116918044698,22.1270984493631
10,117.472889990294,0.97528512548243,0.975218865765225,7.85163226772406,14719.1259881303,0,4,-3905.65458220587,7821.30916441174,7846.42795918543,68984.256650406,1119,513.6,2.31116918044698,22.1270984493631
11,118.425237191279,0.982734456370584,0.982691860457025,7.24191312772956,23071.0970666198,0,4,-4144.56193173342,8299.12386346685,8324.65689415548,63773.4917914914,1216,513.6,2.31116918044698,22.1270984493631
12,111.02634982454,0.980213034275444,0.980170359295448,7.65727152097945,22969.2675750517,0,4,-4817.15611312453,9644.31222624906,9670.51547472034,81559.6257400901,1391,513.6,2.31116918044698,22.1270984493631
13,112.957546079958,0.976159548261882,0.976109322591086,8.34209569748686,19435.4706025755,0,4,-5053.47847861074,10116.9569572215,10143.277107936,99096.9583314649,1424,513.6,2.31116918044698,22.1270984493631
14,106.74950842386,0.983036083394562,0.983000839800506,6.28435711025543,27892.6173602833,0,4,-4714.13624500218,9438.27249000436,9464.66218286909,57028.1003536308,1444,513.6,2.31116918044698,22.1270984493631
15,100.688062768455,0.982398931235789,0.982360723416475,6.00004984174406,25711.9864169557,0,4,-4448.03605319921,8906.07210639842,8932.24299229717,49752.8265789166,1382,513.6,2.31116918044698,22.1270984493631
16,93.9124350300391,0.988323654180633,0.988297076762227,4.55445191512652,37186.5934874207,0,4,-3878.12478013538,7766.24956027077,7792.18406537282,27339.3165018092,1318,513.6,2.31116918044698,22.1270984493631
17,91.84200785056,0.985502579099354,0.985466515863282,4.64943808395173,27327.0700708068,0,4,-3574.37541995392,7158.75083990784,7184.24271810079,26070.4330427799,1206,513.6,2.31116918044698,22.1270984493631
18,95.6651845940972,0.938788536771102,0.938619288485676,8.83044911446711,5546.81268652613,0,4,-3915.28657914302,7840.57315828605,7865.53823390071,84604.8622460644,1085,513.6,2.31116918044698,22.1270984493631
19,109.974705269098,0.974733444091771,0.974650602924859,5.96981767247588,11766.2930210116,0,4,-2943.99250580963,5897.98501161926,5922.10144223103,32609.4315839839,915,513.6,2.31116918044698,22.1270984493631
20,112.621915165138,0.970148534627804,0.970050446570722,5.84881950654926,9890.58773800532,0,4,-2918.80419998863,5847.60839997727,5871.71393733855,31232.5336232345,913,513.6,2.31116918044698,22.1270984493631
21,109.313565636154,0.980487858257382,0.980427449149819,5.29269097261845,16230.7952860658,0,4,-2999.95905372747,6009.91810745493,6034.32002786586,27144.1878219561,969,513.6,2.31116918044698,22.1270984493631
22,109.124744492713,0.984746126114539,0.984705913793224,5.87429754242413,24488.6665060319,0,4,-3640.43406068693,7290.86812137385,7316.07080332493,39269.3889000665,1138,513.6,2.31116918044698,22.1270984493631
23,103.742406713404,0.9782222833464,0.978171281668054,7.20593968067712,19180.1978891051,0,4,-4359.08664528637,8728.17329057273,8753.96586055938,66516.6509190746,1281,513.6,2.31116918044698,22.1270984493631
24,107.539921582875,0.979571797669463,0.979527129588565,8.2664512923912,21930.0175423573,0,4,-4856.85101676025,9723.70203352051,9749.83671361297,93754.5456821214,1372,513.6,2.31116918044698,22.1270984493631
25,106.104583245327,0.980324120991298,0.980283691102924,7.41386393415409,24247.5099590098,0,4,-5008.23024031912,10026.4604806382,10052.9051191108,80249.4525138601,1460,513.6,2.31116918044698,22.1270984493631
26,101.487324570985,0.978431528234747,0.978386687337106,7.06095446382189,21820.0700635216,0,4,-4879.47888893331,9768.95777786662,9795.34401649977,71943.76346766,1443,513.6,2.31116918044698,22.1270984493631
27,95.440492843499,0.978474407053877,0.978427747531595,6.70495173150159,20970.5191823221,0,4,-4608.63448583826,9227.26897167651,9253.44706738185,62219.6267669245,1384,513.6,2.31116918044698,22.1270984493631
28,91.6568985019956,0.98971512677796,0.98969204927634,4.38635304655515,42886.5803183148,0,4,-3883.45959094866,7776.91918189733,7802.92503631374,25724.0044065446,1337,513.6,2.31116918044698,22.1270984493631
29,86.2394963961645,0.982515331420983,0.982472581620056,5.42614869867219,22982.9217943217,0,4,-3826.61373855155,7663.22747710311,7688.80538773403,36126.671062025,1227,513.6,2.31116918044698,22.1270984493631
30,104.775189455768,0.979015773014214,0.97895996389989,6.16748269515543,17542.2202067621,0,4,-3663.67202207412,7337.34404414823,7362.50275044205,42906.686672807,1128,513.6,2.31116918044698,22.1270984493631
31,104.285441724619,0.975941917881297,0.97586789301324,5.42061144610343,13183.9737576107,0,4,-3041.85096800252,6093.70193600505,6118.1345942177,28648.4527383869,975,513.6,2.31116918044698,22.1270984493631
32,105.291130161665,0.972098907393864,0.971998543751396,5.66902887139119,9685.76750990965,0,4,-2641.01064232963,5292.02128465927,5315.67637516168,26802.9988794522,834,513.6,2.31116918044698,22.1270984493631
33,109.515515060058,0.977719980250519,0.977641344886697,5.68998345699132,12433.5913605925,0,4,-2694.62487784035,5399.24975568069,5422.99941164964,27519.5249797096,850,513.6,2.31116918044698,22.1270984493631
34,107.218921690252,0.984524449133309,0.984481816761776,5.71748137460574,23093.3540339826,0,4,-3454.5726776897,6919.1453553794,6944.12876282028,35598.9670699013,1089,513.6,2.31116918044698,22.1270984493631
35,106.816873625888,0.984525399827216,0.984488960423355,6.27335477520533,27018.153304446,0,4,-4158.20610365289,8326.41220730578,8352.17746548047,50138.2446927436,1274,513.6,2.31116918044698,22.1270984493631
36,101.879860583556,0.982122531609184,0.982083326634643,6.85227349164046,25050.9672076311,0,4,-4585.30518391745,9180.61036783491,9206.73049187634,64232.5959417983,1368,513.6,2.31116918044698,22.1270984493631
37,99.9330378055632,0.982004563338719,0.981967535691268,7.01928497013042,26520.8467438576,0,4,-4921.42829812511,9852.85659625023,9879.29439945178,71836.1870551886,1458,513.6,2.31116918044698,22.1270984493631
38,93.6425986625663,0.978715465794032,0.978672495671139,7.19166235405267,22776.6503774701,0,4,-5051.87002456005,10113.7400491201,10140.2727061148,76855.9310182418,1486,513.6,2.31116918044698,22.1270984493631
39,91.900356418687,0.9829525887082,0.982917147104682,5.96484758926132,27734.4276544825,0,4,-4635.37471895035,9280.7494379007,9307.13567653385,51341.0839591772,1443,513.6,2.31116918044698,22.1270984493631
40,86.1115401397087,0.985481389699331,0.985449268880082,5.24717112539688,30680.4562502505,0,4,-4182.21063164938,8374.42126329876,8400.49746319241,37334.4833348335,1356,513.6,2.31116918044698,22.1270984493631
41,85.2622915724969,0.988849113895296,0.98882271085006,4.21448413691676,37452.0857368399,0,4,-3629.83578873103,7269.67157746205,7295.409373818,22504.2975765892,1267,513.6,2.31116918044698,22.1270984493631
42,77.8191548378315,0.97929092349657,0.979233610554218,4.89335863100043,17086.7326522982,0,4,-3269.41368652894,6548.82737305789,6573.78785519497,25956.3352216796,1084,513.6,2.31116918044698,22.1270984493631
43,106.664510752967,0.983138580845694,0.983087433972627,4.65508001481508,19221.8707009621,0,4,-2934.195310313,5878.39062062601,5902.89427394623,21431.4024749431,989,513.6,2.31116918044698,22.1270984493631
44,107.280934476472,0.969552474142523,0.969449726586198,5.6328959058642,9436.25823159217,0,4,-2808.76856404406,5627.53712808812,5651.5100609925,28207.5399785222,889,513.6,2.31116918044698,22.1270984493631
45,103.864256588618,0.980023505953268,0.979958009251476,5.4137148617388,14962.9443793543,0,4,-2854.13189239354,5718.26378478707,5742.38021539885,26817.1023728536,915,513.6,2.31116918044698,22.1270984493631
46,110.785617224362,0.979992530635921,0.979931594181005,5.85354180488361,16082.2045192357,0,4,-3148.93555262221,6307.87110524443,6332.35457690254,33749.9923865973,985,513.6,2.31116918044698,22.1270984493631
47,109.163631613692,0.983022280031585,0.982980633948261,6.64398800477033,23604.1951984765,0,4,-4062.61941117872,8135.23882235744,8160.800459581,53986.3711910116,1223,513.6,2.31116918044698,22.1270984493631
48,106.733871594437,0.977173604729539,0.977115324571402,7.98892850286588,16766.8317307352,0,4,-4120.95391589827,8251.90783179654,8277.26994129923,74991.9998830858,1175,513.6,2.31116918044698,22.1270984493631
49,105.572392295904,0.974957040482606,0.974903945868788,8.17020053897398,18362.6354987406,0,4,-4992.07116613741,9994.14233227481,10020.4308706606,94454.3302385769,1415,513.6,2.31116918044698,22.1270984493631
50,102.457451994433,0.981466765941033,0.981428917266985,6.60666806497687,25931.3381676061,0,4,-4869.23477156457,9748.46954312914,9774.94482521145,64119.0044306334,1469,513.6,2.31116918044698,22.1270984493631
51,94.8838167796068,0.976611732293868,0.976562075674534,6.83355251088951,19667.3020717051,0,4,-4731.88697319817,9473.77394639634,9500.05543259479,65983.4826056661,1413,513.6,2.31116918044698,22.1270984493631
52,93.7668712571426,0.985550513734945,0.985518941660076,5.32446879817951,31215.8930898148,0,4,-4254.65038243271,8519.30076486543,8545.43907735907,38924.5060403667,1373,513.6,2.31116918044698,22.1270984493631
53,84.4934998147249,0.945208263133563,0.945078527371448,9.37023602071428,7285.64158198705,0,4,-4645.37888207703,9300.75776415405,9326.49556051,111244.27634729,1267,513.6,2.31116918044698,22.1270984493631
54,87.1793514556405,0.871964541569147,0.871623416901924,13.8069835325571,2556.14625781473,0,4,-4567.84419880969,9145.68839761938,9170.83826217791,214652.52634611,1126,513.6,2.31116918044698,22.1270984493631
55,106.671323712601,0.981811394596057,0.981758977865786,4.82468442417549,18730.8782811338,0,4,-3125.35079776293,6260.70159552585,6285.46045634785,24231.9605643897,1041,513.6,2.31116918044698,22.1270984493631
56,107.631177425063,0.9710128938646,0.970912823302567,5.60922078015571,9703.28210557771,0,4,-2742.14025499844,5494.28050999689,5518.14018777609,27341.6578939011,869,513.6,2.31116918044698,22.1270984493631
57,114.283870651645,0.980087487784329,0.9800102076593,3.87445727971498,12682.270990415,0,4,-2152.88322276594,4315.76644553189,4339.04364728373,11603.8270511361,773,513.6,2.31116918044698,22.1270984493631
58,113.932750530441,0.987688706766658,0.987653124994307,4.40831889542132,27758.2773851693,0,4,-3022.33024029043,6054.66048058086,6079.40496669243,20171.7399521104,1038,513.6,2.31116918044698,22.1270984493631
59,108.409405614787,0.986894062676838,0.986861728949889,5.67984447912755,30522.1252176078,0,4,-3848.14882398294,7706.29764796587,7731.83067865451,39228.9301014041,1216,513.6,2.31116918044698,22.1270984493631
60,107.685476319458,0.978652205111944,0.978603502918283,8.01670622222957,20094.6226760282,0,4,-4615.11184639867,9240.22369279734,9266.14683856093,84511.8659293977,1315,513.6,2.31116918044698,22.1270984493631
61,107.820786413219,0.974929096564146,0.974877297176882,8.73566517895671,18821.247664423,0,4,-5219.72666954236,10449.4533390847,10475.8705802285,110804.800564551,1452,513.6,2.31116918044698,22.1270984493631
62,103.417850738796,0.977324366488742,0.977279285706413,8.03890401229595,21679.4011995194,0,4,-5298.38629368733,10606.7725873747,10633.3818359436,97517.582377832,1509,513.6,2.31116918044698,22.1270984493631
63,96.7209205204132,0.976659050837327,0.976612150068748,7.08540776005923,20823.9455436255,0,4,-5053.33033126135,10116.6606625227,10143.2167544448,74953.0836675772,1493,513.6,2.31116918044698,22.1270984493631
64,94.2885125706665,0.972412462028403,0.972353889760947,7.56263392226214,16601.9262062064,0,4,-4875.53515010561,9761.07030021122,9787.35178640968,80814.319192958,1413,513.6,2.31116918044698,22.1270984493631
65,90.6635462321332,0.982037833747475,0.981997828922859,5.94179246790493,24547.9849787405,0,4,-4322.47965025422,8654.95930050844,8681.00230219824,47555.697244535,1347,513.6,2.31116918044698,22.1270984493631
66,88.8313240137667,0.98794442919371,0.987914953470467,4.36064410611074,33517.2243631474,0,4,-3557.50502367248,7125.01004734496,7150.58795797588,23331.6712837343,1227,513.6,2.31116918044698,22.1270984493631
67,107.123927190027,0.987164954629513,0.98712686844147,4.3178507646118,25919.2375334417,0,4,-2922.91779675165,5855.83559350331,5880.44881296069,18848.9174129387,1011,513.6,2.31116918044698,22.1270984493631
68,117.281007884126,0.983818299585618,0.983759811511831,4.28578361172053,16820.8360420582,0,4,-2395.11296786461,4800.22593572921,4823.85710274101,15245.3911681886,830,513.6,2.31116918044698,22.1270984493631
69,112.465710580261,0.972461699851455,0.972360580022269,5.41632930154422,9616.92387805366,0,4,-2549.95610111466,5109.91220222933,5133.46481777659,23968.0210749603,817,513.6,2.31116918044698,22.1270984493631
70,108.716718821059,0.987746416383999,0.987709618835603,4.4979140985334,26842.7234810201,0,4,-2929.31594705267,5868.63189410535,5893.18564804516,20211.0000065477,999,513.6,2.31116918044698,22.1270984493631
71,111.921036327289,0.986837262355537,0.986803132525863,5.45781320065624,28914.2158565486,0,4,-3615.65714033039,7241.31428066079,7266.59946556927,34464.3977477789,1157,513.6,2.31116918044698,22.1270984493631
72,105.423341863063,0.979617310254549,0.979570560966142,7.28301252722321,20954.699924543,0,4,-4464.67879648398,8939.35759296795,8965.25413281547,69379.2910849709,1308,513.6,2.31116918044698,22.1270984493631
73,101.57361417002,0.95847786177757,0.958348240118187,10.678610841989,7394.42672110659,0,4,-3652.62578567849,7315.25157135697,7339.61221186367,109585.453063575,961,513.6,2.31116918044698,22.1270984493631
74,NA,NA,NA,NA,NA,NA,NA,NA,NA,NA,NA,NA,513.6,2.31116918044698,22.1270984493631
77,89.8621040654538,0.945734199730542,0.945302376386222,9.67682227868653,2190.09512146997,4.33625130299389e-238,4,-1403.37349872006,2816.74699744012,2836.46099431575,35302.6153088081,377,513.6,2.31116918044698,22.1270984493631
78,96.2238409774163,0.974084116564624,0.974020804145808,6.59883851433137,15385.3562188886,0,4,-4070.7819969802,8151.56399396039,8177.14596468086,53472.8544385378,1228,513.6,2.31116918044698,22.1270984493631
79,100.126785669063,0.989431465718739,0.989402404671219,3.85585343173931,34046.6552368604,0,4,-3029.53767228591,6069.07534457182,6094.06789278308,16220.5578045779,1091,513.6,2.31116918044698,22.1270984493631
80,102.034428525506,0.958591180969697,0.958456445116019,6.61753943121167,7114.59611383163,0,4,-3061.81681592517,6133.63363185033,6157.78800302356,40376.0655299973,922,513.6,2.31116918044698,22.1270984493631
81,102.662404981087,0.984804157316888,0.984758155774961,3.87991825321959,21408.0684270673,0,4,-2758.87482386354,5527.74964772708,5552.26336141287,14918.2817608016,991,513.6,2.31116918044698,22.1270984493631
82,105.577828074614,0.986539302455388,0.986498798851944,4.31731116797415,24356.8279996441,0,4,-2882.44889150487,5774.89778300973,5799.44155690631,18583.258193951,997,513.6,2.31116918044698,22.1270984493631
83,99.1608316782226,0.98389941077845,0.983858407580093,5.63683155889948,23995.6747327343,0,4,-3719.24070898569,7448.48141797138,7473.85623396121,37429.6188875713,1178,513.6,2.31116918044698,22.1270984493631
84,101.357473463391,0.984936791573936,0.984900494686162,6.09507538831041,27135.5714494347,0,4,-4027.794952093,8065.58990418601,8091.24039673664,46251.6802665382,1245,513.6,2.31116918044698,22.1270984493631
85,97.6236188790379,0.972467457119634,0.972409575109374,7.92417628112423,16800.8583798405,0,4,-4990.55143527447,9991.10287054894,10017.4335144467,89604.9970108916,1427,513.6,2.31116918044698,22.1270984493631
86,93.4336292616932,0.973562920196277,0.973509149864473,7.5240482899541,18105.9496478791,0,4,-5081.38368458415,10172.7673691683,10199.2629764818,83501.6714376028,1475,513.6,2.31116918044698,22.1270984493631
87,92.5125163081797,0.96526091236798,0.965190064466623,8.16436338716861,13624.4107994798,0,4,-5188.10528314649,10386.210566293,10412.6926326368,98052.1962205946,1471,513.6,2.31116918044698,22.1270984493631
88,92.5915113855676,0.966991039908245,0.966921644757387,7.73028682198379,13934.5621119577,0,4,-4955.10211925929,9920.20423851859,9946.53488241637,85273.7161176445,1427,513.6,2.31116918044698,22.1270984493631
89,98.2061056897998,0.971219914176579,0.971156707545928,7.25151786931858,15365.791597531,0,4,-4656.20167237405,9322.40334474809,9348.51617484221,71830.4425847577,1366,513.6,2.31116918044698,22.1270984493631
90,96.1978790428433,0.983231663677146,0.983192637293152,5.11483405547723,25194.0242227554,0,4,-3943.04785176671,7896.09570353341,7921.91930542727,33722.2088380248,1289,513.6,2.31116918044698,22.1270984493631
91,100.562045641006,0.984306570208637,0.984264155533525,4.59333952538295,23206.7454864223,0,4,-3277.10648672155,6564.2129734431,6589.29153554554,23419.6324749443,1110,513.6,2.31116918044698,22.1270984493631
92,106.917921783319,0.983574655559486,0.983520684000535,4.21242646736702,18223.9437713264,0,4,-2617.84387618432,5245.68775236863,5269.79328972992,16200.7620463355,913,513.6,2.31116918044698,22.1270984493631
93,107.385260585628,0.978097843855532,0.978021083962502,4.7099594091381,12742.3033729002,0,4,-2551.00666229799,5112.01332459598,5135.79798654222,18989.2622961836,856,513.6,2.31116918044698,22.1270984493631
94,104.270856950927,0.985703965899212,0.985662286499501,4.19207105400621,23649.6680072121,0,4,-2944.24995093335,5898.49990186671,5923.2010142123,18083.09005377,1029,513.6,2.31116918044698,22.1270984493631
95,99.1401763919147,0.986170907185769,0.986135985234218,4.91312108876931,28239.2839856922,0,4,-3586.92737253835,7183.85474507669,7209.27168431482,28676.8454934968,1188,513.6,2.31116918044698,22.1270984493631
96,97.6515341972647,0.980512433112103,0.980466794782154,6.23409618483198,21484.4065114606,0,4,-4172.92608508506,8355.85217017012,8381.64474015677,49784.7266646647,1281,513.6,2.31116918044698,22.1270984493631
97,94.3888920501919,0.976528394218349,0.976478312555941,7.28674400586392,19498.7216333294,0,4,-4799.04058858932,9608.08117717864,9634.3379020955,74653.8733190332,1406,513.6,2.31116918044698,22.1270984493631
98,94.3782054103972,0.967811237171305,0.967744822942635,8.11009930071961,14572.3477717572,0,4,-5118.56417661029,10247.1283532206,10273.5524577834,95634.9753105926,1454,513.6,2.31116918044698,22.1270984493631
99,92.0352419031333,0.974982464401289,0.974931787421684,7.13106510169959,19239.158923561,0,4,-5022.34502385934,10054.6900477187,10081.2058979749,75311.9445268078,1481,513.6,2.31116918044698,22.1270984493631
100,88.3098300016031,0.977058408962162,0.977010514200079,6.34858949439904,20400.1098755956,0,4,-4705.99091037643,9421.98182075286,9448.34728373286,57917.6937727819,1437,513.6,2.31116918044698,22.1270984493631
101,86.2111955456034,0.98517507183793,0.985142702999149,4.93797737925125,30435.9102431412,0,4,-4153.89949649222,8317.79899298444,8343.94093524231,33503.0947016479,1374,513.6,2.31116918044698,22.1270984493631
102,94.8810516022281,0.971049733026805,0.970982563033827,7.21658481475502,14456.6001868672,0,4,-4401.72741244457,8813.45482488914,8839.29387081072,67338.2716303987,1293,513.6,2.31116918044698,22.1270984493631
103,98.8573045354331,0.967170771046925,0.967083070524344,6.62267092793727,11028.1072743458,0,4,-3727.73226277521,7465.46452555043,7490.60109812063,49254.5219567742,1123,513.6,2.31116918044698,22.1270984493631
104,107.586774634191,0.977906596390597,0.97784011674082,4.44807327689151,14709.8638404827,0,4,-2912.31696702132,5834.63393404264,5859.17770793922,19725.9998089666,997,513.6,2.31116918044698,22.1270984493631
105,113.177829882164,0.988744822385142,0.988710989185899,3.19260365213273,29224.1007207727,0,4,-2582.93085693506,5175.86171387013,5200.41048027835,10172.332643452,998,513.6,2.31116918044698,22.1270984493631
106,106.301086674347,0.980409124862486,0.980348534527009,4.31156587961787,16180.9489441944,0,4,-2803.34933462349,5616.69866924697,5641.10572576518,18031.9123242564,970,513.6,2.31116918044698,22.1270984493631
107,109.743986642662,0.981845775219585,0.981791637372327,5.04203989784585,18136.0328301555,0,4,-3065.11279690492,6140.22559380985,6164.81412185902,25574.6993294582,1006,513.6,2.31116918044698,22.1270984493631
108,104.458869117458,0.980376313471441,0.980329404260616,6.33537401946546,20899.4416282941,0,4,-4108.74183435238,8227.48366870477,8253.17403387499,50371.8897779799,1255,513.6,2.31116918044698,22.1270984493631
109,104.126690132672,0.97328171002329,0.973201874495471,7.27210060360756,12191.0850546594,0,4,-3428.2036153752,6866.40723075041,6890.98584799356,53094.9809777454,1004,513.6,2.31116918044698,22.1270984493631
110,102.375371880657,0.966896301012833,0.966823652075772,7.87921913025409,13309.159640004,0,4,-4773.41949578707,9556.83899157413,9582.95546997194,84866.2226382023,1367,513.6,2.31116918044698,22.1270984493631
111,97.3774607982709,0.961438767290061,0.961355601439501,7.92981740733156,11560.499421446,0,4,-4865.94524464909,9741.89048929818,9768.09373776945,87468.8677220434,1391,513.6,2.31116918044698,22.1270984493631
112,95.9806194312949,0.973888079427294,0.97383310696293,6.69935410534721,17715.9254310653,0,4,-4743.63424941015,9497.26849882031,9523.59214970996,63955.9172360864,1425,513.6,2.31116918044698,22.1270984493631
113,98.5617674321637,0.981252501220458,0.981211980689955,5.67708213308336,24216.1810082859,0,4,-4390.28040849197,8790.56081698394,8816.75330118841,44734.2150255347,1388,513.6,2.31116918044698,22.1270984493631
114,93.1946211822776,0.978924565766355,0.97886202738584,5.41645772520581,15653.1806180589,0,4,-3153.00233617044,6316.00467234088,6340.61789179826,29660.73244612,1011,513.6,2.31116918044698,22.1270984493631
