"Age","power_predict","r.squared","adj.r.squared","sigma","statistic","p.value","df","logLik","AIC","BIC","deviance","df.residual","GHI","Wind_speed","Ambient_temp"
0,94.6739390795318,0.998410236989638,0.998284729383557,1.65521757934967,7954.97793451208,3.35153044152175e-53,4,-78.6588294239605,167.317658847921,176.006006939338,104.110318929551,38,531.5,1.99004324663131,22.3998213237672
1,86.986160411338,0.955624499952845,0.955522721283012,8.52564023866908,9389.24139529002,0,4,-4671.36279619076,9352.72559238151,9378.62213222903,95073.996254811,1308,531.5,1.99004324663131,22.3998213237672
2,89.047201599429,0.956071854539554,0.955957755460436,6.61958678273142,8379.31262837314,0,4,-3833.09448805286,7676.18897610572,7701.46554032242,50610.8631960999,1155,531.5,1.99004324663131,22.3998213237672
3,106.576171473596,0.976375617079046,0.976288549328723,5.02150973231999,11213.9754783802,0,4,-2478.7184711451,4967.4369422902,4990.97125397322,20525.4658333125,814,531.5,1.99004324663131,22.3998213237672
4,127.019939731972,0.988778681451091,0.988739030148798,3.20939314075848,24936.8526195046,0,4,-2203.0176969439,4416.03539388781,4439.77919162527,8744.87347782349,849,531.5,1.99004324663131,22.3998213237672
5,127.060952752998,0.991284914156128,0.991259406587804,3.57248952057632,38862.3839631832,0,4,-2768.27116898032,5546.54233796063,5571.2240516398,13081.7484089933,1025,531.5,1.99004324663131,22.3998213237672
6,124.193424959181,0.992396331527538,0.992376126916894,4.37457093982537,49117.3202493152,0,4,-3277.7447865083,6565.4895730166,6590.65269432174,21605.5272546405,1129,531.5,1.99004324663131,22.3998213237672
7,128.659303226613,0.996151317547981,0.996141838034552,3.38456737271083,105084.646490458,0,4,-3221.83389032028,6453.66778064055,6479.20900133921,13952.5508939099,1218,531.5,1.99004324663131,22.3998213237672
8,116.317079371506,0.99612305422624,0.996114662568721,3.65734424429504,118703.96902823,0,4,-3772.78648004572,7555.57296009145,7581.75825522207,18539.3673528914,1386,531.5,1.99004324663131,22.3998213237672
9,115.316546175279,0.982288087242659,0.982253650600876,8.16005135957053,28524.5028657758,0,4,-5440.6357870461,10891.2715740922,10917.9919383451,102742.874128449,1543,531.5,1.99004324663131,22.3998213237672
10,112.918046030054,0.97793287553149,0.977891782189835,8.47450588985166,23797.8425739066,0,4,-5740.93894466556,11491.8778893311,11518.8133405094,115697.589874257,1611,531.5,1.99004324663131,22.3998213237672
11,104.181931598452,0.991451630096699,0.991435180379117,4.79176220172389,60271.6505721876,0,4,-4664.86030603537,9339.72061207073,9366.49242372284,35796.175611679,1559,531.5,1.99004324663131,22.3998213237672
12,98.7192431041937,0.999999917797991,0.999999917685999,0.0114691440689919,8929221390.0477,0,3,4486.81065617997,-8965.62131235993,-8944.44652147753,0.193102578011329,1468,531.5,1.99004324663131,22.3998213237672
13,83.7578906408581,0.996936892991014,0.996929894269745,1.96571779404504,142445.577497756,0,4,-2756.843290493,5523.68658098601,5549.60213949472,5073.4929833686,1313,531.5,1.99004324663131,22.3998213237672
14,93.9501880207205,0.988320868073191,0.98829142488346,3.7104912146963,33567.0447763173,0,4,-3257.73939032286,6525.47878064571,6550.90410211547,16383.6166146627,1190,531.5,1.99004324663131,22.3998213237672
15,104.903526647234,0.965628469153162,0.965526677847593,5.85999985179216,9486.35508468707,0,4,-3239.26466591745,6488.52933183491,6513.15239381515,34786.0130404232,1013,531.5,1.99004324663131,22.3998213237672
16,117.125584756603,0.971263720689097,0.971170319997946,5.47577667198292,10398.8922214193,0,4,-2889.56142535286,5789.12285070571,5813.28261853354,27675.3521390021,923,531.5,1.99004324663131,22.3998213237672
17,128.294169736718,0.991364418226564,0.991339044333008,3.63020265940996,39070.2521098179,0,4,-2773.92877156413,5557.85754312825,5582.51978258611,13455.1171467033,1021,531.5,1.99004324663131,22.3998213237672
18,124.132187820408,0.987089860305023,0.987054778403678,5.47076234343591,28136.7264161802,0,4,-3453.13539205984,6916.27078411969,6941.32234345622,33041.8816426654,1104,531.5,1.99004324663131,22.3998213237672
19,118.059380759535,0.989646928491543,0.989622832902307,5.31906887546499,41071.7048167307,0,4,-3993.67307961967,7997.34615923934,8023.1697611332,36469.0243818011,1289,531.5,1.99004324663131,22.3998213237672
20,115.727675978018,0.987464749529029,0.987438059854499,6.58730177570356,36998.0064168775,0,4,-4666.66553231564,9343.33106463129,9369.59841654471,61140.0954600198,1409,531.5,1.99004324663131,22.3998213237672
21,111.811450303198,0.98547402598954,0.985446091424136,6.95577784208341,35277.9437127982,0,4,-5250.70894173428,10511.4178834686,10538.1928930741,75477.238805933,1560,531.5,1.99004324663131,22.3998213237672
22,105.450222299444,0.987524610712342,0.987501536626113,6.22046617505804,42797.9942921188,0,4,-5277.26731979037,10564.5346395807,10591.5040310313,62761.9914836368,1622,531.5,1.99004324663131,22.3998213237672
23,96.9133470388803,0.990355879906541,0.990337614527576,5.08688478215984,54220.3850142132,0,4,-4834.41686599297,9678.83373198593,9705.68488519497,40988.2125105596,1584,531.5,1.99004324663131,22.3998213237672
24,112.751465437356,0.987021480314824,0.986995471257338,5.95498757778734,37949.1444806018,0,4,-4805.95197300983,9621.90394601967,9648.47338017783,53086.4299462475,1497,531.5,1.99004324663131,22.3998213237672
25,106.613027957537,0.993035688721362,0.99302024678948,4.07627623348772,64307.7366439738,0,4,-3830.33116638073,7670.66233276147,7696.72749106064,22481.4857915858,1353,531.5,1.99004324663131,22.3998213237672
26,110.230605800684,0.986512311329114,0.98647881541354,5.11309240159417,29451.7195437627,0,4,-3695.49711268282,7400.99422536563,7426.49436119878,31581.6063999459,1208,531.5,1.99004324663131,22.3998213237672
27,115.729258222744,0.995033880647239,0.995019825592467,2.56715027394355,70795.4466767368,0,4,-2510.88224356035,5031.76448712071,5056.61344047021,6985.67616074893,1060,531.5,1.99004324663131,22.3998213237672
28,118.37010586055,0.9797375527485,0.979672609007309,4.80042460975025,15085.9426141084,0,4,-2806.38006568688,5622.76013137377,5646.98953075009,21569.2555421265,936,531.5,1.99004324663131,22.3998213237672
29,125.508824201626,0.991250418497877,0.991221057486125,3.32821231864883,33760.7718312813,0,4,-2351.98925130124,4713.97850260247,4737.97935294398,9902.83553077721,894,531.5,1.99004324663131,22.3998213237672
30,121.252803761593,0.991388488691366,0.991364656095494,4.14848809932102,41598.0069477457,0,4,-3089.74686105935,6189.4937221187,6214.45420425578,18655.5896050656,1084,531.5,1.99004324663131,22.3998213237672
31,115.764522603533,0.967051100860347,0.966973022900301,9.46466590089998,12385.7116692539,0,4,-4654.45694772959,9318.91389545919,9344.64775635645,113408.154179424,1266,531.5,1.99004324663131,22.3998213237672
32,112.381154555367,0.988175853684166,0.988150802526718,6.06806579249812,39446.3152332908,0,4,-4573.20655857383,9156.41311714766,9182.70517790064,52139.1342063135,1416,531.5,1.99004324663131,22.3998213237672
33,109.361226090191,0.984910892405949,0.984867739572029,7.46684765563796,22823.7824248171,0,4,-3609.16644084327,7228.33288168653,7253.1298742472,58485.7507942188,1049,531.5,1.99004324663131,22.3998213237672
34,110.914844994244,0.980964495969174,0.980928981969116,7.92015233495398,27621.9095111951,0,4,-5621.21605906642,11252.4321181328,11279.3582727482,100867.931318274,1608,531.5,1.99004324663131,22.3998213237672
35,104.427712117965,0.989829707401633,0.989810457636462,5.32162056095138,51420.3523336005,0,4,-4909.14584901261,9828.29169802522,9855.1459988579,44886.6379506637,1585,531.5,1.99004324663131,22.3998213237672
36,100.700030946401,0.991325103525804,0.991307959461626,4.63297989325073,57823.2263492886,0,4,-4491.15262045648,8992.30524091296,9018.94414360506,32583.1150853411,1518,531.5,1.99004324663131,22.3998213237672
37,101.336935378174,0.988924860555727,0.988900749221669,4.90936512875036,41014.9375455647,0,4,-4157.93203403655,8325.8640680731,8352.02050309474,33212.3713030635,1378,531.5,1.99004324663131,22.3998213237672
38,94.1707405452813,0.9916350267607,0.99161307145036,3.48416781881202,45166.0674084145,0,4,-3057.23792461946,6124.47584923891,6149.70037482456,13875.3632203646,1143,531.5,1.99004324663131,22.3998213237672
39,110.789738814185,0.924711714135488,0.924488306759035,10.2904316349444,4139.12794115755,0,4,-3804.40137336834,7618.80274673667,7643.41596619405,107057.806049034,1011,531.5,1.99004324663131,22.3998213237672
40,123.293838158993,0.990598224343103,0.990566850230789,3.37612870074928,31573.7450804899,0,4,-2378.00397021503,4766.00794043005,4790.03655319714,10247.0222586167,899,531.5,1.99004324663131,22.3998213237672
41,121.688927715273,0.991588272527858,0.991560662919088,3.55228971711535,35914.6078730361,0,4,-2464.23101411429,4938.46202822858,4962.57301518168,11533.5486821717,914,531.5,1.99004324663131,22.3998213237672
42,122.960954662121,0.991601909360724,0.991577590565437,4.13953204325114,40775.1246572364,0,4,-2951.09827684262,5912.19655368525,5936.93143364592,17752.6116564387,1036,531.5,1.99004324663131,22.3998213237672
43,118.630605737087,0.990745862071404,0.990723950142608,5.03867329153637,45214.9087946787,0,4,-3856.8562355309,7723.71247106181,7749.45026741776,32166.8855587127,1267,531.5,1.99004324663131,22.3998213237672
44,113.86641574676,0.970670953952443,0.970605291909053,9.62175209998781,14782.8319655902,0,4,-4947.90185998786,9905.80371997571,9931.82074758113,124054.67205465,1340,531.5,1.99004324663131,22.3998213237672
45,110.483222801217,0.985752692943223,0.985724198329109,6.78711964274259,34594.3513751359,0,4,-5012.28096490587,10034.5619298117,10061.1413473343,69097.4895673535,1500,531.5,1.99004324663131,22.3998213237672
46,108.933073112486,0.985612018092367,0.985584733676613,6.67437346121018,36123.6255515665,0,4,-5259.09867086324,10528.1973417265,10555.0421937375,70473.7670597362,1582,531.5,1.99004324663131,22.3998213237672
47,105.145499311281,0.986409393998359,0.986384116987817,6.29177675713731,39023.9736753277,0,4,-5266.47787657769,10542.9557531554,10569.8973924533,63852.9515305467,1613,531.5,1.99004324663131,22.3998213237672
48,97.6446170063943,0.988972501534519,0.988950878988508,5.19970058355966,45738.0227584183,0,4,-4703.60309909032,9417.20619818063,9443.88436809027,41366.4358227661,1530,531.5,1.99004324663131,22.3998213237672
49,92.2114983641551,0.992656138045078,0.992640468353852,3.84073289465066,63348.8001571178,0,4,-3896.08561054488,7802.17122108975,7828.42794600661,20740.2282102806,1406,531.5,1.99004324663131,22.3998213237672
50,88.7941797945558,0.952869369322806,0.952756165245919,8.36864176242402,8417.27078677429,0,4,-4437.91475378742,8885.82950757483,8911.49598734931,87472.6720197865,1249,531.5,1.99004324663131,22.3998213237672
51,115.056336069111,0.992560477804253,0.992540726860371,3.5461245895934,50253.8250176007,0,4,-3042.55271915045,6095.10543830091,6120.27297072234,14209.7495535584,1130,531.5,1.99004324663131,22.3998213237672
52,119.631865109978,0.99178326873893,0.991757829942456,3.24942169153636,38987.0357961497,0,4,-2525.28122988709,5060.56245977417,5084.9643801851,10231.4203482148,969,531.5,1.99004324663131,22.3998213237672
53,121.532805628611,0.988886448406057,0.988848647210159,3.43102079869707,26160.1895104207,0,4,-2347.48704581599,4704.97409163199,4728.90767638501,10382.8190820031,882,531.5,1.99004324663131,22.3998213237672
54,119.449605427171,0.992414921827525,0.992391094356826,3.4212555918082,41650.0321989442,0,4,-2538.33517425482,5086.67034850964,5110.99980388406,11178.2652823773,955,531.5,1.99004324663131,22.3998213237672
55,117.373422261949,0.989679509474505,0.989652468887975,4.68985650016051,36599.7796825958,0,4,-3404.02376603915,6818.0475320783,6843.28076846754,25183.993320952,1145,531.5,1.99004324663131,22.3998213237672
56,112.759742597307,0.980435606355335,0.980391476144106,7.3061681096109,22216.8799799589,0,4,-4543.81206195874,9097.62412391748,9123.60381004986,70995.5229530408,1330,531.5,1.99004324663131,22.3998213237672
57,108.018962629792,0.97346508721173,0.973410338423308,9.19687840409316,17780.5777128407,0,4,-5301.91352361509,10613.8270472302,10640.251151793,122983.060240048,1454,531.5,1.99004324663131,22.3998213237672
58,101.844251395554,0.987139851629343,0.987115340546044,6.48683132914649,40273.2037423406,0,4,-5187.5861105002,10385.1722210004,10411.9917885074,66232.3156104615,1574,531.5,1.99004324663131,22.3998213237672
59,97.3707140726192,0.987867853047378,0.987845133671062,5.7286078795807,43481.2927660179,0,4,-5080.04170202255,10170.0834040451,10196.9909135176,52572.7510772666,1602,531.5,1.99004324663131,22.3998213237672
60,90.2633316898977,0.99164627916285,0.991630245149727,4.45666379797103,61846.4180830968,0,4,-4563.1996434066,9136.3992868132,9163.18387802498,31044.0750013315,1563,531.5,1.99004324663131,22.3998213237672
61,85.9915409097333,0.993270801615721,0.993256830961636,3.64821636954105,71096.9433193238,0,4,-3929.39058492069,7868.78116984138,7895.17431455299,19232.2024711366,1445,531.5,1.99004324663131,22.3998213237672
62,103.480954291517,0.941928197623314,0.941793042148427,10.9904687643029,6969.21969610905,0,4,-4932.04217209349,9874.08434418699,9899.90794608085,155698.830316604,1289,531.5,1.99004324663131,22.3998213237672
63,110.666280703651,0.98297926763929,0.982934476238341,5.33965105410129,21945.713838094,0,4,-3537.64556641741,7085.29113283481,7110.50256369451,32503.5356527041,1140,531.5,1.99004324663131,22.3998213237672
64,117.132396460183,0.989182476018921,0.989149495762881,3.7717041722707,29993.1715151932,0,4,-2711.50382245759,5433.00764491518,5457.48605840392,13998.1403253142,984,531.5,1.99004324663131,22.3998213237672
65,120.608422160446,0.987909901677631,0.987862489527348,3.57084419054002,20836.639885857,0,4,-2067.94327787736,4145.88655575472,4169.11201060225,9754.46009833175,765,531.5,1.99004324663131,22.3998213237672
66,113.895192502684,0.989432769549283,0.989400453859831,3.90733216941496,30617.7211854653,0,4,-2738.0623922983,5486.1247845966,5510.58799280246,14977.1670331843,981,531.5,1.99004324663131,22.3998213237672
67,110.24677133413,0.988669435560458,0.988640283164816,4.92794529807981,33913.8315663672,0,4,-3524.21354458636,7058.42708917272,7083.75088431168,28315.8959077708,1166,531.5,1.99004324663131,22.3998213237672
68,106.582522861713,0.9853651635475,0.98533051121178,6.35248361770156,28435.7502335105,0,4,-4151.35080662866,8312.70161325731,8338.43940961326,51128.5789593822,1267,531.5,1.99004324663131,22.3998213237672
69,102.805088118611,0.97932164338402,0.979279298626444,7.5756387206025,23127.3408907946,0,4,-5057.05141078301,10124.102821566,10150.5645074469,84076.7924667596,1465,531.5,1.99004324663131,22.3998213237672
70,103.161978802862,0.985013985264455,0.984984696636307,6.8882451614429,33631.2776514819,0,4,-5151.73117555577,10313.4623511115,10340.1567917807,72832.5593553573,1535,531.5,1.99004324663131,22.3998213237672
71,101.01886998176,0.983014663546503,0.982982696162965,6.7435616813455,30750.551178525,0,4,-5315.38525184667,10640.7705036933,10667.653044325,72488.1448952775,1594,531.5,1.99004324663131,22.3998213237672
72,97.2010223479661,0.983805316049264,0.983774291750508,6.30844248696049,31710.799453692,0,4,-5117.49638236216,10244.9927647243,10271.786919216,62321.2353932775,1566,531.5,1.99004324663131,22.3998213237672
73,92.4917871799987,0.980155705961479,0.980115152227068,6.46705618726693,24169.3082078302,0,4,-4834.48812634985,9678.9762526997,9705.44813919614,61395.8934905647,1468,531.5,1.99004324663131,22.3998213237672
74,93.7160469891925,0.980806078110802,0.980761784444904,5.64704708896652,22143.2581436386,0,4,-4105.68990484258,8221.37980968516,8247.24576839759,41455.8830725069,1300,531.5,1.99004324663131,22.3998213237672
75,105.490537815803,0.99251633186736,0.992497481317908,3.44815486654072,52651.8515743371,0,4,-3172.84611609687,6355.69223219375,6381.12173951557,14160.7184325253,1191,531.5,1.99004324663131,22.3998213237672
76,110.953674515158,0.992157135266306,0.99213395438532,3.22697671286472,42800.6655939114,0,4,-2637.69949455478,5285.39898910956,5310.03187427567,10569.5793859517,1015,531.5,1.99004324663131,22.3998213237672
77,113.269162239813,0.987462719071839,0.987424880195798,3.47987254084945,26096.5129621979,0,4,-2658.59831296957,5327.19662593913,5351.72539232069,12036.8558231546,994,531.5,1.99004324663131,22.3998213237672
78,110.365001331163,0.987043307260942,0.987005348200183,4.01150998707426,26002.8379924532,0,4,-2884.72933310311,5779.45866620622,5804.13551843629,16478.4254734301,1024,531.5,1.99004324663131,22.3998213237672
79,107.259165472385,0.98800827191842,0.987974775471265,4.61543494957632,29495.9124273439,0,4,-3176.31180607212,6362.62361214425,6387.53792590159,22878.6055170296,1074,531.5,1.99004324663131,22.3998213237672
80,104.703155673761,0.963848235117466,0.963751313495797,9.06148333520578,9944.61523156532,0,4,-4066.59327071957,8143.18654143914,8168.30533621284,91881.6273820832,1119,531.5,1.99004324663131,22.3998213237672
81,99.4208434578419,0.943342389626525,0.943211741793227,12.3429594174271,7220.49777493311,0,4,-5129.28870019533,10268.5774003907,10294.4471919895,198205.589981509,1301,531.5,1.99004324663131,22.3998213237672
82,93.6879638523222,0.98363133027226,0.983600230836425,6.55174560884597,31628.5908045363,0,4,-5219.79216201554,10449.5843240311,10476.4197093305,67779.1600558683,1579,531.5,1.99004324663131,22.3998213237672
83,90.3278883627507,0.985292207842807,0.985264920658842,6.08314486072775,36108.2407441802,0,4,-5224.84774316761,10459.6954863352,10486.6494789439,59836.5213082997,1617,531.5,1.99004324663131,22.3998213237672
84,86.2243182037771,0.989343593464623,0.989323385361205,4.78686316524386,48957.7657554336,0,4,-4731.91225334179,9473.82450668359,9500.66935869456,36250.0412790997,1582,531.5,1.99004324663131,22.3998213237672
85,82.5333205354955,0.990644773374573,0.990625707015962,4.11226414586857,51957.7331757346,0,4,-4179.37583559061,8368.75167118123,8395.23712620703,24892.5745487431,1472,531.5,1.99004324663131,22.3998213237672
86,72.7777987564049,0.994982016076122,0.994970823546923,2.50478101425663,88896.9774796242,0,4,-3150.79867914503,6311.59735829007,6337.63295257111,8438.43306501675,1345,531.5,1.99004324663131,22.3998213237672
87,80.3009834671798,0.90125825657769,0.901008277480418,10.1219428668117,3605.33447161874,0,4,-4437.29953631647,8884.59907263295,8910.0034121164,121407.666967815,1185,531.5,1.99004324663131,22.3998213237672
88,100.079347868168,0.983200402250861,0.983150254197879,4.2359175945539,19605.9536467727,0,4,-2886.29737889025,5782.59475778049,5807.17833288226,18032.7128571906,1005,531.5,1.99004324663131,22.3998213237672
89,112.817440724778,0.985302601544606,0.985251686769357,3.56002011442092,19351.9974646602,0,4,-2337.16850166618,4684.33700333235,4708.17946939059,10975.4616242606,866,531.5,1.99004324663131,22.3998213237672
90,114.125034026762,0.989783978654833,0.989754019647956,3.60248675667996,33037.9435709552,0,4,-2771.47419942061,5552.94839884123,5577.62038489087,13276.4027811917,1023,531.5,1.99004324663131,22.3998213237672
91,108.063368741228,0.987506418377788,0.987473741180869,4.56717678496549,30220.0467442578,0,4,-3379.44319271384,6768.88638542769,6794.1283174713,23925.3920415414,1147,531.5,1.99004324663131,22.3998213237672
92,103.293372683764,0.984624099638424,0.984587749992179,5.52779719140492,27087.5840993261,0,4,-3980.86750799225,7971.7350159845,7997.48067397729,38776.2515306269,1269,531.5,1.99004324663131,22.3998213237672
93,97.5901574787694,0.981754465952409,0.981716533449192,6.65907410084457,25881.6155718645,0,4,-4794.68500068524,9599.37000137048,9625.75624000364,63987.3355516176,1443,531.5,1.99004324663131,22.3998213237672
94,92.6561719411743,0.979069527017248,0.979028726874981,7.32887526815759,23996.7184579987,0,4,-5260.80100133503,10531.6020026701,10558.3094219319,82663.4031394703,1539,531.5,1.99004324663131,22.3998213237672
95,87.2416057618558,0.98676103568975,0.986736351480346,5.50517017023002,39975.3955877936,0,4,-5038.01960058089,10086.0392011618,10112.9684565524,48763.7998525334,1609,531.5,1.99004324663131,22.3998213237672
96,81.2641627785305,0.990606648520042,0.990588676546547,4.266312689861,55119.5253434829,0,4,-4509.14769251293,9028.29538502587,9055.09590489081,28539.8327813049,1568,531.5,1.99004324663131,22.3998213237672
97,79.4716975944382,0.951088095747612,0.950989283819829,9.56890495425559,9625.23570879127,0,4,-5473.73123935223,10957.4624787045,10983.9917788679,135972.453905012,1485,531.5,1.99004324663131,22.3998213237672
98,91.314635988037,0.984270098894819,0.984188314313683,5.34073067140286,12034.9103122093,0,4,-1795.78196842874,3601.56393685747,3623.38769064173,16458.0041682753,577,531.5,1.99004324663131,22.3998213237672
99,89.1732410006835,0.987940536113154,0.987909850454409,4.06178302756686,32195.5133607524,0,4,-3334.71977698441,6679.43955396882,6704.81859828872,19451.2379270126,1179,531.5,1.99004324663131,22.3998213237672
100,85.7897583481039,0.968096748273205,0.96800845514112,4.9837716371069,10964.5759008612,0,4,-3289.33285244429,6588.66570488858,6613.62618702566,26924.370028221,1084,531.5,1.99004324663131,22.3998213237672
101,106.778078995526,0.989113732316383,0.989065132907081,3.33197177128346,20352.381778404,0,4,-1770.80594237176,3551.61188474353,3574.19285012374,7460.56811447124,672,531.5,1.99004324663131,22.3998213237672
