"Age","power_predict","r.squared","adj.r.squared","sigma","statistic","p.value","df","logLik","AIC","BIC","deviance","df.residual","GHI","Wind_speed","Ambient_temp"
12,22.5688667458292,0.21281939365249,0.195455115571295,4.11592461567171,12.2561613363568,3.79633972877596e-07,4,-394.703157467299,799.406314934598,814.114527047645,2303.95362009735,136,556.1,0.608392206648003,17.7897843221333
13,44.8302634083134,0.646353540282101,0.639185030963495,2.70750046702957,90.1656832061964,3.09173217003931e-33,4,-365.047802871805,740.095605743609,755.215008347841,1084.92269928687,148,556.1,0.608392206648003,17.7897843221333
14,59.276406542251,0.424849951139889,0.410471199918386,2.159356482574,29.5470687680126,2.23851313338423e-14,4,-269.371880421459,548.743760842918,562.845168670943,559.538450260125,120,556.1,0.608392206648003,17.7897843221333
16,7.5469002179593,0.571235010644585,0.54550911128326,3.49897434110503,22.2046663022928,2.80469449790692e-09,4,-142.17810621051,294.35621242102,304.301132653841,612.141071985568,50,556.1,0.608392206648003,17.7897843221333
17,5.61889974695157,0.989433306841618,0.989409490102718,0.312093508779783,41543.6097704007,0,4,-337.735947596291,685.471895192583,711.455328046754,129.642538794116,1331,556.1,0.608392206648003,17.7897843221333
18,5.53812545225937,0.990294817985274,0.990271280761309,0.261503450758915,42073.5605641407,0,4,-94.336510321199,198.673020642398,224.291384568421,84.5910757366607,1237,556.1,0.608392206648003,17.7897843221333
19,5.40584582851845,0.979671028224244,0.979615886347818,0.323412550328492,17766.3708912256,0,4,-320.020716662181,650.041433324362,675.102009795894,115.682819547237,1106,556.1,0.608392206648003,17.7897843221333
20,5.21416685769061,0.962725408185468,0.962541184502694,0.370522798885928,5225.85041016913,0,4,-258.339444711501,526.678889423003,548.754374218861,83.3332967080168,607,556.1,0.608392206648003,17.7897843221333
21,5.02876529537701,0.95445709608075,0.954276847120648,0.32720161179304,5295.21554819295,0,4,-227.935688350245,465.871376700491,489.051109478924,81.1521582280521,758,556.1,0.608392206648003,17.7897843221333
22,5.00337504092958,0.932818435585865,0.932561034955926,0.435337789261012,3623.99437719385,0,4,-460.204337282563,930.408674565126,953.749815807213,148.393369764035,783,556.1,0.608392206648003,17.7897843221333
23,5.14447210526119,0.957231692521662,0.957090075609482,0.418533513008209,6759.30351669781,0,4,-496.62119150701,1003.24238301402,1027.30960601158,158.704293168959,906,556.1,0.608392206648003,17.7897843221333
24,5.37389495735444,0.972098315987132,0.972022427454006,0.419059419812369,12809.5546973595,0,4,-605.956324978235,1221.91264995647,1246.95969462001,193.698709458828,1103,556.1,0.608392206648003,17.7897843221333
25,5.40759771091275,0.962851209861653,0.962759785439656,0.526683436769041,10531.6630810881,0,4,-949.225249306929,1908.45049861386,1933.99580929229,338.145044488988,1219,556.1,0.608392206648003,17.7897843221333
26,5.61705417161275,0.976346791932328,0.976296394471956,0.45438114123101,19372.9363490945,0,4,-887.726062669566,1785.45212533913,1811.7159374294,290.698807881005,1408,556.1,0.608392206648003,17.7897843221333
27,5.76686377877226,0.974360945725967,0.974306930864435,0.488153785107864,18038.7567066519,0,4,-1000.18721985453,2010.37443970907,2036.69459042356,339.330823911152,1424,556.1,0.608392206648003,17.7897843221333
28,5.83238090525851,0.969198570718897,0.969132425917291,0.494531446219346,14652.679382046,0,4,-999.423526744631,2008.84705348926,2035.07176122095,341.652207765817,1397,556.1,0.608392206648003,17.7897843221333
29,5.75186569573274,0.986371554023467,0.98634171071111,0.340057431767067,33051.6781184254,0,4,-465.566225333396,941.132450666792,967.259858030703,158.425507953018,1370,556.1,0.608392206648003,17.7897843221333
30,5.72931519827473,0.987986565059731,0.987958164504317,0.300899588400799,34787.5789978613,0,4,-275.459765682521,560.919531365041,586.665189357828,114.895973558409,1269,556.1,0.608392206648003,17.7897843221333
31,5.51165660380096,0.976952900353971,0.976891167051348,0.348598926274175,15825.3788285966,0,4,-408.374798102965,826.74959620593,851.872841358198,136.103756767448,1120,556.1,0.608392206648003,17.7897843221333
32,5.28003157843236,0.956652898496606,0.95652272702062,0.390538001303644,7349.17455033129,0,4,-478.140660174565,966.28132034913,990.83507428894,152.367410531782,999,556.1,0.608392206648003,17.7897843221333
33,5.1483246771235,0.946942626438271,0.946743412269703,0.400318050162187,4753.38994836037,0,4,-402.259418540906,814.518837081811,837.960610651545,128.043378487239,799,556.1,0.608392206648003,17.7897843221333
34,5.07189812872958,0.938106385123583,0.93784632791822,0.371689136398558,3607.30779911977,0,4,-306.189521078244,622.379042156488,645.26139000173,98.6411092793282,714,556.1,0.608392206648003,17.7897843221333
35,5.11041606302465,0.953211084031366,0.95305632466212,0.415388560046247,6159.3109914894,0,4,-490.297833316285,990.595666632569,1014.66838111887,156.500723826286,907,556.1,0.608392206648003,17.7897843221333
36,5.5002721648084,0.966499073910532,0.966401117986293,0.407830851535133,9866.67301061011,0,4,-535.69294240802,1081.38588481604,1106.07245522216,170.650479553933,1026,556.1,0.608392206648003,17.7897843221333
37,5.38945161023175,0.977917364581958,0.977862973854327,0.389047341396681,17979.4867099915,0,4,-578.30532273354,1166.61064546708,1192.15186616574,184.353841626652,1218,556.1,0.608392206648003,17.7897843221333
38,5.48239776800191,0.972115120845784,0.972052970297892,0.450474729284884,15641.2960756979,0,4,-837.002098259809,1684.00419651962,1710.04349587678,273.140390400893,1346,556.1,0.608392206648003,17.7897843221333
39,5.2169548820171,0.748105051444815,0.747198954507566,1.45421262884887,825.634676259085,4.06053784167516e-249,4,-1500.86704179815,3011.73408359629,3035.38917409871,1763.68846449956,834,556.1,0.608392206648003,17.7897843221333
40,5.59172094836673,0.989268509315305,0.989167901590136,0.324739699858542,9832.92791535999,1.14501454362825e-314,4,-93.3106820101905,196.621364020381,215.525081599343,33.745879252549,320,556.1,0.608392206648003,17.7897843221333
41,5.52973714771803,0.908147184342061,0.907937634192271,0.906188844895712,4333.79401185001,0,4,-1739.64541941631,3489.29083883262,3515.2139845962,1079.84936273665,1315,556.1,0.608392206648003,17.7897843221333
42,5.6814813410593,0.980391968312728,0.980345577070565,0.356757818293516,21133.1260517338,0,4,-491.838670187519,993.677340375038,1019.41906909454,161.386146678381,1268,556.1,0.608392206648003,17.7897843221333
43,5.53384381979211,0.975660154139574,0.975593953289546,0.362519467167962,14737.8795547438,0,4,-445.513780478246,901.027560956491,926.074605620035,144.956661575545,1103,556.1,0.608392206648003,17.7897843221333
44,5.30573273615051,0.944406518497702,0.944236507850906,0.464245216210248,5554.98456300098,0,4,-639.818135870211,1289.63627174042,1314.09947994628,211.428671979392,981,556.1,0.608392206648003,17.7897843221333
45,5.08745389112389,0.925065610369526,0.92479312167996,0.436389904290801,3394.87709322935,0,4,-486.872520246704,983.745040493408,1007.34614126908,157.109822567721,825,556.1,0.608392206648003,17.7897843221333
46,4.92653917994548,0.932930585270193,0.932654200319384,0.365583711512063,3375.47533806477,0,4,-300.075206849007,610.150413698014,633.129316267821,97.2982556894968,728,556.1,0.608392206648003,17.7897843221333
47,5.22112245143992,0.941925009995292,0.941735635027886,0.413368130967084,4973.86229497081,0,4,-492.817809454003,995.635618908007,1019.77917926622,157.203354763282,920,556.1,0.608392206648003,17.7897843221333
48,5.59240354180646,0.977164253257146,0.977092742567972,0.343532815782287,13664.5900710222,0,4,-335.144021322564,680.288042645127,704.633114898456,113.058174107496,958,556.1,0.608392206648003,17.7897843221333
49,5.54177733543256,0.911100210783337,0.910868298289729,0.78779783623613,3928.63789529456,0,4,-1360.20669668757,2730.41339337514,2755.66834061048,713.719245395077,1150,556.1,0.608392206648003,17.7897843221333
50,5.68257278856875,0.974507514352091,0.974449045348311,0.45111128896929,16667.0791591622,0,4,-815.238233767179,1640.47646753436,1666.37300738188,266.179824706479,1308,556.1,0.608392206648003,17.7897843221333
51,5.83526510172345,0.966645983731328,0.96657363228606,0.529091520639448,13360.4239714512,0,4,-1083.10917890264,2176.21835780529,2202.39284990686,387.154028864975,1383,556.1,0.608392206648003,17.7897843221333
52,5.80317491040388,0.976536006910869,0.976485510512543,0.456804680420837,19338.7259145354,0,4,-886.341077046746,1782.68215409349,1808.89614370746,290.88669937981,1394,556.1,0.608392206648003,17.7897843221333
53,5.76249365206334,0.982574650158022,0.982536548081108,0.374344851968074,25787.9551389591,0,4,-598.429398032098,1206.8587960642,1232.99347615666,192.263941563539,1372,556.1,0.608392206648003,17.7897843221333
54,5.54560367380265,0.977961945449275,0.977909846029533,0.409662772139495,18771.0717374297,0,4,-668.253715918395,1346.50743183679,1372.25308982958,212.968131746933,1269,556.1,0.608392206648003,17.7897843221333
55,5.35663500349165,0.907891406231808,0.907652163131111,0.693406494626797,3794.84885285428,0,4,-1218.19133951762,2446.38267903523,2471.65924325193,555.338514643169,1155,556.1,0.608392206648003,17.7897843221333
56,5.1875936366282,0.966083541317755,0.96598417669271,0.357020840140172,9722.61044485432,0,4,-397.864876348661,805.729752697322,830.406604927397,130.52301342146,1024,556.1,0.608392206648003,17.7897843221333
57,4.91317848944934,0.927463813212912,0.927212242622899,0.414172251443973,3686.69411303169,0,4,-465.052648417557,940.105296835114,963.942012461441,148.380935594237,865,556.1,0.608392206648003,17.7897843221333
58,4.75084519146335,0.941381451426494,0.941092690103472,0.32670663243896,3260.06766271166,0,4,-182.044166911709,374.088333823417,396.180158503098,65.0029692208797,609,556.1,0.608392206648003,17.7897843221333
59,4.7684338355991,0.921956486461348,0.921684873305181,0.413524821815094,3394.37345183116,0,4,-462.085455656492,934.170911312983,957.990335855795,147.404394857711,862,556.1,0.608392206648003,17.7897843221333
60,4.88246919588233,0.95870963251017,0.958586622477926,0.410377784600698,7793.75157475099,0,4,-532.068324149188,1074.13664829838,1098.73012439348,169.588795576434,1007,556.1,0.608392206648003,17.7897843221333
61,5.49746722839634,0.973293584557527,0.973221599610243,0.383465844852743,13520.7931835202,0,4,-512.300975509205,1034.60195101841,1059.69396001376,163.662258289683,1113,556.1,0.608392206648003,17.7897843221333
62,5.3434098899911,0.985722741983675,0.98568861308005,0.339764001268668,28882.3442095814,0,4,-425.344872917566,860.689745835132,886.380111005354,144.87666858041,1255,556.1,0.608392206648003,17.7897843221333
63,5.52090417062167,0.976225376524689,0.976173201052541,0.443557953284352,18710.4272628482,0,4,-828.839144860134,1667.67828972027,1693.79476811808,268.948580379105,1367,556.1,0.608392206648003,17.7897843221333
64,5.59983264088215,0.971782862286088,0.971722136738641,0.477232155740207,16002.867049114,0,4,-947.499617573842,1904.99923514768,1931.21322476165,317.484239478589,1394,556.1,0.608392206648003,17.7897843221333
65,5.52956897441306,0.977842916810342,0.977794503664261,0.400421440484015,20197.8800381579,0,4,-691.593157044338,1393.18631408868,1419.32462658232,220.14315408903,1373,556.1,0.608392206648003,17.7897843221333
66,5.58877914959928,0.987001861417938,0.98697149193527,0.311354632405247,32499.7917217064,0,4,-322.722056242313,655.444112484625,681.248342017947,124.473151942345,1284,556.1,0.608392206648003,17.7897843221333
67,5.56001809129847,0.980440111618049,0.980390592913284,0.339034306272872,19799.3892667857,0,4,-399.027964073417,808.055928146834,833.460267630287,136.208949083465,1185,556.1,0.608392206648003,17.7897843221333
68,5.38621098071574,0.965887695177765,0.96579041674196,0.372514412914064,9929.10388809503,0,4,-453.616889295073,917.233778590146,942.044995911477,145.982871195803,1052,556.1,0.608392206648003,17.7897843221333
69,5.1086266924784,0.937221354067214,0.937006603853076,0.407268877481796,4364.23943898035,0,4,-456.694134444871,923.388268889742,947.293557019423,145.466182121752,877,556.1,0.608392206648003,17.7897843221333
70,4.79169512912279,0.918493762573275,0.918161084053166,0.402601093456211,2760.90491887518,0,4,-374.241255909625,758.482511819251,781.509001423992,119.134415732321,735,556.1,0.608392206648003,17.7897843221333
71,4.72666510275077,0.905489574511721,0.905156791323382,0.460996313194287,2720.95949026515,0,4,-549.750057104121,1109.50011420824,1133.26146608895,181.064995863474,852,556.1,0.608392206648003,17.7897843221333
72,4.96483869397845,0.964661799671787,0.964549496069049,0.371111240617428,8589.7671682236,0,4,-403.441254695248,816.882509390496,841.154281901771,130.011033949501,944,556.1,0.608392206648003,17.7897843221333
73,5.00824842695313,0.970072325879971,0.969995588254023,0.398700221274583,12641.4169566221,0,4,-584.28404175225,1178.5680835045,1203.90894350644,185.98538373995,1170,556.1,0.608392206648003,17.7897843221333
74,5.08641426771148,0.979614607907076,0.979566566920211,0.376787733107083,20391.2257395096,0,4,-563.535773790821,1137.07154758164,1162.8328918618,180.726531678827,1273,556.1,0.608392206648003,17.7897843221333
75,5.20424426658596,0.980417023912199,0.98037420399364,0.401095363936395,22896.2841803103,0,4,-693.403364113433,1396.80672822687,1422.94140831933,220.723917612581,1372,556.1,0.608392206648003,17.7897843221333
76,5.35656900977266,0.959852008541374,0.959763900293842,0.566350473051411,10894.0086249664,0,4,-1163.89047413666,2337.78094827332,2363.89742667113,438.469157331037,1367,556.1,0.608392206648003,17.7897843221333
77,4.91057325383526,0.81280598530374,0.812396370391932,1.23800560822709,1984.31737193374,0,4,-2242.60241185473,4495.20482370946,4521.33586875997,2101.27396170837,1371,556.1,0.608392206648003,17.7897843221333
78,5.12115895504842,0.95589418398731,0.95579153274756,0.580366203713225,9312.05688614206,0,4,-1129.1683097205,2268.336619441,2294.16022133486,434.167335301714,1289,556.1,0.608392206648003,17.7897843221333
79,5.06888134852912,0.928138350422527,0.927955496352356,0.645058912540071,5075.84189704434,0,4,-1157.95757269711,2325.91514539422,2351.29418971411,490.58307976326,1179,556.1,0.608392206648003,17.7897843221333
80,4.84857647984718,0.966516898286055,0.96642465833643,0.381973073389214,10478.2895287063,0,4,-496.987306809785,1003.97461361957,1028.95802106045,158.888833957104,1089,556.1,0.608392206648003,17.7897843221333
81,4.58856373061664,0.93173155656945,0.931505002000544,0.430917359411295,4112.61428566994,0,4,-522.002004401324,1054.00400880265,1078.06023069566,167.863552660371,904,556.1,0.608392206648003,17.7897843221333
82,4.27402925186804,0.909388988132712,0.909048771567503,0.404679505847169,2672.97092830999,0,4,-410.9607696403,831.921539280601,855.363312850335,130.848636459714,799,556.1,0.608392206648003,17.7897843221333
83,4.38075433165742,0.921420978531037,0.921100247831164,0.429031907774832,2872.8805159437,0,4,-421.230618258146,852.461236516291,875.487726121032,135.29025774835,735,556.1,0.608392206648003,17.7897843221333
84,4.85829070605774,0.965978958455033,0.965866181521735,0.373250981277776,8565.39480374552,0,4,-391.987383167826,793.974766335652,818.036491806539,126.081246997464,905,556.1,0.608392206648003,17.7897843221333
85,5.05917259823584,0.977185312502316,0.977124364984513,0.34863850191778,16033.2257608393,0,4,-409.598062028461,829.196124056922,854.332696627121,136.499308036869,1123,556.1,0.608392206648003,17.7897843221333
86,5.16959900985118,0.960547053270688,0.960449477969626,0.48796258600811,9844.16181982918,0,4,-851.627266769038,1713.25453353808,1738.77525400301,288.824379721936,1213,556.1,0.608392206648003,17.7897843221333
87,5.36042035173009,0.919965122510312,0.919774714395745,0.712725239193302,4831.54367975378,0,4,-1364.55007187682,2739.10014375364,2764.81428075945,640.559333161352,1261,556.1,0.608392206648003,17.7897843221333
88,5.41453654344071,0.942282520579946,0.942143330517036,0.641507606809164,6769.75425457322,0,4,-1214.80214948388,2439.60429896776,2465.2507867124,511.945819934962,1244,556.1,0.608392206648003,17.7897843221333
89,5.15168000148535,0.953036571425919,0.952930319325072,0.600800521966594,8969.57861383092,0,4,-1207.56046363663,2425.12092727326,2451.08559837934,478.63464030101,1326,556.1,0.608392206648003,17.7897843221333
90,5.17742833134279,0.956396017057598,0.956289318893791,0.561879948400548,8963.56584719542,0,4,-1034.2366445123,2078.47328902461,2104.04713626644,387.059327684303,1226,556.1,0.608392206648003,17.7897843221333
91,5.07987412702125,0.97643155125903,0.976370121766221,0.360339925225848,15895.1589312065,0,4,-457.953422599442,925.906845198885,951.166123313664,149.451435830247,1151,556.1,0.608392206648003,17.7897843221333
92,4.79783514832458,0.966558956123027,0.96647040966969,0.367487547346866,10915.8404396327,0,4,-473.117719419866,956.235438839732,981.416181308484,153.008361416532,1133,556.1,0.608392206648003,17.7897843221333
93,4.67997769786632,0.946248944239274,0.946071742956547,0.390013933357817,5339.96667334243,0,4,-434.307878231564,878.615756463128,902.704909320398,138.420890074045,910,556.1,0.608392206648003,17.7897843221333
94,4.36911189723908,0.926675783568069,0.926401503456728,0.380615904834125,3378.57447642153,0,4,-363.092062366941,736.184124733881,759.644543446414,116.184510544185,802,556.1,0.608392206648003,17.7897843221333
95,4.3924818145856,0.917718996067357,0.917406931577094,0.4217384670378,2940.79917678013,0,4,-439.672012288017,889.344024576034,912.735735149306,140.6898976523,791,556.1,0.608392206648003,17.7897843221333
96,4.72999216408966,0.93746615908079,0.937251019719829,0.449651506949692,4357.48323735396,0,4,-540.814170415978,1091.62834083196,1115.50517128664,176.306608556256,872,556.1,0.608392206648003,17.7897843221333
97,5.08944019860483,0.968652499321885,0.968562592532178,0.390313205058285,10773.9638181965,0,4,-500.035579755365,1010.07115951073,1034.85388672649,159.352240352843,1046,556.1,0.608392206648003,17.7897843221333
98,5.13757604413409,0.97227000669223,0.97219016985929,0.410080993681798,12178.2136250934,0,4,-549.800851346678,1109.60170269336,1134.36534591648,175.229411076971,1042,556.1,0.608392206648003,17.7897843221333
99,5.33581398675058,0.922831286877459,0.922647259739647,0.75538528123847,5014.64782775523,0,4,-1434.67173235164,2879.34346470328,2905.04572991879,717.823509274546,1258,556.1,0.608392206648003,17.7897843221333
100,5.42145295152481,0.956447896898918,0.95634629790257,0.600547626841035,9413.95024833635,0,4,-1170.63940669868,2351.27881339735,2377.09080088413,463.805483406257,1286,556.1,0.608392206648003,17.7897843221333
101,5.51904165311097,0.922883138048081,0.922694434470711,0.700901565465919,4890.64993313822,0,4,-1306.16411571826,2622.32823143652,2647.90207867835,602.288443483379,1226,556.1,0.608392206648003,17.7897843221333
102,5.29833776022521,0.954055782874805,0.953945251478353,0.57245772843223,8631.53650003439,0,4,-1075.26060553251,2160.52121106502,2186.17970361736,408.65168999971,1247,556.1,0.608392206648003,17.7897843221333
103,5.17011854731318,0.970515891225983,0.970434217794476,0.428240264514132,11882.8837397767,0,4,-618.529455324119,1247.05891064824,1272.01479508385,198.611071255678,1083,556.1,0.608392206648003,17.7897843221333
