"Age","power_predict","r.squared","adj.r.squared","sigma","statistic","p.value","df","logLik","AIC","BIC","deviance","df.residual","GHI","Wind_speed","Ambient_temp"
1,171.105485137194,0.527867409405437,0.525750222900528,45.2585640336974,249.324945242973,1.41703652542396e-108,4,-3518.679422869,7047.358845738,7069.91757238622,1370337.86670444,669,762.67037037,2.10889260955079,25.6774372919456
2,155.949520750989,0.455019079058907,0.453296273197133,47.6005926994486,264.115121242062,1.35957450219108e-124,4,-5031.53570091644,10073.0714018329,10097.3694763511,2150259.78764652,949,762.67037037,2.10889260955079,25.6774372919456
3,169.449374308382,0.42331200314992,0.421648480082083,48.8979521072729,254.46716750396,8.2024013237281e-124,4,-5540.25186656224,11090.5037331245,11115.2578069667,2486650.10909656,1040,762.67037037,2.10889260955079,25.6774372919456
4,177.417714841992,0.510602739436299,0.509328267403581,49.3503074590883,400.638638062049,3.4071739988434e-178,4,-6145.46873558963,12300.9374711793,12326.2010764254,2805641.67894514,1152,762.67037037,2.10889260955079,25.6774372919456
5,196.570995352095,0.783558247201016,0.783037954526018,33.3464494568587,1505.99515398654,0,4,-6165.21087400927,12340.4217480185,12366.0842357768,1387758.14284078,1248,762.67037037,2.10889260955079,25.6774372919456
6,169.953866169833,0.95054798080235,0.950441249825665,15.3348682540637,8906.01782463423,0,4,-5781.79755397946,11573.5951079589,11599.7947709155,326869.876273591,1390,762.67037037,2.10889260955079,25.6774372919456
7,168.260091878564,0.932932102889378,0.932792668591851,17.7863873798666,6690.83661218178,0,4,-6216.29443350734,12442.5888670147,12468.9751056478,456501.096206496,1443,762.67037037,2.10889260955079,25.6774372919456
8,149.869035628455,0.867904708263857,0.867636585208912,23.1832464751088,3236.96411874207,0,4,-6759.42728906223,13528.8545781245,13555.3603171537,794370.191511704,1478,762.67037037,2.10889260955079,25.6774372919456
9,169.075051324552,0.904001541763917,0.903795536488732,20.7718738134256,4388.2446260334,0,4,-6240.45595632306,12490.9119126461,12517.1401879841,603196.096925784,1398,762.67037037,2.10889260955079,25.6774372919456
10,166.671034423503,0.839852904272993,0.839471904045252,24.4922181174048,2204.33701379459,0,4,-5838.87370639957,11687.7474127991,11713.461549805,756434.491619579,1261,762.67037037,2.10889260955079,25.6774372919456
11,177.049297776976,0.976813247587905,0.976758775969082,8.70341903269596,17932.5173127602,0,4,-4587.3772520256,9184.75450405119,9210.53148556068,96732.1151505526,1277,762.67037037,2.10889260955079,25.6774372919456
12,182.467901370759,0.967391527938751,0.967306683692277,9.93072609983491,11401.9697050743,0,4,-4295.75648969563,8601.51297939127,8626.78090802724,113708.076963043,1153,762.67037037,2.10889260955079,25.6774372919456
13,184.636576812305,0.901007910750932,0.900685110459903,17.1778200304001,2791.22397280738,0,4,-3936.59883627337,7883.19767254673,7907.34123290494,271471.300917071,920,762.67037037,2.10889260955079,25.6774372919456
14,196.760848854608,0.923105176698285,0.92285195554581,16.9070508031189,3645.45049919454,0,4,-3883.69800263494,7777.39600526987,7801.49062559625,260407.862208771,911,762.67037037,2.10889260955079,25.6774372919456
15,191.030610318244,0.924447237165377,0.924239674630117,14.6594391493876,4453.82513760292,0,4,-4496.00551847374,9002.01103694749,9027.00814928503,234669.878542662,1092,762.67037037,2.10889260955079,25.6774372919456
16,185.649216887559,0.970699285281981,0.970620165440258,11.4292123117933,12268.7212732626,0,4,-4296.44527435723,8602.89054871446,8627.97359713393,145126.4793096,1111,762.67037037,2.10889260955079,25.6774372919456
17,182.252517947755,0.880526873628973,0.880253062033012,22.2213642741751,3215.81294078598,0,4,-5932.74738083398,11875.494761668,11901.3951110395,646369.840539109,1309,762.67037037,2.10889260955079,25.6774372919456
18,170.066812515658,0.966693908320342,0.966620113434788,12.7328151019743,13099.7412771105,0,4,-5379.91544888538,10769.8308977708,10795.8997393113,219516.681890122,1354,762.67037037,2.10889260955079,25.6774372919456
19,168.091871286485,0.945990035973892,0.945877593300694,15.6643256797599,8413.08738994557,0,4,-6024.11599972178,12058.2319994436,12084.6113224463,353579.753661284,1441,762.67037037,2.10889260955079,25.6774372919456
20,167.906480537713,0.951074964861968,0.950974296065387,14.7410015944539,9447.56465925566,0,4,-6006.1905996723,12022.3811993446,12048.8190025462,316819.212635217,1458,762.67037037,2.10889260955079,25.6774372919456
21,161.601603953275,0.956072963311591,0.955980744200278,14.0939283261658,10367.4059498817,0,4,-5822.68740175105,11655.3748035021,11681.7124306412,283854.867582568,1429,762.67037037,2.10889260955079,25.6774372919456
22,167.588497581358,0.97564735061756,0.975593710420682,9.73687904067808,18188.7354523227,0,4,-5045.17469561589,10100.3493912318,10126.4476014324,129126.879922708,1362,762.67037037,2.10889260955079,25.6774372919456
23,175.708442728608,0.977328072240702,0.977272503790311,8.56334538980624,17587.8230429997,0,4,-4377.57211685102,8765.14423370205,8790.70994424558,89757.0023405016,1224,762.67037037,2.10889260955079,25.6774372919456
24,180.750074541839,0.955362853663048,0.955250793881449,12.8171492512887,8525.47488519474,0,4,-4757.69404506642,9525.38809013283,9550.83430590797,196313.781341124,1195,762.67037037,2.10889260955079,25.6774372919456
25,192.831558272609,0.94851207427247,0.948370882520018,12.9385140228548,6717.90000336102,0,4,-4367.09973189213,8744.19946378425,8769.2056918946,183141.228760854,1094,762.67037037,2.10889260955079,25.6774372919456
26,195.931810800321,0.923798511813348,0.923558633046758,16.1964225232217,3851.10581043454,0,4,-4020.96438422074,8051.92876844149,8076.24778539875,249994.86973084,953,762.67037037,2.10889260955079,25.6774372919456
27,194.109628026185,0.960588231976723,0.960464813078947,11.8719160820389,7783.15354684763,0,4,-3743.17164373743,7496.34328747486,7520.68835972819,135022.811017696,958,762.67037037,2.10889260955079,25.6774372919456
28,166.167668269122,0.896386034724856,0.89610190136487,19.0999074198185,3154.80742833883,0,4,-4794.74332732585,9599.4866546517,9624.49288276205,399098.271009528,1094,762.67037037,2.10889260955079,25.6774372919456
29,152.905998919876,0.9557245213927,0.955618935990616,11.0252362125541,9051.67288779871,0,4,-4817.73305262207,9645.46610524414,9671.16837045965,152917.238596608,1258,762.67037037,2.10889260955079,25.6774372919456
30,143.892255310831,0.944815638410623,0.944694972896943,12.5457855232337,7830.03867137186,0,4,-5430.88998602036,10871.7799720407,10897.9146521332,215948.319589913,1372,762.67037037,2.10889260955079,25.6774372919456
31,138.302607738943,0.943369204447852,0.943252439920941,12.6929595577869,8079.24486485263,0,4,-5775.61683820543,11561.2336764109,11587.6612091535,234416.828498319,1455,762.67037037,2.10889260955079,25.6774372919456
32,139.782309398806,0.890783018149593,0.890559822682596,16.8556907244493,3991.04439770089,0,4,-6244.61601771491,12499.2320354298,12525.7039219263,417079.806783886,1468,762.67037037,2.10889260955079,25.6774372919456
33,121.806507076335,0.855573528196105,0.855269045121326,20.772760576171,2809.92146711207,0,4,-6351.83038422046,12713.6607684409,12739.9774165283,614035.289121859,1423,762.67037037,2.10889260955079,25.6774372919456
34,159.393937058497,0.961519121455673,0.961436426157942,11.5800633210596,11627.2526713574,0,4,-5413.51000026749,10837.020000535,10863.241138113,187200.621661572,1396,762.67037037,2.10889260955079,25.6774372919456
35,167.380695581462,0.980080865270847,0.980036236888332,7.89932792755337,21960.9318115773,0,4,-4679.31389455628,9368.62778911257,9394.64109509518,83552.772105706,1339,762.67037037,2.10889260955079,25.6774372919456
36,176.891250217508,0.975320371175748,0.975255651869391,9.52638062014446,15070.0065571034,0,4,-4214.60440010015,8439.20880020029,8464.43768308469,103820.205311524,1144,762.67037037,2.10889260955079,25.6774372919456
37,177.033969280641,0.975458740472642,0.975379829670303,8.46529914791274,12361.5362100223,0,4,-3328.95003150503,6667.90006301006,6692.11347942125,66859.9832561874,933,762.67037037,2.10889260955079,25.6774372919456
38,188.262554237557,0.94137483974709,0.941131917812341,13.8712608920177,3875.21547083569,0,4,-2945.49006996173,5900.98013992345,5923.93164516444,139306.200203719,724,762.67037037,2.10889260955079,25.6774372919456
39,179.970849087835,0.944440431216165,0.944279077192592,13.4517459168306,5853.21896720788,0,4,-4164.71132677705,8339.42265355409,8364.14308959524,186920.800661932,1033,762.67037037,2.10889260955079,25.6774372919456
40,178.656467792137,0.973802222948723,0.973734058741305,8.9582587378991,14286.1225828721,0,4,-4176.51870024239,8363.03740048478,8388.30532912075,92528.7107562629,1153,762.67037037,2.10889260955079,25.6774372919456
41,173.480942649142,0.945093602625091,0.944960118676854,16.1782596751471,7080.20413769555,0,4,-5200.82407795947,10411.6481559189,10437.2544181852,322982.330267751,1234,762.67037037,2.10889260955079,25.6774372919456
42,162.592922000432,0.982884248428286,0.982846850573432,8.77146575681221,26281.8349409072,0,4,-4942.03635508441,9894.07271016882,9920.21102266246,105636.713620982,1373,762.67037037,2.10889260955079,25.6774372919456
43,159.685222333247,0.974926333725353,0.974873249040227,10.8468441689661,18365.4915048686,0,4,-5401.79404194778,10813.5880838956,10839.883664536,166715.758279407,1417,762.67037037,2.10889260955079,25.6774372919456
44,156.387848078937,0.975317067197122,0.975266762306899,9.56452144644675,19388.1164011812,0,4,-5425.24796125627,10860.4959225125,10886.9813775384,134658.663775323,1472,762.67037037,2.10889260955079,25.6774372919456
45,155.249637087143,0.973383715531046,0.973327563032167,10.5962791279898,17334.6464529973,0,4,-5387.48069316968,10784.9613863394,10811.2745293442,159663.768791462,1422,762.67037037,2.10889260955079,25.6774372919456
46,157.68861459862,0.978609916005342,0.978563617122236,9.15582134819068,21136.7931658135,0,4,-5048.32362489441,10106.6472497888,10132.8325449194,116187.083480138,1386,762.67037037,2.10889260955079,25.6774372919456
47,164.041895547323,0.979893356210017,0.97984731046088,9.06091004932739,21280.8646741045,0,4,-4758.49818670917,9526.99637341835,9552.90052941357,107551.119107823,1310,762.67037037,2.10889260955079,25.6774372919456
48,167.175579513338,0.986974822319537,0.986943001852891,6.55534294941151,31016.9814068727,0,4,-4062.63451453475,8135.26902906949,8160.85099978996,52770.2560144423,1228,762.67037037,2.10889260955079,25.6774372919456
49,172.071494989855,0.979783329806249,0.979729032572067,8.1645725805266,18044.8110215476,0,4,-3942.50722591159,7895.01445182318,7920.12433393855,74459.4941371411,1117,762.67037037,2.10889260955079,25.6774372919456
50,181.156496748419,0.924238645635841,0.924006486225123,14.6518036600219,3981.05182460297,0,4,-4031.73836394311,8073.47672788623,8097.92977348696,210167.168131501,979,762.67037037,2.10889260955079,25.6774372919456
51,184.455495735323,0.926667364834769,0.926460987812728,13.5306216932814,4490.16734358503,0,4,-4303.5627505662,8617.1255011324,8642.00257076968,195160.85315154,1066,762.67037037,2.10889260955079,25.6774372919456
52,175.059039516993,0.967817667914849,0.967730610208577,10.6562017808408,11116.9672319759,0,4,-4210.79108603537,8431.58217207073,8456.65624382711,125932.091760941,1109,762.67037037,2.10889260955079,25.6774372919456
53,168.0997553907,0.976958644527452,0.976902809255709,9.79778786336018,17497.1593050875,0,4,-4594.75696760031,9199.51393520062,9225.13632651309,118843.849005075,1238,762.67037037,2.10889260955079,25.6774372919456
54,162.469007850499,0.982544415614107,0.982505394188505,8.72539344371123,25179.6135189789,0,4,-4823.64404500521,9657.28809001041,9683.31255256144,102169.802583224,1342,762.67037037,2.10889260955079,25.6774372919456
55,156.785835267723,0.98434416220797,0.984311016468114,7.78819352045372,29697.4563392322,0,4,-4931.06613316379,9872.13226632757,9898.42784696806,85949.4929281569,1417,762.67037037,2.10889260955079,25.6774372919456
56,153.988968891006,0.983722944800062,0.983689590178751,7.4521147358066,29492.853047784,0,4,-5029.47387971281,10068.9477594256,10095.4060404715,81301.7965481563,1464,762.67037037,2.10889260955079,25.6774372919456
57,155.786625340387,0.975555276056126,0.97550442018107,9.83332764339242,19182.7448641939,0,4,-5355.01646232322,10720.0329246464,10746.41570666,139433.227526005,1442,762.67037037,2.10889260955079,25.6774372919456
58,156.838971850962,0.956601309184172,0.956507911714698,12.4372028279108,10242.2615362735,0,4,-5505.60091085472,11021.2018217094,11047.4158113234,215629.515770535,1394,762.67037037,2.10889260955079,25.6774372919456
59,152.457681718988,0.949679220358177,0.949563273861306,13.6215856303591,8190.66764404596,0,4,-5261.95301675958,10533.9060335192,10559.7796550683,241582.968800938,1302,762.67037037,2.10889260955079,25.6774372919456
60,166.002882794358,0.978907914278482,0.978857575171748,8.36477605884207,19446.2710562681,0,4,-4465.67959034304,8941.35918068609,8967.05748236591,87951.634492824,1257,762.67037037,2.10889260955079,25.6774372919456
61,170.466547371933,0.975044806716821,0.974980819041736,8.43468738886058,15238.0095920105,0,4,-4167.21243900627,8344.42487801255,8369.76573801449,83238.4230769303,1170,762.67037037,2.10889260955079,25.6774372919456
62,176.573914220691,0.937631361282472,0.93744425536632,14.1925500296665,5011.23310562689,0,4,-4085.93834251904,8181.87668503808,8206.43542153934,201428.476344588,1000,762.67037037,2.10889260955079,25.6774372919456
63,192.248102730335,0.927717446986063,0.927497073348825,15.6353985628894,4209.74785648144,0,4,-4116.45024377017,8242.90048754033,8267.37890102907,240554.237208878,984,762.67037037,2.10889260955079,25.6774372919456
64,175.010795250657,0.967563002710468,0.967468800395009,10.7080891057515,10271.1169890198,0,4,-3928.16181828752,7866.32363657504,7891.04407261618,118447.056982506,1033,762.67037037,2.10889260955079,25.6774372919456
65,166.55082675838,0.984001454478646,0.983961854118445,7.88471617852827,24848.2955577905,0,4,-4234.37624885017,8478.75249770035,8504.26910801298,75348.5240497258,1212,762.67037037,2.10889260955079,25.6774372919456
66,163.160828101323,0.979612281053092,0.979565412733673,9.13524684045032,20901.374173726,0,4,-4751.07901397432,9512.15802794864,9538.04312177818,108905.818960925,1305,762.67037037,2.10889260955079,25.6774372919456
67,158.052461050902,0.980095979259253,0.980053690263344,9.18536701141407,23176.146848912,0,4,-5147.35226542399,10304.704530848,10330.9824872192,119131.805593736,1412,762.67037037,2.10889260955079,25.6774372919456
68,171.607568560924,0.920157853076199,0.919994018301389,17.140028655392,5616.37695139172,0,4,-6243.67786981845,12497.3557396369,12523.8072040491,429507.211333796,1462,762.67037037,2.10889260955079,25.6774372919456
69,167.422671868245,0.66659056514256,0.665859938185239,33.1274603941277,912.354189047232,0,4,-6752.19747867177,13514.3949573435,13540.5187243724,1502379.7974332,1369,762.67037037,2.10889260955079,25.6774372919456
70,513.495539222257,0.122242260877541,0.119678216848946,296.415352867664,47.6755701205767,7.54299935441685e-29,4,-7329.12804020732,14668.2560804146,14692.9475028347,90234337.0738847,1027,762.67037037,2.10889260955079,25.6774372919456
71,74.3413990788918,0.115899273042972,0.112310230849642,264.791908545337,32.2925356682499,1.27509522824264e-19,4,-5197.42151738075,10404.8430347615,10427.8965149851,51814803.8201697,739,762.67037037,2.10889260955079,25.6774372919456
