"Age","power_predict","r.squared","adj.r.squared","sigma","statistic","p.value","df","logLik","AIC","BIC","deviance","df.residual","GHI","Wind_speed","Ambient_temp"
1,96.2992292055531,0.940122392929884,0.939755795335578,7.21028814352039,2564.45325209371,4.61463298593895e-299,4,-1674.84889823376,3359.69779646752,3380.71047405346,25474.2450051694,490,561.67,1.12083295433265,16.9776882407234
2,94.9134537978915,0.847483617207968,0.846974663761499,15.964777686605,1665.14957917419,0,4,-3780.95461830245,7571.90923660491,7595.93784937199,229131.839797865,899,561.67,1.12083295433265,16.9776882407234
3,94.4067532364203,0.9051894458315,0.904901267855304,15.3584213873517,3141.07780816568,0,4,-4111.24301182795,8232.48602365591,8256.97959632756,232814.653113814,987,561.67,1.12083295433265,16.9776882407234
4,139.711598965111,0.883049964575855,0.882779455627303,29.4917386165648,3264.40204400437,0,4,-6246.76329139995,12503.5265827999,12529.3810251925,1128082.15267623,1297,561.67,1.12083295433265,16.9776882407234
5,142.31465400373,0.937340480789091,0.937193507718229,20.0487886825198,6377.63418353059,0,4,-5665.14550360075,11340.2910072015,11366.0757890246,514099.073446873,1279,561.67,1.12083295433265,16.9776882407234
6,148.616858446118,0.920439686795943,0.920278306850296,22.9178921871512,5703.55680258007,0,4,-6746.91742350364,13503.8348470073,13530.343958718,776814.84802449,1479,561.67,1.12083295433265,16.9776882407234
7,146.448008543007,0.956971293316112,0.956818347676241,16.0878873752492,6256.93739369923,0,4,-3557.0556651033,7124.11133020661,7147.82573338557,218444.181447705,844,561.67,1.12083295433265,16.9776882407234
9,159.657936012569,0.964498289197586,0.964414886588027,13.9607638845696,11564.3658429138,0,4,-5192.69442643817,10395.3888528763,10421.1658343858,248891.039363379,1277,561.67,1.12083295433265,16.9776882407234
10,152.998349667556,0.965425356349579,0.965337155728022,14.0352285463246,10945.7885818131,0,4,-4789.39725424707,9588.79450849414,9614.16085708144,231657.465048737,1176,561.67,1.12083295433265,16.9776882407234
11,150.567287528649,0.948924312181723,0.948770778050005,14.1524192514287,6180.54305946111,0,4,-4074.95776006934,8159.91552013868,8184.4642865469,199890.388726874,998,561.67,1.12083295433265,16.9776882407234
12,147.681741689458,0.920166387939645,0.919898789240001,14.3312667252283,3438.60560296069,0,4,-3667.15810628837,7344.31621257673,7368.32262774909,183819.759324925,895,561.67,1.12083295433265,16.9776882407234
13,137.772088632325,0.89764726050635,0.897241098841693,13.250808956032,2210.0738169459,0,4,-3040.27254246626,6090.54508493252,6113.71167709893,132741.457119879,756,561.67,1.12083295433265,16.9776882407234
14,144.191439274555,0.848581265116931,0.848037245710165,19.9321145827185,1559.8363855477,0,4,-3699.0513867722,7408.1027735444,7431.76382707674,331736.475101746,835,561.67,1.12083295433265,16.9776882407234
15,152.885793613753,0.821439178138114,0.820913483863741,28.2980182407644,1562.57965548228,0,4,-4869.24618538012,9748.49237076024,9773.14484459,815992.615245371,1019,561.67,1.12083295433265,16.9776882407234
16,147.112071315587,0.947152489307317,0.947022642843698,18.2143484938473,7294.4034278127,0,4,-5291.40326701036,10592.8065340207,10618.3600146356,405082.001578542,1221,561.67,1.12083295433265,16.9776882407234
17,146.488483794182,0.967565289743807,0.967494004666321,15.8760945471052,13573.1814268134,0,4,-5725.55496156627,11461.1099231325,11487.219102259,344048.76606367,1365,561.67,1.12083295433265,16.9776882407234
18,149.856072884009,0.97682086055828,0.976773780383382,12.5830468578079,20748.0295615542,0,4,-5849.85623468706,11709.7124693741,11736.2148334455,233857.941769493,1477,561.67,1.12083295433265,16.9776882407234
19,155.380098832489,0.97700961506703,0.97696131593902,11.5906923130314,20228.3075349899,0,4,-5538.60700240357,11087.2140048071,11113.5481415447,191843.443765781,1428,561.67,1.12083295433265,16.9776882407234
20,156.51283875798,0.974269708119803,0.974218452558288,12.1324980830351,19008.0779399378,0,4,-5909.38487433004,11828.7697486601,11855.3690733091,221679.449660683,1506,561.67,1.12083295433265,16.9776882407234
21,155.481829973603,0.966685742288538,0.96661337243109,13.3611930838782,13357.5742220539,0,4,-5553.6379113564,11117.2758227128,11143.4430998059,246538.164742676,1381,561.67,1.12083295433265,16.9776882407234
22,151.622723961459,0.941553035988048,0.941417950555046,17.0200746866045,6970.05602356899,0,4,-5535.83524344522,11081.6704868904,11107.5287710043,376008.459154198,1298,561.67,1.12083295433265,16.9776882407234
23,151.492129162495,0.931748227171907,0.931554146301305,16.7334806500436,4800.82464740387,0,4,-4484.29094272044,8978.58188544089,9003.4072871689,295409.890271981,1055,561.67,1.12083295433265,16.9776882407234
24,155.372513794131,0.938365589629894,0.938161276667342,12.8192070314213,4592.78539112383,0,4,-3606.61935065157,7223.23870130315,7247.30042677404,148720.52236757,905,561.67,1.12083295433265,16.9776882407234
25,142.043594464597,0.829569861362963,0.828796350900162,17.8655334672154,1072.47400165672,1.98691075032698e-253,4,-2858.69886443013,5727.39772886026,5749.89666406354,210976.186091075,661,561.67,1.12083295433265,16.9776882407234
26,131.05432094624,0.800440825300515,0.799683005649757,26.0393467871474,1056.24184395373,6.78091043247829e-276,4,-3712.76147384257,7435.52294768513,7458.90836499137,535657.589070047,790,561.67,1.12083295433265,16.9776882407234
27,134.295130030083,0.875591772252632,0.875197659598734,25.6481728672651,2221.67891233862,0,4,-4432.89951852594,8875.79903705189,8900.08660736461,622963.846543372,947,561.67,1.12083295433265,16.9776882407234
28,147.759672794158,0.943240300888654,0.943102534628675,19.7167877355318,6846.67131874288,0,4,-5454.50389670429,10919.0077934086,10944.6221267016,480497.124199509,1236,561.67,1.12083295433265,16.9776882407234
29,146.819675493648,0.968615445710344,0.968543572685253,15.71170285824,13476.7591107575,0,4,-5481.77145561397,10973.5429112279,10999.4470672232,323383.464784372,1310,561.67,1.12083295433265,16.9776882407234
30,149.365098509368,0.975229689935902,0.975178757153042,13.0241043264877,19147.3867159857,0,4,-5829.1353969845,11668.270793969,11694.7120159741,247486.221227058,1459,561.67,1.12083295433265,16.9776882407234
31,155.793447909116,0.976246798177625,0.976200824238614,12.107844526081,21234.7869070567,0,4,-6078.4763196217,12166.9526392434,12193.695576898,227229.843555011,1550,561.67,1.12083295433265,16.9776882407234
32,153.0635360077,0.972797375573638,0.972742048201924,12.2875280346965,17582.5698099505,0,4,-5806.80425163514,11623.6085032703,11650.1041105838,222700.434175094,1475,561.67,1.12083295433265,16.9776882407234
33,159.523078445135,0.96817651437685,0.968107532832869,13.5763714684738,14035.2978275769,0,4,-5587.84707160154,11185.6941432031,11211.8722389084,255095.921353987,1384,561.67,1.12083295433265,16.9776882407234
34,123.848726569478,0.872662244396518,0.87198968582819,22.4172555148001,1297.5260229985,1.14304534719941e-253,4,-2588.44914594689,5186.89829189379,5208.64398685069,285438.939855396,568,561.67,1.12083295433265,16.9776882407234
