"Age","power_predict","r.squared","adj.r.squared","sigma","statistic","p.value","df","logLik","AIC","BIC","deviance","df.residual","GHI","Wind_speed","Ambient_temp"
0,203.185457333474,0.81348498950265,0.800472314351672,32.1618545532251,62.5148157518953,1.00890799628006e-15,4,-227.726557267126,465.453114534251,474.703852542802,44478.5501970206,43,526.5,1.88156895991956,19.5943311052154
1,152.260560858802,0.639923330031646,0.638640396528195,45.9834142161246,498.796958930996,3.24058888410435e-186,4,-4437.14278822803,8884.28557645606,8907.9881732541,1780387.43046216,842,526.5,1.88156895991956,19.5943311052154
2,152.800600780046,0.528539552667104,0.527613910427576,48.2245801091268,570.997659891419,7.38224037824297e-249,4,-8109.64229837026,16229.2845967405,16255.956243492,3553532.27360003,1528,526.5,1.88156895991956,19.5943311052154
3,153.851520430704,0.476535123930806,0.475499926417155,48.1391406408658,460.332562286042,1.28295824703763e-212,4,-8048.70225315521,16107.4045063104,16134.0401227717,3515460.69910949,1517,526.5,1.88156895991956,19.5943311052154
4,136.223184641726,0.51940496825875,0.518399539322053,46.7601808403735,516.600377511504,1.4935363872881e-227,4,-7567.58684570787,15145.1736914157,15171.5287341071,3135461.81052984,1434,526.5,1.88156895991956,19.5943311052154
5,134.16336563611,0.531957282800115,0.530886246833982,41.6654743526536,496.675461535644,1.57166080694427e-215,4,-6768.42089814178,13546.8417962836,13572.7497560066,2275911.40822448,1311,526.5,1.88156895991956,19.5943311052154
6,134.405070822032,0.539303122147151,0.538069112652902,41.4477663923328,437.033203278142,6.39200538276643e-188,4,-5779.14715264503,11568.2943052901,11593.4175504423,1924067.419583,1120,526.5,1.88156895991956,19.5943311052154
7,127.9918374173,0.609848939886785,0.608602450876839,30.7602606992129,489.253362861997,2.31910872679178e-191,4,-4566.98365653305,9143.9673130661,9168.21264447927,888475.826348248,939,526.5,1.88156895991956,19.5943311052154
8,133.536807737608,0.674343345914552,0.673117536677091,25.0747059075559,550.120953005183,1.2665519515878e-193,4,-3715.27429847041,7440.54859694081,7463.97790167615,501106.478451283,797,526.5,1.88156895991956,19.5943311052154
9,138.311009464789,0.694267076087373,0.692933938337754,25.1816877053148,520.77669864632,1.58477497061408e-176,4,-3212.37266224158,6434.74532448316,6457.44325426125,436272.768233345,688,526.5,1.88156895991956,19.5943311052154
10,140.957979860482,0.600051343948587,0.598751402487965,35.6312376747602,461.598742809085,3.974275170122e-183,4,-4625.72915046004,9261.45830092007,9285.6180687479,1171827.04567114,923,526.5,1.88156895991956,19.5943311052154
11,148.54087192424,0.485834187195705,0.484476354943581,44.3534981885063,357.801331081751,1.51418488427601e-163,4,-5938.68481490172,11887.3696298034,11912.5635475104,2234776.46256969,1136,526.5,1.88156895991956,19.5943311052154
12,159.390746047225,0.514421618771483,0.513359858462675,45.3092955743971,484.498821912699,1.2610181688002e-214,4,-7197.84931244329,14405.6986248866,14431.833304979,2816623.06819477,1372,526.5,1.88156895991956,19.5943311052154
13,160.891795650909,0.482456046971076,0.481387477212585,45.1358856445401,451.497006290527,3.2211766584016e-207,4,-7616.09098580919,15242.1819716184,15268.6026456494,2960121.5952484,1453,526.5,1.88156895991956,19.5943311052154
14,157.27536483435,0.497371370495346,0.496378687224435,48.2772703746063,501.037324864808,2.74680094656382e-226,4,-8063.65214063937,16137.3042812787,16163.9464680432,3540325.45409589,1519,526.5,1.88156895991956,19.5943311052154
15,148.794434709583,0.544493243307876,0.543596576463994,42.0795332971432,607.241415273574,1.36438126404741e-259,4,-7880.18539400958,15770.3707880192,15797.0293628678,2698527.17469821,1524,526.5,1.88156895991956,19.5943311052154
16,147.638496301183,0.468273915196058,0.467146580740643,45.0096762964451,415.381533800271,1.72735603458378e-193,4,-7413.43012048684,14836.8602409737,14863.1487793595,2866607.40883974,1415,526.5,1.88156895991956,19.5943311052154
17,132.535805890713,0.485342163064564,0.484167145172017,42.2625227857399,413.050870240507,5.92342519349417e-189,4,-6802.61907777358,13615.2381555472,13641.1575091225,2346962.77353075,1314,526.5,1.88156895991956,19.5943311052154
18,134.638530189177,0.467632936744164,0.466210762933151,36.1971895379323,328.815601245744,3.39146934910327e-153,4,-5641.92229579999,11293.8445916,11318.9811641702,1471395.62368973,1123,526.5,1.88156895991956,19.5943311052154
19,125.165757258086,0.531925134381429,0.53033664501847,32.0927817883452,334.862257680208,3.29808876892317e-145,4,-4338.15735034576,8686.31470069151,8710.25955940647,910472.832336276,884,526.5,1.88156895991956,19.5943311052154
20,131.231733870964,0.615774200174584,0.614305821321748,26.0575091461932,419.356488950584,1.56694783362773e-162,4,-3689.91883845335,7389.83767690671,7413.19150851093,533010.119579595,785,526.5,1.88156895991956,19.5943311052154
21,139.220305988849,0.745823641608006,0.744804217710711,21.8369972194857,731.612868393296,6.25732220724531e-222,4,-3383.90788879148,6777.81577758296,6800.92945920271,356687.126777741,748,526.5,1.88156895991956,19.5943311052154
22,132.674812646225,0.571827699120002,0.570259302413481,32.8970571426578,364.593789787239,2.43114812287894e-150,4,-4040.83591464971,8091.67182929943,8115.23661030281,886335.205922131,819,526.5,1.88156895991956,19.5943311052154
23,128.997658957061,0.633845587220144,0.632822809530814,36.6326433012322,619.729579392618,1.01551028367638e-233,4,-5409.42505483579,10828.8501096716,10853.7644234289,1441254.89632272,1074,526.5,1.88156895991956,19.5943311052154
24,150.748902065159,0.498571554325987,0.497367162542943,46.7507756346794,413.961271859445,1.20280334564269e-186,4,-6593.49983388838,13196.9996677768,13222.6661475512,2729858.14303272,1249,526.5,1.88156895991956,19.5943311052154
25,153.405339689065,0.476095435777276,0.474972783139656,49.6304681115622,424.080806318272,6.179474105495e-196,4,-7472.25215609641,14954.5043121928,14980.7397151158,3448456.71096191,1400,526.5,1.88156895991956,19.5943311052154
26,151.063094754451,0.593167082921216,0.592342421602813,42.4072142128814,719.285686965358,2.19777353039259e-288,4,-7664.72272853818,15339.4454570764,15365.957939195,2661590.28959987,1480,526.5,1.88156895991956,19.5943311052154
27,154.100807656245,0.472422161473909,0.47137468727432,44.1653125403437,451.010785429831,3.28667891308181e-209,4,-7886.41787357323,15782.8357471465,15809.4516007362,2947318.57082901,1511,526.5,1.88156895991956,19.5943311052154
28,156.205559692972,0.409496819656909,0.408234161395306,49.0028042264697,324.313262035741,6.23265834108465e-160,4,-7470.3153463888,14950.6306927776,14976.8767680632,3368988.57534698,1403,526.5,1.88156895991956,19.5943311052154
29,152.55507009914,0.460912504620114,0.459702884211632,44.9625026381345,381.038961800216,8.15927186517075e-179,4,-7004.41009581408,14018.8201916282,14044.8260460446,2702914.82233845,1337,526.5,1.88156895991956,19.5943311052154
30,135.222025835422,0.552200586974678,0.551046464776159,39.5549658686009,478.459376037769,1.726453981997e-202,4,-5950.8601491338,11911.7202982676,11937.0355390846,1821188.95814423,1164,526.5,1.88156895991956,19.5943311052154
31,138.874091089282,0.568180931834789,0.566810077650138,33.9188173680851,414.472186900935,8.86543108971814e-172,4,-4688.81591896042,9387.63183792084,9411.90888191389,1087209.43220879,945,526.5,1.88156895991956,19.5943311052154
32,128.791377230021,0.564574390766808,0.562683975676071,27.8242426828101,298.651017722551,2.77503919764074e-124,4,-3295.66234035361,6601.32468070723,6624.04423993505,534964.24028249,691,526.5,1.88156895991956,19.5943311052154
33,139.828067414168,0.793120447399375,0.792314423168463,17.604123528457,983.990824323533,7.02567598568946e-263,4,-3316.18830934489,6642.37661868978,6665.63447805773,238626.977207984,770,526.5,1.88156895991956,19.5943311052154
34,136.407848165451,0.773811571690674,0.772930318073885,18.6353846690549,878.080449201084,5.77015432886017e-248,4,-3360.25136232279,6730.50272464558,6753.76058401353,267403.722558007,770,526.5,1.88156895991956,19.5943311052154
35,126.224782767673,0.603449237545507,0.602245136040078,34.5954459186602,501.161434334971,7.07714727318427e-198,4,-4920.95525794118,9851.91051588237,9876.40913141879,1182482.73977121,988,526.5,1.88156895991956,19.5943311052154
36,139.099133344712,0.573860052803169,0.572822374360319,39.469045767452,553.023007038067,1.35318870462386e-227,4,-6294.74344135412,12599.4868827082,12625.0850608983,1919216.46691325,1232,526.5,1.88156895991956,19.5943311052154
37,152.733169218358,0.498455111837566,0.497347133439564,43.9739393036624,449.878005506451,6.73168126462994e-203,4,-7083.85068499866,14177.7013699973,14203.7849174309,2625974.564844,1358,526.5,1.88156895991956,19.5943311052154
38,134.978379786306,0.607386844042869,0.606583954153386,42.4739692010661,756.500800419925,3.55235887929791e-297,4,-7599.87510594107,15209.7502118821,15236.2187004852,2646523.8335698,1467,526.5,1.88156895991956,19.5943311052154
39,144.008246907565,0.443035909114669,0.441813603136135,43.5589679179399,362.459087082295,3.68611226422484e-173,4,-7117.67429944538,14245.3485988908,14271.4650772886,2593723.49886605,1367,526.5,1.88156895991956,19.5943311052154
40,127.215779943903,0.651450397721596,0.650710900687059,38.3436157396671,880.937133344334,5.92878775009496e-323,4,-7180.91385519936,14371.8277103987,14398.1127239342,2078909.27533962,1414,526.5,1.88156895991956,19.5943311052154
41,127.501379075371,0.483378134804788,0.482222381191376,40.2785485606578,418.236317148706,9.78896920284689e-192,4,-6877.34594726842,13764.6918945368,13790.712640997,2175586.73683954,1341,526.5,1.88156895991956,19.5943311052154
42,129.253870407122,0.447015976958459,0.445543969798633,37.7191767399116,303.677855079934,1.87226968304005e-144,4,-5708.53665875612,11427.0733175122,11452.2276048928,1603423.80326665,1127,526.5,1.88156895991956,19.5943311052154
43,112.350843331262,0.536313392363241,0.534871879593386,33.7422033446951,372.049005446625,1.6329946487075e-160,4,-4782.61544719782,9575.23089439565,9599.6122174551,1098687.51652533,965,526.5,1.88156895991956,19.5943311052154
44,113.930192136879,0.628978381554262,0.627700465532061,25.2052290839724,492.190700035883,5.56278397901628e-187,4,-4063.23667292891,8136.47334585781,8160.3444652896,553349.412235884,871,526.5,1.88156895991956,19.5943311052154
45,118.426557950772,0.81248171676965,0.811491303301884,16.5841785017905,820.345990046318,6.01391307981358e-206,4,-2416.05872247469,4842.11744494938,4863.86313990628,156219.866697014,568,526.5,1.88156895991956,19.5943311052154
46,125.7007815107,0.650885573794357,0.649698109759644,27.0028938470182,548.130768399762,5.38092154803523e-201,4,-4175.38143135756,8360.76286271513,8384.69644746815,643115.835531962,882,526.5,1.88156895991956,19.5943311052154
47,125.641030578084,0.542731195528113,0.541345532484259,37.0929308343003,391.676171155228,1.12895455965169e-167,4,-5000.16671649242,10010.3334329848,10034.8421190181,1362126.6626994,990,526.5,1.88156895991956,19.5943311052154
48,134.945327562731,0.608377442490837,0.607370700697754,37.4573993721734,604.303354316862,5.83959145404734e-237,4,-5902.34579942996,11814.6915988599,11840.0196656779,1637367.24793682,1167,526.5,1.88156895991956,19.5943311052154
49,142.145894494476,0.471704439843417,0.470372602296804,47.7509462902176,354.175658317283,2.44918320007882e-164,4,-6308.21191894764,12626.4238378953,12651.849159365,2713381.91721739,1190,526.5,1.88156895991956,19.5943311052154
50,148.228560229111,0.606258180315807,0.605397855873671,43.2294839303928,704.685523999149,2.98724772472497e-277,4,-7138.37729139977,14286.7545827995,14312.8928952932,2565846.30965935,1373,526.5,1.88156895991956,19.5943311052154
51,142.615249342368,0.537265498187055,0.536340645751719,44.4196223444717,580.920239445615,1.53910374217889e-250,4,-7842.99021128659,15695.9804225732,15722.5631634591,2961627.37668746,1501,526.5,1.88156895991956,19.5943311052154
52,147.431371805402,0.490569806604973,0.489228023830447,42.4805181691343,365.610451943894,2.89040707146369e-166,4,-5905.00232771716,11820.0046554343,11845.2117137533,2055433.04884277,1139,526.5,1.88156895991956,19.5943311052154
54,114.414077078671,0.46881568989719,0.466895746607662,37.2235956763178,244.182050821089,1.49532819178723e-113,4,-4197.92026418622,8405.84052837245,8429.47169538424,1150044.74231141,830,526.5,1.88156895991956,19.5943311052154
55,125.129165150496,0.46303177080704,0.461531859552311,36.7928240467879,308.706111343047,1.71163488639535e-144,4,-5414.1284669862,10838.2569339724,10863.1712477297,1453886.5820369,1074,526.5,1.88156895991956,19.5943311052154
56,122.489019817137,0.564809558074369,0.563362139753109,29.5175417727698,390.218604931387,1.99807143658645e-162,4,-4350.35004205847,8710.70008411695,8734.74528064716,785899.315621103,902,526.5,1.88156895991956,19.5943311052154
57,106.711803738517,0.580849109189968,0.579359236355336,20.3533158504593,389.864890269727,7.73044674462832e-159,4,-3756.48592033036,7522.97184066071,7546.68624383967,349633.301395624,844,526.5,1.88156895991956,19.5943311052154
58,115.166734071351,0.628300179103164,0.626840624832627,22.224163762885,430.474009624777,1.13975032125918e-163,4,-3469.44592584135,6948.89185168271,6972.11080034844,377349.879589082,764,526.5,1.88156895991956,19.5943311052154
59,115.971698362561,0.404710526855842,0.401743968019575,39.1356581725331,136.424237371665,1.95026596474922e-67,4,-3080.09274049312,6170.18548098624,6192.21988091659,922023.043839609,602,526.5,1.88156895991956,19.5943311052154
60,131.183501650092,0.622676641331805,0.621697428463289,38.0689402065919,635.895075884188,4.69431987797071e-244,4,-5865.66777139916,11741.3355427983,11766.6164192188,1675326.30497175,1156,526.5,1.88156895991956,19.5943311052154
61,145.586412797877,0.489792469031997,0.488621372939492,46.1542724877718,418.234227034546,2.08091485781819e-190,4,-6881.96364002042,13773.9272800408,13799.8200074597,2784193.44762027,1307,526.5,1.88156895991956,19.5943311052154
62,153.260305634781,0.4412333411379,0.440080452570784,45.9734934409108,382.719851443891,3.48914980191213e-183,4,-7648.12840415337,15306.2568083067,15332.6809128696,3073119.29218077,1454,526.5,1.88156895991956,19.5943311052154
63,144.436668492319,0.514703719275184,0.51375895039642,43.7104112875352,544.79326197626,2.63306381605565e-241,4,-8026.62830208805,16063.2566041761,16089.9705001228,2944234.68464017,1541,526.5,1.88156895991956,19.5943311052154
64,132.740098912865,0.545795275494882,0.544875832732726,40.910696912781,593.615283038372,2.39779875276476e-253,4,-7621.66783236806,15253.3356647361,15279.8548808625,2480401.35064013,1482,526.5,1.88156895991956,19.5943311052154
65,132.770746210091,0.434108602444815,0.432880184070962,42.44482829047,353.388236194343,2.69279889872622e-170,4,-7159.65814901906,14329.3162980381,14355.4871839369,2489760.68597555,1382,526.5,1.88156895991956,19.5943311052154
66,127.02185507946,0.478971199426486,0.477784345666637,37.5480645166818,403.563788252737,7.17698267639735e-186,4,-6661.8612092493,13333.7224184986,13359.6531400212,1856781.8651657,1317,526.5,1.88156895991956,19.5943311052154
67,113.019652655675,0.44696063728129,0.445481922407711,34.1139700526133,302.262894130063,8.68918253887342e-144,4,-5570.1712863102,11150.3425726204,11175.4747066639,1305742.03298617,1122,526.5,1.88156895991956,19.5943311052154
68,109.544402235687,0.586853718245812,0.585454803070573,28.1796529058496,419.506292184705,1.56544569407504e-169,4,-4232.20495518509,8474.40991037019,8498.36601768382,703566.254374224,886,526.5,1.88156895991956,19.5943311052154
69,116.65496316947,0.75592445235605,0.754842876812576,20.1381264713282,698.910452364784,8.59264429313614e-207,4,-3009.07196239323,6028.14392478647,6050.76173631722,274553.381273817,677,526.5,1.88156895991956,19.5943311052154
70,123.688230424622,0.649790465595264,0.648429547715452,25.1282043714287,477.464860470077,2.30915836345886e-175,4,-3600.90806419,7211.81612837999,7235.08689098091,487461.377607726,772,526.5,1.88156895991956,19.5943311052154
71,127.928336698036,0.437678457024641,0.436018058767824,34.8961083461137,263.598480200572,1.65603963556102e-126,4,-5068.73619258657,10147.4723851731,10172.1101747045,1237222.19174696,1016,526.5,1.88156895991956,19.5943311052154
72,134.596603397628,0.49713638867611,0.495854663243679,39.1179810394742,387.864963975229,3.88743667135307e-175,4,-6003.99663193079,12017.9932638616,12043.3638479426,1801064.75059169,1177,526.5,1.88156895991956,19.5943311052154
73,139.745933186157,0.502221258820334,0.501089085792632,44.3908945067408,443.590552443812,3.22516474381686e-199,4,-6893.43712104258,13796.8742420852,13822.8125279057,2599157.44842823,1319,526.5,1.88156895991956,19.5943311052154
74,134.175372639409,0.479218218386496,0.478113306544318,40.1376330507799,433.716247842552,9.85446791403965e-200,4,-7245.7537966294,14501.5075932588,14527.7926067943,2277995.83590355,1414,526.5,1.88156895991956,19.5943311052154
75,124.249893203218,0.564477942228811,0.563619488764085,37.3391491263635,657.552174256439,4.5303611772997e-274,4,-7687.48220296349,15384.964405927,15411.6164319862,2121990.7514858,1522,526.5,1.88156895991956,19.5943311052154
76,115.859530352168,0.622681189135622,0.621897828282617,36.4484996824795,794.884230870736,3.55855887942586e-305,4,-7264.49869881946,14538.9973976389,14565.3905423505,1919672.57155485,1445,526.5,1.88156895991956,19.5943311052154
77,116.299419690379,0.59435036017776,0.59347611526435,34.9788848965647,679.844230216326,4.30912623575985e-272,4,-6941.25877025114,13892.5175405023,13918.7243719189,1703143.16494112,1392,526.5,1.88156895991956,19.5943311052154
78,118.645000978955,0.45451831937438,0.453270077542284,35.1601123201935,364.126812359306,5.61776037905475e-172,4,-6545.18575473044,13100.3715094609,13126.2794691839,1620702.11636126,1311,526.5,1.88156895991956,19.5943311052154
79,121.524723724146,0.354762072777275,0.353074440883929,34.3109266804069,210.212946422721,1.2078567417954e-108,4,-5700.5136776583,11411.0273553166,11436.2692873602,1350293.92404949,1147,526.5,1.88156895991956,19.5943311052154
80,101.340468711344,0.51339950091426,0.511854737425099,28.1750226315296,332.348287952529,2.72077121639033e-147,4,-4512.74407531885,9035.4881506377,9059.76519463075,750171.145771408,945,526.5,1.88156895991956,19.5943311052154
81,80.6222760982086,0.466408031975576,0.464320970822938,17.942022713017,223.475977877346,3.66901942712953e-104,4,-3317.98565988648,6645.97131977295,6669.20976164077,246909.709319399,767,526.5,1.88156895991956,19.5943311052154
82,81.4450418784017,0.586068026851794,0.584429773659914,17.5089834379321,357.739591020996,1.10321989027804e-144,4,-3260.61402997215,6531.2280599443,6554.40779272273,232375.891780573,758,526.5,1.88156895991956,19.5943311052154
83,103.86463307497,0.582227237955098,0.580807851447585,27.0018812688717,410.196401665759,8.00295872100381e-167,4,-4180.06305692519,8370.12611385038,8394.06533876193,643796.705787429,883,526.5,1.88156895991956,19.5943311052154
84,118.805628068654,0.464989273807405,0.46330508474279,36.3325217430778,276.090899517739,6.1772883307239e-129,4,-4794.14657082374,9598.29314164748,9622.61215860474,1258009.68580929,953,526.5,1.88156895991956,19.5943311052154
85,139.595848022147,0.555772587688011,0.554722404680181,42.6751954021739,529.214987811061,5.39816565060708e-223,4,-6582.6611238735,13175.322247747,13201.0679057398,2311067.65201681,1269,526.5,1.88156895991956,19.5943311052154
86,148.709846519565,0.4606139254499,0.459458923148936,42.9518867040218,398.799140976198,3.18553901415922e-187,4,-7274.51899517432,14559.0379903486,14585.2769532575,2584655.26458061,1401,526.5,1.88156895991956,19.5943311052154
87,138.387460371734,0.550244205470352,0.549347086199349,40.0952510965473,613.345653421301,2.51086165891954e-260,4,-7704.17356522836,15418.3471304567,15444.9398281996,2417874.25738475,1504,526.5,1.88156895991956,19.5943311052154
88,133.729878106191,0.542285691858303,0.541365971212339,41.5043811128318,589.62000498486,9.77986569766014e-253,4,-7699.66939642825,15409.3387928565,15435.8948847786,2571862.18177786,1493,526.5,1.88156895991956,19.5943311052154
89,124.752053695168,0.535904884583848,0.534910395050813,41.4574241638495,538.874333798741,9.22458321263838e-233,4,-7219.61928169672,14449.2385633934,14475.4739663164,2406205.22562187,1400,526.5,1.88156895991956,19.5943311052154
90,124.52676533095,0.507238225493254,0.506122538456635,39.3970869731694,454.642035664748,4.87794322928072e-203,4,-6766.10280182515,13542.2056036503,13568.1665139439,2056572.8621122,1325,526.5,1.88156895991956,19.5943311052154
91,98.9355586543602,0.677231824005576,0.671761176954823,30.8518756996955,123.793733670383,3.02766727571182e-43,4,-875.490200373039,1760.98040074608,1776.97288590241,168475.367451535,177,526.5,1.88156895991956,19.5943311052154
