"Age","power_predict","r.squared","adj.r.squared","sigma","statistic","p.value","df","logLik","AIC","BIC","deviance","df.residual","GHI","Wind_speed","Ambient_temp"
34,NA,NA,NA,NA,NA,NA,NA,NA,NA,NA,NA,NA,483.62,1.04376896683187,11.4881441097979
57,0.201979789558998,0.775517500144956,0.762048550153653,0.0849218256761858,57.578170580909,3.05217966035189e-16,4,58.6205710720594,-107.241142144119,-97.2962219112974,0.360585823808824,50,483.62,1.04376896683187,11.4881441097979
58,0.62675932384507,0.0854640432673033,0.0765272098138893,0.230615916124263,9.5631236402481,4.68931325676347e-06,4,16.960603363518,-23.921206727036,-5.22224216613987,16.3273961363388,307,483.62,1.04376896683187,11.4881441097979
59,0.672925128971428,0.0707886694597961,0.0629582368990641,0.249268554500227,9.0401991091509,8.77144760489596e-06,4,-8.68588247508627,27.3717649501725,46.8022851074233,22.1199931654972,356,483.62,1.04376896683187,11.4881441097979
60,0.716233344326368,0.135912954866314,0.13032618517795,0.215013000533803,24.327645929164,1.22935613224176e-14,4,57.2879379030676,-104.575875806135,-83.833534326547,21.4509939449269,464,483.62,1.04376896683187,11.4881441097979
61,0.876807156347705,0.169212886479063,0.162997521540003,0.235309922728994,27.2249317840814,4.80211835708436e-16,4,13.3148206171756,-16.6296412343512,3.38979410118145,22.2036746536248,401,483.62,1.04376896683187,11.4881441097979
62,0.410679285350984,0.0215237107103326,0.0126014345162018,0.260811168398077,2.41235647070547,0.0666880438377889,4,-22.9561999418297,55.9123998836594,74.9531123335617,22.379391169625,329,483.62,1.04376896683187,11.4881441097979
63,0.956270065284376,0.396828056974672,0.390652235032433,0.176873152103952,64.2551000799765,5.92421411576561e-32,4,95.0886158694644,-180.177231738929,-161.708571044915,9.16624479701001,293,483.62,1.04376896683187,11.4881441097979
64,0.449301154213242,0.261930595022673,0.258415978808496,0.205168892785923,74.5260873622734,2.90912530629841e-41,4,106.605709072985,-203.211418145971,-180.951173373785,26.519392977211,630,483.62,1.04376896683187,11.4881441097979
65,0.761141468010103,0.142710551650043,0.131125559104773,0.200740549408187,12.3185708659186,1.74650769760157e-07,4,44.2354950949532,-78.4709901899064,-61.368315193545,8.94588253522754,222,483.62,1.04376896683187,11.4881441097979
66,0.438261098671513,0.0352240765886451,0.0236928902530512,0.259867560913429,3.05467933337589,0.0290451638165891,4,-16.1797681926997,42.3595363853995,60.0658541111916,16.9503184529888,251,483.62,1.04376896683187,11.4881441097979
67,0.970525413781757,0.158316558281911,0.143636033135665,0.207521848816238,10.7841209156198,1.57348135975291e-06,4,29.0531780461652,-48.1063560923304,-32.2539361171397,7.40723465061081,172,483.62,1.04376896683187,11.4881441097979
68,0.847618304426421,0.0973179857754255,0.082989699835353,0.236931679462702,6.79201868126121,0.000225820138580817,4,6.0826855485072,-2.16537109701441,14.14807984751,10.6098213185401,189,483.62,1.04376896683187,11.4881441097979
69,0.55960498667635,0.0202931164467489,0.00649442794599897,0.223977353392976,1.47065545001946,0.223517458602785,4,18.7866434704844,-27.5732869409689,-10.6738001732666,10.6853270794124,213,483.62,1.04376896683187,11.4881441097979
70,0.574110695883573,0.161438799114015,0.149845787120199,0.228302974947357,13.9255267914963,2.449914943731e-08,4,14.8679596336583,-19.7359192673166,-2.74510575972781,11.3105278962495,217,483.62,1.04376896683187,11.4881441097979
71,0.961858974356123,0.129118153730809,0.121201046037453,0.217379312083082,16.3087529855328,6.59962850523907e-10,4,37.8078332329589,-65.6156664659178,-46.5599615010343,15.5937425561656,330,483.62,1.04376896683187,11.4881441097979
72,0.748223413033765,0.0785922667648793,0.0708057225403571,0.249731166655095,10.0933436578153,2.13542268151178e-06,4,-9.32177986005793,28.6435597201159,48.0601716625573,22.1398077376148,355,483.62,1.04376896683187,11.4881441097979
73,0.896506412899787,0.189446549027309,0.183530100480063,0.212377702068011,32.0203154839394,1.28073102293945e-18,4,56.1466346886048,-102.29326937721,-82.1518767760561,18.5378625059681,411,483.62,1.04376896683187,11.4881441097979
74,0.576151352984929,0.194775541470431,0.189037599960719,0.231650055771171,33.9451946557418,1.14636938859275e-19,4,20.5347508313582,-31.0695016627164,-10.8090558180943,22.5915960506291,421,483.62,1.04376896683187,11.4881441097979
75,0.75028010057056,0.175785226520394,0.16820042799144,0.211211450415097,23.1759915374639,1.26678305856932e-13,4,46.8780232738375,-83.7560465476749,-64.7605832753723,14.5429502323824,326,483.62,1.04376896683187,11.4881441097979
76,1.01743498448951,0.391167529793403,0.386309823914095,0.168583813320424,80.5251572475049,2.97813960002871e-40,4,139.336411037085,-268.67282207417,-248.971965810568,10.6861087947345,376,483.62,1.04376896683187,11.4881441097979
77,0.0324203653374203,0.0899457433724944,0.0881578175245032,0.160592313820654,50.3073119467193,5.26964472427666e-31,4,629.632706011215,-1249.26541202243,-1222.59703004414,39.3811639513806,1527,483.62,1.04376896683187,11.4881441097979
78,0.392153124609673,0.143324812548559,0.140540386153809,0.199555970474441,51.473730036029,9.13071488229933e-31,4,180.657616848665,-351.315233697331,-327.155465869502,36.7562462798923,923,483.62,1.04376896683187,11.4881441097979
79,0.0610938536484443,0.0387314220591752,0.0367815872154819,0.176218997832938,19.8639501106722,1.2646469024191e-12,4,472.246012948762,-934.492025897525,-907.982914186835,45.9275869567256,1479,483.62,1.04376896683187,11.4881441097979
80,0.357459264430502,0.273654712415426,0.270657414117278,0.179520919176252,91.3004596788044,3.79187803516851e-50,4,220.227269388711,-430.454538777422,-407.482471478673,23.4295818267114,727,483.62,1.04376896683187,11.4881441097979
81,0.756057527983329,0.116655173867437,0.109963167608857,0.22456182322745,17.4320180465865,1.19369619208743e-10,4,31.8763450292258,-53.7526900584517,-33.7953673229117,19.9694929306897,396,483.62,1.04376896683187,11.4881441097979
82,0.549985203988309,0.123012732074215,0.115182488610592,0.21685927947582,15.7099498432833,1.38935191602678e-09,4,39.2650064519413,-68.5300129038826,-49.3852848158316,15.8013902238433,336,483.62,1.04376896683187,11.4881441097979
83,0.805531529321936,0.0763108574602128,0.0671654204053634,0.230118630723662,8.34414550147156,2.39058902471027e-05,4,17.4312313187344,-24.8624626374688,-6.2282238995328,16.0452390144583,303,483.62,1.04376896683187,11.4881441097979
84,0.675844326174222,0.0662444588706521,0.0569993545030348,0.233078610344854,7.16535543965145,0.000115738083352765,4,13.5075200660926,-17.0150401321852,1.61919860575079,16.4606684958873,303,483.62,1.04376896683187,11.4881441097979
85,0.975680331401635,0.203078047673354,0.191958206478098,0.204475085138123,18.2626751684188,1.35941060163202e-10,4,38.8916540962457,-67.7833081924914,-50.8379495434089,8.98916299508214,215,483.62,1.04376896683187,11.4881441097979
86,0.879845449185163,0.212462858371354,0.203776786956333,0.193390458559479,24.4601786261989,4.81596801725607e-14,4,63.8677521108262,-117.735504221652,-99.6334998930667,10.172764493622,272,483.62,1.04376896683187,11.4881441097979
87,0.563494384440128,0.226062904080765,0.214216928122818,0.229673102692818,19.0835187310252,6.71921597791629e-11,4,12.4522188294792,-14.9044376589585,1.58714917378169,10.3389478837069,196,483.62,1.04376896683187,11.4881441097979
