"Age","power_predict","r.squared","adj.r.squared","sigma","statistic","p.value","df","logLik","AIC","BIC","deviance","df.residual","GHI","Wind_speed","Ambient_temp"
1,4.09370101448573,0.955105683654159,0.954965680588631,0.546813153328262,6822.03407514723,0,4,-785.56638755714,1581.13277511428,1605.49859428534,287.642448915991,962,532.7,1.23477642751286,21.7007669081728
2,4.79138932741387,0.955491734892376,0.955390195124069,0.543699688532409,9410.02476989561,0,4,-1065.83338421899,2141.66676843798,2167.58991420157,388.726296972963,1315,532.7,1.23477642751286,21.7007669081728
3,4.91605915993309,0.73876024541048,0.737449678079764,1.3228340893099,563.694995362432,8.31922916276847e-174,4,-1020.61975925315,2051.2395185063,2073.24080573284,1046.43423664853,598,532.7,1.23477642751286,21.7007669081728
4,6.18292140508629,0.814681827848648,0.814072896286267,1.23642259376617,1337.88733936346,0,4,-1493.77002210287,2997.54004420573,3021.64558156702,1395.74037813279,913,532.7,1.23477642751286,21.7007669081728
5,7.50727899517267,0.929402013250757,0.929179540603438,0.770158255084855,4177.60126672074,0,4,-1104.83279017098,2219.66558034196,2243.97936990722,564.672838457332,952,532.7,1.23477642751286,21.7007669081728
6,7.95900306112458,0.914697095012908,0.914399526739697,0.816081838259372,3073.90665390249,0,4,-1048.35833829851,2106.71667659701,2130.52454044103,572.751027393644,860,532.7,1.23477642751286,21.7007669081728
7,7.42773476135726,0.930917429660647,0.93069216040954,0.711527451538267,4132.46559433972,0,4,-994.619520819234,1999.23904163847,2023.38260199668,465.769609149138,920,532.7,1.23477642751286,21.7007669081728
8,6.42518775611894,0.929005103744584,0.928789750166458,0.762904626697583,4313.85961556965,0,4,-1138.27402691181,2286.54805382363,2311.05170714385,575.621211272776,989,532.7,1.23477642751286,21.7007669081728
9,5.39771355317968,0.939382485580494,0.939227849064117,0.691043779051768,6074.77785709169,0,4,-1236.27259232485,2482.5451846497,2507.911533237,561.588809369792,1176,532.7,1.23477642751286,21.7007669081728
10,4.19885889788732,0.960856118116841,0.960768613164793,0.555299078121689,10980.5913336322,0,4,-1116.10590005927,2242.21180011854,2268.23626266956,413.815182790475,1342,532.7,1.23477642751286,21.7007669081728
11,3.9119188954192,0.94915295158856,0.949046651138919,0.59167984370937,8928.9645979604,0,4,-1284.67753730626,2579.35507461252,2605.71359314695,502.37202874354,1435,532.7,1.23477642751286,21.7007669081728
12,3.46996314948117,0.944477631803261,0.944365238345373,0.626860378867368,8403.31501094387,0,4,-1412.5312373652,2835.06247473039,2861.58169085678,582.357731067924,1482,532.7,1.23477642751286,21.7007669081728
13,3.75757480296262,0.965572201497346,0.965501118637396,0.468439657363369,13583.7556644571,0,4,-960.477677967207,1930.95535593441,1957.37602996539,318.840090394303,1453,532.7,1.23477642751286,21.7007669081728
14,3.98654512896489,0.971438036205536,0.971375628418658,0.426796779382383,15565.9747734003,0,4,-779.432509980585,1568.86501996117,1595.00333245481,250.099488993583,1373,532.7,1.23477642751286,21.7007669081728
15,4.74331054015996,0.934276851955333,0.9341192424876,0.636184196042679,5927.7965048265,0,4,-1211.16940298468,2432.33880596936,2458.01326022719,506.317644449382,1251,532.7,1.23477642751286,21.7007669081728
16,5.89656617443854,0.939840167462798,0.939677132686275,0.594353441357768,5764.66069082417,0,4,-996.404779875656,2002.80955975131,2027.87463869951,391.054406671981,1107,532.7,1.23477642751286,21.7007669081728
17,7.11438277581964,0.919376806771153,0.919127199361776,0.749193098461249,3683.29132963232,0,4,-1097.66103022618,2205.32206045236,2229.72398086329,543.890299519725,969,532.7,1.23477642751286,21.7007669081728
18,7.23519583397503,0.925670154804964,0.925403739589212,0.754445503529861,3474.53936588898,0,4,-954.3520879593,1918.7041759186,1942.37713421847,476.410370895608,837,532.7,1.23477642751286,21.7007669081728
19,7.51928104735899,0.924584568497525,0.924321185151183,0.731214280268953,3510.41393216413,0,4,-952.378251554812,1914.75650310962,1938.55857656504,459.28524403188,859,532.7,1.23477642751286,21.7007669081728
20,6.52782201877411,0.920847334857992,0.920612692570021,0.780273853207225,3924.47304713561,0,4,-1187.55751006901,2385.11502013802,2409.73316327871,616.133213430836,1012,532.7,1.23477642751286,21.7007669081728
21,5.11978857439345,0.943580336154615,0.943433537376179,0.629659007488774,6427.71245245117,0,4,-1104.5069859669,2219.0139719338,2244.28190056977,457.130446965645,1153,532.7,1.23477642751286,21.7007669081728
22,4.23939564710647,0.967592951960525,0.967515361262904,0.45800094424812,12470.4762508217,0,4,-800.031317567932,1610.06263513586,1635.74505117882,262.835375760009,1253,532.7,1.23477642751286,21.7007669081728
23,3.78722353294392,0.953564889897423,0.953467677524564,0.585433841930643,9809.08974699291,0,4,-1267.63907083543,2545.27814167086,2571.62970610125,491.136078436906,1433,532.7,1.23477642751286,21.7007669081728
24,3.33599117916531,0.942778719390878,0.94266296494595,0.608162749748512,8144.64377572716,0,4,-1368.45484134917,2746.90968269834,2773.43226243064,548.505242459418,1483,532.7,1.23477642751286,21.7007669081728
25,3.2633967490136,0.949415431921958,0.949311704167867,0.549867606508928,9152.9546768682,0,4,-1202.20004442645,2414.4000888529,2440.85496274362,442.344464798335,1463,532.7,1.23477642751286,21.7007669081728
26,4.00622690216374,0.959234976582828,0.959147747574089,0.52289281669827,10996.7428319332,0,4,-1081.40416924006,2172.80833848012,2199.05085884197,383.33049065202,1402,532.7,1.23477642751286,21.7007669081728
27,4.83512967650117,0.945930078153455,0.945803351774127,0.581550015605131,7464.35022582271,0,4,-1123.91109850232,2257.82219700465,2283.6108744259,432.89653843242,1280,532.7,1.23477642751286,21.7007669081728
28,5.50526664276743,0.928592854774539,0.92840327828279,0.715626092719397,4898.24896645908,0,4,-1227.63923535419,2465.27847070839,2490.44600312982,578.696396176339,1130,532.7,1.23477642751286,21.7007669081728
29,6.58854364754408,0.929244569917601,0.929033569629085,0.716938711489376,4403.99667911685,0,4,-1095.03137731135,2200.0627546227,2224.65128267187,517.085122728239,1006,532.7,1.23477642751286,21.7007669081728
30,7.74658392059227,0.925312864874243,0.925055026663222,0.757527867560156,3588.73442850094,0,4,-994.301049208983,1998.60209841797,2022.46177619716,498.674320543176,869,532.7,1.23477642751286,21.7007669081728
31,7.46091664726813,0.909220003055,0.908906968582776,0.801142332614904,2904.53634896791,0,4,-1044.36733171204,2098.73466342407,2122.60006530235,558.391262283655,870,532.7,1.23477642751286,21.7007669081728
32,6.59653513512146,0.931688804219295,0.931476657648548,0.709699357397686,4391.72219912086,0,4,-1041.73981838471,2093.47963676942,2117.8661171269,486.548289842405,966,532.7,1.23477642751286,21.7007669081728
33,5.47680348921508,0.95594078375885,0.955823083270227,0.569982597493738,8121.8081160399,0,4,-963.597739857802,1937.1954797156,1962.3320522858,364.84042130353,1123,532.7,1.23477642751286,21.7007669081728
34,4.3074844918447,0.946871267062576,0.946747807574727,0.632071628459965,7669.48967280129,0,4,-1241.43774648469,2492.87549296939,2518.70682284006,515.773275663706,1291,532.7,1.23477642751286,21.7007669081728
35,3.67628223527735,0.957713558989067,0.957624659673697,0.556055271302784,10773.0138866029,0,4,-1188.66211234538,2387.32422469076,2413.65486858854,441.224782189135,1427,532.7,1.23477642751286,21.7007669081728
36,3.21056674864177,0.951350831134812,0.951251547116719,0.566569908482044,9582.11451767735,0,4,-1252.05250128564,2514.10500257129,2540.58367793504,471.872147960106,1470,532.7,1.23477642751286,21.7007669081728
37,3.24843404070191,0.951349104519619,0.951248931090352,0.549379695359549,9497.02043233062,0,4,-1195.97791146938,2401.95582293876,2428.39020499751,439.748898374073,1457,532.7,1.23477642751286,21.7007669081728
38,3.78006296258058,0.960299209040477,0.960213892154461,0.506223319024461,11255.6757973855,0,4,-1031.42277273329,2072.84554546658,2099.06668304459,357.741820018901,1396,532.7,1.23477642751286,21.7007669081728
39,4.54670745433791,0.965916799860282,0.9658380857722,0.448120789382816,12271.2061257451,0,4,-800.965552363766,1611.93110472753,1637.79322761316,260.855102198325,1299,532.7,1.23477642751286,21.7007669081728
40,5.09471441953552,0.940624778681031,0.940467423854214,0.642187343618746,5977.73069760751,0,4,-1106.80441100496,2223.60882200992,2248.78516500632,466.841989432243,1132,532.7,1.23477642751286,21.7007669081728
41,6.23928779984678,0.916218242353016,0.915975161818257,0.740514574831928,3769.1962594243,0,4,-1159.02879232931,2328.05758465862,2352.78283997725,567.006137946821,1034,532.7,1.23477642751286,21.7007669081728
42,6.75863460044562,0.905318809009671,0.905003205039703,0.796177986741655,2868.52795008295,0,4,-1074.66500104683,2159.33000209365,2183.36414889561,570.509447914796,900,532.7,1.23477642751286,21.7007669081728
43,6.47587072883822,0.901388702643185,0.900992673336531,0.827309336389583,2276.06565347192,0,4,-921.245461002118,1852.49092200424,1875.59795026306,511.277231343797,747,532.7,1.23477642751286,21.7007669081728
44,6.62292282354347,0.933122398528056,0.932912311821861,0.738091347227398,4441.60611316247,0,4,-1067.52138048443,2145.04276096886,2169.37221634328,520.263789193618,955,532.7,1.23477642751286,21.7007669081728
45,5.12074026941538,0.930263220337744,0.930074402342269,0.725874738831661,4926.77203777875,0,4,-1219.59591277397,2449.19182554794,2474.261402922,583.798703213116,1108,532.7,1.23477642751286,21.7007669081728
46,3.94649598480205,0.951570149041984,0.951455113766549,0.581343874869869,8271.98566218939,0,4,-1108.55490227562,2227.10980455124,2252.83184045285,426.844365171926,1263,532.7,1.23477642751286,21.7007669081728
47,3.30103593899018,0.962531524063729,0.96245134900823,0.499655886363857,12005.3739667502,0,4,-1017.4918107825,2044.983621565,2071.22614192685,350.017718698828,1402,532.7,1.23477642751286,21.7007669081728
48,3.28529941382898,0.947618930611971,0.947512030470362,0.609706569097275,8864.52455867537,0,4,-1360.21068586375,2730.4213717275,2756.90004709125,546.460887588544,1470,532.7,1.23477642751286,21.7007669081728
49,3.23926577789145,0.955984471286901,0.955896145811223,0.517792873988464,10823.4285062565,0,4,-1138.37440726747,2286.74881453495,2313.31158202546,400.823643228084,1495,532.7,1.23477642751286,21.7007669081728
50,3.43810113522761,0.964938380314966,0.964864410653183,0.470959700054594,13045.0560007791,0,4,-947.650134913998,1905.300269828,1931.61341283287,315.40392156538,1422,532.7,1.23477642751286,21.7007669081728
51,4.11476535498578,0.963163786310006,0.96308013101775,0.466914115564691,11513.4830126973,0,4,-868.957354493431,1747.91470898686,1773.86054767896,287.989613325209,1321,532.7,1.23477642751286,21.7007669081728
52,4.7989478570716,0.923508786960597,0.923313987606507,0.673210024645511,4740.82058061222,0,4,-1207.46700627404,2424.93401254808,2450.30882853791,533.88342651962,1178,532.7,1.23477642751286,21.7007669081728
53,5.98085847779433,0.930896554877373,0.930690889862127,0.689962898984307,4526.27567097056,0,4,-1058.39097073426,2126.78194146852,2151.38036071776,479.857192390627,1008,532.7,1.23477642751286,21.7007669081728
54,6.99635729280158,0.874940004543197,0.874520340128913,0.951578215344336,2084.85631557481,0,4,-1227.63154786174,2465.26309572349,2489.263946065,809.517983326612,894,532.7,1.23477642751286,21.7007669081728
55,6.70608138511504,0.857166775447859,0.856628459274924,1.04352381107447,1592.31102192992,0,4,-1167.22842243093,2344.45684486187,2367.8799035002,866.797787646394,796,532.7,1.23477642751286,21.7007669081728
56,6.88094938673382,0.870331407155984,0.869861593413796,0.959196173200327,1852.50308580131,0,4,-1143.89119531282,2297.78239062564,2321.40155282975,761.807443308822,828,532.7,1.23477642751286,21.7007669081728
57,5.16687900176175,0.920079172230282,0.919844800301339,0.75549015807399,3925.72257427752,0,4,-1167.28695406989,2344.57390813978,2369.24589418942,583.892982662436,1023,532.7,1.23477642751286,21.7007669081728
58,5.71212540144596,0.682033482992679,0.680954411102383,1.53630789487395,632.055648123108,2.21431700820172e-219,4,-1639.30417493052,3288.60834986103,3312.553208576,2086.4538819012,884,532.7,1.23477642751286,21.7007669081728
59,4.44912260484541,0.961606578151637,0.961520878549297,0.527009768032649,11220.6655794683,0,4,-1047.28337805609,2104.56675611217,2130.59864256953,373.281613288855,1344,532.7,1.23477642751286,21.7007669081728
60,3.97410338924616,0.963581633630059,0.963506954820005,0.505527463003284,12903.012687616,0,4,-1078.86177233587,2167.72354467174,2194.17841856246,373.881377189335,1463,532.7,1.23477642751286,21.7007669081728
61,3.95590503498562,0.959566515849411,0.959485160750517,0.520448398501112,11794.7925684809,0,4,-1142.97894819239,2295.95789638477,2322.50730381389,403.862004434037,1491,532.7,1.23477642751286,21.7007669081728
62,4.03975351280469,0.964055512121779,0.963979626503457,0.490047134464501,12704.0608411346,0,4,-1003.59807543556,2017.19615087112,2043.50578633463,341.24774166955,1421,532.7,1.23477642751286,21.7007669081728
63,4.65463444234483,0.969705594088818,0.9696371063588,0.43126851345001,14158.8222275374,0,4,-767.200724200641,1544.40144840128,1570.36987749326,246.812088230117,1327,532.7,1.23477642751286,21.7007669081728
64,5.59833223183893,0.945858877474073,0.945718129321926,0.563623039691116,6720.22234782433,0,4,-977.165338955063,1964.33067791013,1989.60292620079,366.592254224734,1154,532.7,1.23477642751286,21.7007669081728
65,6.37661611656227,0.904860767097639,0.904571002936515,0.79026960498994,3122.74907838102,0,4,-1168.53422662521,2347.06845325043,2371.55192490854,615.158157842391,985,532.7,1.23477642751286,21.7007669081728
66,7.07383734301948,0.890187512880174,0.889823493585855,0.872108750684281,2445.44046640002,0,4,-1163.42210906649,2336.84421813298,2360.90594360387,688.319174083188,905,532.7,1.23477642751286,21.7007669081728
67,7.72317227177865,0.876721894427715,0.876274153124183,0.89452438941165,1958.09921379393,0,4,-1083.19976608323,2176.39953216647,2200.00666067042,660.943627566387,826,532.7,1.23477642751286,21.7007669081728
68,6.68398689953252,0.903959825651622,0.903626352824023,0.700239324946838,2710.74507677696,0,4,-920.336885196291,1850.67377039258,1874.50472896588,423.649536942531,864,532.7,1.23477642751286,21.7007669081728
69,5.9045539135187,0.9145834436987,0.914332464591057,0.726451370480704,3644.06205873605,0,4,-1124.83475561879,2259.66951123757,2284.33175069544,538.813957140433,1021,532.7,1.23477642751286,21.7007669081728
70,5.02386110710356,0.931847224854048,0.931677126413584,0.682953465510897,5478.28200136073,0,4,-1249.35431055354,2508.70862110708,2534.18394299352,560.643374136119,1202,532.7,1.23477642751286,21.7007669081728
71,4.17916923359828,0.967022075478572,0.966946954921575,0.502061225984616,12872.9353740635,0,4,-962.201907573867,1934.40381514773,1960.33453667035,331.97023009716,1317,532.7,1.23477642751286,21.7007669081728
72,3.74618966052778,0.957948632462029,0.957861207581493,0.519278515203145,10957.3913808672,0,4,-1102.96062548891,2215.92125097783,2242.30748961099,389.105204475334,1443,532.7,1.23477642751286,21.7007669081728
73,3.62033349749767,0.959076228619165,0.958992937361267,0.510385794472705,11514.7285899681,0,4,-1101.10281594512,2212.20563189024,2238.69785739779,383.967653660113,1474,532.7,1.23477642751286,21.7007669081728
74,3.52923287797361,0.951090083684804,0.95098564969979,0.547708386522945,9107.09366832418,0,4,-1149.04625345842,2308.09250691684,2334.34568447633,421.478189717933,1405,532.7,1.23477642751286,21.7007669081728
75,3.80068841336848,0.936630475039614,0.936484012347102,0.617813067084627,6395.01062675065,0,4,-1218.4516009892,2446.90320197841,2472.76148609225,495.437495646947,1298,532.7,1.23477642751286,21.7007669081728
76,4.61623896741015,0.914544414668728,0.914325671702863,0.669145699567381,4180.90890855445,0,4,-1194.20624232305,2398.41248464611,2423.7618552884,524.769993616438,1172,532.7,1.23477642751286,21.7007669081728
77,5.34815783769353,0.911105974028741,0.910846807772265,0.759971821818991,3515.52700732553,0,4,-1180.22806015823,2370.45612031645,2395.15723266205,594.306327887684,1029,532.7,1.23477642751286,21.7007669081728
78,6.19453513292176,0.869912934046976,0.869469958794015,0.950309996293081,1963.79578369495,0,4,-1208.65024182739,2427.30048365478,2451.22842187982,795.621487457064,881,532.7,1.23477642751286,21.7007669081728
79,6.29835237148894,0.881651699178176,0.88117704021766,0.81247817763205,1857.44244292989,0,4,-908.871438857838,1827.74287771568,1850.85655933543,493.770350267966,748,532.7,1.23477642751286,21.7007669081728
80,6.54947192280297,0.838347032369026,0.837790886838185,1.07540164088655,1507.42384120578,0,4,-1304.6657039673,2619.33140793461,2643.20823838929,1008.45813700113,872,532.7,1.23477642751286,21.7007669081728
81,5.7854825007019,0.888278303214778,0.887929536211286,0.922858790188714,2546.91038521808,0,4,-1289.80224836442,2589.60449672883,2613.96513723553,818.453281110063,961,532.7,1.23477642751286,21.7007669081728
82,4.33092087048241,0.928264730537285,0.928078566343178,0.66239243162753,4986.26889552026,0,4,-1166.16460436898,2342.32920873796,2367.61008515847,507.210875899911,1156,532.7,1.23477642751286,21.7007669081728
83,3.8957475288107,0.932324068866746,0.932168611138263,0.666728902886649,5997.28349281957,0,4,-1325.76941567567,2661.53883135135,2687.42774343232,580.552823507431,1306,532.7,1.23477642751286,21.7007669081728
84,3.30561770866704,0.943115749632227,0.942996328532785,0.613557864776496,7897.39630630687,0,4,-1331.34327819394,2672.68655638787,2699.02418352701,537.951699150174,1429,532.7,1.23477642751286,21.7007669081728
85,3.28216668989555,0.946848259955469,0.946739787016603,0.571750405088087,8728.88915752289,0,4,-1265.46894413611,2540.93788827222,2567.41656363596,480.540832806035,1470,532.7,1.23477642751286,21.7007669081728
86,3.45564100561099,0.950014755876092,0.949908780093497,0.566308248903839,8964.45143045522,0,4,-1204.60380085312,2419.20760170623,2445.49614009204,453.797621378793,1415,532.7,1.23477642751286,21.7007669081728
87,3.7715521584565,0.961045038112095,0.960849611881888,0.491774451083229,4917.6870325683,0,4,-424.933792473729,859.867584947457,881.868872174001,144.62158222145,598,532.7,1.23477642751286,21.7007669081728
89,NA,NA,NA,NA,NA,NA,NA,NA,NA,NA,NA,NA,532.7,1.23477642751286,21.7007669081728
90,NA,NA,NA,NA,NA,NA,NA,NA,NA,NA,NA,NA,532.7,1.23477642751286,21.7007669081728
91,6.35109424798239,0.698546116581219,0.672707212288181,1.73646088986417,27.0346648085006,3.13727174144616e-09,4,-74.750551646148,159.501103292296,167.818911522944,105.535374770975,35,532.7,1.23477642751286,21.7007669081728
92,5.63394371007654,0.806570424847259,0.805650791367928,1.00321722805719,877.056395808369,1.42535804871046e-224,4,-901.059303339599,1812.1186066792,1834.38673167366,635.066673009246,631,532.7,1.23477642751286,21.7007669081728
102,NA,NA,NA,NA,NA,NA,NA,NA,NA,NA,NA,NA,532.7,1.23477642751286,21.7007669081728
105,3.25696694210413,0.89028217154543,0.889344412327869,0.54226749674243,949.371816212575,5.23702227458262e-168,4,-284.453295003396,578.906590006792,598.267178954169,103.212967346179,351,532.7,1.23477642751286,21.7007669081728
106,1.2224144651454,0.387315107380216,0.383266528794623,1.54414469740008,95.666935738499,5.36479874354743e-48,4,-846.852398117112,1703.70479623422,1724.33914215479,1082.50981231499,454,532.7,1.23477642751286,21.7007669081728
107,0.120000000000001,0.499836163963553,0.49462612400484,5.81381232190933e-16,95.9371075700972,4.52729471251805e-43,4,9831.37226360098,-19652.744527202,-19634.3607581906,9.7345191497428e-29,288,532.7,1.23477642751286,21.7007669081728
108,0.119999999999999,0.500213384868624,0.495468575231301,4.85131377311441e-16,105.423277876923,2.58058498686009e-47,4,10831.828094874,-21653.656189748,-21634.814584769,7.43713752276621e-29,316,532.7,1.23477642751286,21.7007669081728
109,0.119999999999999,0.500239898281455,0.495980579232717,4.85628047515542e-16,117.445979640741,1.02089947858861e-52,4,12049.8167721475,-24089.633544295,-24070.2588906407,8.30137793878825e-29,352,532.7,1.23477642751286,21.7007669081728
110,1.30561981966633,0.19622847964134,0.19023018471329,1.7188940910996,32.7140432398082,6.12684354405052e-19,4,-794.001659250203,1598.00331850041,1618.03508429841,1187.74795235968,402,532.7,1.23477642751286,21.7007669081728
111,4.02503343455533,0.99107682130572,0.991058127495607,0.210583156669198,53016.3094241887,0,4,201.515069221744,-393.030138443488,-366.682054695447,63.5024207297978,1432,532.7,1.23477642751286,21.7007669081728
112,3.99927886776983,0.972044571305705,0.971953610040973,0.338746347906737,10686.3572551446,0,4,-309.534334586659,629.068669173317,653.223040346548,105.79865933898,922,532.7,1.23477642751286,21.7007669081728
