"Age","power_predict","r.squared","adj.r.squared","sigma","statistic","p.value","df","logLik","AIC","BIC","deviance","df.residual","GHI","Wind_speed","Ambient_temp"
0,46.2731125216628,0.997564995830075,0.997336714189145,1.15979361604629,4369.88709106894,7.04666723424151e-42,4,-54.2984071487091,118.596814297418,126.514408989699,43.0438794182957,32,313.92575188,7.89805346179203,20.2675810003747
1,55.1729485554423,0.992111858557878,0.992087686520772,3.03992130537636,41043.783534846,0,4,-2485.74298889753,4981.48597779506,5005.9390233958,9047.05799048061,979,313.92575188,7.89805346179203,20.2675810003747
2,53.0063215135281,0.984666979564852,0.984616762249017,3.32322329075005,19608.1165068184,0,4,-2408.27945811299,4826.55891622598,4850.6807845762,10116.1327448082,916,313.92575188,7.89805346179203,20.2675810003747
3,51.8862699626882,0.984676911207626,0.984621258342762,2.78021678187137,17693.193578183,0,4,-2024.41313785775,4058.82627571551,4082.43340421946,6384.65402256854,826,313.92575188,7.89805346179203,20.2675810003747
4,56.3123552480155,0.993203524842309,0.993176193172775,2.51382115088214,36338.9262983852,0,4,-1753.551522317,3517.10304463399,3540.20341066664,4714.19539685231,746,313.92575188,7.89805346179203,20.2675810003747
5,61.9584048906866,0.9857839888713,0.985707283775282,4.75722247968616,12851.6101281959,0,4,-1666.01023328765,3342.0204665753,3363.66015049395,12582.9281410046,556,313.92575188,7.89805346179203,20.2675810003747
6,61.5350803795699,0.982767919220881,0.982727084906238,6.1147888258903,24067.2073922583,0,4,-4099.65077907408,8209.30155814815,8235.03541904542,47336.5532597048,1266,313.92575188,7.89805346179203,20.2675810003747
7,56.6694163622291,0.989212989702464,0.989189808448243,4.7682653482953,42672.9710251622,0,4,-4171.28669606077,8352.57339212155,8378.79452969956,31739.9507867281,1396,313.92575188,7.89805346179203,20.2675810003747
8,56.1689308217539,0.99096474854739,0.990946271550554,4.46911799729186,53632.3493132764,0,4,-4287.6239267166,8585.24785343319,8611.7163420362,29300.4139933443,1467,313.92575188,7.89805346179203,20.2675810003747
9,57.1588180498302,0.995165783938813,0.995156128380768,2.94514359533066,103066.625388483,0,4,-3761.63607811179,7533.27215622358,7559.85821826538,13028.15393727,1502,313.92575188,7.89805346179203,20.2675810003747
10,50.2756880959098,0.990129781782695,0.990109190228695,3.98128055426106,48084.267063356,0,4,-4036.37885422718,8082.75770845437,8109.12664004359,22793.1553967981,1438,313.92575188,7.89805346179203,20.2675810003747
11,48.0259918557201,0.99049444495423,0.990473052107165,3.54021416822367,46300.2629783829,0,4,-3585.33614071761,7180.67228143523,7206.66319932074,16706.6441037365,1333,313.92575188,7.89805346179203,20.2675810003747
12,36.2371968419249,0.966024916655166,0.965940471543289,5.93542846560107,11439.6783329752,0,4,-3873.04864694384,7756.09729388769,7781.59330260545,42521.7784618129,1207,313.92575188,7.89805346179203,20.2675810003747
13,49.9561122708951,0.955923983380472,0.955796963159666,5.65318523330245,7525.76225515938,0,4,-3290.95593556344,6591.91187112687,6616.67073194887,33268.801916592,1041,313.92575188,7.89805346179203,20.2675810003747
14,34.5565242035694,0.90797545496923,0.907597271907459,5.99860082593247,2400.88874080971,0,4,-2354.47567872613,4718.95135745226,4741.94390259533,26267.7446642807,730,313.92575188,7.89805346179203,20.2675810003747
15,51.0083764688619,0.984108523686563,0.983977908812754,2.81881459103039,7534.4292344922,0,4,-903.978165574416,1817.95633114883,1837.51031436903,2900.18622999114,365,313.92575188,7.89805346179203,20.2675810003747
16,44.7123312989194,0.989204108972766,0.98905689227694,2.81264001905699,6719.37448006908,5.37930196604741e-216,4,-547.46783421081,1104.93566842162,1121.99389868089,1740.40765289619,220,313.92575188,7.89805346179203,20.2675810003747
17,49.1173363760068,0.987861918033557,0.987786681988311,3.67159815234977,13130.1680570311,0,4,-1325.13975360852,2660.27950721703,2681.2310842463,6524.6263682917,484,313.92575188,7.89805346179203,20.2675810003747
18,51.5845907176496,0.995823952617356,0.995809634740616,2.56647515498523,69551.0913151655,0,4,-2073.72928455683,4157.45856911366,4181.35249360208,5763.44538101191,875,313.92575188,7.89805346179203,20.2675810003747
19,49.8483314916009,0.995022573535857,0.995010403789001,3.19722700835514,81761.9779032252,0,4,-3175.48152711323,6360.96305422646,6386.54096485738,12542.7136862064,1227,313.92575188,7.89805346179203,20.2675810003747
20,42.7964032998856,0.972827937031396,0.972772671818578,6.86803626078856,17602.8985945268,0,4,-4946.46027255704,9902.92054511408,9929.41615242763,69575.6350672722,1475,313.92575188,7.89805346179203,20.2675810003747
21,46.9531099890717,0.993860270780369,0.993848216338184,3.09671330058073,82447.6367729082,0,4,-3903.49412485258,7816.98824970517,7843.65989645667,14652.9596304382,1528,313.92575188,7.89805346179203,20.2675810003747
22,43.7046860510723,0.988541859957224,0.988518169798624,3.98501409023728,41727.9544918296,0,4,-4074.14974554237,8158.29949108474,8184.71329698277,23042.3694214144,1451,313.92575188,7.89805346179203,20.2675810003747
23,47.7180714458154,0.986833386758869,0.986804170901085,3.89485614686596,33777.3203192986,0,4,-3765.7722427615,7541.544485523,7567.6059578655,20509.710755262,1352,313.92575188,7.89805346179203,20.2675810003747
24,39.4956778314481,0.986243952716643,0.986210752280722,3.36266594020131,29705.7531129108,0,4,-3279.69255149481,6569.38510298961,6595.02758271801,14055.2501261597,1243,313.92575188,7.89805346179203,20.2675810003747
25,31.7012351177182,0.958077837958829,0.957963087515285,4.39662554663074,8349.2299321429,0,4,-3187.74979933831,6385.49959867662,6410.51492597055,21186.0265522255,1096,313.92575188,7.89805346179203,20.2675810003747
26,38.5188450933974,0.926993274432847,0.926751530308453,4.89641718499266,3834.60519156165,0,4,-2734.76807003737,5479.53614007474,5503.6033630723,21721.2605320393,906,313.92575188,7.89805346179203,20.2675810003747
27,45.3449648338517,0.974885791035486,0.974777850309277,3.33642374611641,9031.67715540708,0,4,-1839.92857861642,3689.85715723283,3712.62682425296,7769.94294272734,698,313.92575188,7.89805346179203,20.2675810003747
28,49.7901743823728,0.984651394004797,0.984496357580603,2.96810424674619,6351.09716393411,5.8521260946769e-269,4,-752.55204846449,1515.10409692898,1533.63964825272,2616.46391740718,297,313.92575188,7.89805346179203,20.2675810003747
29,51.8745163190765,0.992617070078151,0.992595075252167,3.01135780514092,45129.5714190003,0,4,-2547.06026705052,5104.12053410104,5128.71401019614,9131.75376139725,1007,313.92575188,7.89805346179203,20.2675810003747
30,55.0465699523393,0.993953956210944,0.993939640400867,2.95992543777244,69430.5073122819,0,4,-3180.71126519213,6371.42253038427,6397.16032674022,11100.3879426174,1267,313.92575188,7.89805346179203,20.2675810003747
31,55.8995837558426,0.992944167898579,0.992928557650567,3.75983472113685,63608.4812448641,0,4,-3728.90345723816,7467.80691447632,7493.88311436997,19168.900268641,1356,313.92575188,7.89805346179203,20.2675810003747
32,50.3067679559445,0.989902486992174,0.989882210861636,4.42325153156753,48821.0748666528,0,4,-4350.90609701536,8711.81219403073,8738.37162485111,29230.3402426026,1494,313.92575188,7.89805346179203,20.2675810003747
33,50.1730955030574,0.988269803546361,0.988246788118394,4.61283058810309,42939.44935462,0,4,-4516.94445152334,9043.88890304669,9070.56381244105,32534.3770268108,1529,313.92575188,7.89805346179203,20.2675810003747
34,54.1350203186585,0.985544945550767,0.985514851752469,4.87575873318063,32749.1045093457,0,4,-4337.64183692279,8685.28367384558,8711.66299684831,34256.9264660537,1441,313.92575188,7.89805346179203,20.2675810003747
35,49.682434960082,0.989164654947284,0.989140718249819,3.82904662757337,41324.1908735755,0,4,-3759.23412717047,7528.46825434094,7554.55180177449,19910.4501873859,1358,313.92575188,7.89805346179203,20.2675810003747
36,46.0851802395477,0.959439393734871,0.95934228134956,6.3279688580601,9879.68105877271,0,4,-4100.74153890634,8211.48307781269,8237.16549385564,50174.1169053288,1253,313.92575188,7.89805346179203,20.2675810003747
37,40.0080060952071,0.90757873300891,0.907332713664657,8.34585102469642,3689.05435368986,0,4,-4002.5316218116,8015.06324362321,8040.21753100379,78499.1894508824,1127,313.92575188,7.89805346179203,20.2675810003747
38,42.3023896225031,0.973348990936083,0.973269037908892,3.59436015305383,12174.0104799499,0,4,-2707.09374950324,5424.18749900647,5448.74623550773,12919.4249098612,1000,313.92575188,7.89805346179203,20.2675810003747
39,44.2871589890793,0.973977209584415,0.973888796932947,3.37141397645406,11016.2651318128,0,4,-2334.59364727888,4679.18729455776,4703.12651946931,10036.5596331561,883,313.92575188,7.89805346179203,20.2675810003747
40,52.6877835252104,0.986502237329238,0.986450189401202,2.89428248549752,18953.7273537606,0,4,-1938.6653175041,3887.3306350082,3910.63990871092,6517.20572035731,778,313.92575188,7.89805346179203,20.2675810003747
41,52.5683741332441,0.991419150476207,0.991395136904779,3.05720218467199,41285.7851414204,0,4,-2727.20432760548,5464.40865521095,5489.31368391456,10019.4321322165,1072,313.92575188,7.89805346179203,20.2675810003747
42,51.7320228874083,0.99304538586757,0.993028627761227,3.22253146503309,59257.6133323235,0,4,-3231.78987627665,6473.5797525533,6499.23024510393,12928.9627586948,1245,313.92575188,7.89805346179203,20.2675810003747
43,50.0750674735188,0.991215734919275,0.991196300704494,3.8178770052972,51003.6420880087,0,4,-3749.73799228123,7509.47598456246,7535.55218445611,19765.3066261946,1356,313.92575188,7.89805346179203,20.2675810003747
44,50.2023417316834,0.989902892237453,0.989882327863191,4.22128074337414,48136.7864460591,0,4,-4220.85417675095,8451.7083535019,8478.19719491456,26247.6979714838,1473,313.92575188,7.89805346179203,20.2675810003747
45,44.7341618394134,0.966404447021045,0.96632727500042,7.38652520468279,12522.7308963591,0,4,-4476.35764170155,8962.71528340311,8988.60419548409,71256.3455068348,1306,313.92575188,7.89805346179203,20.2675810003747
46,41.6272754817945,0.985571510837818,0.985542164758166,4.52744414032858,33584.4352134493,0,4,-4330.13043141939,8670.26086283877,8696.75647015233,30234.1819045985,1475,313.92575188,7.89805346179203,20.2675810003747
47,37.4078565863539,0.980178245849816,0.980134132153637,4.76332633925164,22219.3633889077,0,4,-4026.80124212481,8063.60248424962,8089.64918553263,30585.146493553,1348,313.92575188,7.89805346179203,20.2675810003747
48,27.6146471881949,0.972777441622554,0.972712315884809,4.48735865813874,14936.9124297706,0,4,-3671.61192307317,7353.22384614633,7378.91023833263,25251.030209373,1254,313.92575188,7.89805346179203,20.2675810003747
49,21.136919111296,0.909733778368647,0.909463789669849,4.9372782492479,3369.52540021096,0,4,-3034.85903738982,6079.71807477964,6104.29172924323,24449.8466600279,1003,313.92575188,7.89805346179203,20.2675810003747
50,38.4993618959011,0.878274088910068,0.877849956815678,8.76816186499782,2070.7560227745,0,4,-3103.40221278089,6216.80442556179,6240.61807309645,66194.2504045806,861,313.92575188,7.89805346179203,20.2675810003747
51,39.8261324057399,0.972675078573496,0.972522140580438,3.24619009571934,6359.93097019131,0,4,-1400.05966017965,2810.11932035929,2831.57716605708,5648.23407372485,536,313.92575188,7.89805346179203,20.2675810003747
52,37.9789808537934,0.980835951894775,0.980730267805959,3.05857879761032,9280.8289581447,0,4,-1388.20778005318,2786.41556010636,2807.9469365411,5089.06791808813,544,313.92575188,7.89805346179203,20.2675810003747
53,40.6198079035485,0.970996007468954,0.970825729626306,4.14629133745098,5702.42136245586,0,4,-1461.18589190794,2932.37178381587,2953.59261831919,8784.97497791576,511,313.92575188,7.89805346179203,20.2675810003747
54,43.7142559993775,0.975763823945751,0.975613288690755,6.07775221715434,6481.96214219704,0,4,-1567.87201606794,3145.74403213588,3166.68535275129,17841.5717823391,483,313.92575188,7.89805346179203,20.2675810003747
55,44.9143766854832,0.990665058059852,0.990629428510462,3.67932220397609,27804.5912739297,0,4,-2148.11191648079,4306.22383296158,4329.58399768889,10640.4057382078,786,313.92575188,7.89805346179203,20.2675810003747
56,45.8242185964938,0.985356539911788,0.985305398607638,4.95378973681938,19267.3330548328,0,4,-2603.47124631666,5216.94249263332,5240.74456608874,21079.888137934,859,313.92575188,7.89805346179203,20.2675810003747
57,51.0389157012379,0.972795099409181,0.972738383146657,7.05786026519177,17151.9605861286,0,4,-4865.35232691444,9740.70465382888,9767.07705162275,71681.4704015578,1439,313.92575188,7.89805346179203,20.2675810003747
58,51.3298076711619,0.981033592634583,0.98098975656209,5.81455723743258,22379.5960001989,0,4,-4137.44965511256,8284.89931022512,8310.75759433897,43884.1804758587,1298,313.92575188,7.89805346179203,20.2675810003747
59,47.202304831881,0.988272598433709,0.988247360123308,4.17124320465578,39157.6370499799,0,4,-3978.31654526443,7966.63309052886,7992.84708014283,24254.5822021075,1394,313.92575188,7.89805346179203,20.2675810003747
60,49.4836971183247,0.967515148571935,0.967439952156593,6.16046025103604,12866.5062578055,0,4,-4206.21394799784,8422.42789599568,8448.27849371293,49184.8465739551,1296,313.92575188,7.89805346179203,20.2675810003747
61,37.9101884701323,0.878713210751117,0.878388914523179,9.76632992720469,2709.60046725736,0,4,-4161.80851016039,8333.61702032077,8358.74915436427,107017.70667715,1122,313.92575188,7.89805346179203,20.2675810003747
62,48.2019698766576,0.987978041117302,0.987942402899271,3.01071736548708,27722.4310216119,0,4,-2559.45083417809,5128.90166835618,5153.51981149687,9173.19208350358,1012,313.92575188,7.89805346179203,20.2675810003747
63,43.3331980302252,0.969773951033106,0.969666639616656,3.66781127340316,9037.00634200784,0,4,-2306.03032907062,4622.06065814125,4645.7809540728,11367.6494090213,845,313.92575188,7.89805346179203,20.2675810003747
64,43.8092707421552,0.978569146244302,0.978487453027953,2.64091256499803,11978.5851258105,0,4,-1888.53480581875,3787.0696116375,3810.43610147634,5488.86789148403,787,313.92575188,7.89805346179203,20.2675810003747
65,50.7017257686427,0.993905727309184,0.993887128308093,2.02426030769071,53438.6617026639,0,4,-2094.52496568216,4199.04993136433,4223.5232815615,4027.97008680611,983,313.92575188,7.89805346179203,20.2675810003747
66,45.1310822162428,0.990209439186424,0.990183307796352,3.53788758095869,37893.4850562806,0,4,-3023.82074846228,6057.64149692456,6082.78250408485,14068.7129539039,1124,313.92575188,7.89805346179203,20.2675810003747
67,44.8265653085899,0.994814529818028,0.994802328711717,2.84980167073726,81534.7809042556,0,4,-3152.25123597136,6314.50247194271,6340.27164095061,10354.7461922345,1275,313.92575188,7.89805346179203,20.2675810003747
68,44.9986269647695,0.990283610486148,0.990262937316969,4.16403877641643,47901.8771597151,0,4,-4021.42669644578,8052.85339289156,8079.12428212385,24448.2986934145,1410,313.92575188,7.89805346179203,20.2675810003747
69,47.2526028178978,0.979238967003587,0.979196042745152,5.98385733992832,22813.1830975151,0,4,-4665.64296881994,9341.28593763989,9367.69974353792,51955.302112355,1451,313.92575188,7.89805346179203,20.2675810003747
70,49.2349699679126,0.980556935410861,0.980518049281683,5.41499415603462,25216.1106320297,0,4,-4672.59527869689,9355.19055739379,9381.76997491634,43983.2425648336,1500,313.92575188,7.89805346179203,20.2675810003747
71,40.9792237917009,0.983127900091055,0.983090899871956,4.50964482772607,26570.8669851962,0,4,-4011.31238881985,8032.62477763971,8058.74490168114,27820.8743740196,1368,313.92575188,7.89805346179203,20.2675810003747
72,32.9756402834866,0.983277765695324,0.983238264354447,3.77025189918347,24892.2629931074,0,4,-3496.50321856578,7003.00643713155,7028.75602131221,18052.7952167866,1270,313.92575188,7.89805346179203,20.2675810003747
73,31.3680845038484,0.990615033556234,0.990591453238536,2.335974554199,42010.2496602177,0,4,-2714.30316450105,5438.60632900211,5464.04837289548,6515.39187873106,1194,313.92575188,7.89805346179203,20.2675810003747
74,31.1314761878103,0.958147409824044,0.958023095199759,4.42915191303303,7707.43921187646,0,4,-2945.84275520355,5901.6855104071,5926.29380132786,19813.5605354113,1010,313.92575188,7.89805346179203,20.2675810003747
75,39.4034958205094,0.973084552267349,0.972989444678187,3.39185057804359,10231.4080384994,0,4,-2250.18330760099,4510.36661520199,4534.11041293944,9767.44814186465,849,313.92575188,7.89805346179203,20.2675810003747
76,43.2383356700356,0.983011469337118,0.982945107889217,2.47164929087171,14812.990078073,0,4,-1791.98707545077,3593.97415090154,3617.21907365166,4691.75056670717,768,313.92575188,7.89805346179203,20.2675810003747
77,38.7292621260902,0.988233375801625,0.988196296103521,2.66150402408653,26651.6025299502,0,4,-2290.32120656075,4590.64241312151,4614.95620268677,6743.59069405779,952,313.92575188,7.89805346179203,20.2675810003747
78,41.4304363544495,0.991967423690201,0.991942983802849,2.7284741629365,40588.0522029342,0,4,-2396.45020944011,4802.90041888023,4827.38894359587,7340.34726020268,986,313.92575188,7.89805346179203,20.2675810003747
81,37.6610526312231,1,1,1.22811295620674e-11,2.61069699067549e+20,0,2,2276.59635695542,-4547.19271391085,-4539.49966933645,1.41776574721069e-20,94,313.92575188,7.89805346179203,20.2675810003747
82,37.6610526316103,1,1,1.20584474118691e-11,1.56523714830108e+24,0,2,11387.7143155529,-22769.4286311058,-22756.9072727941,6.95041416047409e-20,478,313.92575188,7.89805346179203,20.2675810003747
83,37.6610526316295,1,1,1.21663748532415e-11,1.18128503950674e+24,0,2,15936.4107234026,-31866.8214468052,-31853.2906717837,9.91738536366235e-20,670,313.92575188,7.89805346179203,20.2675810003747
84,37.661052631623,1,1,2.08685927819572e-11,1.53091380339094e+23,0,2,8899.75613325766,-17793.5122665153,-17781.6603388576,1.66360298915078e-19,382,313.92575188,7.89805346179203,20.2675810003747
85,37.6610526316199,1,1,3.67956905216284e-11,2.55230967623168e+23,0,2,26043.9214000276,-52081.8428000552,-52066.6950355314,1.55701126710797e-18,1150,313.92575188,7.89805346179203,20.2675810003747
86,37.6610526316191,1,1,3.65913340072543e-11,2.86531142711731e+23,0,2,13025.6699203,-26045.3398406,-26032.2715176179,7.68543365823074e-19,574,313.92575188,7.89805346179203,20.2675810003747
87,37.6610526316374,1,1,3.63212208024182e-11,1.04060677310095e+23,0,2,13029.9376604213,-26053.8753208425,-26040.8069978604,7.5723864025178e-19,574,313.92575188,7.89805346179203,20.2675810003747
88,37.6610526316113,1,1,3.65410694978429e-11,1.73928129285752e+23,0,2,15197.3714437685,-30388.7428875371,-30375.2121125155,8.94617339230944e-19,670,313.92575188,7.89805346179203,20.2675810003747
89,37.6610526316208,1,1,3.62566721926297e-11,9.3185520017016e+22,0,2,10859.302484918,-21712.604969836,-21700.0836115243,6.28353121115259e-19,478,313.92575188,7.89805346179203,20.2675810003747
90,37.6610526315871,1,1,3.67742644485678e-11,3.33507639955036e+22,0,2,15193.0965526395,-30380.193105279,-30366.6623302575,9.06072172241244e-19,670,313.92575188,7.89805346179203,20.2675810003747
91,37.6610526315954,1,1,3.59641692494279e-11,2.21651872954512e+22,0,2,4345.88065698566,-8685.76131397132,-8675.98882785524,2.45750079262284e-19,190,313.92575188,7.89805346179203,20.2675810003747
92,37.6610526316128,1,1,3.66936901878922e-11,1.3321037940149e+23,0,2,17365.0802331907,-34724.1604663813,-34710.2290971819,1.03136300509744e-18,766,313.92575188,7.89805346179203,20.2675810003747
93,37.6610526316114,1,1,3.62616179589814e-11,2.42499000042284e+23,0,2,19545.8240215476,-39085.6480430953,-39071.3633247889,1.13344805569669e-18,862,313.92575188,7.89805346179203,20.2675810003747
94,37.6610526316088,1,1,3.65153039335158e-11,1.37618330317039e+23,0,2,15197.8454464909,-30389.6908929818,-30376.1601179602,8.93356172309214e-19,670,313.92575188,7.89805346179203,20.2675810003747
95,37.6610526316182,1,1,3.66559460932271e-11,5.56858504377752e+22,0,2,8683.4372734529,-17360.8745469058,-17349.022619248,5.13277502684016e-19,382,313.92575188,7.89805346179203,20.2675810003747
96,37.6610526316157,1,1,3.65794131120743e-11,1.31615932536812e+23,0,2,17367.4757879423,-34728.9515758845,-34715.0202066851,1.02494895313583e-18,766,313.92575188,7.89805346179203,20.2675810003747
97,37.6610526316183,1,1,3.67989292733201e-11,9.16343186597982e+22,0,2,15192.645987372,-30379.2919747441,-30365.7611997225,9.07288001094087e-19,670,313.92575188,7.89805346179203,20.2675810003747
98,37.6610526316115,1,1,1.19961665708207e-10,5.17581215814822e+21,0,2,10284.9590539749,-20563.9181079499,-20551.3967496382,6.87880299247512e-18,478,313.92575188,7.89805346179203,20.2675810003747
99,37.6610526316202,1,1,1.20829657472448e-10,2.62062992001166e+22,0,2,18505.8946663613,-37005.7893327227,-36991.5046144162,1.25850328796716e-17,862,313.92575188,7.89805346179203,20.2675810003747
100,37.6610526316211,1,1,1.20646933397509e-10,3.51933570470937e+22,0,2,26732.1801341217,-53458.3602682434,-53442.9723755966,1.81363804426259e-17,1246,313.92575188,7.89805346179203,20.2675810003747
101,37.6610526316024,1,1,1.19937326700435e-10,3.09999395763229e+22,0,2,22625.9205442565,-45245.8410885131,-45230.9543581203,1.51617503021934e-17,1054,313.92575188,7.89805346179203,20.2675810003747
102,37.6610526315974,1,1,1.20404214624021e-10,2.46315840908378e+22,0,2,18508.9421903176,-37011.8843806353,-36997.5996623288,1.24965647631339e-17,862,313.92575188,7.89805346179203,20.2675810003747
103,37.6610526316472,1,1,1.20871227604916e-10,2.58296968613817e+22,0,2,22617.72976962,-45229.4595392399,-45214.5728088472,1.53987857605062e-17,1054,313.92575188,7.89805346179203,20.2675810003747
104,37.661052631662,1,1,1.20710282665812e-10,3.98676337275643e+22,0,2,32900.1073646751,-65794.2147293503,-65778.2039186091,2.23518715714934e-17,1534,313.92575188,7.89805346179203,20.2675810003747
105,37.6610526316418,1,1,1.19299376466178e-10,1.2949400599554e+22,0,2,12344.9389127571,-24683.8778255142,-24670.8095025321,8.16936386327558e-18,574,313.92575188,7.89805346179203,20.2675810003747
106,37.6610526315612,1,1,1.21349199132801e-10,1.47472982988948e+22,0,2,16446.5003765175,-32887.0007530351,-32873.0693838356,1.1279831147712e-17,766,313.92575188,7.89805346179203,20.2675810003747
107,37.6610526315509,1,1,1.20734004399522e-10,2.8939532646768e+22,0,2,28787.4550245847,-57568.9100491695,-57553.2998326063,1.95619311562175e-17,1342,313.92575188,7.89805346179203,20.2675810003747
108,37.6610526315506,1,1,1.19414452246334e-10,9.45584055330525e+21,0,2,8229.92383506882,-16453.8476701376,-16441.9957424799,5.44724795682154e-18,382,313.92575188,7.89805346179203,20.2675810003747
109,37.661052631684,1,1,1.20783502865689e-10,4.10468583788861e+22,0,2,28786.9041250644,-57567.8082501287,-57552.1980335655,1.9577974425567e-17,1342,313.92575188,7.89805346179203,20.2675810003747
110,37.661052631651,1,1,1.2053648988408e-10,2.37165284217148e+22,0,2,28789.6555387325,-57573.3110774651,-57557.7008609018,1.94979789181775e-17,1342,313.92575188,7.89805346179203,20.2675810003747
111,37.6610526316023,1,1,1.20602338080097e-10,1.36983335274385e+22,0,2,10282.4023666841,-20558.8047333681,-20546.2833750564,6.95247364828451e-18,478,313.92575188,7.89805346179203,20.2675810003747
112,37.6610526315862,1,1,1.21414479000085e-10,3.16053545460305e+22,0,2,24668.6299249219,-49331.2598498437,-49316.11208532,1.69526970674915e-17,1150,313.92575188,7.89805346179203,20.2675810003747
113,37.6610526316857,1,1,1.21262611823603e-10,2.79989708988988e+22,0,2,20558.5601246601,-41111.1202493202,-41096.5194494669,1.40870269431779e-17,958,313.92575188,7.89805346179203,20.2675810003747
114,34.4886293532723,0.994646857439034,0.994629013630498,1.70645297343441,55741.8476779543,0,4,-1763.82890236795,3537.65780473591,3561.69195153787,2620.78357548881,900,313.92575188,7.89805346179203,20.2675810003747
115,35.7540705325699,0.991447038796192,0.991425674197016,2.69607101518278,46406.0678409309,0,4,-2902.93122368896,5815.86244737792,5841.33362160755,8729.82750160936,1201,313.92575188,7.89805346179203,20.2675810003747
116,36.8010551163769,0.98674527207516,0.986715010139258,3.64921765170322,32606.8125743232,0,4,-3574.32581956212,7158.65163912424,7184.57099269955,17498.2613629261,1314,313.92575188,7.89805346179203,20.2675810003747
117,38.0145872071905,0.986858294536173,0.986830953956151,3.54452471956071,36095.0021450961,0,4,-3879.55664783634,7769.11329567269,7795.49607768628,18116.791213086,1442,313.92575188,7.89805346179203,20.2675810003747
118,34.0307143414247,0.996993251158676,0.996809164494922,1.79951979018824,5415.89070508741,9.2544030645331e-62,4,-104.262796292908,218.525592585817,228.377052153577,158.675302288676,49,313.92575188,7.89805346179203,20.2675810003747
121,NA,NA,NA,NA,NA,NA,NA,NA,NA,NA,NA,NA,313.92575188,7.89805346179203,20.2675810003747
