"Age","power_predict","r.squared","adj.r.squared","sigma","statistic","p.value","df","logLik","AIC","BIC","deviance","df.residual","GHI","Wind_speed","Ambient_temp"
18,7.21822230284639,0.98832383012168,0.988127040741708,0.28459211262303,5022.24169954633,1.03797599180245e-171,4,-27.5054156100865,65.010831220173,81.030864655557,14.4166953609687,178,357.8,2.34953619262603,15.416267127906
19,7.03600012664397,0.976724377749231,0.97663090135465,0.467809345591083,10448.8880013305,0,4,-493.08696330757,996.17392661514,1019.28095487396,163.477651115301,747,357.8,2.34953619262603,15.416267127906
20,7.24478632095808,0.988254339731725,0.988200542814465,0.311857082859365,18370.0923785054,0,4,-165.200835010714,340.401670021427,362.85528769394,63.7019202848573,655,357.8,2.34953619262603,15.416267127906
21,7.58377481415253,0.94403453732765,0.943779375643734,0.706084961968079,3699.75038116075,0,4,-706.942196864009,1423.88439372802,1446.3607215077,328.049830574491,658,357.8,2.34953619262603,15.416267127906
22,7.46689558723519,0.824759061635766,0.823778235488205,1.20923922476225,840.882009198744,3.30976472923736e-202,4,-866.814731620484,1743.62946324097,1765.08730893876,783.771093449138,536,357.8,2.34953619262603,15.416267127906
23,7.4117318075748,0.943585602109166,0.943338170539469,0.663399306999761,3813.52146480756,0,4,-691.883674660861,1393.76734932172,1416.43629351139,301.02747012099,684,357.8,2.34953619262603,15.416267127906
24,7.5403105148632,0.985980749451618,0.985924672449424,0.315219936783453,17582.6223029699,0,4,-197.392887635528,404.785775271057,427.912737111097,74.5227064093231,750,357.8,2.34953619262603,15.416267127906
25,7.5069413681404,0.978690773943826,0.978604268290012,0.418094094394828,11313.6047274843,0,4,-404.333694363063,818.667388726126,841.720868949714,129.179174436427,739,357.8,2.34953619262603,15.416267127906
26,7.72798836327827,0.989723118703066,0.989687964035003,0.300400238712405,28153.3910928639,0,4,-188.554837393221,387.109674786443,411.014962916124,79.1407460979978,877,357.8,2.34953619262603,15.416267127906
27,7.93686029019899,0.99018747967308,0.990150544213882,0.293426885890937,26808.587226886,0,4,-152.437202388539,314.874404777079,338.303709512421,68.6211718788314,797,357.8,2.34953619262603,15.416267127906
28,7.94048268770855,0.989168373791307,0.989129457769,0.299132995479923,25418.0236098138,0,4,-175.923230592324,361.846461184647,385.507514716983,74.7162584023009,835,357.8,2.34953619262603,15.416267127906
29,7.97449347615628,0.987485867274642,0.987440250751949,0.313931013193859,21647.5480590097,0,4,-213.30998366354,436.619967327081,460.208990802199,81.1088564999714,823,357.8,2.34953619262603,15.416267127906
30,7.91344449138246,0.985771262397678,0.985712465961304,0.336600842489179,16765.8334961004,0,4,-238.953658856899,487.907317713798,510.87254038451,82.2558923213726,726,357.8,2.34953619262603,15.416267127906
31,7.98530095600318,0.97938960183755,0.979304901571129,0.405384951948918,11563.0049729622,0,4,-376.753481030197,763.506962060393,786.499507203466,119.965980264637,730,357.8,2.34953619262603,15.416267127906
32,8.06705424775583,0.985294730751324,0.985234953234053,0.368195633306827,16482.6974376305,0,4,-309.484455941527,628.968911883054,652.015658098891,100.049201997027,738,357.8,2.34953619262603,15.416267127906
33,8.02875741587663,0.963249423076578,0.963088236335686,0.54859493125703,5975.98423880778,0,4,-561.15215558184,1132.30431116368,1154.97325535335,205.85417664302,684,357.8,2.34953619262603,15.416267127906
34,6.93663645510446,0.667110888831781,0.665548029154935,1.59230039725013,426.85271026893,3.91160752759416e-152,4,-1209.48181664647,2428.96363329293,2451.29435691412,1620.13373469799,639,357.8,2.34953619262603,15.416267127906
35,7.24036322239462,0.385802758408535,0.38287335979999,2.19167365136734,131.700328280092,3.30277841811889e-66,4,-1392.87499217017,2795.74998434034,2818.00233645106,3021.35960488755,629,357.8,2.34953619262603,15.416267127906
36,7.67648060863517,0.913379619986517,0.912966486218568,0.816200115132494,2210.85684793846,0,4,-767.62215809146,1545.24431618292,1567.49666829364,419.028872975704,629,357.8,2.34953619262603,15.416267127906
37,7.96276462603797,0.958067014639626,0.957908177573867,0.587322806911567,6031.75971591754,0,4,-703.854206171653,1417.70841234331,1441.10640827253,273.198878978637,792,357.8,2.34953619262603,15.416267127906
38,8.11766491639037,0.988528497150684,0.988486681222923,0.297272618117402,23639.9991597016,0,4,-168.218937798063,346.437875596126,370.026899071245,72.7293408039943,823,357.8,2.34953619262603,15.416267127906
39,8.04078590601341,0.984618724445122,0.98456652554618,0.34974199735902,18862.8255462085,0,4,-325.116021911717,660.232043823434,684.176902538395,108.130406809542,884,357.8,2.34953619262603,15.416267127906
40,7.87171679474251,0.967988445173102,0.967870030050438,0.512691613479299,8174.53399020512,0,4,-609.944162791373,1229.88832558275,1253.40426614895,213.173532021458,811,357.8,2.34953619262603,15.416267127906
41,7.30285372684218,0.986736047444996,0.986682849774321,0.338430084743461,18548.4821970962,0,4,-250.29124915697,510.58249831394,533.696179933689,85.6721218500808,748,357.8,2.34953619262603,15.416267127906
42,7.41991723809174,0.955106346442665,0.954936294724645,0.581935612136906,5616.56393456237,0,4,-696.519236734309,1403.03847346862,1426.43646939784,268.210052885139,792,357.8,2.34953619262603,15.416267127906
43,7.34024738952306,0.977186922166104,0.977102637395782,0.433234194168385,11593.8729906921,0,4,-473.283829275633,956.567658551266,980.089730326086,152.405796001345,812,357.8,2.34953619262603,15.416267127906
44,6.98296056910245,0.635189611006421,0.633669567718947,1.7592774662246,417.87600145407,3.77612326827781e-157,4,-1434.29586534872,2878.59173069743,2901.51568765936,2228.44118627927,720,357.8,2.34953619262603,15.416267127906
45,7.6479019631149,0.986266965536541,0.98620974455961,0.331317590038614,17236.1084768701,0,4,-225.519169726311,461.038339452621,483.96229641455,79.0353687376765,720,357.8,2.34953619262603,15.416267127906
46,7.5920735363275,0.986161199293842,0.986096126563249,0.333767715879651,15154.7536165116,0,4,-204.479268598801,418.958537197602,441.281478716052,71.0737666483255,638,357.8,2.34953619262603,15.416267127906
47,5.67415207840188,0.729700874124874,0.728231857136423,1.55364057751159,496.727321645152,2.48017582619046e-156,4,-1031.89671627006,2073.79343254013,2095.39727401138,1332.41707233798,552,357.8,2.34953619262603,15.416267127906
48,6.57554731454033,0.848293287151735,0.847610948113437,1.1179693441006,1243.21376843341,1.39309299186398e-272,4,-1024.92763390085,2059.8552678017,2082.39911348656,833.653588050605,667,357.8,2.34953619262603,15.416267127906
49,6.35372200981492,0.713291949720326,0.710820328597226,1.52575409220511,288.592755197652,4.9583347312778e-94,4,-646.170961858701,1302.3419237174,1321.66007959539,810.118091358459,348,357.8,2.34953619262603,15.416267127906
50,6.26262414338544,0.762531746006872,0.76053060903502,1.453605895502,381.049251866599,9.50329201305352e-111,4,-643.463703644797,1296.92740728959,1316.35792744684,752.21735539999,356,357.8,2.34953619262603,15.416267127906
51,6.38529995340934,0.735074077932521,0.730558295170007,1.49130199914639,162.778883881323,1.56868001173555e-50,4,-325.323300348672,660.646600697344,676.611384951795,391.420770867811,176,357.8,2.34953619262603,15.416267127906
52,7.18473394060541,0.721252050612326,0.699245633555405,1.53893287565283,32.7746242719449,1.23725775218614e-10,4,-75.5994137754039,161.198827550808,169.887175642225,89.9959470390733,38,357.8,2.34953619262603,15.416267127906
53,7.05186747960814,0.976554775078983,0.976457893984268,0.432999986016585,10079.9312595744,0,4,-422.796793898519,855.593587797038,878.55881046775,136.117005208403,726,357.8,2.34953619262603,15.416267127906
54,7.21287100907348,0.968443619939403,0.968295235707143,0.502921986265977,6526.5938650638,0,4,-467.692701960355,945.38540392071,967.70834543916,161.369674484079,638,357.8,2.34953619262603,15.416267127906
55,7.2120268747357,0.983118069057738,0.983048116305215,0.382357227548551,14054.0298072171,0,4,-331.082568975938,672.165137951877,695.11664319286,105.846663808037,724,357.8,2.34953619262603,15.416267127906
56,7.35322484691108,0.979243243424759,0.979165405587602,0.434191036954523,12580.5556679033,0,4,-468.06797481803,946.13594963606,969.583945981955,150.817485257315,800,357.8,2.34953619262603,15.416267127906
57,7.26387052674596,0.986914963664232,0.986861627918299,0.317997521677882,18503.8185251695,0,4,-200.182439231203,410.364878462405,433.398129393396,74.4261039118507,736,357.8,2.34953619262603,15.416267127906
58,7.42954264132554,0.870048485243049,0.869487543452732,1.03359801280579,1551.04950328299,2.14923164376349e-307,4,-1012.93139640733,2035.86279281465,2058.61104652582,742.485772192867,695,357.8,2.34953619262603,15.416267127906
59,7.25423301341264,0.435876901029405,0.433289180391925,2.2425424945193,168.440477969797,6.76117923923628e-81,4,-1463.06300504048,2936.12601008096,2958.57203473759,3288.96393318006,654,357.8,2.34953619262603,15.416267127906
60,6.07672895070271,0.446275871170356,0.443962260604216,2.08197972199894,192.891525350702,9.96211923235815e-92,4,-1551.92454466025,3113.84908932051,3136.75921501497,3112.271206101,718,357.8,2.34953619262603,15.416267127906
61,6.93012552214219,0.975847773328435,0.975750776434171,0.432107700161845,10060.6084425685,0,4,-433.468100891229,876.936201782457,900.043230041278,139.477647210752,747,357.8,2.34953619262603,15.416267127906
62,6.70858063697877,0.990272681288023,0.990232485756156,0.283087509912998,24636.3870628232,0,4,-112.560208701952,235.120417403905,258.085640074617,58.1805787831067,726,357.8,2.34953619262603,15.416267127906
63,6.96889566814449,0.982779898974662,0.982713497556826,0.383819767190107,14800.5860569038,0,4,-358.775525556083,727.551051112167,750.860324814893,114.613103447605,778,357.8,2.34953619262603,15.416267127906
64,7.06629875114527,0.989358926064675,0.989319269888519,0.297914231463273,24948.4196903026,0,4,-166.258047570382,342.516095140765,365.995089726057,71.4460758932239,805,357.8,2.34953619262603,15.416267127906
65,6.40448777617352,0.858752224029154,0.854471988393673,1.06038778589557,200.631997199101,6.23383614149412e-42,4,-150.150170036399,310.300340072797,323.473985013946,111.317803391175,99,357.8,2.34953619262603,15.416267127906
81,7.33458855188902,0.927196783588974,0.926865859878014,0.759495653100247,2801.84451244491,0,4,-757.502285907411,1525.00457181482,1547.4959825622,380.710207071593,660,357.8,2.34953619262603,15.416267127906
82,6.84636569786614,0.850953485740444,0.850208253169146,1.10324538632096,1141.86298145632,1.79136575745778e-247,4,-914.378959260054,1838.75791852011,1860.77578950978,730.290229463091,600,357.8,2.34953619262603,15.416267127906
83,7.25222676814857,0.890411058681343,0.889951244941544,0.939521417872349,1936.46031341173,0,4,-973.356648465158,1956.71329693032,1979.60260371892,631.130853668222,715,357.8,2.34953619262603,15.416267127906
84,6.79309656327373,0.956500401760816,0.956288896420917,0.568250446288043,4522.34634935712,0,4,-528.169487927711,1066.33897585542,1088.49563126509,199.234587508947,617,357.8,2.34953619262603,15.416267127906
85,6.61471836640787,0.980104543524531,0.98000965263514,0.408918256004463,10328.7528425907,0,4,-330.127821867495,670.25564373499,692.507995845711,105.177694118957,629,357.8,2.34953619262603,15.416267127906
86,6.78266126775572,0.981386198549868,0.981316916410476,0.379920775699762,14165.0677527346,0,4,-363.423305577379,736.846611154758,760.331782393091,116.337875421497,806,357.8,2.34953619262603,15.416267127906
87,7.02852081723241,0.975167530475444,0.975083636997321,0.442842496067696,11623.8777112079,0,4,-537.118002398438,1084.23600479688,1108.20333545978,174.145214975239,888,357.8,2.34953619262603,15.416267127906
88,6.88403132268247,0.947520333043184,0.947334454647824,0.667080591026444,5097.52804356256,0,4,-860.989380106437,1731.97876021287,1755.71082085574,376.912048140789,847,357.8,2.34953619262603,15.416267127906
89,7.36568894906221,0.968333425137795,0.968222444151128,0.508060562005728,8725.21910484282,0,4,-635.92949803262,1281.85899606524,1305.64365801148,220.955457673734,856,357.8,2.34953619262603,15.416267127906
90,6.75805764101257,0.938515523443339,0.938269257182097,0.67616803532992,3810.97889216126,0,4,-771.796197906831,1553.59239581366,1576.71272195266,342.445205789441,749,357.8,2.34953619262603,15.416267127906
91,6.6989642935619,0.974825827654533,0.974720053821149,0.468038211047032,9216.13405191291,0,4,-471.682841730302,953.365683460603,976.248031305844,156.408673638076,714,357.8,2.34953619262603,15.416267127906
92,6.72029557385972,0.968676634202423,0.968402668903902,0.503957503010471,3535.76397971396,1.60361249287798e-257,4,-252.573677424869,515.147354849737,534.393978749471,87.1127955403082,343,357.8,2.34953619262603,15.416267127906
93,6.81058712097443,0.966290310509091,0.965995473574768,0.512207852994833,3277.37199116004,4.71056081584897e-252,4,-258.208457899904,526.416915799809,545.663539699543,89.9884114416648,343,357.8,2.34953619262603,15.416267127906
94,7.44938671019618,0.922615217481206,0.921814685248253,0.774563400655273,1152.50227224183,9.37457935858453e-161,4,-340.050204506076,690.100409012152,708.518307848845,173.985053874052,290,357.8,2.34953619262603,15.416267127906
95,6.39664912882766,0.833102339558505,0.822217709529712,1.23870210319545,76.539334580477,6.58878660032814e-18,4,-79.5655934608573,169.131186921715,178.691301948855,70.581613421198,46,357.8,2.34953619262603,15.416267127906
96,5.92481686563249,0.892039696962742,0.891040064527212,0.89976937270536,892.367699623151,3.32929610814905e-156,4,-428.757232963078,867.514465926157,886.479533968077,262.305515394985,324,357.8,2.34953619262603,15.416267127906
97,5.02808508450135,0.830152093910983,0.82422716695439,1.22618759094111,140.111785342289,5.32256809638691e-33,4,-144.010546427785,298.02109285557,310.520141207222,129.304096703304,86,357.8,2.34953619262603,15.416267127906
98,6.17778213646052,0.946290602799143,0.945880607400663,0.653609280520905,2308.0517642583,4.39458686744846e-249,4,-392.485975949754,794.971951899508,814.891633302944,167.89160099214,393,357.8,2.34953619262603,15.416267127906
99,6.49001454279057,0.868308585508451,0.867810383435974,1.05940934989818,1742.88433042938,0,4,-1174.88506927541,2359.77013855081,2383.17441194476,890.02209932679,793,357.8,2.34953619262603,15.416267127906
100,6.93622997181356,0.757912069249164,0.755424864481176,1.44901982918722,304.724435641163,1.36805358110807e-89,4,-527.774824327649,1065.5496486553,1084.00144592692,613.100271890307,292,357.8,2.34953619262603,15.416267127906
101,NA,NA,NA,NA,NA,NA,NA,NA,NA,NA,NA,NA,357.8,2.34953619262603,15.416267127906
102,6.97397083701232,0.805201285309597,0.803425005236433,1.14518857046503,453.307615997169,1.78528132656173e-116,4,-515.639003976146,1041.27800795229,1060.31872040219,431.469307572912,329,357.8,2.34953619262603,15.416267127906
103,5.92532988809218,0.885862788674331,0.88412465855262,0.917193712825531,509.66425218064,1.51834338403435e-92,4,-265.812723515711,541.625447031421,558.141971571716,165.725128448796,197,357.8,2.34953619262603,15.416267127906
105,7.45529940623012,0.906233469930863,0.895814966589848,0.628544234132026,86.9830761932218,5.39763461544302e-14,4,-27.4509492215081,64.9018984430161,72.0718344654419,10.6668320650366,27,357.8,2.34953619262603,15.416267127906
106,7.99117144743386,0.910301897456801,0.906979745510756,0.871934508989418,274.009711849776,2.6791702399747e-42,4,-106.912704202734,223.825408405469,236.03866468792,61.581852825296,81,357.8,2.34953619262603,15.416267127906
107,5.63550444726852,0.822618802501852,0.817867520426009,1.23102931349614,173.136174483148,6.70939261725431e-42,4,-186.672249824353,383.344499648706,397.112450604238,169.72851511692,112,357.8,2.34953619262603,15.416267127906
111,6.25879778019673,0.936177643014715,0.935820428330096,0.737975644205161,2620.77031915104,9.67331127992577e-320,4,-600.143356765417,1210.28671353083,1231.74455922863,291.909915571852,536,357.8,2.34953619262603,15.416267127906
112,7.40457188869272,0.812705833756102,0.810706251910082,1.22452951556866,406.437893689432,7.45464088672131e-102,4,-460.111974025548,930.223948051096,948.48639395244,421.35178219417,281,357.8,2.34953619262603,15.416267127906
113,8.07499549464966,0.772412094324926,0.768660645330282,1.33492738183312,205.897000179849,3.01267688479813e-58,4,-315.631850840913,641.263701681826,657.392435050392,324.329662887745,182,357.8,2.34953619262603,15.416267127906
114,5.50869117304397,0.905013795085088,0.901538690027225,0.890434701290344,260.427751108543,8.4282695331742e-42,4,-110.000794139997,230.001588279995,242.273324761263,65.015664495486,82,357.8,2.34953619262603,15.416267127906
115,5.62755095416087,0.907130126183365,0.90215495437176,0.840010216657448,182.331416990933,7.27574638846278e-29,4,-72.6060523757936,155.212104751587,165.683827562698,39.514561188978,56,357.8,2.34953619262603,15.416267127906
116,6.27282203484837,0.969069372533296,0.968847382384014,0.526278237429028,4365.37105662201,4.98610323012421e-315,4,-325.89007174516,661.78014349032,682.0051700605,115.772951374007,418,357.8,2.34953619262603,15.416267127906
117,6.60641862576745,0.977082403388557,0.976939168409736,0.442520339684011,6821.53487526317,0,4,-290.167816291686,590.335632583372,611.246057116955,93.9956404963453,480,357.8,2.34953619262603,15.416267127906
118,6.29184448278715,0.943528597546589,0.942537871187757,0.661745359056427,952.360446591094,1.94628421541708e-106,4,-174.038002855059,358.076005710118,373.899935579736,74.8820833597951,171,357.8,2.34953619262603,15.416267127906
119,6.54235819307164,0.905527893944711,0.904306271883651,0.933463300357296,741.250443004566,1.58469499628268e-118,4,-316.602893831443,643.205787662886,660.524946688014,202.154066082433,232,357.8,2.34953619262603,15.416267127906
120,6.45332314030708,0.95104946667098,0.95013734493193,0.658063692633161,1042.67821492935,3.32720334614519e-105,4,-163.055379913812,336.110759827623,351.640487197126,69.7206995934805,161,357.8,2.34953619262603,15.416267127906
122,NA,NA,NA,NA,NA,NA,NA,NA,NA,NA,NA,NA,357.8,2.34953619262603,15.416267127906
124,NA,NA,NA,NA,NA,NA,NA,NA,NA,NA,NA,NA,357.8,2.34953619262603,15.416267127906
125,NA,NA,NA,NA,NA,NA,NA,NA,NA,NA,NA,NA,357.8,2.34953619262603,15.416267127906
126,NA,NA,NA,NA,NA,NA,NA,NA,NA,NA,NA,NA,357.8,2.34953619262603,15.416267127906
127,NA,NA,NA,NA,NA,NA,NA,NA,NA,NA,NA,NA,357.8,2.34953619262603,15.416267127906
129,NA,NA,NA,NA,NA,NA,NA,NA,NA,NA,NA,NA,357.8,2.34953619262603,15.416267127906
130,NA,NA,NA,NA,NA,NA,NA,NA,NA,NA,NA,NA,357.8,2.34953619262603,15.416267127906
