"Age","power_predict","r.squared","adj.r.squared","sigma","statistic","p.value","df","logLik","AIC","BIC","deviance","df.residual","GHI","Wind_speed","Ambient_temp"
0,NA,NA,NA,NA,NA,NA,NA,NA,NA,NA,NA,NA,390.956488635,1.3264235428151,12.5111809355095
1,27.2180802261839,0.961871112113962,0.961661228327434,1.84611596851486,4582.87478048082,0,4,-1113.57302480625,2237.14604961251,2258.68654182005,1857.43857221704,545,390.956488635,1.3264235428151,12.5111809355095
2,27.2155431651706,0.960739696811846,0.960567502499617,1.92612110757131,5579.39274751175,0,4,-1425.21351018739,2860.42702037479,2883.09596456445,2537.6006843857,684,390.956488635,1.3264235428151,12.5111809355095
3,28.7944269693196,0.964573350957183,0.964352394726147,1.96460284383523,4365.44987409209,0,4,-1013.69259880395,2037.38519760789,2058.30594206258,1856.49854465664,481,390.956488635,1.3264235428151,12.5111809355095
4,29.755349223367,0.979046247978284,0.978874025358928,1.77991462004868,5684.77155693054,6.45182631153639e-306,4,-734.33003111498,1478.66006222996,1498.21404545016,1156.35505995201,365,390.956488635,1.3264235428151,12.5111809355095
5,30.5597879205054,0.985754234163714,0.9856194161905,1.60204632709769,7311.74197818962,3.23294685768756e-292,4,-604.748150655349,1219.4963013107,1238.35350692635,813.597121631003,317,390.956488635,1.3264235428151,12.5111809355095
6,30.796578613944,0.982876064276817,0.982745347210227,1.69381488388397,7519.11047212962,0,4,-770.520829079804,1551.04165815961,1570.96133956304,1127.52048232068,393,390.956488635,1.3264235428151,12.5111809355095
7,28.9145534095411,0.992996920044134,0.992716796845899,0.850520911102385,3544.85785647892,1.09806947818909e-80,4,-97.2531382668691,204.506276533738,216.353515796073,54.2539365166824,75,390.956488635,1.3264235428151,12.5111809355095
8,30.2049774617713,0.99498986718654,0.994594330385477,0.760730120043005,2515.5430910941,9.91643397349837e-44,4,-46.0076476158488,102.015295231698,110.703643323114,21.9909919905445,38,390.956488635,1.3264235428151,12.5111809355095
9,22.1023848956764,0.979202378842854,0.97802515500377,1.27571208079565,831.789457818825,1.55995964827334e-44,4,-92.685612290377,195.371224580754,205.586480919927,86.2543895936616,53,390.956488635,1.3264235428151,12.5111809355095
10,25.2075738202449,0.981251224258254,0.980831475547618,1.58499345926398,2337.71110999058,1.79080196119883e-115,4,-257.34403823594,524.68807647188,539.324344897666,336.635371631888,134,390.956488635,1.3264235428151,12.5111809355095
11,22.2653630748031,0.975355467857132,0.975036788562182,1.54805106463839,3060.61762816279,3.31359463793615e-186,4,-435.983586559271,881.967173118542,899.28633214367,555.979206904905,232,390.956488635,1.3264235428151,12.5111809355095
12,22.6120155191546,0.948942649669405,0.948563510929327,2.05303520681987,2502.89023346043,1.66872323757001e-260,4,-870.399322108824,1750.79864421765,1770.85498008967,1702.84123841853,404,390.956488635,1.3264235428151,12.5111809355095
13,22.1876649830897,0.955651238536655,0.955462520402768,1.89322527981565,5063.90784422988,0,4,-1456.5636041722,2923.12720834439,2945.94648597705,2526.9328818938,705,390.956488635,1.3264235428151,12.5111809355095
14,22.0303154689969,0.962214284030142,0.962066491138473,1.67354649727528,6510.5586146172,0,4,-1489.01901785873,2988.03803571747,3011.27647758529,2148.18129284198,767,390.956488635,1.3264235428151,12.5111809355095
15,23.0750899755977,0.976223280722099,0.976118844180614,1.60921714951559,9347.52594109843,0,4,-1299.6436783028,2609.28735660559,2631.94902806671,1768.68302682355,683,390.956488635,1.3264235428151,12.5111809355095
16,24.0523804945877,0.969234687844929,0.969025873509035,1.67188856344823,4641.60989567437,0,4,-860.060986460704,1730.12197292141,1750.62356768151,1235.48342491634,442,390.956488635,1.3264235428151,12.5111809355095
17,23.5593058489191,0.983318129504488,0.983120320763434,1.23498872983579,4971.05499113672,1.64104532292528e-224,4,-416.894369436663,843.788738873326,861.534119297802,385.87488219382,253,390.956488635,1.3264235428151,12.5111809355095
18,23.5853113567437,0.987050533375477,0.986890002797487,1.06618486760961,6148.67613220215,4.72999412920529e-228,4,-362.807776756132,735.615553512264,753.142211191926,275.093541604571,242,390.956488635,1.3264235428151,12.5111809355095
19,22.224900117003,0.992564683043189,0.992450293551546,0.739618308417377,8677.06175440299,3.15295598151615e-207,4,-220.325810091988,450.651620183976,467.118144307599,106.671872218505,195,390.956488635,1.3264235428151,12.5111809355095
20,21.5534550485061,0.991950254353713,0.99177775980415,0.660782702159753,5750.61795787225,2.400714144059e-146,4,-142.635291909741,295.270583819481,310.119650317361,61.1287291262962,140,390.956488635,1.3264235428151,12.5111809355095
21,21.2202832649985,0.989458242164839,0.98912881223249,0.851260648954907,3003.54686992214,9.86317787950909e-95,4,-123.749062413338,257.498124826677,270.523975756617,69.5658904760764,96,390.956488635,1.3264235428151,12.5111809355095
22,19.3300910822367,0.981786314080399,0.981275649989195,0.953029651184209,1922.56775244577,7.0311155311084e-93,4,-150.125123211073,310.250246422145,323.797897428707,97.1844102158835,107,390.956488635,1.3264235428151,12.5111809355095
23,21.9910189679794,0.928763309446373,0.927791900029732,2.22445911474934,956.098729883133,7.18027123624853e-126,4,-494.915248133511,999.830496267022,1016.8887265263,1088.60803770211,220,390.956488635,1.3264235428151,12.5111809355095
24,22.7631761878988,0.967379389413659,0.967162400873173,1.82065126046054,4458.20496902083,0,4,-916.241583520581,1842.48316704116,1863.08465413592,1494.96172650967,451,390.956488635,1.3264235428151,12.5111809355095
25,21.231658505355,0.961510251444782,0.961354000774057,1.86918738286173,6153.63919389529,0,4,-1517.01523706873,3044.03047413746,3067.08395436105,2581.96362799236,739,390.956488635,1.3264235428151,12.5111809355095
26,21.142014866427,0.960277772129108,0.960107290464426,1.57304735296022,5632.73343160195,0,4,-1313.97743050326,2637.95486100653,2660.73164546558,1729.66010428396,699,390.956488635,1.3264235428151,12.5111809355095
27,22.1300570201266,0.963724179865478,0.963570033320997,1.56998408090125,6251.99989471353,0,4,-1325.69719414925,2661.3943882985,2684.22071314867,1740.18411008405,706,390.956488635,1.3264235428151,12.5111809355095
28,23.766669081886,0.976782773366215,0.976618887060564,1.13937404560784,5960.12442583682,0,4,-662.690751726419,1335.38150345284,1355.68878804748,551.723616717028,425,390.956488635,1.3264235428151,12.5111809355095
29,24.4574425730551,0.979731519901306,0.979550011124303,1.41691099930563,5397.70878343741,3.5773477728692e-283,4,-597.142701378569,1204.28540275714,1223.41540329404,672.558321284349,335,390.956488635,1.3264235428151,12.5111809355095
30,24.4476078189618,0.986317384974493,0.986185821368479,1.36143015761767,7496.88621993122,2.45170074069767e-290,4,-543.869102269609,1097.73820453922,1116.51691560715,578.289527110109,312,390.956488635,1.3264235428151,12.5111809355095
31,24.4726852466473,0.95779296939311,0.957254156236426,1.96217795280585,1777.59759113558,3.64994724303802e-161,4,-498.208542478171,1006.41708495634,1023.799402716,904.783444842183,235,390.956488635,1.3264235428151,12.5111809355095
32,23.8759350451961,0.987855480112012,0.98767511595526,1.22541278172337,5477.00550874239,3.76713507601483e-193,4,-332.15688218041,674.31376436082,690.953145204767,303.330570093421,202,390.956488635,1.3264235428151,12.5111809355095
33,22.0272120644101,0.994390451624903,0.994153428454124,0.814085642821702,4195.33013737751,8.27687931440932e-80,4,-88.9383531566119,187.876706313224,199.464146880905,47.0542158032381,71,390.956488635,1.3264235428151,12.5111809355095
34,20.7701693608793,0.983132509312846,0.982710822045668,1.09326816797396,2331.42564604848,3.6612203918821e-106,4,-184.972678758965,379.945357517931,394.046765345956,143.428234452616,120,390.956488635,1.3264235428151,12.5111809355095
35,18.4382695052455,0.975052384079079,0.974676289366703,1.17784050843731,2592.57137097175,3.5641631473237e-159,4,-319.252139978911,648.504279957822,665.070309853031,276.074344399858,199,390.956488635,1.3264235428151,12.5111809355095
36,17.6614939805315,0.961559957089551,0.961170362060054,1.27859928243496,2468.10119299791,4.7669668190253e-209,4,-497.397657353226,1004.79531470645,1023.31422707973,483.905573012782,296,390.956488635,1.3264235428151,12.5111809355095
37,17.5309031340984,0.933170063054447,0.932746194532594,2.00807539581237,2201.55547048902,2.1416958792885e-277,4,-1007.37855661372,2024.75711322745,2045.59469568189,1907.3094941613,473,390.956488635,1.3264235428151,12.5111809355095
38,20.9534710784643,0.952913279696949,0.952649734620626,1.78020440997871,3615.75064498223,0,4,-1075.6525889187,2161.30517783739,2182.76302353518,1698.65246934089,536,390.956488635,1.3264235428151,12.5111809355095
39,21.7745915206552,0.957348790756803,0.957168827848604,1.81157932504766,5319.70060017829,0,4,-1437.38773525269,2884.77547050539,2907.63688321886,2333.37377181843,711,390.956488635,1.3264235428151,12.5111809355095
40,22.5403442771198,0.974509249399226,0.974354447270072,1.84343194661343,6295.19280336667,0,4,-1009.21456743812,2028.42913487623,2049.48213526136,1678.73122284671,494,390.956488635,1.3264235428151,12.5111809355095
41,23.4169854243525,0.985271770474224,0.985216539613502,0.792790437137696,17839.1529228475,0,4,-952.135717035438,1914.27143407088,1937.71943041677,502.813341773584,800,390.956488635,1.3264235428151,12.5111809355095
42,21.7750397491844,1,1,1.65387534252497e-11,2.50412353168073e+24,0,2,24718.1342821537,-49430.2685643074,-49415.3818339146,2.88301004563713e-19,1054,390.956488635,1.3264235428151,12.5111809355095
43,21.7750397491851,1,1,1.64134149993997e-11,3.97212756493251e+23,0,2,11239.7142144962,-22473.4284289923,-22460.9070706806,1.28773291748524e-19,478,390.956488635,1.3264235428151,12.5111809355095
44,21.7750397491838,1,1,1.6477490376194e-11,1.8608039501804e+24,0,2,8990.47615673368,-17974.9523134674,-17963.1003858096,1.0371593723527e-19,382,390.956488635,1.3264235428151,12.5111809355095
45,21.7750397491839,1,1,1.63870366945883e-11,3.67512709570263e+24,0,2,26975.7628598726,-53945.5257197453,-53930.3779552215,3.08815217374252e-19,1150,390.956488635,1.3264235428151,12.5111809355095
46,21.7750397491866,1,1,1.65253474404909e-11,1.98569108508251e+24,0,2,13483.5415512492,-26961.0831024985,-26948.0147795164,1.56752000008611e-19,574,390.956488635,1.3264235428151,12.5111809355095
47,17.6538265007412,0.998878390224613,0.998872517922124,0.34023930185803,170099.955189034,0,4,-194.653360913028,399.306721826056,421.095933158597,66.3320743890252,573,390.956488635,1.3264235428151,12.5111809355095
48,18.363030245774,0.962934974333993,0.962571591729425,1.38858183200673,2649.92039307144,1.54615969481678e-218,4,-539.625648075007,1089.25129615001,1107.93415763741,590.016808278825,306,390.956488635,1.3264235428151,12.5111809355095
49,19.9932650067304,0.957460441838166,0.957238881639406,1.68417431501836,4321.44603226884,0,4,-1123.31716614148,2256.63433228295,2278.44947280066,1633.79123905971,576,390.956488635,1.3264235428151,12.5111809355095
50,20.1760319768873,0.937075918811887,0.93680777642046,2.02136428056731,3494.69516485732,0,4,-1500.87386068344,3011.74772136687,3034.55994183534,2876.48314254639,704,390.956488635,1.3264235428151,12.5111809355095
51,19.9501396464855,0.965717759769049,0.96558488286893,1.64934551776198,7267.76255991213,0,4,-1491.22353423868,2992.44706847736,3015.73070109825,2105.54365300823,774,390.956488635,1.3264235428151,12.5111809355095
52,21.4673015227896,0.975071599084655,0.974947782523817,1.38689710567949,7875.13069727359,0,4,-1059.5659441404,2129.13188828081,2151.18276269064,1161.78408337226,604,390.956488635,1.3264235428151,12.5111809355095
53,21.8354211291168,0.984774819082471,0.984645426610084,1.3811664957549,7610.75819107652,2.48712646116484e-320,4,-619.835216584278,1249.67043316856,1269.05911207745,673.390173815538,353,390.956488635,1.3264235428151,12.5111809355095
54,22.5282981725638,0.982960128066494,0.982806153320107,1.27308690924321,6383.90483589607,3.82991292274776e-293,4,-555.876728779888,1121.75345755978,1140.83901335959,538.089092457494,332,390.956488635,1.3264235428151,12.5111809355095
55,23.313312790173,0.986387732640949,0.986193271678677,1.03246431756579,5072.4203002785,1.33151896226588e-195,4,-308.470894288707,626.941788577413,643.771668652523,223.856339079784,210,390.956488635,1.3264235428151,12.5111809355095
56,23.4562547965347,0.98641763334113,0.986179346206764,0.875082345144229,4139.61767581392,2.43669677151406e-159,4,-222.939506331156,455.879012662312,471.70294253193,130.946517943914,171,390.956488635,1.3264235428151,12.5111809355095
57,20.64570141316,0.990463473921441,0.990174488282696,0.71670122723484,3427.37956884447,7.59978565638096e-100,4,-109.801887272992,229.603774545984,242.777419487132,50.8524042628726,99,390.956488635,1.3264235428151,12.5111809355095
58,19.1002419520193,0.945910913865661,0.944422223421596,1.08001655932025,635.397988639708,7.34932899579371e-69,4,-167.002128071472,344.004256142943,357.641195236505,127.141498756248,109,390.956488635,1.3264235428151,12.5111809355095
59,16.5528842412185,0.960003349253498,0.959313751826834,1.07332302957602,1392.12142060602,2.46248780289165e-121,4,-263.143430414675,536.286860829349,552.19577858081,200.451884692374,174,390.956488635,1.3264235428151,12.5111809355095
60,18.1839785042295,0.844532849949097,0.843033166829635,2.87969665771149,563.140865552997,2.5866456219369e-125,4,-778.123593859034,1566.24718771807,1585.0100509122,2579.0150333752,311,390.956488635,1.3264235428151,12.5111809355095
61,19.9921352258016,0.948511984274262,0.948111818348932,1.87096854179398,2370.29673002038,3.49901803683356e-248,4,-795.69363195933,1601.38726391866,1621.21799761428,1351.20198777172,386,390.956488635,1.3264235428151,12.5111809355095
62,19.6995271059987,0.951600492664762,0.951407409523797,1.88807997287474,4928.44941256182,0,4,-1551.19590291723,3112.39180583446,3135.53201271536,2680.76417994594,752,390.956488635,1.3264235428151,12.5111809355095
63,20.0366287409023,0.951234001798952,0.951041757390801,1.86185978949388,4948.04510022622,0,4,-1558.9882752169,3127.97655043379,3151.17592960293,2638.02314743373,761,390.956488635,1.3264235428151,12.5111809355095
64,21.0677937755016,0.968273139174501,0.968121577737437,1.78929990007284,6388.6510838673,0,4,-1262.47583431426,2534.95166862851,2557.19611559925,2010.60111514762,628,390.956488635,1.3264235428151,12.5111809355095
65,21.7424206415086,0.974760977683065,0.97454708766343,1.52689875568297,4557.29995885869,2.18111278601391e-282,4,-657.488199989561,1324.97639997912,1344.37906491113,825.322612777596,354,390.956488635,1.3264235428151,12.5111809355095
66,21.7306351804868,0.98933536092993,0.989233143942038,1.09218081410417,9678.77631039978,3.32668462860288e-308,4,-475.742722409164,961.485444818329,980.279953687715,373.364845308237,313,390.956488635,1.3264235428151,12.5111809355095
67,22.0528161205758,0.9887247079028,0.988565900971854,1.03196469608271,6225.95438379229,4.1383373209322e-207,4,-312.718786049439,635.437572098878,652.33705886658,226.834591533708,213,390.956488635,1.3264235428151,12.5111809355095
68,22.2310727602348,0.96628574845213,0.965815317035183,1.23366240778191,2054.04170223806,6.34228705861648e-158,4,-354.716269877282,719.432539754565,736.377898403647,327.213431320467,215,390.956488635,1.3264235428151,12.5111809355095
69,19.823788749467,0.991537194338679,0.991389587263191,0.614854398588723,6717.40965708815,6.10945048873048e-178,4,-162.109021293947,334.218042587894,350.070462563085,65.0239002117909,172,390.956488635,1.3264235428151,12.5111809355095
70,18.6801334784752,0.977845622926959,0.977330404855493,1.10524677153376,1897.92570773861,1.72622614319867e-106,4,-199.99726092755,409.994521855099,424.446267496208,157.582584952167,129,390.956488635,1.3264235428151,12.5111809355095
71,20.2978988836062,0.992451322530535,0.992294058416587,0.726769563714508,6310.72975023268,1.54330831009826e-152,4,-160.74179739782,331.483594795641,346.469656164461,76.0599358188158,144,390.956488635,1.3264235428151,12.5111809355095
72,19.1374870716356,0.981671863731593,0.98143887894852,1.22814811872513,4213.45914005093,1.36065992316934e-204,4,-387.850179444487,785.700358888973,803.103553505683,355.970081160628,236,390.956488635,1.3264235428151,12.5111809355095
73,20.0210009958235,0.963230261853219,0.962957219243218,1.52730341761274,3527.76536178815,2.67257581072506e-289,4,-749.706566049098,1509.4131320982,1529.46946797022,942.392914698423,404,390.956488635,1.3264235428151,12.5111809355095
74,18.8751541437503,0.965166176152848,0.965017101300435,1.39940927511827,6474.372843781,0,4,-1235.26136246673,2480.52272493345,2503.31371394751,1372.80076982022,701,390.956488635,1.3264235428151,12.5111809355095
75,19.282695511635,0.957967490942544,0.957794517654241,1.7296772803813,5538.23946081426,0,4,-1439.71271144526,2889.42542289053,2912.41115139996,2181.01016732082,729,390.956488635,1.3264235428151,12.5111809355095
76,20.5058606207379,0.962492766074051,0.96232945446044,1.86429469120783,5893.59657156896,0,4,-1412.97638953475,2835.95277906949,2858.65792906544,2394.68474531366,689,390.956488635,1.3264235428151,12.5111809355095
77,22.0710845897711,0.982550948459481,0.982454544859809,1.33336350836138,10192.0566432043,0,4,-931.526501998779,1873.05300399756,1894.57524800967,965.377027268365,543,390.956488635,1.3264235428151,12.5111809355095
78,22.59858205081,0.978509627737521,0.978317749413749,1.56407926391089,5099.63610532452,9.51414201795372e-280,4,-632.508332659807,1275.01666531961,1294.16139340767,821.971565115469,336,390.956488635,1.3264235428151,12.5111809355095
79,22.0195082136248,0.992456745037711,0.992210769332419,0.851167579062354,4034.77548264161,1.7924377636955e-97,4,-118.705197731286,247.410395462572,260.232136419911,66.652734783512,92,390.956488635,1.3264235428151,12.5111809355095
82,37.0116387558922,0.710423404432979,0.697647966393258,8.02059287020839,55.6085358657859,2.82593292556761e-18,4,-250.010760196585,510.02152039317,521.40485098825,4374.43387929536,68,390.956488635,1.3264235428151,12.5111809355095
83,36.9381176026312,0.649273235288815,0.642818141459774,9.07206360254846,100.583082521258,6.80172085357385e-37,4,-603.206753032311,1216.41350606462,1232.00347512671,13415.2810954156,163,390.956488635,1.3264235428151,12.5111809355095
84,31.5957794600682,0.676357330998959,0.67250444208228,7.87639802443346,175.545505106837,1.94142657807209e-61,4,-889.583372950643,1789.16674590129,1806.89263312368,15633.4867515034,252,390.956488635,1.3264235428151,12.5111809355095
85,30.3991004088752,0.751836632567139,0.749762843981349,6.60254006301495,362.542564714116,2.98032492088959e-108,4,-1198.20954583332,2406.41909166664,2425.89110583796,15650.0791668546,359,390.956488635,1.3264235428151,12.5111809355095
86,31.2147630129822,0.647448569088793,0.645881673840299,10.1978876960116,413.204756164125,2.57402715848795e-152,4,-2538.21398412911,5086.42796825823,5109.03107389602,70197.9165858144,675,390.956488635,1.3264235428151,12.5111809355095
87,31.6211449437055,0.75455045639082,0.753632315953379,6.6612516724442,821.824663876056,4.65914883906417e-244,4,-2670.08324749676,5350.16649499351,5373.62691370605,35586.5636225998,802,390.956488635,1.3264235428151,12.5111809355095
88,35.7681278789705,0.694236939776424,0.692859628694336,8.31810168995646,504.052387877307,7.38611601030486e-171,4,-2368.03364780783,4746.06729561567,4768.60368417759,46081.0832724881,666,390.956488635,1.3264235428151,12.5111809355095
89,34.0222538583225,0.679848928847235,0.678022972167656,8.22263835151283,372.32478538547,1.22461252756266e-129,4,-1866.68213343964,3743.36426687927,3764.72865191201,35563.7970478388,526,390.956488635,1.3264235428151,12.5111809355095
90,34.0055106865557,0.629808991838853,0.627226263874938,9.57438396717616,243.854173044291,2.14380785443149e-92,4,-1594.25562858476,3198.51125716952,3218.87647984002,39417.5961908955,430,390.956488635,1.3264235428151,12.5111809355095
91,31.8488627038471,0.675978120210331,0.673583869867057,8.4530417932074,282.333934757271,5.87584245056004e-99,4,-1454.91078296369,2919.82156592739,2939.90235172588,29010.2897164307,406,390.956488635,1.3264235428151,12.5111809355095
92,32.8712170683102,0.626364181454282,0.621490670777598,8.32796661250426,128.524224734142,6.53611649904964e-49,4,-826.005246821062,1662.01049364212,1679.28709921891,15951.6564167667,230,390.956488635,1.3264235428151,12.5111809355095
93,32.3460602982042,0.737047536408323,0.729810312639745,5.34985238968604,101.841197671454,1.74610456100445e-31,4,-347.812591429854,705.625182859708,719.26212195327,3119.68034446581,109,390.956488635,1.3264235428151,12.5111809355095
94,35.3426511858703,0.721669033790492,0.715949904347831,5.7124522082959,126.185119785416,2.34220674973853e-40,4,-472.210888055009,954.421776110019,969.4749525805,4764.28809388144,146,390.956488635,1.3264235428151,12.5111809355095
95,27.0671890868101,0.684785599742575,0.678218633070545,6.64922544784843,104.277307003741,6.34086649686537e-36,4,-488.361434158076,986.722868316152,1001.70892968497,6366.55666410939,144,390.956488635,1.3264235428151,12.5111809355095
96,35.412728532698,0.632715942866613,0.625914386253032,8.79595877987224,93.025167445231,4.74243937828287e-35,4,-594.451842052706,1198.90368410541,1214.4636230472,12533.7603188683,162,390.956488635,1.3264235428151,12.5111809355095
97,37.7168206592513,0.692299145232397,0.68930205898466,9.32383514621519,230.990731666554,1.7372372136812e-78,4,-1137.25899181996,2284.51798363992,2303.23299957897,26775.6417648097,308,390.956488635,1.3264235428151,12.5111809355095
98,37.3920709447292,0.521071393090079,0.51883340894564,14.4300966830269,232.830690237407,3.40566154902481e-102,4,-2639.00625791615,5288.0125158323,5310.36651335121,133682.177160726,642,390.956488635,1.3264235428151,12.5111809355095
99,45.7260699970364,0.700537919144902,0.699258166662616,12.8568158382975,547.401102042121,2.78314993326808e-183,4,-2802.80002205209,5615.60004410418,5638.39812029164,116038.994876928,702,390.956488635,1.3264235428151,12.5111809355095
100,39.9710880492662,0.685452200649898,0.684060396227995,10.8993191168844,492.491753771435,8.95552286122533e-170,4,-2594.80381039185,5199.60762078369,5222.23276907291,80543.1165895205,678,390.956488635,1.3264235428151,12.5111809355095
101,34.6925462914076,0.483646930089245,0.481012475650924,14.3489636794847,183.585232317639,5.4522838333624e-84,4,-2414.90203581656,4839.80407163312,4861.72160480754,121064.942101,588,390.956488635,1.3264235428151,12.5111809355095
102,44.0211989368233,0.559459266561253,0.556821298097548,12.8884323963816,212.079588614749,8.82229134171461e-89,4,-2005.50274518877,4021.00549037754,4042.12828252392,83221.9565076853,501,390.956488635,1.3264235428151,12.5111809355095
103,45.3995874932745,0.47519508031688,0.469449041050276,15.6575884722536,82.6995880586399,3.99831218908316e-38,4,-1157.21606488846,2324.43212977691,2342.57023534537,67173.8610340067,274,390.956488635,1.3264235428151,12.5111809355095
104,42.8408387605957,0.545390314243355,0.542372993320192,11.8131908059721,180.753167505805,5.31765820102822e-77,4,-1770.98999562348,3551.97999124696,3572.59245529453,63077.2676122734,452,390.956488635,1.3264235428151,12.5111809355095
105,36.6855836471498,0.543713693865506,0.535846688587326,9.24426892197156,69.1131726291696,1.76798180512579e-29,4,-646.420918028371,1302.84183605674,1318.7507538082,14869.4323749009,174,390.956488635,1.3264235428151,12.5111809355095
106,40.951060563534,0.621949069083592,0.614127325685321,7.9562892147753,79.5154017991836,1.80268590144907e-30,4,-518.414949569689,1046.82989913938,1061.8496306691,9178.86802002671,145,390.956488635,1.3264235428151,12.5111809355095
107,35.7033349460939,0.473010974967335,0.461471069309685,10.2024979411,40.9891544177213,5.71412830719833e-19,4,-525.53261087678,1061.06522175356,1075.80902120545,14260.4621006264,137,390.956488635,1.3264235428151,12.5111809355095
108,28.7249513284349,0.538201642073182,0.529542922862054,9.13260489656481,62.157188488282,1.07145273378232e-26,4,-593.424683587083,1196.84936717417,1212.34869931329,13344.7155514815,160,390.956488635,1.3264235428151,12.5111809355095
109,38.7273409635517,0.593887068761872,0.589931423327735,10.6204231739698,150.136577873378,5.84369426879551e-60,4,-1177.8828961213,2365.76579224259,2384.48080818164,34740.3636254122,308,390.956488635,1.3264235428151,12.5111809355095
110,42.4522058720356,0.586762146604801,0.584765828472457,13.5475915765825,293.922164557941,1.0324310509954e-118,4,-2513.71064837815,5037.4212967563,5059.61005500498,113976.624503577,621,390.956488635,1.3264235428151,12.5111809355095
111,47.0833206540909,0.407612658301223,0.405399505094378,20.2303945231531,184.17733442067,7.27487420303833e-91,4,-3569.87764859726,7149.75529719453,7173.22191553588,328642.896637627,803,390.956488635,1.3264235428151,12.5111809355095
112,37.0234412058173,0.59388079123585,0.59182275470495,13.2658190320611,288.566690784789,2.17492632407789e-115,4,-2384.45429899709,4778.90859799417,4800.8598013295,104181.317118106,592,390.956488635,1.3264235428151,12.5111809355095
113,34.3528760093216,0.510181305738351,0.507489994231419,12.1993404657291,189.566055220383,3.20188428265219e-84,4,-2154.1689246306,4318.33784926119,4339.88744065233,81257.8536581309,546,390.956488635,1.3264235428151,12.5111809355095
114,34.234074406855,0.443202633835435,0.440464286132986,13.2441667975725,161.850386435263,3.60550296947731e-77,4,-2455.525845573,4921.051691146,4943.15166578674,106998.852038772,610,390.956488635,1.3264235428151,12.5111809355095
115,42.1962096503374,0.377206978590116,0.371493281145989,16.1079710221599,66.0180176284649,2.11768963285257e-33,4,-1387.60948641852,2785.21897283703,2804.22956471392,84845.6208573928,327,390.956488635,1.3264235428151,12.5111809355095
116,37.047893618977,0.420689514862622,0.404137786715839,12.3895311620071,25.4166520336673,1.93166718666693e-12,4,-426.963531804785,863.92706360957,877.383803020716,16117.5506535062,105,390.956488635,1.3264235428151,12.5111809355095
117,31.1944555513366,0.755939884605476,0.749283699640171,5.11004446926273,113.569542995837,1.50797657147182e-33,4,-345.680786226849,701.361572453698,715.042564695671,2872.38099256269,110,390.956488635,1.3264235428151,12.5111809355095
118,35.8507006349787,0.636137590859159,0.628450356863225,6.86210938442547,82.7524687287639,5.13332072900097e-31,4,-486.335290865411,982.670581730823,997.588614839365,6686.57341894245,142,390.956488635,1.3264235428151,12.5111809355095
119,31.6380126951238,0.548675967625237,0.535530607458982,8.3382486083673,41.7391353820578,9.78763924137335e-18,4,-376.719373178826,763.438746357652,776.802890529962,7161.21815505875,103,390.956488635,1.3264235428151,12.5111809355095
120,25.6524753980668,0.533634823186128,0.52581864703841,7.17697765396604,68.2731316568259,1.76551291163146e-29,4,-618.314308769146,1246.62861753829,1262.6760483025,9220.1124759495,179,390.956488635,1.3264235428151,12.5111809355095
121,23.963500336978,0.698663748852212,0.695599312399862,5.291237034783,227.99094049294,1.66262705953135e-76,4,-920.398689677748,1850.7973793555,1869.29959722245,8259.17086068646,295,390.956488635,1.3264235428151,12.5111809355095
122,26.4742163910055,0.574162820283234,0.571163966904947,8.10506347156987,191.460784458622,1.33831489409941e-78,4,-1507.90447297535,3025.80894595069,3046.12787199413,27984.8149521031,426,390.956488635,1.3264235428151,12.5111809355095
123,45.174125139166,0.62241154146087,0.618780883205686,13.4661506873858,171.432147482395,1.15572235577431e-65,4,-1268.02843138573,2546.05686277147,2564.8355738394,56577.2108726387,312,390.956488635,1.3264235428151,12.5111809355095
124,34.6496651815596,0.483857098187315,0.481552888804223,12.5905360476949,209.988337751649,4.46539085251298e-96,4,-2669.46761474128,5348.93522948256,5371.51619486277,106526.513834701,672,390.956488635,1.3264235428151,12.5111809355095
125,30.9522265737803,0.469387963970176,0.465786524811603,11.3877935438117,130.333442633,1.72978833547426e-60,4,-1715.75131304145,3441.50262608291,3462.00422084301,57319.3740740437,442,390.956488635,1.3264235428151,12.5111809355095
126,30.7036198978686,0.521900700233412,0.517347373568969,9.62722097518854,114.619648159414,3.43773772216156e-50,4,-1173.03442583824,2356.06885167647,2374.89480719039,29195.2658671097,315,390.956488635,1.3264235428151,12.5111809355095
127,26.2583250194066,0.59779717038325,0.59270599532481,7.71347087998083,117.418309824616,1.27916351193046e-46,4,-832.302754951367,1674.60550990273,1692.02949457019,14100.939024866,237,390.956488635,1.3264235428151,12.5111809355095
128,23.2322374646669,0.572441581836599,0.565235541081036,6.64965688608706,79.4391263183857,1.17010783129195e-32,4,-601.035384417072,1212.07076883414,1228.09080226953,7870.79273307794,178,390.956488635,1.3264235428151,12.5111809355095
129,20.8012970201784,0.60963384148752,0.603127738845645,4.42945359081285,93.7018481023932,1.43856093989777e-36,4,-532.905457658852,1075.8109153177,1091.88559410575,3531.61064036968,180,390.956488635,1.3264235428151,12.5111809355095
130,29.1782619465679,0.528560667575961,0.513352947175186,6.17496229687314,34.7560747861336,3.71132518141123e-15,4,-312.183400023781,634.366800047563,647.24035494008,3546.10482120584,93,390.956488635,1.3264235428151,12.5111809355095
131,22.6937197638625,0.479751528363973,0.468760363470254,6.07311408884575,43.6488336771416,4.73236139376739e-20,4,-468.502357103243,947.004714206485,961.922747315027,5237.34549253141,142,390.956488635,1.3264235428151,12.5111809355095
132,22.2811191555221,0.422652713317728,0.371710305669293,5.83389058510383,8.29667722488783,0.000281937318570135,4,-118.826373624484,247.652747248968,255.8406780476,1157.16549820475,34,390.956488635,1.3264235428151,12.5111809355095
