"Age","power_predict","r.squared","adj.r.squared","sigma","statistic","p.value","df","logLik","AIC","BIC","deviance","df.residual","GHI","Wind_speed","Ambient_temp"
0,133.642358420056,0.979757865179813,0.978377719623891,8.64737962738919,709.894591172595,2.91307767499638e-37,4,-169.569080952494,349.138161904988,358.494166959528,3290.19567448817,44,602.8,1.21604795636394,24.5407907661745
1,128.333358387502,0.975625472990997,0.975572561572019,10.2692634923088,18438.845372952,0,4,-5192.85517080452,10395.710341609,10421.8812275078,145742.641836114,1382,602.8,1.21604795636394,24.5407907661745
2,133.723495621306,0.980770697228014,0.980732719671519,8.84530572587974,25825.0079189864,0,4,-5479.00849133959,10968.0169826792,10994.6591694437,118845.699310723,1519,602.8,1.21604795636394,24.5407907661745
3,128.480155734244,0.987058190314666,0.987032409817284,6.69529097896704,38287.011135658,0,4,-5011.71523634278,10033.4304726856,10060.0297973346,67509.3434673143,1506,602.8,1.21604795636394,24.5407907661745
4,121.215521974231,0.988188954402564,0.988163983904473,5.98329363611725,39574.2588220891,0,4,-4562.8527221725,9135.705444345,9162.00805733545,50799.9200823857,1419,602.8,1.21604795636394,24.5407907661745
5,119.668373118596,0.983352882354665,0.983314932998331,6.45761542187706,25912.2414011688,0,4,-4333.1391856712,8676.2783713424,8702.2053064203,54878.2487689136,1316,602.8,1.21604795636394,24.5407907661745
6,137.070764692289,0.981646984756394,0.98160222130458,7.12032549939269,21929.6534333963,0,4,-4171.2514471444,8352.5028942888,8378.09297531113,62359.8133172811,1230,602.8,1.21604795636394,24.5407907661745
7,131.66716719407,0.986868517308087,0.986832275865515,4.93356098595873,27230.387293446,0,4,-3287.36085557111,6584.72171114223,6609.69596107139,26457.6060903632,1087,602.8,1.21604795636394,24.5407907661745
8,149.609103745156,0.96953136918506,0.969436154713763,7.39940197385514,10182.6051857601,0,4,-3295.2013971446,6600.40279428919,6624.75825076225,52561.1035878637,960,602.8,1.21604795636394,24.5407907661745
9,150.602938272464,0.98291233872678,0.982860242198508,5.87954967293555,18867.1370497992,0,4,-3150.12962193189,6310.25924386377,6334.73765735251,34015.9986868123,984,602.8,1.21604795636394,24.5407907661745
10,146.701351916954,0.988894685763607,0.988855765269788,5.86302103864085,25408.0713970142,0,4,-2739.33437838181,5488.66875676362,5512.45341870986,29425.0134388107,856,602.8,1.21604795636394,24.5407907661745
11,141.858874646181,0.981756480572635,0.981710680942274,7.92901843864963,21435.9040197863,0,4,-4181.8685282196,8373.7370564392,8399.18327221434,75128.8534135327,1195,602.8,1.21604795636394,24.5407907661745
12,136.810662211415,0.974517845136362,0.974460538941017,10.3571464368172,17005.4535859652,0,4,-5024.3482646976,10058.6965293952,10084.6911855986,143098.823406442,1334,602.8,1.21604795636394,24.5407907661745
13,133.47470260252,0.981303282245858,0.98126361452785,8.63309397597815,24738.0825401511,0,4,-5066.69700388916,10143.3940077783,10169.6790213138,105385.860599671,1414,602.8,1.21604795636394,24.5407907661745
14,132.003649504175,0.987200803985425,0.987173318238793,7.10238794212901,35916.8269006147,0,4,-4732.49393585729,9474.98787171457,9501.21257944626,70470.1485292578,1397,602.8,1.21604795636394,24.5407907661745
15,129.06375338112,0.97745291927399,0.977407308186884,8.99996468154865,21430.160544186,0,4,-5375.22601515627,10760.4520303125,10786.9746100448,120122.05721111,1483,602.8,1.21604795636394,24.5407907661745
16,123.81579971209,0.985865862832329,0.985836579398971,6.62446495998894,33666.3345026916,0,4,-4803.69346092725,9617.38692185451,9643.79040783143,63543.3601368636,1448,602.8,1.21604795636394,24.5407907661745
17,120.99841954434,0.985325981677088,0.985280691497079,6.03714105948254,21755.8415860022,0,4,-3137.6601306119,6285.32026122381,6309.73757415587,35426.5541512714,972,602.8,1.21604795636394,24.5407907661745
18,117.98019167867,0.990893194549301,0.990870389527304,4.26251357487353,43450.6572583356,0,4,-3446.29133256915,6902.58266513829,6928.04137571377,21766.4883272254,1198,602.8,1.21604795636394,24.5407907661745
19,123.592699933701,0.984116538296224,0.984074031262227,5.11474378293909,23151.8514877193,0,4,-3430.44550604077,6870.89101208155,6896.01870365474,29326.0370448929,1121,602.8,1.21604795636394,24.5407907661745
20,130.038983387436,0.960811076865848,0.960691233064215,7.49409208955322,8017.19457969313,0,4,-3379.55364716812,6769.10729433624,6793.5705025421,55094.3493380167,981,602.8,1.21604795636394,24.5407907661745
21,148.828718226216,0.984025107535085,0.983977038651038,4.97685843382494,20471.1452542832,0,4,-3024.75711930601,6059.51423861202,6084.0580125086,24694.8125107234,997,602.8,1.21604795636394,24.5407907661745
22,148.016160728705,0.988730653709595,0.988695655739749,5.40387278570827,28251.0859361523,0,4,-3010.86864480996,6031.73728961991,6056.1237699774,28208.9784872584,966,602.8,1.21604795636394,24.5407907661745
23,142.51645916321,0.984886240739181,0.984847783336482,7.09887182980778,25609.7960759456,0,4,-3995.20503509809,8000.41007019618,8025.78911451607,59414.5039008693,1179,602.8,1.21604795636394,24.5407907661745
24,136.404066581313,0.98373566591362,0.983699307491668,7.83673179782126,27056.6106312664,0,4,-4679.06254513786,9368.12509027573,9394.14955282675,82418.0781936589,1342,602.8,1.21604795636394,24.5407907661745
25,134.071866964331,0.978940267787637,0.978896240472907,9.37468731490941,22234.839299153,0,4,-5260.35078543566,10530.7015708713,10557.0600894058,126114.633832084,1435,602.8,1.21604795636394,24.5407907661745
26,131.407370717836,0.985789641438488,0.985760381949343,7.97176650065817,33691.2799996942,0,4,-5103.96528376981,10217.9305675396,10244.3649495984,92590.98208246,1457,602.8,1.21604795636394,24.5407907661745
27,125.989041124943,0.988169023679866,0.988144680107191,6.73465707663587,40592.604744811,0,4,-4860.90959060711,9731.81918121422,9758.25698441577,66128.4734603474,1458,602.8,1.21604795636394,24.5407907661745
28,110.399285842292,0.970430064483968,0.970369137419031,9.56421469852793,15927.7336843542,0,4,-5366.36912075477,10742.7382415095,10769.169200083,133186.439276127,1456,602.8,1.21604795636394,24.5407907661745
29,106.527160032518,0.992216644946253,0.992199361404313,4.55132319575817,57408.1775817665,0,4,-3974.05014862358,7958.10029724716,7984.15808091373,27985.3473663648,1351,602.8,1.21604795636394,24.5407907661745
30,112.707443695555,0.947894846811594,0.947767554092078,11.3798905404429,7446.57550265515,0,4,-4742.16552110613,9494.33104221225,9519.91301293272,159028.343898903,1228,602.8,1.21604795636394,24.5407907661745
31,136.167576526691,0.982501650530109,0.982451559835061,6.48394342732103,19614.4543332931,0,4,-3457.25350555482,6924.50701110963,6949.29925307612,44059.5154423972,1048,602.8,1.21604795636394,24.5407907661745
32,139.764770118244,0.988536029902144,0.988502045801064,4.7339397859717,29088.1911973374,0,4,-3019.27151855736,6048.54303711472,6073.16118025542,22679.1081279722,1012,602.8,1.21604795636394,24.5407907661745
33,141.622008118508,0.990668705953278,0.990636822260635,4.1994482618559,31071.3290665366,0,4,-2515.12791606449,5040.25583212899,5064.16679240902,15483.851088116,878,602.8,1.21604795636394,24.5407907661745
34,132.904157606648,0.987472942208358,0.987438047896961,4.93290154775238,28298.9662975241,0,4,-3257.06632562809,6524.13265125618,6549.06086034437,26207.1985411638,1077,602.8,1.21604795636394,24.5407907661745
35,130.857871318523,0.984326448333862,0.984285453865686,6.73436381358053,24011.2018064624,0,4,-3826.40883925052,7662.81767850104,7688.05961054465,52018.3494017914,1147,602.8,1.21604795636394,24.5407907661745
36,127.503630115836,0.978927180628281,0.978876402750277,8.18190793171579,19278.6153952398,0,4,-4395.55580181919,8801.11160363838,8826.76209618901,83344.8036668269,1245,602.8,1.21604795636394,24.5407907661745
37,122.037780346271,0.984473722298743,0.98443994504486,7.65364168993343,29146.0556778104,0,4,-4775.04520829339,9560.09041658679,9586.25046824511,80779.3807115663,1379,602.8,1.21604795636394,24.5407907661745
38,122.207867154132,0.985031405192061,0.985000857039392,7.70077911963869,32245.2036906041,0,4,-5098.42058227342,10206.8411645468,10233.3198399106,87173.9386027109,1470,602.8,1.21604795636394,24.5407907661745
39,119.159443123502,0.979150379977662,0.979107858658786,8.53172631318646,23027.2815108705,0,4,-5253.02441025297,10516.0488205059,10542.5308868498,107074.610562067,1471,602.8,1.21604795636394,24.5407907661745
40,114.461118631994,0.986881834310137,0.986854786545828,6.50233389957987,36486.6324268388,0,4,-4799.71172608187,9609.42345216375,9635.85098490636,61517.9036360651,1455,602.8,1.21604795636394,24.5407907661745
41,107.431324559967,0.984283998460748,0.98424955872034,6.3851623414104,28579.8901738737,0,4,-4491.70999083322,8993.41998166645,9019.54374869529,55814.5381347207,1369,602.8,1.21604795636394,24.5407907661745
42,120.413034680505,0.9891564503217,0.989130088369484,5.51313296480112,37522.1243937518,0,4,-3868.07339158024,7746.14678316047,7771.7530454267,37506.9796980698,1234,602.8,1.21604795636394,24.5407907661745
43,126.093313870879,0.988760721522142,0.988730961737999,5.00942470098849,33224.7275982927,0,4,-3443.40165204772,6896.80330409543,6921.98404656419,28431.8825009118,1133,602.8,1.21604795636394,24.5407907661745
44,139.896240305059,0.985693105575376,0.985650651882721,5.71869203923335,23218.0770137773,0,4,-3208.11487642754,6426.22975285508,6450.84297231246,33063.1764646264,1011,602.8,1.21604795636394,24.5407907661745
45,139.148553510751,0.988083835650902,0.988047979589671,4.59912347318608,27556.9541586172,0,4,-2945.74506682339,5901.49013364678,5926.03390754335,21088.4809114463,997,602.8,1.21604795636394,24.5407907661745
46,133.605564365139,0.989213272461068,0.989182335383996,4.62525257661462,31975.0075346365,0,4,-3095.98917030322,6201.97834060644,6226.7610678222,22377.0376217643,1046,602.8,1.21604795636394,24.5407907661745
47,129.725778413932,0.986537029552636,0.986501096357492,6.29418089795747,27454.7539007712,0,4,-3673.65671957751,7357.31343915503,7382.45444631532,44529.1856100631,1124,602.8,1.21604795636394,24.5407907661745
48,126.179926453747,0.984147910848357,0.984109497062044,7.86784189391804,25619.6539138603,0,4,-4322.29591712771,8654.59183425543,8680.21422556789,76635.8348518024,1238,602.8,1.21604795636394,24.5407907661745
49,123.778735443621,0.980131995801742,0.980087975112972,9.50622884051623,22265.2580680771,0,4,-4983.05994388034,9976.11988776069,10002.1887293013,122358.795684227,1354,602.8,1.21604795636394,24.5407907661745
50,122.38008656618,0.976040669277943,0.975987817813115,9.54516427468337,18467.6181152811,0,4,-5010.66050757022,10031.3210151404,10057.4118993325,123909.819001741,1360,602.8,1.21604795636394,24.5407907661745
51,119.836920968413,0.984964491723544,0.984933080494554,7.42906256391751,31357.0822728086,0,4,-4929.04424655058,9868.08849310115,9894.450485064,79254.2337508704,1436,602.8,1.21604795636394,24.5407907661745
52,113.794526360405,0.981719942285611,0.981682610649707,7.70671869336023,26297.265536574,0,4,-5096.09600024904,10202.1920004981,10228.6672825804,87249.0706243057,1469,602.8,1.21604795636394,24.5407907661745
53,111.689679298679,0.989407777601741,0.98938509618333,5.19803167085173,43621.9534265044,0,4,-4307.43922763746,8624.87845527491,8651.11741818375,37854.3660848998,1401,602.8,1.21604795636394,24.5407907661745
54,117.864773463973,0.98559337697683,0.98555961145412,5.83050525984385,29189.3416081714,0,4,-4083.73905702587,8177.47811405174,8203.26679147299,43513.3332288855,1280,602.8,1.21604795636394,24.5407907661745
55,122.467728732973,0.971603821543301,0.971529094757889,7.82273718328045,13002.0824016677,0,4,-3974.50966447366,7959.01932894733,7984.23075980703,69762.5474240936,1140,602.8,1.21604795636394,24.5407907661745
56,129.392723661085,0.985822166882587,0.98577898566497,5.16944514642473,22829.883484022,0,4,-3026.02109592697,6062.04219185394,6086.52566351205,26322.3156750658,985,602.8,1.21604795636394,24.5407907661745
57,134.98747149255,0.987052726494682,0.987012475903474,4.59044541663148,24522.6889063073,0,4,-2849.68107047699,5709.36214095398,5733.74346401343,20334.6625037654,965,602.8,1.21604795636394,24.5407907661745
58,135.749436402491,0.98560559343831,0.985563789740648,5.27987386348059,23576.9955424093,0,4,-3194.90198133907,6399.80396267813,6424.52439871928,28797.0112587362,1033,602.8,1.21604795636394,24.5407907661745
59,131.094651871256,0.986659637688851,0.986623936451622,5.85098651175625,27636.5670849596,0,4,-3581.73885255335,7173.47770510669,7198.60539667988,38376.3623832047,1121,602.8,1.21604795636394,24.5407907661745
60,124.588749778807,0.985695257736303,0.985660677376278,6.71067422561828,28504.4822269688,0,4,-4134.68104027418,8279.36208054836,8304.99653459285,55886.1373659105,1241,602.8,1.21604795636394,24.5407907661745
61,119.371270079239,0.98380524076886,0.983768125201486,7.60882202872651,26506.5391790497,0,4,-4525.54512776336,9061.09025552671,9086.99060489823,75783.4720182674,1309,602.8,1.21604795636394,24.5407907661745
62,119.590448726344,0.981069955007144,0.98103024162604,8.34180065438695,24703.7630072486,0,4,-5074.6692897941,10159.3385795882,10185.679694694,99507.4625652687,1430,602.8,1.21604795636394,24.5407907661745
63,117.112588054919,0.984621495388004,0.984590089320042,7.41877500971106,31351.313911166,0,4,-5040.00628805242,10090.0125761048,10116.4878581872,80851.1490650839,1469,602.8,1.21604795636394,24.5407907661745
64,118.418013935828,0.984001493294222,0.983968506682458,6.89936781262592,29830.3293566356,0,4,-4886.18463116333,9782.36926232666,9808.79679506927,69259.8568912224,1455,602.8,1.21604795636394,24.5407907661745
65,119.161787294316,0.987373188431229,0.987324809842843,6.05217700765155,20409.3013328802,0,4,-2531.62852582362,5073.25705164725,5096.59819288934,28680.3868345137,783,602.8,1.21604795636394,24.5407907661745
66,115.028725036125,0.988483255323366,0.988456575605969,4.98613580583871,37049.9897203572,0,4,-3928.25099659483,7866.50199318967,7892.34874327302,32195.7076051756,1295,602.8,1.21604795636394,24.5407907661745
67,110.781993319053,0.99190294806597,0.991882221823818,3.87587338986249,47857.3462952813,0,4,-3259.87903528442,6529.75807056884,6555.10744121114,17606.2463941342,1172,602.8,1.21604795636394,24.5407907661745
68,111.344391960402,0.981887691683341,0.981822067377846,5.02009326695611,14962.256503515,0,4,-2520.9411989571,5051.8823979142,5075.50156011831,20866.7065466008,828,602.8,1.21604795636394,24.5407907661745
69,125.840539444991,0.979980177972894,0.979919079838529,5.36698083770697,16039.4451999134,0,4,-3056.91033960533,6123.82067921067,6148.29402940784,28314.8070960044,983,602.8,1.21604795636394,24.5407907661745
70,126.754539997215,0.983001593462614,0.982951647116275,4.77026363710012,19681.1511855137,0,4,-3053.86969644864,6117.73939289728,6142.40163235514,23233.2788859559,1021,602.8,1.21604795636394,24.5407907661745
71,125.384346747499,0.985859351382466,0.985820071802973,5.24225348303504,25098.5210153386,0,4,-3332.04425338638,6674.08850677276,6699.03057268276,29679.7193068244,1080,602.8,1.21604795636394,24.5407907661745
72,123.896846788271,0.986946187163706,0.986913361146515,6.12761613324471,30065.9742368579,0,4,-3866.39460456938,7742.78920913875,7768.22707766654,44794.3816153462,1193,602.8,1.21604795636394,24.5407907661745
73,121.548537457054,0.982349824628947,0.982309952244826,7.46834294746702,24637.3485377522,0,4,-4566.23974885619,9142.47949771238,9168.45168196788,74070.722393942,1328,602.8,1.21604795636394,24.5407907661745
74,119.975151835682,0.983539897435337,0.98350553396443,7.41161598619361,28621.6692162623,0,4,-4929.08053001589,9868.16106003177,9894.52652301177,78937.3580440125,1437,602.8,1.21604795636394,24.5407907661745
75,118.502137971986,0.987036469977566,0.98701059466814,6.46712652397384,38145.8808366993,0,4,-4949.50266400237,9909.00532800474,9935.59470899787,62861.0593920603,1503,602.8,1.21604795636394,24.5407907661745
76,115.588483321638,0.972364543258207,0.972307835754633,9.04878482465029,17147.017272363,0,4,-5307.21743280125,10624.4348656025,10650.8863300147,119709.300945725,1462,602.8,1.21604795636394,24.5407907661745
77,109.344350646339,0.986668846058151,0.986640741025245,5.77609177976236,35106.4825061949,0,4,-4525.39132325316,9060.78264650632,9087.0992945937,47475.8851812431,1423,602.8,1.21604795636394,24.5407907661745
78,110.438217091321,0.973271363978272,0.973210846311807,7.8654606062206,16082.4337890253,0,4,-4624.80367515443,9259.60735030885,9285.56826060242,81971.7484761107,1325,602.8,1.21604795636394,24.5407907661745
79,120.375106781164,0.988352384020059,0.98824776471485,5.14600865426733,9447.13198051879,1.67982319586024e-322,4,-1031.30812741397,2072.61625482794,2091.73148430535,8844.78929331128,334,602.8,1.21604795636394,24.5407907661745
