"Age","power_predict","r.squared","adj.r.squared","sigma","statistic","p.value","df","logLik","AIC","BIC","deviance","df.residual","GHI","Wind_speed","Ambient_temp"
1,84.2136988219952,0.987555884304953,0.987501779454105,3.2104997485054,18252.6311195057,0,4,-1792.23762339472,3594.47524678944,3617.18760659197,7112.04295825573,690,470.8,1.30591319763564,19.0469850268544
2,86.0531272989213,0.99447242817914,0.994444511149742,2.16373343616978,35622.43009424,0,4,-1308.07595696748,2626.15191393496,2648.11986770471,2780.95497538265,594,470.8,1.30591319763564,19.0469850268544
3,84.5982132662456,0.977650126874944,0.977258023837662,2.73602708782,2493.35004812164,7.55966307978937e-141,4,-422.429739326796,854.859478653591,870.683408523209,1280.0793625237,171,470.8,1.30591319763564,19.0469850268544
4,94.7015651669527,0.961542350239085,0.961253917865878,3.67955873015751,3333.68387032432,1.55545840904412e-282,4,-1097.56950580428,2205.13901160855,2225.14608599836,5415.66097947135,400,470.8,1.30591319763564,19.0469850268544
5,90.0696908628356,0.98048405479826,0.980314350926941,4.86174001990574,5777.61748848053,1.81861747176054e-294,4,-1045.10534295136,2100.21068590272,2119.48604551373,8154.59802729782,345,470.8,1.30591319763564,19.0469850268544
6,87.8353471601709,0.975247051718605,0.975169130580259,7.27975641216504,12515.8214114155,0,4,-3255.65819836993,6521.31639673986,6545.63541369713,50504.0953096965,953,470.8,1.30591319763564,19.0469850268544
7,80.9521096456184,0.962677771311122,0.962498624613416,9.79003482813769,5373.68415736965,0,4,-2325.48454483792,4660.96908967583,4683.18974595933,59902.9887100931,625,470.8,1.30591319763564,19.0469850268544
15,81.4819406186249,0.976761696040109,0.976256515519242,3.79602387112505,1933.49041717481,1.7270391732777e-112,4,-388.882054301115,787.76410860223,802.543243890236,1988.55201776087,138,470.8,1.30591319763564,19.0469850268544
16,78.4602498034615,0.977465153945001,0.977393310652583,4.10033954507637,13605.5172452679,0,4,-2672.35361700677,5354.70723401355,5378.96315865101,15820.8301062069,941,470.8,1.30591319763564,19.0469850268544
17,78.4165732372701,0.983948938535447,0.983901821916666,4.3386898223739,20883.2671783934,0,4,-2959.55632743589,5929.11265487178,5953.77977000043,19238.3624210158,1022,470.8,1.30591319763564,19.0469850268544
18,81.2806336890093,0.979947558283012,0.979897133031419,6.19350643361032,19433.6672067426,0,4,-3879.19724344944,7768.39448689888,7793.83235542667,45762.9096782047,1193,470.8,1.30591319763564,19.0469850268544
19,86.5784834625984,0.98052563094556,0.980475824375088,6.91942333021326,19686.6722936166,0,4,-3944.79652029472,7899.59304058944,7924.94666112574,56161.3857482266,1173,470.8,1.30591319763564,19.0469850268544
20,84.4359263939524,0.983365041159352,0.983330647722741,6.78755041606544,28591.6482349136,0,4,-4849.00892605798,9708.01785211596,9734.43165801399,66848.7897840643,1451,470.8,1.30591319763564,19.0469850268544
21,80.0645948845871,0.988224795023393,0.988201796576173,5.65895227045941,42969.1963797798,0,4,-4852.35043556076,9714.70087112151,9741.39855959855,49188.4658677827,1536,470.8,1.30591319763564,19.0469850268544
22,76.1283085099061,0.987147805082803,0.987123448427875,5.56888876785329,40528.8742639893,0,4,-4975.04223510309,9960.08447020618,9986.93247380881,49092.8224981077,1583,470.8,1.30591319763564,19.0469850268544
23,69.1099409773159,0.991799701722143,0.991783235259737,4.19888404237067,60231.4982604115,0,4,-4272.92578885849,8555.85157771697,8582.41100853736,26340.157038705,1494,470.8,1.30591319763564,19.0469850268544
24,71.0313623123025,0.992866555412464,0.992846904049964,3.71493253735066,50524.0568132343,0,4,-2983.30619488144,5976.61238976289,6001.59579720377,15028.9881714455,1089,470.8,1.30591319763564,19.0469850268544
25,77.414404290818,0.800200788774858,0.799713077111981,26.0464270590598,1640.72514496585,0,4,-5766.98074224654,11543.9614844931,11569.5475120089,833773.709565252,1229,470.8,1.30591319763564,19.0469850268544
26,71.3754401480144,0.965506279905095,0.965411081045587,6.09756759891755,10141.99418879,0,4,-3518.46618606037,7046.93237212074,7071.9066220499,40415.0193876023,1087,470.8,1.30591319763564,19.0469850268544
27,67.5071973834038,0.967013575506106,0.966908967394603,4.34594714441758,9244.15479462987,0,4,-2741.76891803657,5493.53783607313,5517.8201459961,17867.3447266394,946,470.8,1.30591319763564,19.0469850268544
28,68.6616778175983,0.985504531389135,0.985452138129095,2.69488410693536,18809.757794236,0,4,-2008.18016230898,4026.36032461796,4049.99149162975,6027.79229034462,830,470.8,1.30591319763564,19.0469850268544
29,79.212563010004,0.983585632053231,0.983536487239019,4.19432265787101,20014.0268678729,0,4,-2867.78243159351,5745.56486318702,5770.13354994032,17627.5272434468,1002,470.8,1.30591319763564,19.0469850268544
30,79.4465941589256,0.989145413975286,0.9891147513029,4.09197980994551,32258.9434318364,0,4,-3012.60953701109,6035.21907402218,6060.07741704581,17782.4452884318,1062,470.8,1.30591319763564,19.0469850268544
31,81.1064143681375,0.959120987594589,0.958997111799421,10.254169215279,7742.60206600088,0,4,-3722.13913637161,7454.27827274322,7478.7869587765,104096.50643262,990,470.8,1.30591319763564,19.0469850268544
32,79.0318580682217,0.985282043584778,0.985252108758171,5.95143304450365,32914.2392074779,0,4,-4734.59916594868,9479.19833189737,9505.69393921092,52243.8440427348,1475,470.8,1.30591319763564,19.0469850268544
33,76.3687962765906,0.957804025904649,0.957692592874468,11.1724873853785,8595.33321803763,0,4,-4366.92428178372,8743.84856356744,8769.04248127438,141800.602891637,1136,470.8,1.30591319763564,19.0469850268544
34,74.5479394963473,0.98836943761199,0.988347270085202,5.46413665116781,44586.3648693104,0,4,-4916.85174147433,9843.70348294867,9870.52305045569,46994.5864253081,1574,470.8,1.30591319763564,19.0469850268544
35,70.5207707338614,0.990356740629444,0.990337311631383,4.70367327747886,50973.1246850605,0,4,-4428.1497676459,8866.29953529181,8892.8422492795,32943.4434865891,1489,470.8,1.30591319763564,19.0469850268544
36,70.9134788907019,0.988664506473344,0.98864038840201,4.6217325499826,40992.6852280194,0,4,-4168.88453064816,8347.76906129633,8374.03995052861,30118.1805866318,1410,470.8,1.30591319763564,19.0469850268544
37,71.3401342794522,0.983108022079118,0.983068056831671,5.44899981284745,24599.0725663788,0,4,-3959.47625761013,7928.95251522026,7954.69424393976,37648.9474818018,1268,470.8,1.30591319763564,19.0469850268544
38,77.0411204178469,0.985630810565958,0.9855904098459,4.37157140458901,24396.3674198253,0,4,-3097.53565841828,6205.07131683655,6229.95305718879,20391.0491939635,1067,470.8,1.30591319763564,19.0469850268544
39,79.3972220376505,0.983833893007549,0.983786345634041,3.73135120563247,20691.6559304451,0,4,-2799.36205324558,5608.72410649115,5633.38146551915,14201.4414561704,1020,470.8,1.30591319763564,19.0469850268544
40,79.3494993215289,0.984522371806811,0.984470258580571,3.45622664347179,18891.9866000718,0,4,-2377.90430309072,4765.80860618143,4789.79272477281,10643.4428264404,891,470.8,1.30591319763564,19.0469850268544
41,79.8075818212631,0.9840073438641,0.983959076290249,3.96387191962804,20386.509313803,0,4,-2788.56349982509,5587.12699965018,5611.65576603174,15618.0069116444,994,470.8,1.30591319763564,19.0469850268544
42,79.3069853488611,0.986815948389723,0.986778879828494,4.53534875899354,26621.3717415729,0,4,-3136.92645027432,6283.85290054865,6308.73464090089,21947.5373862064,1067,470.8,1.30591319763564,19.0469850268544
43,77.9753907151356,0.988989990868019,0.988964023865349,4.82163572055136,38086.4131084141,0,4,-3815.85491053135,7641.70982106269,7667.46724838222,29571.6735395983,1272,470.8,1.30591319763564,19.0469850268544
44,78.0966084443418,0.988647759424921,0.988624125336284,5.33958603156564,41831.4314814273,0,4,-4468.95245184975,8947.90490369951,8974.28422670224,41084.6089224154,1441,470.8,1.30591319763564,19.0469850268544
45,74.8500826173493,0.985099390337927,0.985070249641065,6.08279251968003,33804.9359287783,0,4,-4957.12831625959,9924.25663251919,9950.94782326951,56758.5596606871,1534,470.8,1.30591319763564,19.0469850268544
46,73.0843073974574,0.991354247014899,0.991337694839433,4.61537085939804,59892.6859522568,0,4,-4629.82506954871,9269.65013909742,9296.44747728869,33379.6826820462,1567,470.8,1.30591319763564,19.0469850268544
47,69.4965916548475,0.978466651960907,0.978424594640518,6.54531767133161,23265.0735452047,0,4,-5076.43763862519,10162.8752772504,10189.5729657274,65804.05773104,1536,470.8,1.30591319763564,19.0469850268544
48,64.1346116920771,0.981476564999358,0.981433420352617,5.98016053459248,22748.513179392,0,4,-4141.9395399248,8293.87907984961,8319.69881327132,46061.8681851127,1288,470.8,1.30591319763564,19.0469850268544
49,69.7086506738439,0.969837782404395,0.969693465573794,6.99960320151662,6720.19873472605,0,4,-2121.17738288117,4252.35476576233,4274.59129507504,30719.5170016334,627,470.8,1.30591319763564,19.0469850268544
50,73.3968038007633,0.978404738643547,0.978348206545756,5.42326696076472,17307.0658415606,0,4,-3574.07898011409,7158.15796022818,7183.39554633496,33705.9509087696,1146,470.8,1.30591319763564,19.0469850268544
51,77.9502250922347,0.982241957290837,0.982188789498295,4.021043705909,18474.3791367201,0,4,-2825.33892394193,5660.67784788386,5685.24653463716,16201.1300698,1002,470.8,1.30591319763564,19.0469850268544
52,82.4641081292815,0.980142281714892,0.980070851073579,3.72597540638675,13721.594314342,0,4,-2289.31112912713,4588.62225825425,4612.27734875666,11578.3325359851,834,470.8,1.30591319763564,19.0469850268544
53,83.9872426643366,0.966696084481376,0.966596768629928,5.49577646635741,9733.55280546936,0,4,-3152.14362850612,6314.28725701225,6338.87578506143,30384.7803219769,1006,470.8,1.30591319763564,19.0469850268544
54,81.7139247604235,0.983901669027355,0.983859080850179,5.13556964028271,23102.6950262311,0,4,-3474.73362396052,6959.46724792103,6984.65238599446,29908.2016512394,1134,470.8,1.30591319763564,19.0469850268544
55,82.8757972249197,0.969204958237877,0.9691262656269,7.91577795835525,12316.3400757886,0,4,-4106.62088645847,8223.24177291693,8248.59963973799,73562.3007653437,1174,470.8,1.30591319763564,19.0469850268544
56,79.092731182667,0.974729317810765,0.974672572266927,7.92378331008483,17177.1958092731,0,4,-4672.99881192976,9355.99762385951,9381.99974832424,83882.552838759,1336,470.8,1.30591319763564,19.0469850268544
57,74.7492557215222,0.974261448453932,0.974206490692624,8.07439561861007,17727.458783993,0,4,-4940.25705963213,9890.51411926426,9916.76729682375,91600.1897711905,1405,470.8,1.30591319763564,19.0469850268544
58,72.0460208862233,0.960757654398334,0.960676069480243,9.88073564601161,11776.1674201753,0,4,-5365.68062947598,10741.361258952,10767.7474975851,140878.555955884,1443,470.8,1.30591319763564,19.0469850268544
59,68.5195096683053,0.973701458713245,0.973649892946016,7.71605584361954,18882.7105856952,0,4,-5309.07640972878,10628.1528194576,10654.8309893672,91092.4022062385,1530,470.8,1.30591319763564,19.0469850268544
60,65.894522661665,0.978236918168485,0.978103402329028,6.9643920759868,7326.74806334464,0,4,-1654.34802723954,3318.69605447908,3339.69860034929,23717.8481671651,489,470.8,1.30591319763564,19.0469850268544
61,63.9260412449769,0.9753392372263,0.975282283963543,6.48980401300041,17125.2565703026,0,4,-4283.78656116711,8577.57312233422,8603.43524521985,54710.7054091759,1299,470.8,1.30591319763564,19.0469850268544
62,65.5069983960219,0.976812134692121,0.976751749626215,5.50846176136922,16176.3859993753,0,4,-3610.75541247362,7231.51082494724,7256.7744301934,34955.3099248899,1152,470.8,1.30591319763564,19.0469850268544
63,69.5148683695911,0.926726170444376,0.926433465399547,8.0121908996934,3166.07515591178,0,4,-2640.42128017117,5290.84256034234,5313.97614908859,48210.5974628604,751,470.8,1.30591319763564,19.0469850268544
64,76.1866146461017,0.924682618168417,0.924303503830339,7.50966561727172,2439.06000193828,0,4,-2059.07098735017,4128.14197470033,4150.12662297641,33611.4662992069,596,470.8,1.30591319763564,19.0469850268544
65,74.8520065799953,0.91170385094795,0.911373566101122,8.91417878985562,2760.35627944629,0,4,-2904.89984250844,5819.79968501688,5843.26010372941,63728.9919650044,802,470.8,1.30591319763564,19.0469850268544
66,79.0400388353642,0.921177866564152,0.920885210128128,9.35693565503794,3147.64260468208,0,4,-2965.90084049482,5941.80168098964,5965.29918269045,70742.2138408364,808,470.8,1.30591319763564,19.0469850268544
67,76.6745451640449,0.971847133664436,0.971780103030304,7.30703301239744,14498.5519866386,0,4,-4305.42549546262,8620.85099092525,8646.56117379878,67274.8416197751,1260,470.8,1.30591319763564,19.0469850268544
68,73.7672364990174,0.972293277720648,0.972233479039469,8.00353716837984,16259.443495401,0,4,-4875.35516481921,9760.71032963842,9786.90999259502,89038.6840158363,1390,470.8,1.30591319763564,19.0469850268544
69,70.529445829692,0.984920009600775,0.984889728495556,6.32852906953069,32525.8937039111,0,4,-4887.47886408818,9784.95772817636,9811.51715899675,59835.1185947391,1494,470.8,1.30591319763564,19.0469850268544
70,66.3196275386765,0.97767294231296,0.977628962553892,7.28750334965892,22230.0658990243,0,4,-5197.58438039166,10405.1687607833,10431.8240623094,80883.0348235747,1523,470.8,1.30591319763564,19.0469850268544
71,64.7633762448959,0.987385576351589,0.987360874477604,5.34532631091759,39972.0918722863,0,4,-4752.16488017725,9514.3297603545,9541.01444492304,43773.0904831277,1532,470.8,1.30591319763564,19.0469850268544
72,63.0554612936782,0.992622737153646,0.992607619811748,3.91454217669942,65661.1951911701,0,4,-4084.37626145253,8178.75252290505,8205.21080395093,22433.8096234242,1464,470.8,1.30591319763564,19.0469850268544
73,62.649645648638,0.989609562137305,0.989585875728804,4.14222351382794,41779.6375533737,0,4,-3747.02302346183,7504.04604692367,7529.97298200157,22579.948580278,1316,470.8,1.30591319763564,19.0469850268544
74,66.5194864637358,0.955676670789197,0.955562337179883,8.09536643193189,8358.66790632795,0,4,-4094.43542473985,8198.87084947971,8224.18180764114,76217.1557670113,1163,470.8,1.30591319763564,19.0469850268544
75,72.1665170187834,0.987690228356018,0.987655520353262,3.50389402610833,28457.1323596823,0,4,-2852.56102285952,5715.12204571904,5739.98976081664,13063.0188403543,1064,470.8,1.30591319763564,19.0469850268544
76,74.070306135586,0.984637751877699,0.984586373121437,3.6116922578794,19164.2971437266,0,4,-2433.50213095648,4877.00426191296,4901.021788201,11700.7559061665,897,470.8,1.30591319763564,19.0469850268544
77,76.1060713275235,0.944945486249661,0.944755861058787,6.84982394240492,4983.22760755403,0,4,-2923.2617124876,5856.5234249752,5880.39454440699,40867.396684533,871,470.8,1.30591319763564,19.0469850268544
78,75.7756181954751,0.943121830972907,0.942954542240475,8.76689866753989,5637.6889062313,0,4,-3674.07585043198,7358.15170086397,7382.80905989196,78395.682491851,1020,470.8,1.30591319763564,19.0469850268544
79,74.679869684991,0.973512172498025,0.973445340300795,7.03497724427786,14566.5145372133,0,4,-4018.20739561667,8046.41479123335,8071.83592334384,58844.6858399062,1189,470.8,1.30591319763564,19.0469850268544
80,71.1574349674435,0.948657439755873,0.948535195564815,10.742602436642,7760.34780507543,0,4,-4792.54589326362,9595.09178652724,9620.80196940077,145408.4189608,1260,470.8,1.30591319763564,19.0469850268544
81,66.3520311918162,0.96832616528943,0.968260178133783,8.5099664356315,14674.4643831781,0,4,-5138.89213652659,10287.7842730532,10314.1601346504,104284.121379228,1440,470.8,1.30591319763564,19.0469850268544
82,64.3280741751766,0.973304484346384,0.973250408352487,7.89475168301482,17998.8274687592,0,4,-5173.42534260269,10356.8506852054,10383.3665354616,92306.4412261051,1481,470.8,1.30591319763564,19.0469850268544
83,64.1688322664811,0.989357412750541,0.989336352221684,4.7205803876135,46976.8551128112,0,4,-4513.7202026498,9037.44040529959,9064.07273336879,33782.3608610166,1516,470.8,1.30591319763564,19.0469850268544
84,63.5716460914644,0.986973198880835,0.986946153618996,4.99341114449632,36493.3867068007,0,4,-4384.20399457465,8778.40798914931,8804.80113386091,36029.8537697811,1445,470.8,1.30591319763564,19.0469850268544
85,62.6712360275192,0.989598154625344,0.989575310162588,4.10826789361005,43318.950645426,0,4,-3877.75492364977,7765.50984729955,7791.62267739366,23055.1637070214,1366,470.8,1.30591319763564,19.0469850268544
86,65.9963575671047,0.970037500696203,0.969963882761796,6.32621937156308,13176.6465400744,0,4,-3995.95736325602,8001.91472651203,8027.46820712692,48865.7039268479,1221,470.8,1.30591319763564,19.0469850268544
87,69.3364245686697,0.985543280464455,0.985502480691542,3.91649353999022,24155.6070070129,0,4,-2968.66858723683,5947.33717447366,5972.20020573017,16305.2737126586,1063,470.8,1.30591319763564,19.0469850268544
88,72.1857930503576,0.979703710614381,0.979641067745907,4.027446922969,15639.5090850436,0,4,-2742.57737236665,5495.15474473331,5519.57205766537,15766.1595132471,972,470.8,1.30591319763564,19.0469850268544
89,72.4093775321123,0.935202370357846,0.934988751798587,7.08131168086173,4377.90786342801,0,4,-3084.02309894192,6178.04619788384,6202.13535074111,45631.927360573,910,470.8,1.30591319763564,19.0469850268544
90,73.9490106031275,0.945324587083572,0.945137769043995,7.7486880863905,5060.13546240024,0,4,-3055.41500835757,6120.83001671515,6144.74097699518,52717.0226788293,878,470.8,1.30591319763564,19.0469850268544
91,75.0029121466598,0.970754405668723,0.97067730831987,7.07971614675987,12591.2812842553,0,4,-3853.58531040701,7717.17062081402,7742.3733027651,57039.2692578719,1138,470.8,1.30591319763564,19.0469850268544
92,72.2021537241191,0.982560316993475,0.982522016079112,6.21928120876336,25653.7039217001,0,4,-4445.82930921715,8901.65861843431,8927.77144852842,52836.1406575229,1366,470.8,1.30591319763564,19.0469850268544
93,70.0722808274757,0.977963653141593,0.977918403969399,7.00900353588036,21612.8518097934,0,4,-4929.38368481224,9868.76736962448,9895.21542223173,71773.2767569017,1461,470.8,1.30591319763564,19.0469850268544
94,66.0516979048402,0.974607596747404,0.974556229781957,7.89863280975277,18973.4314314214,0,4,-5181.12646184916,10372.2529236983,10398.7755034306,92521.9975904783,1483,470.8,1.30591319763564,19.0469850268544
95,65.0843782806844,0.984739599609804,0.984710327742048,5.56941667821761,33641.1604416182,0,4,-4915.6042908809,9841.2085817618,9867.99636276635,48512.7809400916,1564,470.8,1.30591319763564,19.0469850268544
96,62.9177069567411,0.986575217842158,0.986548242392411,5.17540083580007,36573.0776340873,0,4,-4583.09174556801,9176.18349113602,9202.73958305812,39989.6673001217,1493,470.8,1.30591319763564,19.0469850268544
97,60.0479393802919,0.985672895748223,0.985641907058421,4.83990763634673,31807.5046749983,0,4,-4165.20244980541,8340.40489961082,8366.59379057043,32490.0671226456,1387,470.8,1.30591319763564,19.0469850268544
98,65.093598742407,0.97521836047103,0.975157372022641,5.91739008173837,15990.2143147079,0,4,-3907.72472905646,7825.44945811292,7850.99476879136,42683.9010575564,1219,470.8,1.30591319763564,19.0469850268544
99,69.0287691928744,0.979302401531107,0.979246411634437,4.63653755175096,17490.6984970621,0,4,-3284.58122467028,6579.16244934055,6604.23652109693,23840.7058398956,1109,470.8,1.30591319763564,19.0469850268544
100,67.5439959304557,0.92962775113577,0.92939702245097,7.44825240060487,4029.09483031361,0,4,-3147.33324091101,6304.66648182202,6328.78291243379,50760.9643981513,915,470.8,1.30591319763564,19.0469850268544
101,74.1044493125051,0.961838931849928,0.961715166223496,4.73392294935596,7771.45447870547,0,4,-2760.55626350808,5531.11252701615,5555.28307071022,20729.2745036561,925,470.8,1.30591319763564,19.0469850268544
102,74.7622911517635,0.947802724626651,0.947632516119999,6.54871950063542,5568.48034959401,0,4,-3045.53991297355,6101.07982594709,6125.2233863053,39454.8689301624,920,470.8,1.30591319763564,19.0469850268544
103,70.6942076429092,0.897145926719275,0.896831388268876,11.5086612945749,2852.26154569983,0,4,-3802.1037925857,7614.2075851714,7638.67079337726,129932.748382174,981,470.8,1.30591319763564,19.0469850268544
104,68.3935228392011,0.913307251906593,0.913094421919457,12.4596115871147,4291.25267635752,0,4,-4830.19098090218,9670.38196180437,9695.93952238685,189705.627341955,1222,470.8,1.30591319763564,19.0469850268544
105,67.8208904378239,0.953544835197598,0.953447444914994,9.87926016523937,9790.9648652401,0,4,-5320.95199709605,10651.9039941921,10678.2485948331,139665.287201267,1431,470.8,1.30591319763564,19.0469850268544
106,67.1386631514442,0.95625262458196,0.956166337845435,9.69109265232312,11082.2666738341,0,4,-5625.46958564473,11260.9391712895,11287.5879197347,142848.178006581,1521,470.8,1.30591319763564,19.0469850268544
107,62.5508420863829,0.971199645455951,0.971138927912991,7.47629371303726,15995.3713228317,0,4,-4893.57142910166,9797.14285820332,9823.4595062907,79538.5390137634,1423,470.8,1.30591319763564,19.0469850268544
108,60.7964273193976,0.984257443977391,0.984225425219379,5.51573866678971,30740.0256938722,0,4,-4622.15603623848,9254.31207247696,9280.80767979051,44874.4752344707,1475,470.8,1.30591319763564,19.0469850268544
109,60.3575379516431,0.975876803157119,0.975824850830824,6.41345207774834,18784.082884369,0,4,-4576.43580941148,9162.87161882295,9189.08203061923,57297.3880021293,1393,470.8,1.30591319763564,19.0469850268544
110,62.5248935164749,0.981802579391775,0.981760423205038,4.97409770542255,23289.6439498262,0,4,-3925.11100995956,7860.22201991912,7886.06877000248,32040.4341381014,1295,470.8,1.30591319763564,19.0469850268544
111,64.375019571907,0.981619600370506,0.981571017816419,4.46948572156144,20205.1872080942,0,4,-3319.56181590095,6649.12363180189,6674.31316161913,22673.1034682992,1135,470.8,1.30591319763564,19.0469850268544
112,66.1753308232562,0.980782363985138,0.9807232327974,4.05969497994967,16586.5493575097,0,4,-2758.8213050456,5527.64261009121,5552.07526830386,16069.0952469728,975,470.8,1.30591319763564,19.0469850268544
113,71.6364097011646,0.977366363354369,0.977282844399957,3.70127805087585,11702.3299709179,0,4,-2226.45794200383,4462.91588400766,4486.44407948196,11137.6603376449,813,470.8,1.30591319763564,19.0469850268544
114,69.0806131829078,0.984772022926917,0.984726430181189,3.64186928595016,21599.3138208082,0,4,-2725.70025015725,5461.40050031449,5485.96918706779,13289.738319739,1002,470.8,1.30591319763564,19.0469850268544
115,67.7139799361142,0.965786317698316,0.965695725423908,6.83062049762932,10660.8021931462,0,4,-3795.9790302624,7601.9580605248,7627.13880299356,52862.8074415241,1133,470.8,1.30591319763564,19.0469850268544
116,68.7068082366216,0.978263111201248,0.978209351377344,6.00651628097045,18196.9180728273,0,4,-3906.73717675522,7823.47435351044,7848.99507397538,43762.902492112,1213,470.8,1.30591319763564,19.0469850268544
117,62.3077892833523,0.965204713205945,0.965129507254662,8.15812362642015,12834.1533712048,0,4,-4894.98731829044,9799.97463658089,9826.16712078536,92378.313772289,1388,470.8,1.30591319763564,19.0469850268544
118,71.1209400198257,0.963321707819406,0.963248497655373,8.4660799616194,13158.3055514474,0,4,-5355.39156428821,10720.7831285764,10747.3725095695,107726.78840455,1503,470.8,1.30591319763564,19.0469850268544
119,69.1589484943553,0.974818284670257,0.97475999366255,6.61351775806437,16723.3047257967,0,4,-4298.4674194018,8606.9348388036,8632.78543652085,56685.2478085578,1296,470.8,1.30591319763564,19.0469850268544
120,67.8437858747237,0.982086090107121,0.98204475031506,5.72714380280122,23756.4351719543,0,4,-4124.05566683078,8258.11133366156,8283.97729237399,42640.2289793538,1300,470.8,1.30591319763564,19.0469850268544
121,68.5954022619576,0.982447713984551,0.982402631058141,5.24768493643452,21792.0129021739,0,4,-3603.91892157869,7217.83784315739,7243.17017800807,32164.6143203515,1168,470.8,1.30591319763564,19.0469850268544
122,69.2710102736122,0.982004587989067,0.981955643078793,4.64535036447842,20063.4669157872,0,4,-3268.9658792435,6547.93175848699,6572.97880315054,23801.945849662,1103,470.8,1.30591319763564,19.0469850268544
123,72.1867392942862,0.948677032114883,0.94853744108709,6.92478571929333,6796.11753789579,0,4,-3710.92490330543,7431.84980661087,7456.89685127441,52891.7809557161,1103,470.8,1.30591319763564,19.0469850268544
124,85.0880800247713,0.86436404389707,0.863959160446017,9.48274605387637,2134.8465629997,0,4,-3699.42421310763,7408.84842621526,7433.43200131702,90372.0850859195,1005,470.8,1.30591319763564,19.0469850268544
125,90.2969339092062,0.734722426425961,0.733913653335796,12.160122900207,908.440742354932,6.20373100930335e-283,4,-3868.09125087351,7746.18250174701,7770.66091523575,145502.691524969,984,470.8,1.30591319763564,19.0469850268544
126,86.5066246854566,0.844782045715841,0.844315925733006,10.2644784154685,1812.37036991464,0,4,-3756.86665508845,7523.73331017691,7548.28706411672,105254.157624476,999,470.8,1.30591319763564,19.0469850268544
127,76.233243031923,0.947384803715923,0.947244121372918,7.33856666172599,6734.21257761202,0,4,-3840.00086019711,7690.00172039422,7715.13385443772,60424.8170477249,1122,470.8,1.30591319763564,19.0469850268544
128,70.6226786825513,0.977475104031663,0.977420520277297,5.55333736940801,17907.8027040573,0,4,-3889.60208166591,7789.20416333182,7814.82655464428,38179.3702518178,1238,470.8,1.30591319763564,19.0469850268544
129,67.1875378875637,0.973550956241929,0.973490339640498,6.32050073692401,16060.7974258909,0,4,-4281.97058730989,8573.94117461977,8599.84152399129,52292.8870011831,1309,470.8,1.30591319763564,19.0469850268544
130,63.5648207505164,0.934684484131584,0.933525037104334,10.4835114148945,806.146777010155,7.4506746861821e-100,4,-649.968919051425,1309.93783810285,1325.70429607534,18573.7779580716,169,470.8,1.30591319763564,19.0469850268544
131,63.6477994469686,0.967629386362541,0.967528333458366,6.95480952200034,9575.47330539669,0,4,-3238.82479544869,6487.64959089738,6512.01023140407,46482.9698433017,961,470.8,1.30591319763564,19.0469850268544
132,62.2005692813659,0.970991923939714,0.970923883104545,6.26600020905108,14270.7231845588,0,4,-4172.97735773391,8355.95471546781,8381.73949729089,50217.0682747602,1279,470.8,1.30591319763564,19.0469850268544
133,64.1681727827548,0.957898123955786,0.957794168706294,6.98124758159052,9214.52383249337,0,4,-4096.47727341771,8202.95454683543,8228.48347748284,59216.4486214882,1215,470.8,1.30591319763564,19.0469850268544
134,65.3203954936798,0.950611124043373,0.950327279928679,7.11857463767215,3349.06054004558,0,4,-1776.73817751631,3563.47635503262,3584.80286109631,26451.882743241,522,470.8,1.30591319763564,19.0469850268544
135,72.3602770695955,0.946678083980954,0.946098497937269,6.54001849597694,1633.36935782913,2.65921871224556e-175,4,-921.111564260933,1852.22312852187,1870.39707653771,11805.0283720509,276,470.8,1.30591319763564,19.0469850268544
136,79.6403090691633,0.862550230757273,0.862156391876922,9.41337684090095,2190.1093919095,0,4,-3845.78104770834,7701.56209541667,7726.34958227106,92776.4117356044,1047,470.8,1.30591319763564,19.0469850268544
137,91.6026192662024,0.796983479233086,0.796245237339388,10.8039538339937,1079.56956390131,4.65708793031611e-285,4,-3147.24238638107,6304.48477276213,6328.08587353781,96298.4702188309,825,470.8,1.30591319763564,19.0469850268544
138,88.9939468734908,0.812236198328992,0.811642635204637,11.2470906110681,1368.40744480451,0,4,-3656.60855025126,7323.21710050251,7347.51517502079,120045.697805684,949,470.8,1.30591319763564,19.0469850268544
139,77.5400642661886,0.920082476311465,0.919869173312297,8.31173182083966,4313.49995029295,0,4,-3987.28860274629,7984.57720549258,8009.71821265288,77651.4117083918,1124,470.8,1.30591319763564,19.0469850268544
140,65.6623063743817,0.951956381314656,0.951841809886948,6.75850568373697,8308.8462836041,0,4,-4200.12914052064,8410.25828104129,8435.96054625679,57462.1680389979,1258,470.8,1.30591319763564,19.0469850268544
141,61.3754185992765,0.957071690241499,0.956971934293183,6.83224358800925,9594.13154204215,0,4,-4324.06308255584,8658.12616511169,8683.95749498236,60263.3022076486,1291,470.8,1.30591319763564,19.0469850268544
142,57.5921216477687,0.951241694069037,0.951128214691386,7.51174988583596,8382.50714583276,0,4,-4439.97812422492,8889.95624844984,8915.7798503437,72733.6120017425,1289,470.8,1.30591319763564,19.0469850268544
143,56.4288505910383,0.938072225918446,0.937940837430296,7.76989438549041,7139.68353791134,0,4,-4917.31583254465,9844.6316650893,9870.91667862476,85364.9598890091,1414,470.8,1.30591319763564,19.0469850268544
144,54.9470324102857,0.917912345108538,0.917705748661663,8.06932401640804,4443.02096669746,0,4,-4192.37851142213,8394.75702284425,8420.1907125168,77615.8761774812,1192,470.8,1.30591319763564,19.0469850268544
145,53.5903172555089,0.9393864634833,0.939250862730466,6.88284311238721,6927.59032565845,0,4,-4501.01713127029,9012.03426254059,9038.05500900077,63527.902804356,1341,470.8,1.30591319763564,19.0469850268544
146,54.0429856073972,0.938916227127365,0.93875973582197,6.33758786351459,5999.79803833579,0,4,-3834.88478815619,7679.76957631239,7705.11469344528,47033.2383354156,1171,470.8,1.30591319763564,19.0469850268544
147,36.6208631907406,0.16380474867502,0.161473349275415,27.462795991709,70.2602688766133,1.69392856715261e-41,4,-5108.30869592654,10226.6173918531,10251.5409734537,811524.756122077,1076,470.8,1.30591319763564,19.0469850268544
148,64.6384812433124,0.893083250795851,0.892779797392244,7.13123488729257,2943.06552564789,0,4,-3587.80796894242,7185.61593788485,7210.45077357792,53753.2181457498,1057,470.8,1.30591319763564,19.0469850268544
149,78.7917367278848,0.738950680665591,0.738172976635796,10.6753202204227,950.169540539342,4.55039711291606e-293,4,-3826.52472613322,7663.04945226644,7687.64292836154,114760.199041226,1007,470.8,1.30591319763564,19.0469850268544
150,72.5292697205096,0.75255673546077,0.751800798807391,10.2345679618191,995.528834456396,3.41412619256232e-297,4,-3690.27953823256,7390.55907646512,7415.02735823813,102860.946500522,982,470.8,1.30591319763564,19.0469850268544
151,69.3115289852977,0.934987346271506,0.934801948969999,6.39950745709395,5043.15509811042,0,4,-3456.56469871193,6923.12939742387,6947.9406147452,43083.2878694579,1052,470.8,1.30591319763564,19.0469850268544
152,57.4716972577064,0.937913030007534,0.937756112644452,6.61434200434919,5977.11439697159,0,4,-3938.03765093726,7886.07530187452,7911.48804472129,51930.6804186411,1187,470.8,1.30591319763564,19.0469850268544
153,54.0241570293338,0.886213370204797,0.885956128389133,8.618420633901,3445.059536369,0,4,-4753.44753444362,9516.89506888725,9542.86349797922,98565.8101937226,1327,470.8,1.30591319763564,19.0469850268544
154,51.9524389735745,0.915052517753197,0.914856485101859,7.75834532728361,4667.85768342153,0,4,-4519.88765441795,9049.7753088359,9075.64126754833,78249.4988825984,1300,470.8,1.30591319763564,19.0469850268544
155,49.0430449826705,0.863965964035604,0.863657962444741,8.22638890303511,2805.06981024169,0,4,-4684.43065181039,9378.86130362079,9404.82221391435,89667.3535587725,1325,470.8,1.30591319763564,19.0469850268544
156,48.3323565913235,0.880293901223304,0.880025501898692,7.56436550862683,3279.79178970641,0,4,-4617.68037410524,9245.36074821047,9271.37032979813,76559.8589833622,1338,470.8,1.30591319763564,19.0469850268544
157,46.3412870866656,0.866533566942897,0.866195105996852,7.11289173465747,2560.21729262532,0,4,-4011.06249594876,8032.12499189751,8057.52091387056,59851.789704658,1183,470.8,1.30591319763564,19.0469850268544
158,45.2365852785138,0.87233441457185,0.871995779066736,6.4852761928252,2576.02762083973,0,4,-3730.41325386205,7470.8265077241,7495.99844737368,47568.5110531618,1131,470.8,1.30591319763564,19.0469850268544
159,48.5894875239272,0.928712987269572,0.927643682078616,4.75302012172947,868.520040044794,2.18386383819361e-114,4,-605.434759934495,1220.86951986899,1237.46011983821,4518.24005551305,200,470.8,1.30591319763564,19.0469850268544
