"Age","power_predict","r.squared","adj.r.squared","sigma","statistic","p.value","df","logLik","AIC","BIC","deviance","df.residual","GHI","Wind_speed","Ambient_temp"
3,60.0075634497048,0.759837795528112,0.754799427602128,8.60703043820043,150.810303393983,4.25855874089692e-44,4,-522.98541580686,1055.97083161372,1070.92299454761,10593.5791338675,143,327,0.833260957937164,13.3354166513426
4,59.5686192927345,0.685162447684823,0.682789300305563,11.5350443485709,288.71466377214,1.73905128994715e-99,4,-1551.44994759648,3112.89989519295,3132.88215563605,52956.7847531522,398,327,0.833260957937164,13.3354166513426
5,55.2892875779815,0.678271912002413,0.675598271381935,18.0383627336742,253.688512512579,1.58351838676527e-88,4,-1571.66429981665,3153.3285996333,3172.82808640121,117463.09337029,361,327,0.833260957937164,13.3354166513426
6,69.7351667623588,0.756093541412518,0.755153028076063,18.028527781302,803.915810765564,8.26379091677909e-238,4,-3369.11390756055,6748.2278151211,6771.53708882383,252871.639261796,778,327,0.833260957937164,13.3354166513426
7,63.5283623133996,0.791859320613867,0.791305263792076,19.9974084703775,1429.20236602131,0,4,-4990.84257689412,9991.68515378824,10016.8394411688,450683.181413578,1127,327,0.833260957937164,13.3354166513426
8,129.540149435803,0.792512435319272,0.792065263843667,45.3432971558405,1772.27859681124,0,4,-7303.5455804545,14617.091160909,14643.2979923256,2861972.31897229,1392,327,0.833260957937164,13.3354166513426
9,136.773835075215,0.781475831821086,0.781055323479497,44.2734329793035,1858.40744292654,0,4,-8140.16979083425,16290.3395816685,16317.1113933206,3055853.37685791,1559,327,0.833260957937164,13.3354166513426
10,127.103616406733,0.786009795353422,0.785587446265304,42.7480123195346,1861.04295585305,0,4,-7883.57148838131,15777.1429767626,15803.7884454438,2777636.68705204,1520,327,0.833260957937164,13.3354166513426
11,121.511345246293,0.81971230693907,0.819305948502419,37.6238997289272,2017.21493392449,0,4,-6735.17864478292,13480.3572895658,13506.34072242,1884107.47281126,1331,327,0.833260957937164,13.3354166513426
12,118.845222050164,0.774435535373449,0.773882681293482,41.2970689051539,1400.79555064444,0,4,-6309.58524905587,12629.1704981117,12654.7362086553,2087468.2297922,1224,327,0.833260957937164,13.3354166513426
13,144.228455772719,0.751954490221498,0.751295962319432,40.0355090962085,1141.87187492201,0,4,-5791.26829827749,11592.536596555,11617.7041289764,1811211.44710963,1130,327,0.833260957937164,13.3354166513426
14,135.515524849125,0.792107463407436,0.791382256884439,28.9160382797754,1092.25088066447,9.76828297656217e-293,4,-4130.79673742529,8271.59347485059,8295.40133869461,719078.052025797,860,327,0.833260957937164,13.3354166513426
15,113.777459163969,0.791934919508337,0.790800019069291,19.5393976120038,697.801227545945,5.33388790916983e-187,4,-2430.81247323272,4871.62494646544,4893.21076989918,209983.432471988,550,327,0.833260957937164,13.3354166513426
16,108.778805458576,0.776043307936624,0.774355192167302,15.9368759336447,459.709767564306,6.7701670096151e-129,4,-1681.39481094706,3372.78962189411,3392.77188233721,101085.637780705,398,327,0.833260957937164,13.3354166513426
17,103.314180039683,0.704213422255637,0.703014287480998,30.7569787938396,587.267951150412,3.33522117066728e-195,4,-3602.71586234611,7215.43172469222,7238.49192986639,700033.890948277,740,327,0.833260957937164,13.3354166513426
18,143.995657655183,0.75514785361355,0.754365578385478,35.3773933990943,965.322467739334,2.61922825258179e-286,4,-4698.86163293548,9407.72326587097,9431.96859728413,1175214.80592771,939,327,0.833260957937164,13.3354166513426
19,137.284391231956,0.84204509970601,0.841642495881981,36.2739843971673,2091.49801728075,0,4,-5914.85305913562,11839.7061182712,11865.0767023522,1548698.88814207,1177,327,0.833260957937164,13.3354166513426
20,143.723762184002,0.798578050439378,0.798154895083159,44.7214206125241,1887.19825638833,0,4,-7472.1652973235,14954.330594647,14980.6647313846,2856007.79916808,1428,327,0.833260957937164,13.3354166513426
21,133.675731363224,0.828336080016442,0.828004895604898,39.4387031890461,2501.13245413662,0,4,-7939.05418727591,15888.1083745518,15914.8673738971,2418664.58585836,1555,327,0.833260957937164,13.3354166513426
22,153.906469066173,0.781176136373998,0.78076429723292,42.8132984386097,1896.7991588406,0,4,-8268.90559603137,16547.8111920627,16574.6937326944,2921767.76597038,1594,327,0.833260957937164,13.3354166513426
23,129.219065642323,0.800136764702995,0.799728324848845,42.1793140415182,1959.00756641325,0,4,-7594.7956294155,15199.591258831,15226.0631453274,2611710.7744631,1468,327,0.833260957937164,13.3354166513426
24,132.026022886144,0.781145033646322,0.780644603083013,41.8830695476872,1560.94589523389,0,4,-6780.42435120083,13570.8487024017,13596.7604629611,2301499.26733416,1312,327,0.833260957937164,13.3354166513426
25,141.598681515668,0.766419043669213,0.765817030895165,39.499418702574,1273.09432076531,0,4,-5949.21877020338,11908.4375404068,11933.7527812237,1816077.54660722,1164,327,0.833260957937164,13.3354166513426
26,135.213787188168,0.684777233113674,0.68368017011987,35.1470865449198,624.191351801321,1.55687129792968e-215,4,-4309.35927340435,8628.71854680869,8652.5379713515,1064843.85101782,862,327,0.833260957937164,13.3354166513426
27,142.531166789831,0.807041993711171,0.80604565288696,18.8656370202367,810.005947864688,4.62549802918876e-207,4,-2546.4173132779,5102.8346265558,5124.69268579196,206785.023164189,581,327,0.833260957937164,13.3354166513426
28,150.56625919891,0.764171535002556,0.762697607096322,18.9139279986768,518.459235197642,4.05700324536930e-150,4,-2107.66885338696,4225.33770677391,4246.24813130749,171713.602722782,480,327,0.833260957937164,13.3354166513426
29,136.715513924396,0.612650860720993,0.610605002590999,26.9401305132417,299.459112896829,1.56643189246699e-116,4,-2693.57474811302,5397.14949622604,5418.89519118294,412237.719016041,568,327,0.833260957937164,13.3354166513426
30,130.103432589431,0.841680357748334,0.841120924383487,28.1822649262721,1504.52298814661,0,4,-4056.25488867158,8122.50977734317,8146.25357508062,674309.807862025,849,327,0.833260957937164,13.3354166513426
31,155.585476835761,0.755765397711944,0.755149162382369,43.4995606121837,1226.42335069249,0,4,-6191.68205845674,12393.3641169135,12418.785249024,2249839.79863566,1189,327,0.833260957937164,13.3354166513426
32,163.003956297011,0.720852158598696,0.720279351810595,48.8326849857317,1258.45603364494,0,4,-7778.55535528842,15567.1107105768,15593.5621749891,3486330.70170277,1462,327,0.833260957937164,13.3354166513426
33,140.405759713531,0.800440749820034,0.800056735868437,44.1465611520245,2084.40538811417,0,4,-8135.68436185233,16281.3687237047,16308.1405353568,3038364.50515557,1559,327,0.833260957937164,13.3354166513426
34,127.855733586783,0.830491335048128,0.830163465290001,39.6304243463979,2532.99157504303,0,4,-7926.22035595985,15862.4407119197,15889.1868660428,2435954.89804101,1551,327,0.833260957937164,13.3354166513426
35,133.287823751167,0.8026419930197,0.802258525389556,42.7973616566187,2093.1153764406,0,4,-8009.53981663095,16029.0796332619,16055.8032285326,2828012.2704009,1544,327,0.833260957937164,13.3354166513426
36,126.366191746962,0.843385930329562,0.843025897985492,36.2149339210694,2342.52823175701,0,4,-6554.00576703678,13118.0115340736,13143.8966279031,1711535.47777418,1305,327,0.833260957937164,13.3354166513426
37,141.807528034522,0.772334485249479,0.771675857916546,40.937407858428,1172.64262600532,0,4,-5339.34923810875,10688.6984762175,10713.4381615606,1737878.60256747,1037,327,0.833260957937164,13.3354166513426
38,142.423897144253,0.791839890548904,0.791141366691686,33.5973971637186,1133.59033104761,4.47821382591646e-304,4,-4428.17717674855,8866.3543534971,8890.35520383861,1009133.87598192,894,327,0.833260957937164,13.3354166513426
39,112.723662345808,0.803144916421488,0.801977791420034,16.3405895889422,688.139586951857,4.23022105004344e-178,4,-2146.41337492561,4302.82674985121,4323.99880347981,135109.523265809,506,327,0.833260957937164,13.3354166513426
40,102.910254733773,0.654541322774482,0.652400049981762,23.1867258976088,305.678624881321,2.78825053767659e-111,4,-2224.50078062082,4459.00156124164,4479.95313827091,260210.140799808,484,327,0.833260957937164,13.3354166513426
41,137.888522695241,0.790732020124338,0.789696040025943,21.8768594258828,763.269508120732,2.60531230050559e-205,4,-2745.65787195387,5501.31574390775,5523.38303869358,290029.768873942,606,327,0.833260957937164,13.3354166513426
42,136.005751514377,0.741334512020579,0.740450689168713,34.3014039651099,838.78178806476,3.1727310363185e-257,4,-4367.53354098135,8745.0670819627,8768.97804224273,1033042.78367238,878,327,0.833260957937164,13.3354166513426
43,143.683313204582,0.77624392466039,0.775617156942352,40.7557612898488,1238.48740501529,0,4,-5509.02219487615,11028.0443897523,11052.9447694551,1778965.35587551,1071,327,0.833260957937164,13.3354166513426
44,134.505890602302,0.805961204229083,0.805500669112538,42.6414752637748,1750.05374242837,0,4,-6555.79601339427,13121.5920267885,13147.3180074635,2298325.40161629,1264,327,0.833260957937164,13.3354166513426
45,141.623931762914,0.765521077142484,0.765073028245304,46.0141594365451,1708.56592206944,0,4,-8258.17268815672,16526.3453763134,16553.1522534583,3324165.50378332,1570,327,0.833260957937164,13.3354166513426
46,119.61203313554,0.797619007587067,0.79724606964036,41.3838826871025,2138.74456764245,0,4,-8389.46415586285,16788.9283117257,16815.9161194033,2788154.71491106,1628,327,0.833260957937164,13.3354166513426
47,126.177050356446,0.813826113718707,0.813460828134114,40.1435255372761,2227.91741049335,0,4,-7833.77313202168,15677.5462640434,15704.2211734377,2463987.5404772,1529,327,0.833260957937164,13.3354166513426
48,136.054199087714,0.787549361625568,0.78709988918895,40.7278735804432,1752.16386471361,0,4,-7286.9576533071,14583.9153066142,14610.214404666,2352121.23529331,1418,327,0.833260957937164,13.3354166513426
49,130.850664841306,0.817141678272851,0.81666754260718,35.9793147929012,1723.43431940788,0,4,-5805.18238170249,11620.364763405,11645.6499483135,1497749.33456245,1157,327,0.833260957937164,13.3354166513426
50,132.702023562934,0.828511352909095,0.827956373468672,28.011056992096,1492.86855072804,0,4,-4421.67743700125,8853.35487400251,8877.53617038889,727342.103905995,927,327,0.833260957937164,13.3354166513426
51,139.581523910997,0.765075326943732,0.76407706346049,23.5713457980867,766.406204160744,1.60934981432618e-221,4,-3249.06329092524,6508.12658185048,6530.95290670065,392259.489969482,706,327,0.833260957937164,13.3354166513426
52,80.8191584639244,0.755360779065103,0.753493304096135,18.9331573453577,404.482411607506,9.65544555242418e-120,4,-1728.85160644676,3467.70321289353,3487.62289429696,140876.52769618,393,327,0.833260957937164,13.3354166513426
53,152.591735090258,0.546297311569726,0.544119538665261,26.3465949385856,250.851367674561,8.14211131770973e-107,4,-2948.17820859916,5906.35641719832,5928.57707348182,433839.415536192,625,327,0.833260957937164,13.3354166513426
54,140.616797394461,0.779126026473422,0.778309989625418,28.0370875197439,954.768192611116,1.06110621597921e-265,4,-3876.00792646656,7762.01585293313,7785.53792470795,638295.560590901,812,327,0.833260957937164,13.3354166513426
55,120.684353170507,0.836424923163547,0.835924183132415,29.4473856581775,1670.37758349912,0,4,-4722.71489237868,9455.42978475737,9479.88791424263,849805.551659409,980,327,0.833260957937164,13.3354166513426
56,141.396930236207,0.685382031919818,0.684329797912861,54.1538548401219,651.358944292078,1.129267033711e-224,4,-4873.09723806826,9756.19447613652,9780.21200242457,2630578.07465836,897,327,0.833260957937164,13.3354166513426
57,131.703622458099,0.841435539128461,0.841112816345141,39.9131949926388,2607.30132056549,0,4,-7544.14134366019,15098.2826873204,15124.7749128279,2348175.06028308,1474,327,0.833260957937164,13.3354166513426
58,139.528195399031,0.822731206526233,0.822396737104584,43.0293331103429,2459.80993560173,0,4,-8256.22549359122,16522.4509871824,16549.3209964792,2943922.37759416,1590,327,0.833260957937164,13.3354166513426
59,125.2699206831,0.814057329875762,0.81370111786403,40.2081300055879,2285.31689854311,0,4,-8025.41961119711,16060.8392223942,16087.6333768859,2531742.36324344,1566,327,0.833260957937164,13.3354166513426
60,1072.82122097055,0.775947318850684,0.775490068480992,41.3624761797677,1696.9856566164,0,4,-7576.29209882569,15162.5841976514,15189.0628730151,2514956.02051112,1470,327,0.833260957937164,13.3354166513426
61,140.158188894242,0.750609148865354,0.750216407367505,41.7753970089355,1911.20406927905,0,3,-6556.03452922907,13120.0690584581,13140.6655848524,2216383.41997281,1270,327,0.833260957937164,13.3354166513426
62,59.2718840093984,0.808796536682521,0.808194004760302,32.0152534699309,1342.32977018705,0,4,-4668.20015385174,9346.40030770348,9370.71409726874,975777.584916215,952,327,0.833260957937164,13.3354166513426
63,133.530848146012,0.778285280329876,0.777592421830907,22.0711405806865,1123.29614414464,4.51074857989413e-210,3,-2900.49015480995,5808.9803096199,5826.84488851685,311766.557780753,640,327,0.833260957937164,13.3354166513426
64,152.274652032067,0.711756981825728,0.710361131858783,21.3482316668784,509.909373271099,2.7554434320009e-112,3,-1862.13606171491,3732.27212342981,3748.39486447086,188223.509060019,413,327,0.833260957937164,13.3354166513426
65,134.179493006695,0.717088499687649,0.715196115070175,14.0247080262395,378.933802920501,1.0513927375478e-82,3,-1224.53976818198,2457.07953636397,2471.92124443347,58811.0381311591,299,327,0.833260957937164,13.3354166513426
66,127.76608679723,0.459001649447392,0.457377029776063,33.9088824830867,282.528678894961,1.42642305523764e-89,3,-3305.10641854074,6618.21283708149,6636.235973322,765774.999293689,666,327,0.833260957937164,13.3354166513426
67,137.734752652217,0.82287528497455,0.822551473795344,34.0313811154214,2541.21950635971,0,3,-5424.50304712401,10857.006094248,10877.0074320891,1266999.58128162,1094,327,0.833260957937164,13.3354166513426
68,140.263074191518,0.79204511094931,0.791729549660917,42.9543584185666,2509.956512676,0,3,-6840.05855284591,13688.1171056918,13708.8616829099,2431811.3636246,1318,327,0.833260957937164,13.3354166513426
69,133.227062498475,0.823734399708348,0.823480962468533,40.3623594780262,3250.25004339596,0,3,-7131.3680293922,14270.7360587844,14291.6957891497,2266106.00712307,1391,327,0.833260957937164,13.3354166513426
70,315.973005284779,0.840801457264109,0.840485168768608,38.8866182810561,2658.33714859036,0,4,-7688.49467781476,15386.9893556295,15413.6019077995,2283375.31281822,1510,327,0.833260957937164,13.3354166513426
71,154.08328169121,0.753483246051818,0.75317452125038,41.6933142007282,2440.63075769222,0,3,-8237.34550116933,16482.6910023387,16504.2020379716,2776116.92111791,1597,327,0.833260957937164,13.3354166513426
72,120.352444794566,0.842518440923527,0.842290372047239,37.0928110229039,3694.14036074657,0,3,-6963.28698005088,13934.5739601018,13955.5048926465,1900085.62545117,1381,327,0.833260957937164,13.3354166513426
73,131.069213678958,0.833853981937344,0.833589838824367,36.3278769243248,3156.82651173016,0,3,-6318.02990006354,12644.0598001271,12664.6184414709,1660201.01942075,1258,327,0.833260957937164,13.3354166513426
74,135.336408948487,0.815223785080459,0.814866038294554,35.9721280074904,2278.77319154635,0,3,-5180.24135995764,10368.4827199153,10388.2552096066,1336695.79516906,1033,327,0.833260957937164,13.3354166513426
75,129.145642242515,0.842018551226965,0.84160390175512,22.9238572538006,2030.67556671395,4.66574645390829e-306,3,-3480.10132886237,6968.20265772475,6986.76216106006,400433.462321181,762,327,0.833260957937164,13.3354166513426
76,97.6280877101507,0.381462747215666,0.376914679180487,17.0855918140967,83.8735797848854,4.22432292782736e-29,3,-1169.214624018,2346.42924803601,2360.89633242667,79401.5457575166,272,327,0.833260957937164,13.3354166513426
77,131.618438075929,0.632940721627004,0.630667908757822,21.6740636673906,278.48342915034,5.06870882654046e-71,3,-1463.88093864433,2935.76187728866,2950.90946681413,151734.106582166,323,327,0.833260957937164,13.3354166513426
78,136.857254807075,0.801308004342732,0.80060715074253,24.0104733024778,1143.33150905093,1.08177119764456e-199,3,-2619.03037262715,5246.06074525431,5263.44329069762,326877.103594503,567,327,0.833260957937164,13.3354166513426
79,134.29309347841,0.755483513329328,0.754746277691125,39.4117687928567,1024.75175395858,1.05617355956934e-303,4,-5085.90598750335,10181.8119750067,10206.3457488999,1545521.08178469,995,327,0.833260957937164,13.3354166513426
80,145.911554321175,0.779136456960712,0.778632968640714,42.9091624315507,1547.47672590146,0,4,-6832.98852849344,13675.9770569869,13701.9039920648,2423014.22627959,1316,327,0.833260957937164,13.3354166513426
81,142.708949175432,0.765068426835267,0.764598250237873,45.9272750061284,1627.19376309899,0,4,-7882.73187777838,15775.4637555568,15802.0398475055,3161862.56964333,1499,327,0.833260957937164,13.3354166513426
82,133.479089108291,0.794967487363257,0.794577691711856,44.6603028737766,2039.44678322269,0,4,-8252.91074135969,16515.8214827194,16542.653708461,3147388.30608283,1578,327,0.833260957937164,13.3354166513426
83,123.781456100334,0.825595240774754,0.825232652917737,41.9257834801243,2276.9522608026,0,4,-7457.05002814812,14924.1000562962,14950.4862949294,2536464.01536933,1443,327,0.833260957937164,13.3354166513426
84,121.190479645405,0.816494444705005,0.816110273968169,38.5705117308614,2125.34263132865,0,4,-7285.6371965394,14581.2743930788,14607.6259575092,2131851.70963368,1433,327,0.833260957937164,13.3354166513426
85,136.274448659176,0.699283868587134,0.697130769794201,45.951222951604,324.780205572828,6.46289273509551e-109,4,-2217.26801920874,4444.53603841748,4464.77289931271,884724.73922342,419,327,0.833260957937164,13.3354166513426
86,122.427971197974,0.776188521468851,0.774774975288655,37.8474815379395,549.107296488061,6.07123643356083e-154,4,-2418.1405265089,4846.28105301779,4867.13955600485,680405.132913219,475,327,0.833260957937164,13.3354166513426
89,NA,NA,NA,NA,NA,NA,NA,NA,NA,NA,NA,NA,327,0.833260957937164,13.3354166513426
92,145.135050709999,0.78821138906744,0.787684988211767,41.7664662713775,1497.35962731151,0,4,-6235.89681519249,12481.793630385,12507.2896391027,2105536.30969133,1207,327,0.833260957937164,13.3354166513426
93,140.421548849445,0.823288798008775,0.822929628899036,39.9603794211973,2292.20379951029,0,4,-7556.10122572573,15122.2024514515,15148.7014382853,2356923.91906541,1476,327,0.833260957937164,13.3354166513426
94,134.598765352213,0.813489133856572,0.813041865592439,41.8375734993237,1818.79466774511,0,4,-6464.67716839493,12939.3543367899,12965.0287910477,2189728.57794546,1251,327,0.833260957937164,13.3354166513426
95,127.699753199535,0.782587309174802,0.782182694985921,41.512372741218,1934.15686024214,0,4,-8312.20448848914,16634.4089769783,16661.3475231737,2777922.67005658,1612,327,0.833260957937164,13.3354166513426
96,125.865460417039,0.794313636543603,0.793918085844648,39.8237214036333,2008.1209277164,0,4,-7979.7170448784,15969.4340897568,15996.2090993623,2474048.90683735,1560,327,0.833260957937164,13.3354166513426
97,143.508845086948,0.752121391747319,0.751589843623833,42.4892509420055,1414.96387347511,0,4,-7248.96723389796,14507.9344677959,14534.1663081964,2525665.68741218,1399,327,0.833260957937164,13.3354166513426
98,133.070001447846,0.788373606081917,0.787832362107702,36.1806424634741,1456.5956271851,0,4,-5891.7802746115,11793.560549223,11818.9141697593,1535502.61687881,1173,327,0.833260957937164,13.3354166513426
99,140.883873981329,0.804755727334906,0.803789171529633,30.7070727140181,832.601411056468,1.95859361717435e-214,4,-2952.48665494028,5914.97330988057,5937.0406046664,571412.134686379,606,327,0.833260957937164,13.3354166513426
100,NA,NA,NA,NA,NA,NA,NA,NA,NA,NA,NA,NA,327,0.833260957937164,13.3354166513426
101,NA,NA,NA,NA,NA,NA,NA,NA,NA,NA,NA,NA,327,0.833260957937164,13.3354166513426
102,118.975481918306,0.290663319476109,0.282012872152647,63.2951131110536,33.6009582634832,3.08662036324582e-18,4,-1389.67049159314,2789.34098318628,2806.94828777559,985542.750560302,246,327,0.833260957937164,13.3354166513426
103,160.803062133385,0.731362476381102,0.73051770429425,38.7591207745851,865.751233692616,1.08841040805511e-271,4,-4861.09565439371,9732.19130878742,9756.51554767727,1433165.0488308,954,327,0.833260957937164,13.3354166513426
104,119.419499645499,0.854703937042396,0.854290380885971,29.3431812364184,2066.71796263227,0,4,-5074.27886251141,10158.5577250228,10183.3784030849,907517.488467254,1054,327,0.833260957937164,13.3354166513426
105,127.909473862206,0.858618534727314,0.858304586247804,34.6512333719858,2734.90266959508,0,4,-6724.58540344829,13459.1708068966,13485.2285905631,1622156.47314396,1351,327,0.833260957937164,13.3354166513426
106,123.225187103859,0.83872475243588,0.838384509297559,38.0906515162325,2465.07470091804,0,4,-7211.99916805022,14433.9983361004,14460.3114791053,2063176.57622797,1422,327,0.833260957937164,13.3354166513426
107,121.115330247774,0.816854415461837,0.8165191886445,40.2800365766953,2436.72156646683,0,4,-8401.60493994733,16813.2098798947,16840.2312754849,2659246.92711003,1639,327,0.833260957937164,13.3354166513426
108,153.945499339771,0.722965136001812,0.722347673452038,43.9676573133589,1170.86475328342,0,4,-7021.22735946487,14052.4547189297,14078.4940182869,2602026.4814352,1346,327,0.833260957937164,13.3354166513426
109,132.429836827172,0.80511504088048,0.80461661387506,40.4919585748797,1615.3118352823,0,4,-6024.2859500056,12058.5719000112,12083.9255205475,1923249.28592653,1173,327,0.833260957937164,13.3354166513426
110,130.910919095494,0.745155402520886,0.740285760530839,41.7289001550547,153.020571952504,2.14600997447769e-46,4,-827.146063819504,1664.29212763901,1679.69914946393,273384.273979633,157,327,0.833260957937164,13.3354166513426
111,131.680645543259,0.812216704446827,0.811572876004931,28.3028625195114,1261.54213077974,3.57425022784502e-317,4,-4183.70683805712,8377.41367611425,8401.30760060267,700920.523448569,875,327,0.833260957937164,13.3354166513426
112,127.752531825068,0.812390445009328,0.811531164604791,20.8115185348945,945.431131350725,1.8054675010757e-237,4,-2933.47325433244,5876.94650866489,5899.4001263374,283693.143942009,655,327,0.833260957937164,13.3354166513426
113,137.076990170524,0.833682502043271,0.832822239122806,14.1521633345749,969.101982905211,2.0742809974698e-225,4,-2374.17584161113,4758.35168322225,4780.20118813639,116164.561688122,580,327,0.833260957937164,13.3354166513426
114,125.107572411589,0.7391864260933,0.737811310589398,18.1461350696363,537.544972764781,1.44761212290629e-165,4,-2471.86096754898,4953.72193509797,4975.47636368154,187361.582022361,569,327,0.833260957937164,13.3354166513426
115,128.282470598259,0.838244428841525,0.837708814367491,27.3106651977634,1565.01451972944,0,4,-4298.85199285,8607.70398570001,8631.77120869756,675760.42479116,906,327,0.833260957937164,13.3354166513426
116,145.213849910078,0.760139479076768,0.759521281857893,41.4324096105612,1229.60675957249,0,4,-6005.02284348076,12020.0456869615,12045.3609277785,1998174.27498384,1164,327,0.833260957937164,13.3354166513426
117,124.831469543753,0.842863045861486,0.842400878349314,35.7653589918335,1823.71764276591,0,4,-5113.81645575387,10237.6329115077,10262.2902705357,1304744.12189102,1020,327,0.833260957937164,13.3354166513426
118,125.750649103155,0.836107628357893,0.835784369242229,38.2613389381,2586.49358313724,0,4,-7719.64957332218,15449.2991466444,15475.9478950896,2226637.6172083,1521,327,0.833260957937164,13.3354166513426
119,141.085912572571,0.750338697937343,0.749892342808506,46.1476064348808,1681.03523284902,0,4,-8829.81568024435,17669.6313604887,17696.7700546914,3573471.450684,1678,327,0.833260957937164,13.3354166513426
120,115.900253307428,0.806238158627373,0.80586625490113,40.997502134359,2167.86792316375,0,4,-8040.54608294211,16091.0921658842,16117.876757096,2627082.86830434,1563,327,0.833260957937164,13.3354166513426
121,123.85935798564,0.817304853343712,0.816920771045205,37.2095646707706,2127.94199712317,0,4,-7203.80396193303,14417.6079238661,14443.9385677638,1975755.28016425,1427,327,0.833260957937164,13.3354166513426
122,116.508366926517,0.856023574383139,0.855579202699137,29.9820172301201,1926.36841004933,0,4,-4701.86332845644,9413.72665691288,9438.14396984495,873751.559185977,972,327,0.833260957937164,13.3354166513426
