"Age","power_predict","r.squared","adj.r.squared","sigma","statistic","p.value","df","logLik","AIC","BIC","deviance","df.residual","GHI","Wind_speed","Ambient_temp"
0,3.49870176435765,0.971640308377831,0.969458793637664,0.335401466229111,445.397086019005,3.36841084350506e-30,4,-11.9407663373568,33.8815326747137,42.6875332531815,4.38727159839687,39,484.4,1.18378427627245,18.533386616939
1,3.28647361496327,0.975745778845489,0.975664751380607,0.296064924088003,12042.1610163071,0,4,-179.984896668894,369.969793337789,393.992865938102,78.713686469161,898,484.4,1.18378427627245,18.533386616939
2,3.2499500455184,0.98261719165011,0.982580311575817,0.250427294283573,26643.5795073363,0,4,-46.7081541669298,103.41630833386,129.70132186932,88.6773552271786,1414,484.4,1.18378427627245,18.533386616939
3,3.0856259841484,0.977050880321525,0.977001421011873,0.264474780534225,19754.6404751382,0,4,-122.142227161818,254.284454323637,280.491285740248,97.3660980777678,1392,484.4,1.18378427627245,18.533386616939
4,2.88516704277057,0.973616373542738,0.973556906315561,0.267734047867612,16372.3183301399,0,4,-133.068804474416,276.137608948831,302.121041803003,95.4081036358644,1331,484.4,1.18378427627245,18.533386616939
5,2.84199597429306,0.985557016777361,0.985521501244846,0.174783941583045,27750.0278609025,0,4,400.129047790695,-790.25809558139,-764.708698266028,37.2703000070725,1220,484.4,1.18378427627245,18.533386616939
6,3.077999870638,0.986005121870542,0.985969176121922,0.160647462489275,27430.3682554799,0,4,482.059842734486,-954.119685468972,-928.787350618287,30.1432852145558,1168,484.4,1.18378427627245,18.533386616939
7,3.133507140566,0.979352811472553,0.979291116686117,0.158039965021469,15874.1583857994,0,4,431.380530757205,-852.76106151441,-828.182444271254,25.076537066163,1004,484.4,1.18378427627245,18.533386616939
8,3.18007997330042,0.984776932168124,0.984720270625325,0.117551159915173,17379.987969431,0,4,586.778868360326,-1163.55773672065,-1140.07256548232,11.1375298091065,806,484.4,1.18378427627245,18.533386616939
9,3.20825522742172,0.979441296971507,0.979278991421282,0.131148618266937,6034.55208780017,4.5434276791561e-320,4,237.204950388785,-464.409900777571,-444.656688014632,6.53598482786414,380,484.4,1.18378427627245,18.533386616939
10,3.16782049245055,0.989082281668675,0.988903302679637,0.147206981676798,5526.24800812813,3.32390576511397e-179,4,94.9564200932172,-179.912840186434,-163.757297102162,3.96559086815397,183,484.4,1.18378427627245,18.533386616939
11,3.11213498056469,0.987958817498811,0.987889482474812,0.179512522299957,14249.0585639756,0,4,158.757841507004,-307.515683014009,-286.198691701051,16.7890924901586,521,484.4,1.18378427627245,18.533386616939
12,3.1481382285608,0.971344104268139,0.971279271924854,0.299598852649446,14982.4000653787,0,4,-282.121795850321,574.243591700643,600.208262806722,119.021060546754,1326,484.4,1.18378427627245,18.533386616939
13,3.08508859675068,0.982861644136917,0.982825179549975,0.240786788940596,26953.8674791681,0,4,8.93835863120364,-7.87671726240729,18.3941719698753,81.7493715969355,1410,484.4,1.18378427627245,18.533386616939
14,3.14731013108054,0.987708584621141,0.987682451207862,0.201782428784103,37794.8557304335,0,4,259.004632612261,-508.009265224522,-481.734841174136,57.4504856266425,1411,484.4,1.18378427627245,18.533386616939
15,3.13882393304644,0.995938307262945,0.99592965308808,0.118932575254954,115081.833068705,0,4,1004.88996914792,-1999.77993829584,-1973.51612620557,19.9161000991395,1408,484.4,1.18378427627245,18.533386616939
16,2.97089965887298,0.981295772388918,0.981253230552046,0.239861766128902,23066.6055948069,0,4,13.5845223707621,-17.1690447415243,8.7692410790505,75.8869065757781,1319,484.4,1.18378427627245,18.533386616939
17,2.91101610514076,0.968003399151029,0.967927216768055,0.264417890211183,12706.3943311498,0,4,-110.131354255287,230.262708510575,255.972891384109,88.095194036304,1260,484.4,1.18378427627245,18.533386616939
18,3.22026133256065,0.991875122254054,0.991853359188663,0.134103937672312,45576.0760001955,0,4,665.390156839585,-1320.78031367917,-1295.6570685269,20.1419300311258,1120,484.4,1.18378427627245,18.533386616939
19,3.23362436554884,0.986633767733231,0.986594300511971,0.139764135134452,24998.8151238197,0,4,561.841634704667,-1113.68326940933,-1089.04547987794,19.8465576853995,1016,484.4,1.18378427627245,18.533386616939
20,3.09713838622508,0.978230618169082,0.978160695101102,0.148562788239804,13990.0986389405,0,4,459.569175272389,-909.138350544779,-884.919600799748,20.6142225143121,934,484.4,1.18378427627245,18.533386616939
21,3.13031913522846,0.984840127485765,0.984788969310801,0.123542966038574,19250.8846960447,0,4,602.303870835545,-1194.60774167109,-1170.63480876671,13.5686865028137,889,484.4,1.18378427627245,18.533386616939
22,3.2031441798036,0.990252929387625,0.990223688175787,0.122243179165126,33864.975737098,0,4,687.539625459155,-1365.07925091831,-1340.52051441705,14.9433948523972,1000,484.4,1.18378427627245,18.533386616939
23,3.23354745580447,0.993772548086366,0.993756145666927,0.125774307519476,60586.9488820542,0,4,749.900017555444,-1489.80003511089,-1464.59297679191,18.0180419560522,1139,484.4,1.18378427627245,18.533386616939
24,3.30430008974485,0.980484684455275,0.980439787256936,0.258869787759051,21838.4380479616,0,4,-86.2979745599539,182.595949119908,208.477221779994,87.3856913867983,1304,484.4,1.18378427627245,18.533386616939
25,3.27314688923981,0.990048195639233,0.990026931100001,0.194724806915286,46558.6479358271,0,4,307.861884513156,-605.723769026312,-579.474141342722,53.2365216011863,1404,484.4,1.18378427627245,18.533386616939
26,3.23457950630489,0.991573812666192,0.991555859142043,0.17558594510495,55230.037537554,0,4,454.814445370786,-899.628890741571,-873.365078651305,43.4092371587052,1408,484.4,1.18378427627245,18.533386616939
27,3.2127129720063,0.993592560071871,0.99357892722096,0.150017121853323,72882.2288576846,0,4,677.990014084807,-1345.98002816961,-1319.70913893733,31.7322429573084,1410,484.4,1.18378427627245,18.533386616939
28,3.16066040701274,0.977149833690212,0.977098019254135,0.271847097614971,18858.6407125095,0,4,-152.490328924446,314.980657848893,340.934038020554,97.770817249267,1323,484.4,1.18378427627245,18.533386616939
29,3.10015576481159,0.980208986944327,0.980161105461128,0.240104668742689,20471.5669075294,0,4,11.6340187405075,-13.2680374810151,12.3623988854805,71.4863124205253,1240,484.4,1.18378427627245,18.533386616939
30,3.00649780733918,0.989511722615297,0.989485804302156,0.147663413052859,38178.0911899176,0,4,603.550712421022,-1197.10142484204,-1171.57659760069,26.470643035065,1214,484.4,1.18378427627245,18.533386616939
31,2.73883591268245,0.957144306483913,0.957019119453195,0.224382933607806,7645.71458391324,0,4,79.8058597371857,-149.611719474371,-124.920297054287,51.707088818595,1027,484.4,1.18378427627245,18.533386616939
32,2.96871462594462,0.980700080859397,0.980636594283276,0.13445256200273,15447.3613287863,0,4,540.25084152333,-1070.50168304666,-1046.40160122329,16.4866721833373,912,484.4,1.18378427627245,18.533386616939
33,3.12851911587586,0.984893853681209,0.98483582751097,0.114459949162329,16973.2699854361,0,4,589.649654682404,-1169.29930936481,-1145.9708907759,10.2319434505117,781,484.4,1.18378427627245,18.533386616939
34,3.108820239952,0.984942591851804,0.98489911521615,0.149254242220305,22654.5264377965,0,4,505.945534770564,-1001.89106954113,-977.141787266125,23.1456251447671,1039,484.4,1.18378427627245,18.533386616939
35,3.14519134321177,0.989935382358469,0.989908779844879,0.154964128060418,37212.0994886892,0,4,509.568216771295,-1009.13643354259,-983.946903725355,27.2557549185715,1135,484.4,1.18378427627245,18.533386616939
36,3.37334223048953,0.990258145550591,0.990233420031684,0.16786901503226,40050.0450271659,0,4,435.643813367806,-861.287626735612,-835.895918837823,33.3087673377391,1182,484.4,1.18378427627245,18.533386616939
37,3.25111054474497,0.980428942480486,0.980386458274582,0.254422466137517,23077.4924853025,0,4,-67.5457458529988,145.091491705998,171.262377604747,89.4579535427353,1382,484.4,1.18378427627245,18.533386616939
38,3.22317476958167,0.992876773202217,0.992861595872392,0.157847360739509,65418.4092104499,0,4,605.192648588106,-1200.38529717621,-1174.12148508595,35.0814313237396,1408,484.4,1.18378427627245,18.533386616939
39,3.243962005954,0.990010594436679,0.98998894110092,0.175232905063315,45720.927503813,0,4,449.91155701604,-889.823114032081,-863.645018326747,42.4978942874292,1384,484.4,1.18378427627245,18.533386616939
40,3.23663375546888,0.98435084200226,0.984316091836461,0.209649965193961,28326.5077847866,0,4,196.279386586572,-382.558773173144,-356.500989506575,59.3806487807753,1351,484.4,1.18378427627245,18.533386616939
41,3.20203689250547,0.972639839840709,0.972573324054261,0.28861846730193,14622.6917212919,0,4,-216.24240507763,442.48481015526,468.091072421482,102.792964669961,1234,484.4,1.18378427627245,18.533386616939
42,3.09229011283741,0.992634682453828,0.992616145580809,0.126893562560517,53549.1979387394,0,4,773.983200499098,-1537.9664009982,-1512.53271132564,19.1935556534055,1192,484.4,1.18378427627245,18.533386616939
43,3.00104702034854,0.991424109909654,0.991400199435424,0.117208765859415,41464.0086344572,0,4,784.852596476039,-1559.70519295208,-1534.78161135149,14.7819747986529,1076,484.4,1.18378427627245,18.533386616939
44,2.99645944427736,0.979633391411858,0.979567408878635,0.142278835053939,14846.8593665868,0,4,495.860340829286,-981.720681658572,-957.544758727836,18.7452651533873,926,484.4,1.18378427627245,18.533386616939
45,3.0149732032724,0.974573344334949,0.974491322865062,0.148638891955587,11881.9297639326,0,4,457.139623143311,-904.279246286622,-880.081864095477,20.5469737876599,930,484.4,1.18378427627245,18.533386616939
46,3.02813157959049,0.984327328484051,0.984279350918186,0.132945427405305,20516.4082573654,0,4,591.300049759347,-1172.60009951869,-1148.14197003343,17.3209969346197,980,484.4,1.18378427627245,18.533386616939
47,3.09007394528645,0.991245878678501,0.991222942116086,0.133754636291786,43216.8456967996,0,4,683.141830941119,-1356.28366188224,-1331.050425493,20.4843966253325,1145,484.4,1.18378427627245,18.533386616939
48,3.0567454494567,0.987476353460165,0.987446416456484,0.184977767583995,32985.1432022521,0,4,340.146792726482,-670.293585452964,-644.603220282742,42.9420519979501,1255,484.4,1.18378427627245,18.533386616939
49,3.14673753566262,0.97013791939599,0.970072047159363,0.307030862470439,14727.5691411062,0,4,-322.808463134993,655.616926269987,681.707810462004,128.204412692704,1360,484.4,1.18378427627245,18.533386616939
50,3.03840055843861,0.993207786483642,0.993193456919261,0.150121572818442,69311.792048266,0,4,682.734276249721,-1355.46855249944,-1329.15540949457,32.0468839814363,1422,484.4,1.18378427627245,18.533386616939
51,3.0369787218691,0.988643248913934,0.988617041026813,0.180849982372948,37723.1191634573,0,4,381.661219612807,-753.322439225615,-727.456480513182,42.5187309615843,1300,484.4,1.18378427627245,18.533386616939
52,2.94809686754014,0.991295778555887,0.991276435841567,0.163401388027406,51249.0523379147,0,4,533.592931098448,-1057.1858621969,-1031.13176992953,36.045018372532,1350,484.4,1.18378427627245,18.533386616939
53,2.78616755083138,0.967516686475758,0.967441667275933,0.268259132510143,12896.9209046777,0,4,-132.384017807684,274.768035615368,300.630158500992,93.479887865448,1299,484.4,1.18378427627245,18.533386616939
54,2.76614111919675,0.987986708243431,0.987924996128244,0.152909897026917,16009.6069505315,0,4,271.879962564802,-533.759925129604,-511.876290390111,13.6547589795289,584,484.4,1.18378427627245,18.533386616939
55,2.93025226396184,0.99014399879213,0.99011657021734,0.119707914202589,36098.9955319681,0,4,763.474209922973,-1516.94841984595,-1492.01558754891,15.4477235311076,1078,484.4,1.18378427627245,18.533386616939
56,2.79366736450148,0.978707163346629,0.978642047638209,0.13693153244828,15030.277441389,0,4,562.799744344765,-1115.59948868953,-1091.13628048367,18.3939899316402,981,484.4,1.18378427627245,18.533386616939
57,2.74313524647394,0.977883336288746,0.977807071931121,0.127547522394596,12822.2850980657,0,4,561.651023160115,-1113.30204632023,-1089.43664444195,14.15348230803,870,484.4,1.18378427627245,18.533386616939
58,2.856561272484,0.975960811896322,0.975874957653095,0.145990334968038,11367.6479485245,0,4,428.45797275648,-846.91594551296,-823.22518303998,17.9030694394272,840,484.4,1.18378427627245,18.533386616939
59,2.8742935805067,0.990718837035086,0.990693593618137,0.127466855351158,39246.6217642735,0,4,711.546755012911,-1413.09351002582,-1388.04646536228,17.9213225320638,1103,484.4,1.18378427627245,18.533386616939
60,2.82754108710132,0.987057801953618,0.987023104371724,0.165766611628214,28447.4521877393,0,4,426.762486909143,-843.524973818287,-818.406179044595,30.7485193048524,1119,484.4,1.18378427627245,18.533386616939
61,2.87251319697522,0.971899273038601,0.97183822873673,0.267725920889956,15921.2120254638,0,4,-138.085740383239,286.171480766477,312.338757859585,98.9861699973138,1381,484.4,1.18378427627245,18.533386616939
62,2.7880809855399,0.988421767804216,0.988397220315462,0.175053710741777,40265.6979578244,0,4,461.367038890261,-912.734077780522,-886.445539394722,43.3609793269189,1415,484.4,1.18378427627245,18.533386616939
63,2.8086817359721,0.990246672441352,0.990225905952583,0.154713670237972,47684.8389461626,0,4,633.953840730704,-1257.90768146141,-1231.64032954798,33.7262745397322,1409,484.4,1.18378427627245,18.533386616939
64,2.80399465116326,0.991732198646157,0.99171425117578,0.147013735219899,55257.4918801111,0,4,692.633838487762,-1375.26767697552,-1349.09679107677,29.8692189904498,1382,484.4,1.18378427627245,18.533386616939
65,2.80936311565378,0.968306818039595,0.968234569144549,0.273076492400989,13402.375460776,0,4,-157.63143034122,325.262860682439,351.189795760341,98.1351342438679,1316,484.4,1.18378427627245,18.533386616939
66,3.02268862389987,0.986340844917648,0.986306640021782,0.163889338208244,28836.2475591687,0,4,470.33296109442,-930.66592218884,-905.207211613364,32.1779387836467,1198,484.4,1.18378427627245,18.533386616939
67,2.83802257204369,0.991653272418237,0.991630549929358,0.11482412982429,43641.9301456797,0,4,826.432719202489,-1642.86543840498,-1617.82291249457,14.5294080304757,1102,484.4,1.18378427627245,18.533386616939
68,2.91612865541069,0.987443829475681,0.987404915724056,0.111488240432891,25375.1897013809,0,4,755.204620392819,-1500.40924078564,-1476.01246176334,12.0318796666678,968,484.4,1.18378427627245,18.533386616939
69,2.7826573456509,0.977239866908034,0.977165729666692,0.124478865156623,13181.4975742238,0,4,616.834078738129,-1223.66815747626,-1199.5191887887,14.2708838288971,921,484.4,1.18378427627245,18.533386616939
70,2.90023738889774,0.985138271004667,0.985090122854574,0.121885135220502,20460.5632636866,0,4,639.740336442189,-1269.48067288438,-1245.30474995364,13.7566432098288,926,484.4,1.18378427627245,18.533386616939
71,2.99511603740539,0.989203803759906,0.989160094463387,0.120065716236308,22631.4281525665,0,4,524.084639028398,-1038.1692780568,-1015.1023569649,10.6820901755652,741,484.4,1.18378427627245,18.533386616939
72,2.86782989268758,0.985534159242688,0.985493179523829,0.173495279909141,24049.3147995436,0,4,355.628104466247,-701.256208932494,-676.411957040785,31.8765482676456,1059,484.4,1.18378427627245,18.533386616939
73,2.92626417446879,0.978691446578596,0.978562564199031,0.240606315535963,7593.67921264551,0,4,4.83538965980845,0.329220680383093,21.4022611724941,28.7141339415925,496,484.4,1.18378427627245,18.533386616939
74,2.79621132662682,0.983308766573572,0.983262186387265,0.20839251627612,21110.0221907084,0,4,163.199137657222,-316.398275314444,-291.479325488153,46.6844989028848,1075,484.4,1.18378427627245,18.533386616939
75,2.78438066685107,0.989865801447726,0.989844406236145,0.156760949603361,46265.7636122462,0,4,620.587780836139,-1231.17556167228,-1204.86592620876,34.9196473504981,1421,484.4,1.18378427627245,18.533386616939
76,2.76683224778249,0.986162985240914,0.986110037480356,0.191317366860118,18625.2067104084,0,4,187.092968364497,-364.185936728995,-340.838446279706,28.6962305320346,784,484.4,1.18378427627245,18.533386616939
77,2.81377081913923,0.946875908966067,0.946706544169997,0.352434296061299,5590.74808306169,0,4,-353.360609590072,716.721219180145,740.977143817614,116.88154699085,941,484.4,1.18378427627245,18.533386616939
78,2.70893248834135,0.961986961104944,0.961773004037992,0.252776411290746,4496.1682023938,0,4,-21.4532934877332,52.9065869754665,74.3365774480108,34.0565222179802,533,484.4,1.18378427627245,18.533386616939
79,2.71720604040567,0.987057590718669,0.98702257969266,0.144068592851252,28192.7639157055,0,4,579.124398796377,-1148.24879759275,-1123.17472583638,23.0181372257689,1109,484.4,1.18378427627245,18.533386616939
80,2.74498309472359,0.986873547600144,0.986835719207061,0.113499620901487,26088.169947655,0,4,793.086862685849,-1576.1737253717,-1551.4148645497,13.4103326665172,1041,484.4,1.18378427627245,18.533386616939
81,2.68413623785345,0.977389808066147,0.977314104298511,0.122771415631231,12910.7155243568,0,4,612.647733660576,-1215.29546732115,-1191.28349350453,13.5052471645024,896,484.4,1.18378427627245,18.533386616939
82,2.82263049266999,0.984777006286595,0.984723592273565,0.0934946029548499,18436.6788869216,0,4,818.838966909231,-1627.67793381846,-1603.89908920854,7.4737608683407,855,484.4,1.18378427627245,18.533386616939
83,2.8573382631174,0.992213365413727,0.992190773630595,0.0957544660151941,43919.2143268368,0,4,964.260459942549,-1918.5209198851,-1893.79566456647,9.48066096575803,1034,484.4,1.18378427627245,18.533386616939
84,2.76606087031666,0.989296701676563,0.989269695877597,0.147252780191032,36632.7507262484,0,4,594.525949310632,-1179.05189862126,-1153.63076651078,25.7815403347721,1189,484.4,1.18378427627245,18.533386616939
85,2.94881944695312,0.977618144251034,0.977566173997747,0.247235577775399,18811.1098641543,0,4,-25.8931678816107,61.7863357632214,87.6215251477825,78.9740567459722,1292,484.4,1.18378427627245,18.533386616939
86,2.83956230185696,0.982498354002771,0.982460607821612,0.21857316188261,26029.0796007453,0,4,143.868723539314,-277.737447078628,-251.534198607351,66.4539498896483,1391,484.4,1.18378427627245,18.533386616939
87,2.76443276199386,0.984086405445528,0.984052996919522,0.201408076820092,29456.1455734819,0,4,264.934885516922,-519.869771033843,-493.532143894703,57.9676899605582,1429,484.4,1.18378427627245,18.533386616939
88,2.69777121855735,0.986154944433896,0.986109797513572,0.182371893650474,21843.238416955,0,4,263.282686717916,-516.565373435833,-492.421813077624,30.5987469861671,920,484.4,1.18378427627245,18.533386616939
89,2.86439506875322,0.974723753615734,0.974665913234992,0.263094794436456,16851.959498038,0,4,-108.059370393417,226.118740786835,252.026700509894,90.7459396968847,1311,484.4,1.18378427627245,18.533386616939
90,2.74500592348862,0.979701291219731,0.979652260522194,0.195300597316402,19981.3859568848,0,4,268.992171566988,-527.984343133977,-502.34587463724,47.372765553682,1242,484.4,1.18378427627245,18.533386616939
91,2.844808548657,0.936729147291657,0.936544863254643,0.31899340767107,5083.07264409177,0,4,-283.745838208527,577.491676417054,602.197626692395,104.809497961729,1030,484.4,1.18378427627245,18.533386616939
92,3.0119761602813,0.987990588180911,0.987954595937697,0.118430656665807,27450.0975753343,0,4,720.065568653865,-1430.13113730773,-1405.56742320526,14.0398462587327,1001,484.4,1.18378427627245,18.533386616939
93,3.09444582083562,0.979415333753015,0.979343106853903,0.118506524393714,13560.2572696796,0,4,615.200728902442,-1220.40145780488,-1196.62261319496,12.0074458569156,855,484.4,1.18378427627245,18.533386616939
94,2.98013602892013,0.984551048905371,0.984499949838906,0.111466946545738,19267.4958079112,0,4,708.110156865654,-1406.22031373131,-1382.14759924501,11.2693663162129,907,484.4,1.18378427627245,18.533386616939
95,2.94592840804435,0.978258699401894,0.978194754400135,0.168315872376024,15298.4388535438,0,4,373.689639598297,-737.379279196594,-712.721920168597,28.8968375515762,1020,484.4,1.18378427627245,18.533386616939
96,3.14985594889696,0.992397519211495,0.992377389077016,0.119743470393879,49299.1003220406,0,4,801.843274457946,-1593.68654891589,-1568.50580644714,16.2455190293318,1133,484.4,1.18378427627245,18.533386616939
97,3.06815822964031,0.984067478316291,0.984031322820791,0.208227103526226,27217.646023236,0,4,201.151538711581,-392.303077423162,-366.353466569432,57.3199722219422,1322,484.4,1.18378427627245,18.533386616939
98,2.92993664471907,0.981225661870334,0.981186684005705,0.235448972776347,25173.9204086279,0,4,41.593114349458,-73.1862286989159,-46.7930839873125,80.1053361391763,1445,484.4,1.18378427627245,18.533386616939
99,2.93212751184281,0.98889661072298,0.9888745801887,0.186446482625132,44887.5455385416,0,4,397.182159702364,-784.364319404728,-757.745166573716,52.5605838155248,1512,484.4,1.18378427627245,18.533386616939
100,2.9024364443975,0.986402459069218,0.986375390308241,0.199517763406513,36440.6209766009,0,4,293.494910815858,-576.989821631715,-550.387186820352,59.989658237509,1507,484.4,1.18378427627245,18.533386616939
101,2.84394591192737,0.982467282409221,0.982430084281377,0.229058297979469,26411.7400346669,0,4,79.7662273696837,-149.532454739367,-123.247441203907,74.1893332767775,1414,484.4,1.18378427627245,18.533386616939
102,2.78739902205106,0.974996315759044,0.974939099090301,0.248472998564975,17040.4243582951,0,4,-32.8673805549969,75.7347611099938,101.642720833053,80.9396074618056,1311,484.4,1.18378427627245,18.533386616939
103,2.9068629308133,0.987954434693591,0.987924194780688,0.149473442196372,32670.5449800311,0,4,579.559261017405,-1149.11852203481,-1123.67230625967,26.6990603568284,1195,484.4,1.18378427627245,18.533386616939
104,2.9568009538428,0.991579104238179,0.991555712861063,0.101775694533648,42390.7963739678,0,4,940.796942229792,-1871.59388445958,-1846.65181854959,11.1869553576309,1080,484.4,1.18378427627245,18.533386616939
105,2.90877515397128,0.979690589027926,0.979628353856408,0.123128984152269,15741.7512498213,0,4,666.103435560618,-1322.20687112124,-1297.7538255205,14.842371056864,979,484.4,1.18378427627245,18.533386616939
106,2.81097902886472,0.983249968794288,0.983197842141159,0.103219543422859,18862.7105282545,0,4,826.700006891885,-1643.40001378377,-1619.02385334739,10.2707202752242,964,484.4,1.18378427627245,18.533386616939
107,3.04683863480056,0.99000209705946,0.989972013098757,0.109353674175531,32907.970689402,0,4,797.027635157575,-1584.05527031515,-1559.51149641857,11.9223513775211,997,484.4,1.18378427627245,18.533386616939
108,2.9627109105063,0.989096540386632,0.989068268667669,0.142752940200521,34985.36971465,0,4,614.664663238817,-1219.32932647763,-1194.04414156915,23.5778110398288,1157,484.4,1.18378427627245,18.533386616939
109,3.1681222051169,0.985768956828582,0.985735602821149,0.190120876532791,29554.7381767669,0,4,311.648303522633,-613.296607045266,-587.507929624017,46.2668130478038,1280,484.4,1.18378427627245,18.533386616939
110,2.97743996181303,0.972707598517621,0.972650341731294,0.277661935654235,16988.5119463045,0,4,-195.297779513983,400.595559027967,426.936674133765,110.247495231097,1430,484.4,1.18378427627245,18.533386616939
111,2.87752822604905,0.9875685963181,0.987543448502156,0.184214827568437,39270.5513074161,0,4,407.528603271163,-805.057206542327,-778.534626810026,50.3257572982703,1483,484.4,1.18378427627245,18.533386616939
112,2.86908244090133,0.988311330723268,0.988287653472877,0.177693261648781,41740.9671465599,0,4,460.508226209255,-911.016452418511,-884.500602162327,46.7624198436008,1481,484.4,1.18378427627245,18.533386616939
113,2.88441021391552,0.980571008220538,0.98053010507995,0.224802732494448,23973.0004619756,0,4,107.167876750737,-204.335753501474,-178.012102611825,72.0141826651825,1425,484.4,1.18378427627245,18.533386616939
114,2.92240278801321,0.955070904651825,0.954969178398207,0.327871281978304,9388.63735445823,0,4,-401.752968759754,813.505937519508,839.466847813074,142.436940248578,1325,484.4,1.18378427627245,18.533386616939
115,2.98183434754681,0.990634144085865,0.990611263330374,0.139021070267622,43295.5172522443,0,4,684.766860831723,-1359.53372166345,-1333.95175094298,23.7333815974199,1228,484.4,1.18378427627245,18.533386616939
116,3.09716929072363,0.98951226141392,0.989483263058383,0.119115864854846,34123.0474304886,0,4,773.799840649668,-1537.59968129934,-1512.63460568467,15.394619347228,1085,484.4,1.18378427627245,18.533386616939
117,3.13671826991658,0.985774291167374,0.985726553889412,0.112683905338366,20649.9895523066,0,4,688.283137559822,-1366.56627511964,-1342.56542477813,11.3517102949414,894,484.4,1.18378427627245,18.533386616939
118,3.09028154366796,0.9803418885947,0.980272178979787,0.12518633175876,14063.2234136776,0,4,562.166165376154,-1114.33233075231,-1090.60614900489,13.2581885396953,846,484.4,1.18378427627245,18.533386616939
119,3.00401802679882,0.989169141600135,0.98913771744617,0.105733131533778,31477.9880059275,0,4,861.362457974534,-1712.72491594907,-1687.99966063044,11.5595979374732,1034,484.4,1.18378427627245,18.533386616939
120,2.93061816033015,0.991307692085132,0.991285517830247,0.118471527997681,44705.3439780567,0,4,844.693416788225,-1679.38683357645,-1654.02048498915,16.5057514646198,1176,484.4,1.18378427627245,18.533386616939
121,2.89730726884274,0.984801669552615,0.984762931242213,0.172277849652485,25421.9055853122,0,4,403.19874029231,-796.39748058462,-771.026896503633,34.9329568550007,1177,484.4,1.18378427627245,18.533386616939
122,2.68551116599457,0.959658918482106,0.959573750822322,0.308135153186157,11267.8793912041,0,4,-342.450681459267,694.901362918535,721.210998382049,134.920074405889,1421,484.4,1.18378427627245,18.533386616939
123,2.62634003419924,0.985326327212405,0.985296583281079,0.186241332397232,33126.9702181,0,4,390.474466035914,-770.948932071828,-744.436449953192,51.3350341617823,1480,484.4,1.18378427627245,18.533386616939
124,2.56659493952128,0.988292484886888,0.988268865152296,0.17092187952351,41841.8116007377,0,4,520.289404152071,-1030.57880830414,-1004.04279673032,43.4416475940757,1487,484.4,1.18378427627245,18.533386616939
125,2.64922456037917,0.98767995621989,0.987653835985727,0.176614131563604,37812.829320931,0,4,448.774180449274,-887.548360898548,-861.259822512748,44.1374603271721,1415,484.4,1.18378427627245,18.533386616939
126,2.64962289273825,0.962405023672802,0.962321231006397,0.281615582099351,11485.5519577,0,4,-202.827416203715,415.65483240743,441.694131764593,106.747674365236,1346,484.4,1.18378427627245,18.533386616939
127,2.67223239781691,0.982421985108739,0.982380396745432,0.175743980621651,23622.520988556,0,4,408.774079170473,-807.548158340947,-781.806429621446,39.1633804469745,1268,484.4,1.18378427627245,18.533386616939
128,2.69442852605505,0.98824522812713,0.988214048360889,0.11905084836004,31695.0813706411,0,4,807.020495635717,-1604.04099127143,-1578.86905162186,16.0297811841225,1131,484.4,1.18378427627245,18.533386616939
129,2.73174533374438,0.981969579135643,0.981915106565056,0.113534830595391,18026.8632185085,0,4,756.440980004979,-1502.88196000996,-1478.35820616015,12.7999266540158,993,484.4,1.18378427627245,18.533386616939
130,2.7223521145764,0.988736172425401,0.98870197051981,0.0803371746401997,28908.8036278554,0,4,1095.76765385055,-2181.5353077011,-2157.03669216468,6.37661288961991,988,484.4,1.18378427627245,18.533386616939
131,2.55632415716678,0.980476649914578,0.980417785542461,0.107218178684576,16656.5379813828,0,4,815.140998025875,-1620.28199605175,-1595.74822215851,11.4382591512354,995,484.4,1.18378427627245,18.533386616939
132,2.91233924654715,0.984345910671737,0.9842999593332,0.137939857388974,21421.4850320339,0,4,578.614853698271,-1147.22970739654,-1122.56259226789,19.4460071501333,1022,484.4,1.18378427627245,18.533386616939
133,2.84758942669038,0.981732375415384,0.981688533116381,0.188662909783468,22392.3561888587,0,4,314.067202630524,-618.134405261048,-592.463936655084,44.4921169099562,1250,484.4,1.18378427627245,18.533386616939
134,2.76866244629339,0.963411183470482,0.963332043997094,0.277997196885113,12173.5859771572,0,4,-191.059968885139,392.119937770277,418.308828729894,107.190746327184,1387,484.4,1.18378427627245,18.533386616939
135,2.64290874859344,0.984758475789943,0.984727071550499,0.183195511098667,31357.5011919101,0,4,408.266427738683,-806.532855477366,-780.101896903854,48.8642267374376,1456,484.4,1.18378427627245,18.533386616939
136,2.66268627146326,0.984590107750741,0.984558765597013,0.181823685946712,31414.2453743667,0,4,424.670274571405,-839.340549142811,-812.844941829257,48.7632828375916,1475,484.4,1.18378427627245,18.533386616939
137,2.69801608154221,0.985855725640103,0.985825758957137,0.177233017511601,32898.3934178654,0,4,444.121804368282,-878.243608736563,-851.951547983586,44.4787441747147,1416,484.4,1.18378427627245,18.533386616939
138,2.62660505277265,0.974721843237968,0.97466404257464,0.225366301257157,16863.5061800209,0,4,95.5570405501615,-181.114081100323,-155.202320540897,66.6364403019394,1312,484.4,1.18378427627245,18.533386616939
139,2.65825389133943,0.979206034771697,0.97914132326165,0.189286756302141,15131.8681030124,0,4,239.700078239596,-469.400156479193,-445.02399604281,34.5396149713763,964,484.4,1.18378427627245,18.533386616939
