"Age","power_predict","r.squared","adj.r.squared","sigma","statistic","p.value","df","logLik","AIC","BIC","deviance","df.residual","GHI","Wind_speed","Ambient_temp"
1,229.138740290537,0.979743025155785,0.979695988836487,15.3171048701573,20829.5002624368,0,4,-5373.68658567418,10757.3731713484,10783.2083607329,303120.90247159,1292,588.06,0.828842298428719,26.8083176969836
2,245.202531600228,0.955794493764608,0.95569294972272,24.0721396804558,9412.61029195191,0,4,-6023.988654751,12057.977309502,12083.866221583,756785.088886759,1306,588.06,0.828842298428719,26.8083176969836
3,282.275591051769,0.983019229677148,0.982982527724,15.3670479250633,26783.8396973012,0,4,-5776.41741584244,11562.8348316849,11589.0273158894,327770.872760496,1388,588.06,0.828842298428719,26.8083176969836
4,264.490059485436,0.991908326003668,0.991888780897397,9.46133338305969,50749.7023671108,0,4,-4566.02199531564,9142.04399063129,9167.68245912802,111179.902096666,1242,588.06,0.828842298428719,26.8083176969836
5,251.228741642397,0.966907093974006,0.966819469333161,16.4288722597004,11034.6482980577,0,4,-4793.83839636351,9597.67679272701,9622.85753519576,305805.586941053,1133,588.06,0.828842298428719,26.8083176969836
6,301.289784930815,0.991377500143332,0.991352483219183,8.25861169983059,39628.2730139435,0,4,-3662.33857923525,7334.6771584705,7359.40241378913,70523.6258936704,1034,588.06,0.828842298428719,26.8083176969836
7,302.034947755522,0.994612703939614,0.994596279256503,5.93691887682817,60555.9752490822,0,4,-3159.72321896279,6329.44643792558,6353.92485141432,34683.053658038,984,588.06,0.828842298428719,26.8083176969836
8,292.508978609694,0.978692750132703,0.978631345954411,12.8638533737876,15938.5367145519,0,4,-4150.15720298003,8310.31440596005,8335.07326678205,172263.351290821,1041,588.06,0.828842298428719,26.8083176969836
9,290.369864680845,0.988787807871134,0.98875788209143,11.4028226147305,33041.3381930843,0,4,-4343.95423157124,8697.90846314248,8723.04947030277,146147.384667302,1124,588.06,0.828842298428719,26.8083176969836
10,289.918378332013,0.991924154107791,0.991904803039359,11.5443631462122,51259.3998415707,0,4,-4852.60738807129,9715.21477614258,9740.89321287772,166856.94520543,1252,588.06,0.828842298428719,26.8083176969836
11,282.490404116732,0.986671266974461,0.986641930071249,15.2218884777395,33632.4273859919,0,4,-5659.66399988544,11329.3279997709,11355.4298689545,315815.126473571,1363,588.06,0.828842298428719,26.8083176969836
12,281.907362240948,0.989890942938854,0.989838923777304,12.7648888690838,19029.3521358331,0,4,-2325.82200193225,4661.6440038645,4683.51912796364,94995.4121107546,583,588.06,0.828842298428719,26.8083176969836
16,202.78841425608,0.925147097007902,0.924170754794962,20.613605287609,947.564373173708,3.99454548466117e-129,4,-1038.08693164084,2086.17386328168,2103.45046885847,97731.7662792687,230,588.06,0.828842298428719,26.8083176969836
17,271.870554710215,0.943961154793625,0.943770762341056,22.9569865666165,4957.97570782177,0,4,-4036.11694982671,8082.23389965342,8106.17312456497,465361.514050094,883,588.06,0.828842298428719,26.8083176969836
18,263.995800466374,0.972132813509248,0.972052350025637,13.7378199312092,12081.6645001856,0,4,-4210.76821572165,8431.5364314433,8456.28571371831,196088.076624359,1039,588.06,0.828842298428719,26.8083176969836
19,284.021983976294,0.982739536537462,0.982686098570086,10.1155877978961,18390.2866218247,0,4,-3630.22055627625,7270.44111255249,7294.84303296342,99153.0378855387,969,588.06,0.828842298428719,26.8083176969836
20,298.153210158101,0.991523511361906,0.991498918067985,8.3901242363599,40316.8243565967,0,4,-3678.73776447928,7367.47552895855,7392.20078427718,72787.5869814067,1034,588.06,0.828842298428719,26.8083176969836
21,287.902591254665,0.99251144078352,0.992491146585101,9.40796699069733,48906.1662012545,0,4,-4064.80679783189,8139.61359566378,8164.67867461198,97980.396088142,1107,588.06,0.828842298428719,26.8083176969836
22,282.443304874471,0.990282009494019,0.990258834635896,11.3988668474896,42730.8768953386,0,4,-4859.79185892841,9729.58371785683,9755.28598307234,163457.180081752,1258,588.06,0.828842298428719,26.8083176969836
23,277.42852209592,0.990332582060587,0.99031113068942,12.3794445537321,46166.4000093638,0,4,-5333.82440952973,10677.6488190595,10703.710291402,207194.87536447,1352,588.06,0.828842298428719,26.8083176969836
24,261.072620946779,0.987793545471653,0.987767500405092,13.4320650453805,37926.3206392931,0,4,-5661.37960445064,11332.7592089013,11359.0159338181,253671.042164966,1406,588.06,0.828842298428719,26.8083176969836
25,283.024803717864,0.966422452657695,0.966354664877058,22.4406811632841,14256.5878919926,0,4,-6747.42012334206,13504.8402466841,13531.3729036788,748326.078213248,1486,588.06,0.828842298428719,26.8083176969836
26,242.963834137503,0.971440835010123,0.971382511323962,19.3433128499103,16656.0260326901,0,4,-6451.63053202304,12913.2610640461,12939.7363461284,549646.551701965,1469,588.06,0.828842298428719,26.8083176969836
27,258.055226345627,0.991834646577709,0.99181749247388,9.83445321241396,57819.0884526961,0,4,-5303.31431625674,10616.6286325135,10642.9627692511,138111.119141664,1428,588.06,0.828842298428719,26.8083176969836
28,269.339088051539,0.979911856146955,0.979864027233019,14.9278243496792,20487.8550548285,0,4,-5208.41390792604,10426.8278158521,10452.5379987256,280778.324166744,1260,588.06,0.828842298428719,26.8083176969836
29,259.699950922174,0.969550221542682,0.969468072859793,17.0913898771014,11802.3830383166,0,4,-4749.38131018855,9508.76262037709,9533.8501510918,324832.556019364,1112,588.06,0.828842298428719,26.8083176969836
30,236.687791263351,0.990135363310833,0.990106714801571,7.53482666289418,34561.4968744291,0,4,-3563.69404487719,7137.38808975438,7162.10852579553,58647.1420635764,1033,588.06,0.828842298428719,26.8083176969836
31,250.674521582883,0.99277957270133,0.992757780667229,6.07386574638019,45556.9942722033,0,4,-3214.48391023336,6438.96782046671,6463.49658684827,36670.4940344203,994,588.06,0.828842298428719,26.8083176969836
32,257.167658829541,0.993851871147714,0.993834119091355,5.42814975319,55985.1687633671,0,4,-3242.28610403416,6494.57220806832,6519.32149034333,30613.9373230359,1039,588.06,0.828842298428719,26.8083176969836
33,239.777570962613,0.984244145020931,0.9842003787571,9.50618724056359,22488.6489929132,0,4,-3977.23174745237,7964.46349490473,7989.40556081473,97597.0035208662,1080,588.06,0.828842298428719,26.8083176969836
34,243.339928731112,0.980887346563994,0.980820284622114,13.4200701175708,14626.5872871477,0,4,-3447.4729440746,6904.94588814921,6928.72473275913,153984.031076243,855,588.06,0.828842298428719,26.8083176969836
35,235.729126502844,0.987517636279891,0.987489897693846,11.3921388791091,35600.8642505793,0,4,-5213.4182945636,10436.8365891272,10462.8906813946,175204.118125227,1350,588.06,0.828842298428719,26.8083176969836
36,238.714927936583,0.986729934870506,0.986702403615051,12.6216965054269,35840.353756103,0,4,-5731.81316252082,11473.6263250416,11500.0229192187,230358.243988204,1446,588.06,0.828842298428719,26.8083176969836
37,243.838688680557,0.980235783267704,0.980196774945207,14.3478981684976,25128.8884139834,0,4,-6219.79137200317,12449.5827440063,12476.2282126876,312910.516417437,1520,588.06,0.828842298428719,26.8083176969836
38,243.422493993617,0.985639277909682,0.985610246800335,11.776641437669,33951.140692851,0,4,-5778.96147366505,11567.9229473301,11594.4488884071,205814.89679031,1484,588.06,0.828842298428719,26.8083176969836
39,274.171240619765,0.973142051456566,0.973085028211251,18.6505526659174,17065.707959594,0,4,-6154.59905250559,12319.1981050112,12345.4795912096,491502.321133498,1413,588.06,0.828842298428719,26.8083176969836
40,277.708330693788,0.986927434850183,0.986897925673773,12.5548798649613,33444.7637956323,0,4,-5262.07792000441,10534.1558400088,10560.1317766097,209483.636194977,1329,588.06,0.828842298428719,26.8083176969836
41,264.307190760699,0.991576736851611,0.991374578536049,9.10052169091037,4904.95151830993,1.96653765237502e-129,4,-465.886201289159,941.772402578317,956.071464600126,10352.4368808413,125,588.06,0.828842298428719,26.8083176969836
