"Age","power_predict","r.squared","adj.r.squared","sigma","statistic","p.value","df","logLik","AIC","BIC","deviance","df.residual","GHI","Wind_speed","Ambient_temp"
0,20.6255783969137,0.995845316611548,0.995562042744154,1.06483894051691,3515.48600572096,2.17735243611782e-52,4,-69.0363073379192,148.072614675838,157.428619730378,49.8908066466118,44,412.343885005,1.17425373013969,29.1854485797543
1,21.0184001245657,0.995013897663727,0.995003728862225,1.07992375184771,97849.6726000054,0,4,-2204.34501649133,4418.69003298266,4445.17209932653,1715.5321407229,1471,412.343885005,1.17425373013969,29.1854485797543
2,21.2408192709035,0.996856764062329,0.99684047786576,0.315813491165722,61208.6904321171,0,4,-153.266456543317,316.532913086635,338.373849018387,57.7483953361212,579,412.343885005,1.17425373013969,29.1854485797543
3,20.7007069358234,1,1,3.1953425799812e-11,2.50274389954549e+24,0,2,10919.9476173947,-21833.8952347895,-21821.3738764777,4.88048238924475e-19,478,412.343885005,1.17425373013969,29.1854485797543
4,20.7007069358215,1,1,3.20584881733006e-11,1.07908969924124e+23,0,2,6551.42541911394,-13096.8508382279,-13085.8619567875,2.9393554589189e-19,286,412.343885005,1.17425373013969,29.1854485797543
5,20.700706935822,1,1,2.30020217465778e-11,3.69373756293001e+24,0,2,11077.7223140822,-22149.4446281645,-22136.9232698528,2.52906456117557e-19,478,412.343885005,1.17425373013969,29.1854485797543
6,20.191395431845,0.995474158580509,0.995459480175905,1.02127597501752,67818.9616278765,0,4,-1335.74763174537,2681.49526349075,2705.66580718482,964.779270861889,925,412.343885005,1.17425373013969,29.1854485797543
7,20.2341653874895,0.990653148170958,0.990628377362224,1.12295425251324,39992.7656299259,0,4,-1741.64454195699,3493.28908391397,3518.46542691038,1427.48171866492,1132,412.343885005,1.17425373013969,29.1854485797543
8,18.6965498416348,0.983958888396189,0.983912030231816,1.13945619736512,20998.6648336522,0,4,-1595.5199516735,3201.03990334699,3225.73132576708,1333.41615720804,1027,412.343885005,1.17425373013969,29.1854485797543
9,14.8512060584937,0.820447753713061,0.8199090969742,2.72792344981176,1523.13652558806,0,4,-2430.16513404291,4870.33026808583,4894.88900458709,7441.5663480329,1000,412.343885005,1.17425373013969,29.1854485797543
10,12.1353979972145,0.986861921555998,0.9868255279869,0.703094557045729,27116.3819884441,0,4,-1157.47164698336,2324.94329396672,2349.89917840232,535.372338507559,1083,412.343885005,1.17425373013969,29.1854485797543
11,11.0303242114039,0.891317377175455,0.891043156932837,2.92631983219062,3250.37046376923,0,4,-2971.76881479442,5953.53762958885,5978.95876169934,10181.8204869636,1189,412.343885005,1.17425373013969,29.1854485797543
12,21.206757391327,0.994639430059468,0.994627283752956,1.10385246234401,81888.2208426794,0,4,-2013.56212004466,4037.12424008931,4063.08138673949,1613.28110241677,1324,412.343885005,1.17425373013969,29.1854485797543
13,21.2437940717286,0.995426611471217,0.995417142757907,1.07090796296517,105127.970281715,0,4,-2159.25538695603,4328.51077391206,4354.91770222991,1661.77676059108,1449,412.343885005,1.17425373013969,29.1854485797543
14,21.395768900156,0.99495798802855,0.994948127509701,1.08294097858823,100903.208367215,0,4,-2302.87341926487,4615.74683852974,4642.43802928007,1799.01562420403,1534,412.343885005,1.17425373013969,29.1854485797543
15,20.3925936381828,0.996436249271292,0.996429315904116,0.873847321166748,143716.065211773,0,4,-1983.19888606696,3976.39777213392,4003.11490327965,1177.48529497528,1542,412.343885005,1.17425373013969,29.1854485797543
16,22.6980222832172,0.983651584082671,0.983618689885655,1.88866646318191,29903.4988931804,0,4,-3069.93757924906,6149.87515849813,6176.42456592725,5318.48796463977,1491,412.343885005,1.17425373013969,29.1854485797543
17,22.2996211300638,0.99397038347829,0.993957453635856,1.09310675231718,76874.1296387811,0,4,-2113.6684001661,4237.33680033221,4263.56864073272,1671.64043837401,1399,412.343885005,1.17425373013969,29.1854485797543
18,21.3823569260609,0.994032541523012,0.994018738612117,1.05868784385455,72016.1529025632,0,4,-1918.23231668785,3846.4646333757,3872.31907576826,1453.70347609083,1297,412.343885005,1.17425373013969,29.1854485797543
19,19.6155790848469,0.989085063287354,0.989057430536183,1.20967253692741,35793.9409347068,0,4,-1911.4403284405,3832.880656881,3858.28499636446,1734.01956121674,1185,412.343885005,1.17425373013969,29.1854485797543
20,17.7410966479708,0.984893489592386,0.984850286988741,1.05940806780198,22797.0864372415,0,4,-1552.90743994432,3115.81487988864,3140.61187244931,1177.34038137599,1049,412.343885005,1.17425373013969,29.1854485797543
21,11.3407157086247,0.850400711107698,0.849950110839951,1.8504049838479,1887.26188592388,0,4,-2032.33904782685,4074.6780956537,4099.21687204861,3410.30260983214,996,412.343885005,1.17425373013969,29.1854485797543
22,10.8845891458193,0.979705960322191,0.979647250467771,0.736630228045968,16687.2490147118,0,4,-1156.90948340194,2323.81896680388,2348.55865214696,562.701184307284,1037,412.343885005,1.17425373013969,29.1854485797543
23,12.0386096865986,0.952276553275447,0.952156845633161,1.59553720516931,7955.01887008139,0,4,-2261.37548142142,4532.75096284284,4558.20134702172,3044.70381180307,1196,412.343885005,1.17425373013969,29.1854485797543
24,14.6021546378102,0.966784033342563,0.966707966243347,1.84368563307281,12709.621417317,0,4,-2666.34353362068,5342.68706724136,5368.59122323658,4452.9214948148,1310,412.343885005,1.17425373013969,29.1854485797543
25,19.3900764099988,0.9730826432177,0.973025735486659,2.3772186491103,17099.3048821432,0,4,-3249.36677066397,6508.73354132794,6535.03615431839,8019.00810955681,1419,412.343885005,1.17425373013969,29.1854485797543
26,20.1628269386711,0.996652634318868,0.996646100748899,0.839147125035513,152543.347502871,0,4,-1914.33769559324,3838.67539118648,3865.37632536308,1082.3060583889,1537,412.343885005,1.17425373013969,29.1854485797543
27,20.9617989275161,0.996014403636929,0.996006802372409,0.919520664487189,131032.725025999,0,4,-2103.34887109754,4216.69774219508,4243.5141401299,1330.00021105503,1573,412.343885005,1.17425373013969,29.1854485797543
28,20.76887730083,0.986038509054446,0.986010360887217,1.60511295165837,35030.2917072579,0,4,-2821.05924619931,5652.11849239862,5678.65785630243,3833.6647303212,1488,412.343885005,1.17425373013969,29.1854485797543
29,16.5968882740647,0.969211611347588,0.969145636229047,1.94132354136111,14690.5626360793,0,4,-2921.55829568734,5853.11659137469,5879.35199429762,5276.23192913997,1400,412.343885005,1.17425373013969,29.1854485797543
30,10.206460026105,0.994774192305199,0.994762233935188,0.517833411843666,83186.436896607,0,4,-998.497404483181,2006.99480896636,2032.90276868942,351.546541014785,1311,412.343885005,1.17425373013969,29.1854485797543
31,10.9398379796884,0.951280791513312,0.951158586140854,1.42694145850615,7784.27963008202,0,4,-2127.36287526338,4264.72575052675,4290.17613470563,2435.24966350036,1196,412.343885005,1.17425373013969,29.1854485797543
32,11.4566923144362,0.874942021706101,0.874585392490434,2.20302645896984,2453.36608238804,0,4,-2330.45796814522,4670.91593629044,4695.72715361178,5105.6985090251,1052,412.343885005,1.17425373013969,29.1854485797543
33,19.8018558170581,0.975411541307088,0.975337702091794,1.39656168899745,13209.9391552709,0,4,-1756.20666940399,3522.41333880798,3546.96709274779,1948.43416662422,999,412.343885005,1.17425373013969,29.1854485797543
34,15.8193552941703,0.957497799318644,0.957372424095395,1.89010992045541,7637.05758208904,0,4,-2096.73663547658,4203.47327095316,4228.11596004398,3633.24827509782,1017,412.343885005,1.17425373013969,29.1854485797543
35,18.9414769654381,0.986153059873591,0.986117705983906,1.4377498692517,27893.7641282333,0,4,-2098.99562574193,4207.99125148387,4233.35336098655,2428.8715066766,1175,412.343885005,1.17425373013969,29.1854485797543
36,18.99679919477,0.995532101752233,0.995521783280529,0.91208493445104,96480.5768068207,0,4,-1726.96895376698,3463.93790753396,3489.80003041958,1080.63670702067,1299,412.343885005,1.17425373013969,29.1854485797543
37,19.629554810273,0.997135852757925,0.997129793208048,0.789680792924163,164556.092931685,0,4,-1679.95592887572,3369.91185775145,3396.21095580326,884.258780183508,1418,412.343885005,1.17425373013969,29.1854485797543
38,20.2693367793693,0.996625191695821,0.996618500073275,0.901554012412183,148936.253472385,0,4,-1993.31232663455,3996.6246532691,4023.24710316584,1229.76585122961,1513,412.343885005,1.17425373013969,29.1854485797543
39,21.1688056725317,0.991396347730297,0.991379959821212,1.41178953932069,60495.5972466762,0,4,-2783.03230917132,5576.06461834263,5602.88735341391,3139.21078275313,1575,412.343885005,1.17425373013969,29.1854485797543
40,22.885495227665,0.993741528967826,0.993729217221534,1.18278432185836,80714.9128429435,0,4,-2424.22954367026,4858.45908734052,4885.12093337016,2133.44259685176,1525,412.343885005,1.17425373013969,29.1854485797543
41,21.691073284438,0.993552067877637,0.993538690425101,1.17107459477995,74270.6479579871,0,4,-2284.44469676848,4578.88939353696,4605.28598771403,1983.06711165542,1446,412.343885005,1.17425373013969,29.1854485797543
42,17.1643001401177,0.99098510626582,0.990964863240968,1.07937204661849,48954.3985398063,0,4,-2001.72308464946,4013.44616929892,4039.44829376364,1556.49880406858,1336,412.343885005,1.17425373013969,29.1854485797543
43,19.4432754870719,0.976159766195043,0.976101713677661,1.89495240229912,16815.1151786975,0,4,-2541.84822257941,5093.69644515883,5119.29462334892,4423.92055579838,1232,412.343885005,1.17425373013969,29.1854485797543
44,19.3170515921221,0.987734271638924,0.987700728170297,1.13639778034808,29446.3963354018,0,4,-1701.02530613307,3412.05061226614,3437.07048294975,1416.6657069525,1097,412.343885005,1.17425373013969,29.1854485797543
45,17.8114774720258,0.97830227695882,0.978234259018252,1.33331756509554,14383.0034956926,0,4,-1638.04686309418,3286.09372618835,3310.4335982332,1701.29309302842,957,412.343885005,1.17425373013969,29.1854485797543
46,19.3876372541653,0.982451731495481,0.982400270297521,1.22201612859544,19091.1166166448,0,4,-1661.16158340263,3332.32316680526,3356.9951528549,1527.66985717397,1023,412.343885005,1.17425373013969,29.1854485797543
47,18.7320780285337,0.987332231155794,0.987298299632104,1.27574122659964,29097.7864766949,0,4,-1866.60810114468,3743.21620228937,3768.33944744164,1822.81755851547,1120,412.343885005,1.17425373013969,29.1854485797543
48,18.6091979336948,0.99365641957379,0.993641701289738,1.07260332348911,67511.7028652772,0,4,-1929.26523897903,3868.53047795805,3894.36952387964,1487.56791120093,1293,412.343885005,1.17425373013969,29.1854485797543
49,20.5043591757848,0.989329973367485,0.989307043510824,1.57462844980787,43145.9292585789,0,4,-2620.1381592791,5250.27631855819,5276.49745613621,3461.31883790229,1396,412.343885005,1.17425373013969,29.1854485797543
50,21.070332859704,0.992369791498256,0.992354927455721,1.36568419085245,66763.1156937187,0,4,-2670.03465661734,5350.06931323468,5376.7799718876,2872.24369608224,1540,412.343885005,1.17425373013969,29.1854485797543
51,21.2491379163911,0.995195502643522,0.995186239473812,1.10127671576883,107435.741085762,0,4,-2362.03498895677,4734.06997791354,4760.83218341476,1887.13298970476,1556,412.343885005,1.17425373013969,29.1854485797543
52,21.631589966897,0.992561241924202,0.992546825726381,1.30922910575489,68850.4177194892,0,4,-2618.35856618454,5246.71713236909,5273.4536308728,2653.39715789869,1548,412.343885005,1.17425373013969,29.1854485797543
53,19.8894430412064,0.996434037952483,0.996426735641123,0.823434630554986,136454.608522526,0,4,-1797.03371307222,3604.06742614444,3630.52911202531,993.335325517936,1465,412.343885005,1.17425373013969,29.1854485797543
54,18.6834032925961,0.995764303906313,0.995754905172377,0.805287437032385,105946.642464727,0,4,-1628.42775846483,3266.85551692965,3292.91698927215,876.755581639437,1352,412.343885005,1.17425373013969,29.1854485797543
55,17.5464110003216,0.995865301552083,0.995855370330831,0.717089114140774,100276.217424055,0,4,-1359.23516922969,2728.47033845937,2754.13681823385,642.25678022638,1249,412.343885005,1.17425373013969,29.1854485797543
56,17.2327325890644,0.989566766096058,0.989538794959586,0.946746302361367,35378.1394294595,0,4,-1530.0092181081,3070.01843621619,3095.13723098988,1002.99165979808,1119,412.343885005,1.17425373013969,29.1854485797543
57,16.1583169431503,0.910525618634694,0.910255030787823,2.44302314647576,3364.9908122783,0,4,-2300.92207399739,4611.84414799477,4636.3628842827,5920.61519746259,992,412.343885005,1.17425373013969,29.1854485797543
58,19.1253619776923,0.979078742437101,0.979015280584028,1.28549014492424,15427.8309730203,0,4,-1656.38402521276,3322.76805042552,3347.27170374574,1634.30757865768,989,412.343885005,1.17425373013969,29.1854485797543
59,19.3687896406428,0.985506938513975,0.985466567869167,1.35765974625699,24411.4738123254,0,4,-1862.39804552557,3734.79609105113,3759.72430013933,1985.1694655753,1077,412.343885005,1.17425373013969,29.1854485797543
60,19.8258082879536,0.995335305096087,0.995324028637818,0.973409367945713,88266.6597400347,0,4,-1731.02180977048,3472.04361954095,3497.67807358545,1175.87951482715,1241,412.343885005,1.17425373013969,29.1854485797543
61,20.1897627474936,0.995789226763892,0.995780019533784,0.97922921598617,108152.964037139,0,4,-1921.57491429807,3853.14982859615,3879.28450868862,1315.5968844089,1372,412.343885005,1.17425373013969,29.1854485797543
62,22.964819917467,0.988583607848939,0.988560544430452,1.71032090909555,42863.7068007283,0,4,-2909.91482211266,5829.82964422532,5856.35894438874,4343.91845395282,1485,412.343885005,1.17425373013969,29.1854485797543
63,22.2104891981855,0.994477290651335,0.994466703988047,1.17261089117189,93936.8017647343,0,4,-2474.14825795589,4958.29651591177,4985.08748467544,2151.90051277857,1565,412.343885005,1.17425373013969,29.1854485797543
64,22.0867339361076,0.994803111239022,0.99479309796588,1.10392103972912,99348.4445173905,0,4,-2367.29409227759,4744.58818455517,4771.35359415775,1897.42506766645,1557,412.343885005,1.17425373013969,29.1854485797543
65,20.6485743622353,0.995697830519783,0.995689145117064,0.929738402790003,114640.375664421,0,4,-2003.66621570501,4017.33243141003,4043.86508840473,1284.51845746704,1486,412.343885005,1.17425373013969,29.1854485797543
66,20.0420785602674,0.995906672464896,0.995897793229462,0.867268954645525,112161.309367249,0,4,-1768.54754358953,3547.09508717907,3573.26957928064,1040.23097309395,1383,412.343885005,1.17425373013969,29.1854485797543
67,20.3061892775499,0.991018504022493,0.990996896574272,1.22752788154747,45864.6710084454,0,4,-2029.54677120962,4069.09354241925,4094.75203497158,1879.01040087058,1247,412.343885005,1.17425373013969,29.1854485797543
68,19.8938628932395,0.989021210268394,0.988992011359533,1.16934499472026,33871.8551089789,0,4,-1781.3292122628,3572.65842452559,3597.81713081941,1542.39078441203,1128,412.343885005,1.17425373013969,29.1854485797543
69,19.3158780885532,0.981685746533056,0.981632196084322,1.28660180957263,18331.9798385601,0,4,-1719.06741668629,3448.13483337258,3472.8214037787,1698.38316602185,1026,412.343885005,1.17425373013969,29.1854485797543
70,19.4212150106927,0.967077236718054,0.966973814425022,1.67195782800728,9350.76189440222,0,4,-1851.67935559163,3713.35871118326,3737.68816655767,2669.64804459627,955,412.343885005,1.17425373013969,29.1854485797543
71,18.6916216804345,0.991207279181743,0.99118321151527,1.00637510059076,41184.1871034787,0,4,-1565.81909347267,3141.63818694535,3166.65351423928,1110.0187640256,1096,412.343885005,1.17425373013969,29.1854485797543
72,20.1321627413883,0.992625040101997,0.992606964219894,1.14554738293741,54914.3347167594,0,4,-1907.31707054189,3824.63414108379,3850.19985162732,1606.22925922302,1224,412.343885005,1.17425373013969,29.1854485797543
73,20.1456470834343,0.993904488589454,0.99389093296734,1.18386737968798,73320.4629222495,0,4,-2146.18903446814,4302.37806893629,4328.42846707714,1890.68012115784,1349,412.343885005,1.17425373013969,29.1854485797543
74,20.1959367148494,0.995188552992893,0.995178733713287,1.08040300137603,101350.464890554,0,4,-2203.50317360833,4417.00634721667,4443.48502258041,1715.88784871202,1470,412.343885005,1.17425373013969,29.1854485797543
75,20.7634823828122,0.994760270086134,0.99475021302296,1.1661340668747,98911.6059862953,0,4,-2462.31271887889,4934.62543775779,4961.41002896957,2125.47471858991,1563,412.343885005,1.17425373013969,29.1854485797543
76,20.3899838198331,0.97712132064233,0.977077491754672,2.29489621681987,22294.0022630419,0,4,-3529.91051009029,7069.82102018057,7096.61517467229,8247.41517959553,1566,412.343885005,1.17425373013969,29.1854485797543
77,18.4011799420588,0.991953598500924,0.991937505697926,1.22204488508501,61639.5787989756,0,4,-2433.67137837449,4877.34275674897,4903.92217427152,2240.09055174364,1500,412.343885005,1.17425373013969,29.1854485797543
78,19.0372735528364,0.986905838192105,0.986877269111797,1.50879035148594,34544.5435256492,0,4,-2521.90739128643,5053.81478257285,5079.96035196182,3130.11644651347,1375,412.343885005,1.17425373013969,29.1854485797543
79,20.2922867223644,0.994347086436873,0.994333680317751,1.02144392263779,74171.1361345566,0,4,-1825.5545132731,3661.10902654621,3686.83894888478,1319.83482417349,1265,412.343885005,1.17425373013969,29.1854485797543
80,18.6569980676431,0.984472549809302,0.984432803776391,1.43396029421454,24769.0770046228,0,4,-2090.5458082387,4191.09161647739,4216.44098711968,2409.91577094988,1172,412.343885005,1.17425373013969,29.1854485797543
81,16.0604228126142,0.979489116127222,0.979429836116029,1.22496520061883,16523.0926313135,0,4,-1687.96486121956,3385.92972243911,3410.67420855068,1557.56025295077,1038,412.343885005,1.17425373013969,29.1854485797543
82,15.1531721746257,0.976523194721386,0.976451691761147,1.19852972869147,13657.1016284,0,4,-1580.42968203745,3170.8593640749,3195.34283573301,1414.92640789888,985,412.343885005,1.17425373013969,29.1854485797543
83,15.9477004564804,0.951917054549829,0.951608170531947,1.84162978706759,3081.79445825516,2.96179280472471e-307,4,-953.928097817333,1917.85619563467,1938.63048610475,1583.87732731103,467,412.343885005,1.17425373013969,29.1854485797543
84,17.9533940882879,0.980942996109563,0.980862473557914,1.78656968426522,12182.214497829,0,4,-1425.44883573052,2860.89767146103,2883.75208627273,2266.20017808222,710,412.343885005,1.17425373013969,29.1854485797543
85,18.8279435376042,0.996241113557803,0.996232704415874,0.896108142408839,118471.197416663,0,4,-1758.93067700561,3527.86135401122,3553.8821004714,1076.83614567739,1341,412.343885005,1.17425373013969,29.1854485797543
86,18.9426419576328,0.995671507015947,0.99566248932223,0.98657967402851,110413.098768642,0,4,-2027.4343048642,4064.86860972839,4091.24447132566,1401.60881261693,1440,412.343885005,1.17425373013969,29.1854485797543
87,19.2166421422061,0.993250343112761,0.993237270826988,1.23700863535643,75981.3823223302,0,4,-2531.92596532055,5073.85193064111,5100.59164975685,2370.26487375293,1549,412.343885005,1.17425373013969,29.1854485797543
88,19.704997975216,0.99454153873135,0.994531239747824,1.11555472018279,96566.9608310675,0,4,-2434.09225852256,4878.18451704512,4905.05452634187,1978.69511061815,1590,412.343885005,1.17425373013969,29.1854485797543
89,18.5643364237183,0.982130594351554,0.982094445857322,1.83413473596428,27169.33624016,0,4,-3009.9327123316,6029.86542466321,6056.38800439551,4988.88649060173,1483,412.343885005,1.17425373013969,29.1854485797543
90,20.5331310008661,0.993799572104957,0.99378623785142,1.08146266814858,74529.8242074994,0,4,-2092.65405497932,4195.30810995864,4221.52567483197,1631.53829612566,1395,412.343885005,1.17425373013969,29.1854485797543
91,18.883231485695,0.992392211832043,0.992374762776612,1.07754061303656,56873.6924328631,0,4,-1957.62607984186,3925.25215968372,3951.14869953124,1518.71065474812,1308,412.343885005,1.17425373013969,29.1854485797543
92,27.764367868441,0.571235256366473,0.56242502190825,6.87337787121816,64.8376906511611,1.04453476580378e-26,4,-499.961980007862,1009.92396001572,1024.97713648621,6897.52521064053,146,412.343885005,1.17425373013969,29.1854485797543
