"Age","power_predict","r.squared","adj.r.squared","sigma","statistic","p.value","df","logLik","AIC","BIC","deviance","df.residual","GHI","Wind_speed","Ambient_temp"
1,127.029165965867,0.421586701256132,0.417560622610583,39.0866869303295,104.713975650281,6.25307220447368e-51,4,-2209.84414554394,4429.68829108788,4450.06502124333,658468.480026713,431,762.67037037,2.10320622086833,25.6215342760019
2,104.848376077429,0.348211249338276,0.346159448444272,37.3929962762835,169.710058298527,3.85050140849825e-88,4,-4821.6796192829,9653.3592385658,9677.67825552307,1332519.0705038,953,762.67037037,2.10320622086833,25.6215342760019
3,131.119908778361,0.350480872015163,0.348612648252983,39.7176093977203,187.601120973889,2.82614285426595e-97,4,-5338.46381366884,10686.9276273377,10711.696048392,1645320.50160949,1043,762.67037037,2.10320622086833,25.6215342760019
4,149.13856192148,0.448607555841873,0.447198546188999,42.6703700315684,318.385012428235,3.16908367697144e-151,4,-6091.13480682251,12192.269613645,12217.6274804661,2137572.80191276,1174,762.67037037,2.10320622086833,25.6215342760019
5,176.931601471398,0.800370631593104,0.799927339139202,26.4534402454116,1805.51377436997,0,4,-6358.80707709745,12727.6141541949,12753.6719378615,945408.860604527,1351,762.67037037,2.10320622086833,25.6215342760019
6,191.0942310473,0.943189700344348,0.943073523862434,13.5870665540279,8118.59409761973,0,4,-5923.26895335619,11856.5379067124,11883.0063953154,270820.489856436,1467,762.67037037,2.10320622086833,25.6215342760019
7,194.695787467456,0.887894875843809,0.887672150431578,19.5292994352326,3986.5000897318,0,4,-6645.75092437373,13301.5018487475,13328.1144009175,575904.240010775,1510,762.67037037,2.10320622086833,25.6215342760019
8,192.618637127873,0.816935523486626,0.816584825255758,19.7372706483051,2329.45436155586,0,4,-6908.26969730759,13826.5393946152,13853.3335491069,610050.729241202,1566,762.67037037,2.10320622086833,25.6215342760019
9,178.042180455254,0.787261287395892,0.786806393498663,28.694274944464,1730.64816255279,0,4,-6717.3172242681,13444.6344485362,13470.8805238218,1155176.06466766,1403,762.67037037,2.10320622086833,25.6215342760019
10,186.735975104109,0.672492045100173,0.67180831241771,30.0821429170262,983.5598946032,0,4,-6947.75327856431,13905.5065571286,13931.8720201086,1300392.05840432,1437,762.67037037,2.10320622086833,25.6215342760019
11,175.680613185053,0.946349494387823,0.946227376393258,11.9581744132048,7749.46802688383,0,4,-5154.26446575499,10318.52893151,10344.463436612,188471.278720953,1318,762.67037037,2.10320622086833,25.6215342760019
12,168.510502740785,0.951276481607115,0.951155077491518,10.8529468355432,7835.61971462097,0,4,-4592.47389167967,9194.94778335935,9220.43139025182,141814.891838214,1204,762.67037037,2.10320622086833,25.6215342760019
13,160.367469943879,0.920872164246232,0.9206419183614,12.8461124955584,3999.51627765267,0,4,-4108.995186449,8227.990372898,8252.7011564265,170138.307042248,1031,762.67037037,2.10320622086833,25.6215342760019
14,166.406226195193,0.934194935160053,0.933986691283978,13.701609699138,4486.06198061785,0,4,-3840.6979528764,7691.39590575279,7715.68873092675,177971.934713442,948,762.67037037,2.10320622086833,25.6215342760019
15,166.922158578417,0.92697458660358,0.926774334098837,12.2777001474151,4629.02867453007,0,4,-4309.53837120142,8629.07674240284,8654.08297051319,164911.66147536,1094,762.67037037,2.10320622086833,25.6215342760019
16,177.559103736086,0.966113333210137,0.966024001048125,11.7456523877518,10814.8432932922,0,4,-4431.72206574347,8873.44413148694,8898.64681343802,156998.878315819,1138,762.67037037,2.10320622086833,25.6215342760019
17,183.151070843002,0.884906704877697,0.884650752405223,20.3969267925955,3457.30868049696,0,4,-5997.63575272706,12005.2715054541,12031.321903595,561230.705863793,1349,762.67037037,2.10320622086833,25.6215342760019
18,181.982368088737,0.941577704748258,0.941452870784045,15.7885270645555,7542.64042388926,0,4,-5880.93383434014,11771.8676686803,11798.1172963639,349985.731962955,1404,762.67037037,2.10320622086833,25.6215342760019
19,187.62570115227,0.922722378693012,0.922570655614529,16.6753990058289,6081.62178043742,0,4,-6482.75890183807,12975.5178036761,13002.1894504276,424889.328101498,1528,762.67037037,2.10320622086833,25.6215342760019
20,190.343513409458,0.906029774863698,0.905847426431998,18.1375873207271,4968.67325051654,0,4,-6689.23111186296,13388.4622237259,13415.1922747755,508590.826121085,1546,762.67037037,2.10320622086833,25.6215342760019
21,193.788016802307,0.913086671348623,0.912915244664893,17.7467702939421,5326.39756821026,0,4,-6548.08904033508,13106.1780806702,13132.8268291154,479035.688772104,1521,762.67037037,2.10320622086833,25.6215342760019
22,183.057476571874,0.932182390216257,0.932042463923718,14.0502641259731,6661.95304187471,0,4,-5919.78049463369,11849.5609892674,11875.9850938302,287034.026601969,1454,762.67037037,2.10320622086833,25.6215342760019
23,174.152558614773,0.876775793790093,0.876499712670877,17.6016138056577,3175.79049331988,0,4,-5755.34282993486,11520.6856598697,11546.6989658523,414844.706666553,1339,762.67037037,2.10320622086833,25.6215342760019
24,169.939765218999,0.947549557754617,0.947421002749114,13.0863100041864,7370.77139893734,0,4,-4898.33709555264,9806.67419110528,9832.23990164882,209611.84765942,1224,762.67037037,2.10320622086833,25.6215342760019
25,167.509685584582,0.946075780869468,0.945929644774264,11.4768078715151,6473.93636421104,0,4,-4285.64183405834,8581.28366811667,8606.34874706487,145810.850644075,1107,762.67037037,2.10320622086833,25.6215342760019
26,163.504690611085,0.957972246009035,0.957844631371411,10.3676694253925,7506.7583456113,0,4,-3725.56569874553,7461.13139749105,7485.63001302748,106198.706482448,988,762.67037037,2.10320622086833,25.6215342760019
27,165.541321390373,0.967909694855972,0.967813520115281,9.63157073989046,10064.0738711406,0,4,-3700.40078831853,7410.80157663706,7435.36529073953,92859.9220724317,1001,762.67037037,2.10320622086833,25.6215342760019
28,169.899658646339,0.960344087119184,0.960240366335712,12.240130411258,9258.93591401489,0,4,-4514.12740961188,9038.25481922377,9063.49675126738,171844.448979839,1147,762.67037037,2.10320622086833,25.6215342760019
29,175.298685864327,0.963480688527875,0.963396542648908,12.6122422077383,11450.1232899825,0,4,-5161.40699284442,10332.8139856888,10358.687607238,207107.386865667,1302,762.67037037,2.10320622086833,25.6215342760019
30,181.708763175505,0.940270701419538,0.940145219699831,16.0400021284582,7493.28829423256,0,4,-6003.8399537541,12017.6799075082,12044.0140442458,367398.222305189,1428,762.67037037,2.10320622086833,25.6215342760019
31,189.238595672077,0.911438845471594,0.911266099396441,18.0641466514839,5276.17686633208,0,4,-6648.43933167747,13306.8786633549,13333.5828411256,501870.000350836,1538,762.67037037,2.10320622086833,25.6215342760019
32,190.198244047418,0.864129196159133,0.863870886646127,18.8417120991716,3345.32470796341,0,4,-6887.62593551514,13785.2518710303,13812.0840967719,560205.961198693,1578,762.67037037,2.10320622086833,25.6215342760019
33,183.555798807062,0.897951230269679,0.89775397104984,16.0466485939675,4552.13820170295,0,4,-6524.54380967527,13059.0876193505,13085.8369878742,399632.133064528,1552,762.67037037,2.10320622086833,25.6215342760019
34,182.397838394273,0.852986933346176,0.852683813621116,18.8697888167853,2814.02648138102,0,4,-6354.13177619693,12718.2635523939,12744.6910851365,518080.293135563,1455,762.67037037,2.10320622086833,25.6215342760019
35,178.172527493255,0.934341813014863,0.934194597348977,11.90270013084,6346.75533607043,0,4,-5226.03152556576,10462.0630511315,10488.0726327192,189560.173801488,1338,762.67037037,2.10320622086833,25.6215342760019
36,166.538745798063,0.955574848585647,0.95546218970632,12.1222463657462,8482.01983101236,0,4,-4643.8918801017,9297.78376020339,9323.17968217644,173840.497774036,1183,762.67037037,2.10320622086833,25.6215342760019
37,157.151036186754,0.946492098226762,0.94634877348987,11.0024223327625,6603.82930921412,0,4,-4288.36512187962,8586.73024375924,8611.85348891151,135579.692851087,1120,762.67037037,2.10320622086833,25.6215342760019
38,138.887307741815,0.852443359153528,0.851957975466533,20.4660450546786,1756.22581061806,0,4,-4062.93404832667,8135.86809665334,8159.96817847671,381999.408164282,912,762.67037037,2.10320622086833,25.6215342760019
39,153.666509389512,0.957581027539933,0.957460175766543,10.3239140307645,7923.5993041305,0,4,-3965.34157884244,7940.68315768489,7965.49910761424,112232.110563091,1053,762.67037037,2.10320622086833,25.6215342760019
40,160.192556829227,0.950828468610457,0.950702279907147,11.6018409725487,7534.97297043708,0,4,-4537.62660734601,9085.25321469202,9110.58981393529,157350.572610251,1169,762.67037037,2.10320622086833,25.6215342760019
41,168.61999598656,0.94294836608026,0.942814963974446,16.244574868739,7068.46687559617,0,4,-5412.01660923538,10834.0332184708,10859.8335645087,338566.010850564,1283,762.67037037,2.10320622086833,25.6215342760019
42,172.354306992557,0.947995960808619,0.947886170437349,14.1028438847656,8634.60019167326,0,4,-5791.07106871247,11592.1421374249,11618.4517728885,282622.9822117,1421,762.67037037,2.10320622086833,25.6215342760019
43,180.387795910911,0.917586517973077,0.917415653808543,18.2080805451979,5370.26895297421,0,4,-6267.48386361271,12544.9677272254,12571.3677684898,479729.983262179,1447,762.67037037,2.10320622086833,25.6215342760019
44,185.802403711508,0.887024460529218,0.886809678134786,17.2689356611818,4129.87508998825,0,4,-6749.73267757852,13509.465355157,13536.2975808987,470585.067136915,1578,762.67037037,2.10320622086833,25.6215342760019
45,186.934161582715,0.898047426286002,0.897845406655128,17.8934928243662,4445.34732790279,0,4,-6530.52159791674,13071.0431958335,13097.6689406233,484748.107379844,1514,762.67037037,2.10320622086833,25.6215342760019
46,175.352325276931,0.914293325721071,0.914117336656843,15.8855267719191,5195.17124392295,0,4,-6128.06556393078,12266.1311278616,12292.5791804688,368683.292760007,1461,762.67037037,2.10320622086833,25.6215342760019
47,166.405984542077,0.944975339412196,0.944850472557609,13.6356295760531,7567.8637260558,0,4,-5343.93135865294,10697.8627173059,10723.8123281596,245799.980782513,1322,762.67037037,2.10320622086833,25.6215342760019
48,160.538987233981,0.965716905421749,0.96563514923436,9.98593127366764,11812.156807564,0,4,-4692.78291660911,9395.56583321822,9421.26809843372,125446.279840236,1258,762.67037037,2.10320622086833,25.6215342760019
49,155.445355863191,0.961654649843857,0.961553652433437,10.4303414516009,9521.57729435237,0,4,-4299.85705947835,8609.7141189567,8634.92117727567,123914.113965766,1139,762.67037037,2.10320622086833,25.6215342760019
50,152.45855150854,0.943456554506388,0.943289431022171,11.3886971914173,5645.26618699584,0,4,-3922.73562513644,7855.47125027288,7880.104135439,131647.960073564,1015,762.67037037,2.10320622086833,25.6215342760019
51,152.074194431661,0.937800072669173,0.937625843180851,10.6138169297178,5382.55654483643,0,4,-4062.67357698394,8135.34715396787,8160.24753367068,120651.480614612,1071,762.67037037,2.10320622086833,25.6215342760019
52,155.648777742493,0.941560192560609,0.941404075532721,13.6784729345892,6031.11784344481,0,4,-4545.17300398407,9100.34600796814,9125.48258053834,210113.998306431,1123,762.67037037,2.10320622086833,25.6215342760019
53,162.106810286238,0.960680797384319,0.960587550263491,12.307935087834,10302.525041598,0,4,-4984.12970872513,9978.25941745027,10003.9893397888,191628.861649815,1265,762.67037037,2.10320622086833,25.6215342760019
54,170.38135485723,0.951682740845587,0.951578907194109,14.0356307398,9165.45577757658,0,4,-5682.74989290377,11375.4997858075,11401.7209233856,275010.506648571,1396,762.67037037,2.10320622086833,25.6215342760019
55,181.02785573809,0.922722248744458,0.922566237133578,14.8691159982033,5914.44600529367,0,4,-6134.15232704156,12278.3046540831,12304.8373110778,328540.647304085,1486,762.67037037,2.10320622086833,25.6215342760019
56,187.237545975164,0.906837134117416,0.906659568299343,14.5143628137868,5107.04787642092,0,4,-6458.45133177138,12926.9026635428,12953.7222310498,331589.429699235,1574,762.67037037,2.10320622086833,25.6215342760019
57,179.555371906277,0.889494709803886,0.889280275217477,18.0072511666834,4148.0934801592,0,4,-6678.05264639776,13366.1052927955,13392.8353438451,501307.652220711,1546,762.67037037,2.10320622086833,25.6215342760019
58,174.061201866211,0.904028032640762,0.903832835419015,16.3522050236734,4631.35706823586,0,4,-6229.46989152442,12468.9397830488,12495.4353903624,394407.048475968,1475,762.67037037,2.10320622086833,25.6215342760019
59,168.162002997613,0.92539235154235,0.92522789676985,15.302077457985,5627.03251157086,0,4,-5658.55260170577,11327.1052034115,11353.1997519496,318683.014935567,1361,762.67037037,2.10320622086833,25.6215342760019
60,160.248444787404,0.959770750264007,0.959677338693413,10.5255282758322,10274.6452517246,0,4,-4887.47067398802,9784.94134797603,9810.77653736059,143136.475167064,1292,762.67037037,2.10320622086833,25.6215342760019
61,151.909520555668,0.935557905418313,0.93539351231989,12.326852443643,5690.98042676282,0,4,-4636.24448149074,9282.48896298148,9307.85531156878,178694.718412801,1176,762.67037037,2.10320622086833,25.6215342760019
62,186.151562623346,0.218853465540455,0.216597989502554,92.8698646719904,97.0320508233694,2.27330896988484e-55,4,-6203.9898197881,12417.9796395762,12442.7289218512,8961179.42299736,1039,762.67037037,2.10320622086833,25.6215342760019
63,153.797959312249,0.942225423445953,0.942055996535237,12.3305571873547,5561.25009578391,0,4,-4035.15264799525,8080.3052959905,8104.97728204014,155539.62128329,1023,762.67037037,2.10320622086833,25.6215342760019
64,151.983356361009,0.950367779618846,0.950232295850745,12.0797981865918,7014.62465162186,0,4,-4311.24810487299,8632.49620974599,8657.52515484225,160367.755127438,1099,762.67037037,2.10320622086833,25.6215342760019
65,160.32521585245,0.968295097241608,0.968218761199654,10.6612211144465,12684.6385069337,0,4,-4729.93616372651,9469.87232745302,9495.5268216045,141622.398021297,1246,762.67037037,2.10320622086833,25.6215342760019
66,168.421755926253,0.955850444933362,0.955753837591859,13.0840803038313,9894.18019445984,0,4,-5484.70740833471,10979.4148166694,11005.5458617199,234705.818791433,1371,762.67037037,2.10320622086833,25.6215342760019
67,175.991827926761,0.916451882513666,0.916282642572776,17.3612225676989,5415.10400967344,0,4,-6343.66613313078,12697.3322662616,12723.8481165177,446391.244635909,1481,762.67037037,2.10320622086833,25.6215342760019
68,199.45341962173,0.798359416677574,0.79795505721904,20.6596199380569,1974.38046724929,0,4,-6668.67672963119,13347.3534592624,13373.9195611978,638522.564393499,1496,762.67037037,2.10320622086833,25.6215342760019
69,219.94713722355,0.827450648040546,0.827080370461234,21.8430745882767,2234.6766163312,0,4,-6310.95421923315,12631.9084384663,12658.1367138043,667013.630641687,1398,762.67037037,2.10320622086833,25.6215342760019
70,233.467018839621,0.552564950163536,0.551343562402381,33.159605159946,452.40747266125,2.34628999239733e-191,4,-5425.0552295146,10860.1104590292,10885.1394041255,1208415.7963855,1099,762.67037037,2.10320622086833,25.6215342760019
71,201.058205237606,0.675951033077785,0.67488391244028,35.3848326236305,633.434505266892,2.40098306491814e-222,4,-4559.47356681526,9128.94713363051,9153.04175395689,1140650.69199994,911,762.67037037,2.10320622086833,25.6215342760019
