"Age","power_predict","r.squared","adj.r.squared","sigma","statistic","p.value","df","logLik","AIC","BIC","deviance","df.residual","GHI","Wind_speed","Ambient_temp"
1,122.838475939498,0.955058306034702,0.954913488546092,11.1736013122163,6594.91001537003,0,4,-3581.3762006002,7172.7524012004,7196.95513384684,116234.760010741,931,493.8,1.72392183454087,17.3651183272615
2,130.219547320346,0.889476381745836,0.889044085976915,13.9320054792433,2057.56439385405,0,4,-3122.95592602211,6255.91185204421,6279.15029391203,148875.295708702,767,493.8,1.72392183454087,17.3651183272615
3,127.39713617085,0.73472033861977,0.7335882774759,20.1872205690187,649.011179827286,4.91025342757335e-202,4,-3125.75404352337,6261.50808704675,6284.31324037623,286489.283634456,703,493.8,1.72392183454087,17.3651183272615
4,133.688069275048,0.841437718067085,0.840260275379464,19.2072196917495,714.631571382415,4.06467018164965e-161,4,-1782.67383653117,3575.34767306234,3595.40400893436,149042.584468,404,493.8,1.72392183454087,17.3651183272615
5,102.40839874479,0.750906164174557,0.750084975704803,30.3262150413422,914.413915723042,4.62301443742715e-274,4,-4413.48487467844,8836.96974935688,8861.05890221415,836908.180047695,910,493.8,1.72392183454087,17.3651183272615
6,101.139542467631,0.966890229038263,0.966803930764688,12.1718819221905,11204.0506603439,0,4,-4523.36398818415,9056.7279763683,9081.98725448308,170526.070666437,1151,493.8,1.72392183454087,17.3651183272615
7,104.5735612287,0.972048076458334,0.971984884468413,10.6284942069858,15382.4571385631,0,4,-5032.47395621866,10074.9479124373,10100.9163415293,149904.407846225,1327,493.8,1.72392183454087,17.3651183272615
8,106.214548611321,0.968742435997296,0.968674632170826,11.1794399358015,14287.4301706978,0,4,-5314.38878304758,10638.7775660952,10664.9520581967,172847.170275741,1383,493.8,1.72392183454087,17.3651183272615
9,115.561955539072,0.965013257191426,0.96494195268842,11.1326648427517,13533.6930558516,0,4,-5649.33870267753,11308.6774053551,11335.1628603809,182434.125409531,1472,493.8,1.72392183454087,17.3651183272615
10,123.780003223252,0.971960372858787,0.971902118785778,9.638613862722,16684.8483319662,0,4,-5333.4657706942,10676.9315413884,10703.3212342531,134151.754669084,1444,493.8,1.72392183454087,17.3651183272615
11,120.212513324632,0.956971252371421,0.95687612617917,11.8619025001602,10060.0184840573,0,4,-5295.37697036428,10600.7539407286,10626.8338157418,190936.319862926,1357,493.8,1.72392183454087,17.3651183272615
12,118.172240450327,0.962407636667773,0.962311574410535,10.936779146584,10018.5823688234,0,4,-4487.43691077548,8984.87382155097,9010.23168837202,140425.824130756,1174,493.8,1.72392183454087,17.3651183272615
13,115.935918054665,0.944613177760956,0.944457158543381,12.1494480378111,6054.46683071747,0,4,-4184.43785863249,8378.87571726499,8403.74811182011,157203.678318997,1065,493.8,1.72392183454087,17.3651183272615
14,132.701633360994,0.960988501893853,0.960847496479011,8.56572623630986,6815.25956272035,0,4,-2972.629203872,5955.25840774401,5978.8895747558,60898.4827429879,830,493.8,1.72392183454087,17.3651183272615
15,142.034949280101,0.74107255371395,0.739815624363047,21.7529597312922,589.589664034386,8.03831269674617e-181,4,-2796.17770201985,5602.3554040397,5624.52010450339,292432.196870013,618,493.8,1.72392183454087,17.3651183272615
16,119.21825301857,0.657630814306091,0.656137925414984,25.0932870734678,440.508880616278,1.24937290371959e-159,4,-3209.93911352069,6429.87822704139,6452.57615681948,433215.06263221,688,493.8,1.72392183454087,17.3651183272615
17,125.58556265511,0.903477601853111,0.903198635384478,16.9778022605975,3238.66020988675,0,4,-4427.37692756199,8864.75385512397,8889.49834123554,299199.108844746,1038,493.8,1.72392183454087,17.3651183272615
18,118.865837171153,0.825783946877941,0.825331437649052,24.790487504551,1824.89967973997,0,4,-5363.46945378142,10736.9389075628,10762.2154717795,709826.352673861,1155,493.8,1.72392183454087,17.3651183272615
19,106.133167114378,0.97511125804929,0.975052925060343,9.96879888958481,16716.2916842069,0,4,-4772.42072875151,9554.84145750303,9580.63013492427,127202.497665264,1280,493.8,1.72392183454087,17.3651183272615
20,105.013154661959,0.975862309131756,0.975810138330168,9.29269975299599,18705.1430957559,0,4,-5076.24649294285,10162.4929858857,10188.6854700902,119859.724954672,1388,493.8,1.72392183454087,17.3651183272615
21,107.507204497695,0.97952933696393,0.979483677492474,8.2495897815634,21452.9276342939,0,4,-4758.75563892924,9527.51127785849,9553.54687213953,91534.9589536812,1345,493.8,1.72392183454087,17.3651183272615
22,118.451680779872,0.942907509740794,0.942735889028592,13.8707892389349,5494.13586298871,0,4,-4054.81711316836,8119.63422633672,8144.18299274494,192013.996522731,998,493.8,1.72392183454087,17.3651183272615
23,97.786231696814,0.970269757124682,0.970198117985223,7.79418503198362,13543.8499744321,0,4,-4334.92007429167,8679.84014858335,8705.49064113398,75632.903789433,1245,493.8,1.72392183454087,17.3651183272615
24,115.446109506252,0.92903677536721,0.928852773920453,14.028500898044,5049.07320968984,0,4,-4711.69087969302,9433.38175938604,9458.66694429453,227696.25492551,1157,493.8,1.72392183454087,17.3651183272615
25,122.057339037041,0.970429271874679,0.970336766990032,9.10719302129701,10490.5732879234,0,4,-3491.76279734259,6993.52559468518,7017.87586174417,79540.3851733474,959,493.8,1.72392183454087,17.3651183272615
26,130.110927685197,0.968428544626773,0.96832423365087,7.68486950978422,9284.05219341248,0,4,-3151.86664150354,6313.73328300708,6337.81148295745,53623.9551992293,908,493.8,1.72392183454087,17.3651183272615
27,125.069383719902,0.692690408960784,0.691078645371417,24.6811121650501,429.771719333253,4.45225999219054e-146,4,-2661.97965694974,5333.95931389948,5355.73985220296,348437.974286564,572,493.8,1.72392183454087,17.3651183272615
28,133.084049674256,0.941154573047136,0.940946638676278,10.6715897356296,4526.20973224799,0,4,-3227.89990848174,6465.79981696348,6489.54361470094,96686.5205352698,849,493.8,1.72392183454087,17.3651183272615
29,68.384668015164,0.402776918812613,0.399351165000831,35.2353773660917,117.573223571211,3.35184011143644e-58,4,-2622.97365324028,5255.94730648056,5277.28330922327,649321.140882455,523,493.8,1.72392183454087,17.3651183272615
30,114.326573208307,0.890508215668282,0.890198333259796,20.4831149194701,2873.69721959718,0,4,-4720.60217135988,9451.20434271977,9476.05329606927,444731.476612471,1060,493.8,1.72392183454087,17.3651183272615
31,111.851543718943,0.973429885971426,0.973364009655653,10.0532299300844,14776.6291199548,0,4,-4522.371355467,9054.742710934,9080.2510907921,122291.592752844,1210,493.8,1.72392183454087,17.3651183272615
32,99.6612811444442,0.965498214622221,0.965421995655996,11.7106347228856,12667.4273142729,0,4,-5281.78877066345,10573.5775413269,10599.6610887604,186234.715302255,1358,493.8,1.72392183454087,17.3651183272615
33,103.955141025241,0.962817940270184,0.962741851471282,11.4602869699054,12653.8722410099,0,4,-5669.00191318237,11348.0038263647,11374.4689147636,192541.768116169,1466,493.8,1.72392183454087,17.3651183272615
34,108.973446770948,0.969024413800782,0.96896192102432,10.2456202568038,15506.1827730438,0,4,-5582.96849591189,11175.9369918238,11202.4730033976,156094.456122136,1487,493.8,1.72392183454087,17.3651183272615
35,110.17675909333,0.977271315751231,0.977221508554192,8.69001198356367,19621.0863861142,0,4,-4914.86502609273,9839.73005218546,9865.8538192143,103381.826027763,1369,493.8,1.72392183454087,17.3651183272615
36,112.438563965361,0.957923231753774,0.957817864220604,11.7550998992482,9091.25612915838,0,4,-4665.63397256843,9341.26794513685,9366.72665571233,165542.483622282,1198,493.8,1.72392183454087,17.3651183272615
37,108.794059791246,0.963285672876421,0.963180272894248,10.2225601713443,9139.33430553858,0,4,-3924.96501377254,7859.93002754508,7884.70799058706,109203.269597309,1045,493.8,1.72392183454087,17.3651183272615
38,114.426462418521,0.952425442697496,0.952276461829117,10.4103427688947,6392.93791919447,0,4,-3616.78811560764,7243.57623121528,7267.92130346861,103823.476630111,958,493.8,1.72392183454087,17.3651183272615
39,121.197390695599,0.929404386935344,0.929154932472218,10.3883098946361,3725.74767870932,0,4,-3204.95086469367,6419.90172938734,6443.6455271248,91621.5181144775,849,493.8,1.72392183454087,17.3651183272615
40,123.675094738809,0.418074750812732,0.415312447414692,29.0348313717563,151.350047612168,6.49271524503644e-74,4,-3042.80216882219,6095.60433764438,6117.88033046108,532789.545520958,632,493.8,1.72392183454087,17.3651183272615
41,96.8317845635376,0.453002506968796,0.449727072878788,38.3723877984461,138.303044579901,2.79849148535887e-65,4,-2556.46175366205,5122.9235073241,5144.04629947048,737692.51282252,501,493.8,1.72392183454087,17.3651183272615
42,100.499931326881,0.946470721155101,0.946302566352447,13.9248211318471,5628.56788040626,0,4,-3884.45022075284,7778.90044150569,7803.22989688011,185175.114594009,955,493.8,1.72392183454087,17.3651183272615
43,95.3408422105398,0.949328877787912,0.949197718714024,14.4427425353041,7237.99619535371,0,4,-4753.65541132493,9517.31082264986,9542.60461341245,241759.069039714,1159,493.8,1.72392183454087,17.3651183272615
44,96.9536400259276,0.976077301588374,0.976024762719242,9.33161430373177,18578.1939677529,0,4,-5001.71185632349,10013.423712647,10039.5365427411,118949.948851593,1366,493.8,1.72392183454087,17.3651183272615
45,101.561449521447,0.97368646530963,0.973632837181865,9.46216893860564,18156.2643686475,0,4,-5409.36776813898,10828.735536278,10855.2209913038,131792.047585434,1472,493.8,1.72392183454087,17.3651183272615
46,108.966665714113,0.967883066277606,0.967816248801068,10.6351622759584,14485.4776988371,0,4,-5468.36596027016,10946.7319205403,10973.1147025539,163099.827709068,1442,493.8,1.72392183454087,17.3651183272615
47,110.139446436934,0.971132015022281,0.971066056183794,10.0407638999826,14723.3037649195,0,4,-4904.60126534272,9819.20253068544,9845.11808919416,132372.641819788,1313,493.8,1.72392183454087,17.3651183272615
48,108.770332757979,0.971093603755254,0.971024117225819,9.71879595904671,13975.2785418767,0,4,-4621.63313818122,9253.26627636243,9278.92876412073,117879.833627191,1248,493.8,1.72392183454087,17.3651183272615
49,108.39239629304,0.961507202020318,0.961402126138662,10.1283309575327,9150.59847107056,0,4,-4116.90177307146,8243.80354614292,8268.83249123919,112738.813695861,1099,493.8,1.72392183454087,17.3651183272615
50,109.556390775254,0.875494852043565,0.875044833436494,17.135112723814,1945.46367258223,0,4,-3550.89212319132,7111.78424638264,7135.41541339444,243698.033087984,830,493.8,1.72392183454087,17.3651183272615
51,121.228472440883,0.951257567291098,0.951081601830055,9.31213048502515,5405.93342382583,0,4,-3045.95931884028,6101.91863768057,6125.55579630482,72060.8083353819,831,493.8,1.72392183454087,17.3651183272615
52,123.761450101626,0.952974572563664,0.952808209023206,9.22555335340316,5728.26576024958,0,4,-3100.05547145382,6210.11094290764,6233.84887554179,72173.987805662,848,493.8,1.72392183454087,17.3651183272615
53,119.681113356612,0.930552261526178,0.930300639285331,13.2399987596808,3698.21148716078,0,4,-3327.80976055079,6665.61952110159,6689.2386833057,145146.385605457,828,493.8,1.72392183454087,17.3651183272615
54,100.75778047042,0.966839412296008,0.966739430624539,10.4630678961737,9670.16652239775,0,4,-3761.01944178039,7532.03888356079,7556.57265745403,108928.410850941,995,493.8,1.72392183454087,17.3651183272615
55,96.8235496523746,0.963305314772101,0.963217035657679,11.5015709281023,10912.0409859564,0,4,-4828.63591999786,9667.27183999572,9692.93033254805,164960.808866267,1247,493.8,1.72392183454087,17.3651183272615
56,94.1386732381784,0.976833768248837,0.976781276787165,9.13309788273138,18609.3840243216,0,4,-4819.75712111911,9649.51424223822,9675.4713888884,110439.443462671,1324,493.8,1.72392183454087,17.3651183272615
57,100.227088383086,0.97159565919803,0.971536194423148,9.83641470619325,16339.0118120514,0,4,-5322.12506078651,10654.250121573,10680.6016860034,138649.992772084,1433,493.8,1.72392183454087,17.3651183272615
58,100.441481378126,0.96541194714718,0.965343000862424,10.5850292822313,14002.3780912552,0,4,-5699.57156364734,11409.1431272947,11435.7391395885,168624.481583068,1505,493.8,1.72392183454087,17.3651183272615
59,106.84971323036,0.976265861272462,0.97621547031975,8.60683255105382,19373.8321806394,0,4,-5058.80545036893,10127.6109007379,10153.8923869363,104671.601551936,1413,493.8,1.72392183454087,17.3651183272615
60,109.549364312989,0.970210798719608,0.970140040521792,9.5169883583304,13711.6380669733,0,4,-4650.44235379259,9310.88470758519,9336.6067434868,114393.784142109,1263,493.8,1.72392183454087,17.3651183272615
61,105.186712432442,0.964120539054958,0.964024604667405,10.2752768515778,10049.7909419229,0,4,-4219.00926049758,8448.01852099516,8473.15065503866,118462.234730513,1122,493.8,1.72392183454087,17.3651183272615
62,107.760334354621,0.930823124810679,0.930582370024637,12.5244687192924,3866.27049087771,0,4,-3415.77067838271,6841.54135676543,6865.36078130824,135215.31699586,862,493.8,1.72392183454087,17.3651183272615
63,114.525071591348,0.919365837800405,0.91908224754648,11.6596625973014,3241.88093586835,0,4,-3318.9335448201,6647.86708964021,6671.6342792332,115963.415296121,853,493.8,1.72392183454087,17.3651183272615
64,119.647106638754,0.901571723432579,0.901178010326309,12.1388702348023,2289.92052607724,0,4,-2950.16952097684,5910.33904195368,5933.46600379372,110514.127933027,750,493.8,1.72392183454087,17.3651183272615
65,121.036214598859,0.933139074380172,0.932885172130983,11.446447774109,3675.19026459962,0,4,-3060.14961897256,6130.29923794511,6153.68465525135,103506.721649869,790,493.8,1.72392183454087,17.3651183272615
66,99.1790477274724,0.819569230288898,0.818992774155636,22.3586686961493,1421.73737600944,0,4,-4266.15768588496,8542.31537176992,8566.56070318309,469415.551846454,939,493.8,1.72392183454087,17.3651183272615
67,99.5595382734462,0.834977129151761,0.83456662449791,24.0240233272498,2034.02597587636,0,4,-5561.56801711969,11133.1360342394,11158.6279124323,696047.35837486,1206,493.8,1.72392183454087,17.3651183272615
68,98.522988298845,0.916831964762882,0.916599218395614,18.8158850243821,3939.1891505098,0,4,-4682.51290724011,9375.02581448022,9399.93084318383,379528.231356821,1072,493.8,1.72392183454087,17.3651183272615
