"Age","power_predict","r.squared","adj.r.squared","sigma","statistic","p.value","df","logLik","AIC","BIC","deviance","df.residual","GHI","Wind_speed","Ambient_temp"
0,132.638069155753,0.986968269577209,0.985882292041977,5.90960255473964,908.829361157859,5.70577952727939e-34,4,-125.713474196455,261.426948392909,269.871345663479,1257.24248477947,36,617.1,1.25299866746619,24.9072216503431
1,126.215258786584,0.968887461339473,0.968812731462787,9.57315941592805,12965.1955054414,0,4,-4606.40778343097,9222.81556686193,9248.48204663641,114465.081122262,1249,617.1,1.25299866746619,24.9072216503431
2,121.23552206575,0.974360544393593,0.974302095786588,8.89559679418711,16670.3809434181,0,4,-4755.93029134569,9521.86058269138,9547.78751776929,104137.241299374,1316,617.1,1.25299866746619,24.9072216503431
3,119.4691619724,0.98241656812224,0.982379420026724,7.88227418579112,26445.9470792708,0,4,-4958.57950245696,9927.15900491391,9953.46513037377,88224.9498027846,1420,617.1,1.25299866746619,24.9072216503431
4,121.107164570694,0.977204725849669,0.977158982824618,8.03541990409348,21362.9230852956,0,4,-5248.69121461575,10507.3824292315,10533.945196722,96529.119687477,1495,617.1,1.25299866746619,24.9072216503431
5,112.378018431834,0.982316225454918,0.982280331460578,6.61719318958278,27367.1471649726,0,4,-4901.35705488406,9812.71410976811,9839.21984879739,64717.5491568094,1478,617.1,1.25299866746619,24.9072216503431
6,108.246681786778,0.987963838369136,0.9879381749115,5.04990882059854,38496.9107599005,0,4,-4285.05076509575,8580.1015301915,8606.36179995077,35880.7217885771,1407,617.1,1.25299866746619,24.9072216503431
7,103.900592436081,0.990404105692325,0.990381685378522,4.05403731863776,44174.408725748,0,4,-3628.42038907866,7266.84077815733,7292.64500769065,21102.8206578854,1284,617.1,1.25299866746619,24.9072216503431
8,100.275351370108,0.98485050152668,0.984811422854779,4.31146142362886,25201.7393027377,0,4,-3359.20800317163,6728.41600634326,6753.72696450469,21618.6576434525,1163,617.1,1.25299866746619,24.9072216503431
9,108.991562076582,0.958694549231299,0.958568361499826,6.56725157874118,7597.36733550354,0,4,-3252.81540612909,6515.63081225818,6540.0990940312,42352.4750191059,982,617.1,1.25299866746619,24.9072216503431
10,136.799440575081,0.98681099662772,0.986768128794441,4.54989524160827,23019.8477771698,0,4,-2717.85329446057,5445.70658892114,5469.86635674897,19107.5276129696,923,617.1,1.25299866746619,24.9072216503431
11,134.951602570153,0.976874655881683,0.976805001230725,5.9612541723859,14024.5431200238,0,4,-3202.21541305391,6414.43082610782,6438.96960250273,35394.4051025572,996,617.1,1.25299866746619,24.9072216503431
12,129.388674472814,0.987591349177072,0.987556197191738,5.40089638579093,28094.8953463461,0,4,-3299.14641659911,6608.29283319822,6633.13708508993,30890.6929944825,1059,617.1,1.25299866746619,24.9072216503431
13,124.149738539053,0.974317648349816,0.974254339348213,8.31479438417105,15389.8754313546,0,4,-4316.64309077688,8643.28618155375,8668.8233089243,84138.2754773186,1217,617.1,1.25299866746619,24.9072216503431
14,120.226602519889,0.981402215968735,0.981360733922569,7.65331704694923,23658.4813591931,0,4,-4657.54783004277,9325.09566008554,9351.13125436658,78781.0371494114,1345,617.1,1.25299866746619,24.9072216503431
15,116.340205070527,0.975155620053359,0.97510327936527,8.81118829838889,18630.9285498825,0,4,-5131.60127985724,10273.2025597145,10299.522710429,110555.143863043,1424,617.1,1.25299866746619,24.9072216503431
16,116.117737708687,0.981530076382377,0.981491301175342,7.53902790240436,25313.3419893545,0,4,-4926.12974634078,9862.25949268155,9888.59711982069,81219.9897082078,1429,617.1,1.25299866746619,24.9072216503431
17,111.999485555521,0.983546629622705,0.983513210454708,6.1149600644971,29430.6138831679,0,4,-4781.14859295611,9572.29718591221,9598.79954998355,55229.0719440125,1477,617.1,1.25299866746619,24.9072216503431
18,107.549919047027,0.98983375306344,0.989809813706446,4.72226665171889,41347.5496995785,0,4,-3795.2255323356,7600.4510646712,7626.21632284588,28409.9481683389,1274,617.1,1.25299866746619,24.9072216503431
19,114.523448283576,0.950943191101234,0.950831613825498,10.016751238971,8522.73175541515,0,4,-4923.78706271202,9857.57412542404,9883.51241124462,132342.26780074,1319,617.1,1.25299866746619,24.9072216503431
20,121.519591850135,0.984376303667536,0.984336616039257,5.62735394785721,24803.102285421,0,4,-3726.69139680778,7463.38279361555,7488.7702838834,37398.8598087221,1181,617.1,1.25299866746619,24.9072216503431
21,117.134539130713,0.978846405385438,0.97878769975746,5.34804534133165,16673.8086127015,0,4,-3356.79789687159,6723.59579374318,6748.54247007306,30918.3176797472,1081,617.1,1.25299866746619,24.9072216503431
22,128.109103079363,0.955437414432391,0.9552995920028,7.69986478073316,6932.37970968075,0,4,-3368.17350908658,6746.34701817316,6770.75407469137,57509.2801123276,970,617.1,1.25299866746619,24.9072216503431
23,136.900132890018,0.983458288655188,0.983406487888973,5.05025394373673,18985.4004198335,0,4,-2920.91456322748,5851.82912645495,5876.17419870828,24433.8521705868,958,617.1,1.25299866746619,24.9072216503431
24,132.826897873561,0.986868956916759,0.986829992397225,5.29543967720983,25327.3739468131,0,4,-3130.06736201651,6270.13472403302,6294.7479434904,28350.1398700928,1011,617.1,1.25299866746619,24.9072216503431
25,127.402071909605,0.983552889131682,0.983511737061119,6.83793327338883,23900.4471871623,0,4,-4017.72981919085,8045.45963838169,8070.92250696157,56062.0404101304,1199,617.1,1.25299866746619,24.9072216503431
26,123.361795135153,0.97872099124428,0.97867320903899,7.76664861344124,20482.9598238197,0,4,-4646.15856505049,9302.31713010098,9328.3192545657,80588.6297947174,1336,617.1,1.25299866746619,24.9072216503431
27,121.90346943132,0.975259032708645,0.975206946461715,9.14143060077667,18723.9259921122,0,4,-5187.77570121026,10385.5514024205,10411.8750533102,119081.198636063,1425,617.1,1.25299866746619,24.9072216503431
28,117.819137047203,0.980398454987115,0.980358641422431,7.50869202491119,24624.7343778956,0,4,-5085.23202671112,10180.4640534222,10206.9664174936,83273.9334011732,1477,617.1,1.25299866746619,24.9072216503431
29,112.399286498276,0.980785565499297,0.980745948108574,7.1954028369119,24756.4402298572,0,4,-4947.48092874035,9904.96185748069,9931.3893902233,75330.9109888149,1455,617.1,1.25299866746619,24.9072216503431
30,102.322004729889,0.9875876408187,0.987561799682306,5.36779322137601,38217.6552051388,0,4,-4476.56579636706,8963.13159273413,8989.51091573686,41519.8270611958,1441,617.1,1.25299866746619,24.9072216503431
31,101.57921982782,0.990262040014816,0.990240107672507,4.41936308146007,45150.7652974049,0,4,-3878.98898390943,7767.97796781886,7793.96514458935,26014.9857009686,1332,617.1,1.25299866746619,24.9072216503431
32,97.496273291365,0.986268353207119,0.986232992743275,4.83006120588948,27891.8386803146,0,4,-3497.74604996798,7005.49209993596,7030.81161974332,27178.8573093238,1165,617.1,1.25299866746619,24.9072216503431
33,99.8551890158719,0.986348964024407,0.986309280780291,4.06696149686347,24855.5526650896,0,4,-2921.41687084915,5852.83374169829,5877.54935381239,17069.461443113,1032,617.1,1.25299866746619,24.9072216503431
34,123.518546885793,0.95739000229311,0.957258354514407,7.97736835734176,7272.35971411706,0,4,-3406.15431891353,6822.30863782706,6846.72082518205,61792.8921373647,971,617.1,1.25299866746619,24.9072216503431
35,129.769899502934,0.986690672941976,0.986645759577325,4.56635706336307,21968.7543034357,0,4,-2621.32077820016,5252.64155640033,5276.61448930471,18537.0873619818,889,617.1,1.25299866746619,24.9072216503431
36,123.473861494699,0.984260659963112,0.984216406898341,5.22324186498514,22241.6382923154,0,4,-3288.16907714628,6586.33815429256,6611.2198946448,29110.1667040023,1067,617.1,1.25299866746619,24.9072216503431
37,120.374896348828,0.979394123542807,0.979341152138033,7.25682116890339,18489.1098832714,0,4,-3980.42753716705,7970.85507433409,7996.18314115208,61455.9162081776,1167,617.1,1.25299866746619,24.9072216503431
38,118.750465467255,0.978569678999458,0.978519294232215,7.95515652880096,19421.9350917441,0,4,-4468.72822410034,8947.45644820069,8973.22952498525,80751.0416474966,1276,617.1,1.25299866746619,24.9072216503431
39,115.279388822672,0.976542803836919,0.976492285826517,8.77180580331263,19330.5871723038,0,4,-5013.8994029464,10037.7988058928,10064.0092176891,107183.795832084,1393,617.1,1.25299866746619,24.9072216503431
40,116.748764993975,0.982637668939438,0.982601421901733,7.68784853367905,27109.4613839689,0,4,-4981.81028285977,9973.62056571954,9999.98602869954,84931.0326653489,1437,617.1,1.25299866746619,24.9072216503431
41,111.740710865135,0.983840280366247,0.983807413139873,6.42910174255264,29933.7786881962,0,4,-4848.7820956487,9707.5641912974,9734.05979861096,60966.6900937378,1475,617.1,1.25299866746619,24.9072216503431
42,107.194794806756,0.989066078038979,0.989043026903432,5.28994708427414,42907.4774226149,0,4,-4399.93084109373,8809.86168218746,8836.17833027485,39820.5776397403,1423,617.1,1.25299866746619,24.9072216503431
43,107.340194761515,0.98929079927203,0.989267106350066,4.81572559169812,41754.6979115905,0,4,-4065.51940816677,8141.03881633355,8167.1150162272,31447.2847934711,1356,617.1,1.25299866746619,24.9072216503431
44,105.566669127003,0.984256172813139,0.984217235070715,5.53674415608209,25277.6897563745,0,4,-3807.62677028589,7625.25354057178,7650.77426103672,37185.1649859398,1213,617.1,1.25299866746619,24.9072216503431
45,112.679123675085,0.976385819676358,0.976321650708088,6.17925780865817,15215.8566046509,0,4,-3588.06784674713,7186.13569349426,7211.1872528308,42154.2826807127,1104,617.1,1.25299866746619,24.9072216503431
46,127.293652603606,0.984566760850456,0.98452022847111,4.7930883905471,21158.7452587172,0,4,-2981.12336658438,5972.24673316877,5996.78050706201,22858.8278379994,995,617.1,1.25299866746619,24.9072216503431
47,126.667808914036,0.985029115021494,0.984982282221769,4.47264452097987,21032.8897871176,0,4,-2806.98823695597,5623.97647391194,5648.32674097093,19184.3625015982,959,617.1,1.25299866746619,24.9072216503431
48,124.058051505344,0.986519028190443,0.986479417107751,4.76506730181034,24905.126574242,0,4,-3052.75253664928,6115.50507329856,6140.16731275642,23182.6895849885,1021,617.1,1.25299866746619,24.9072216503431
49,118.933323608026,0.984626384486845,0.984586556467381,6.05539591814356,24721.9519758845,0,4,-3739.50674858558,7489.01349717116,7514.30298685822,42461.3352420939,1158,617.1,1.25299866746619,24.9072216503431
50,117.304959210511,0.984806565186214,0.984770447670809,6.84046264466212,27266.7306745176,0,4,-4228.70791200723,8467.41582401447,8493.13391202799,59051.4146415886,1262,617.1,1.25299866746619,24.9072216503431
51,116.371583435306,0.977448145776656,0.977397467452558,8.64006098519859,19287.3020800374,0,4,-4785.38821234572,9580.77642469144,9606.7748164199,99658.6228603143,1335,617.1,1.25299866746619,24.9072216503431
52,112.496801661523,0.98560027792781,0.985570930668152,6.40060420881802,33584.0650682112,0,4,-4832.38573293795,9674.77146587589,9701.2569209017,60304.5047982462,1472,617.1,1.25299866746619,24.9072216503431
53,105.767025201412,0.988307047124156,0.988283361196656,5.35792748086861,41725.4949008535,0,4,-4597.80821925286,9205.61643850572,9232.1322887619,42515.6399844559,1481,617.1,1.25299866746619,24.9072216503431
54,114.289917347729,0.975045409741957,0.974994168283521,7.91282321342137,19028.4476576922,0,4,-5107.07220620152,10224.144412403,10250.5924650103,91477.2587332227,1461,617.1,1.25299866746619,24.9072216503431
55,116.735679367503,0.977179451850857,0.977129223204894,7.19950003957419,19454.6246094839,0,4,-4636.15987928885,9282.3197585777,9308.42162776132,70648.1075174267,1363,617.1,1.25299866746619,24.9072216503431
56,114.199668706175,0.983214967459465,0.983175535119902,5.92512750497042,24934.2285637236,0,4,-4094.81515863411,8199.63031726822,8225.4072987777,44831.8126083505,1277,617.1,1.25299866746619,24.9072216503431
57,111.360408414564,0.98533564860625,0.985296439110545,4.86387078452484,25130.0260532356,0,4,-3376.86696309182,6763.73392618364,6788.86606022714,26543.4221675979,1122,617.1,1.25299866746619,24.9072216503431
58,111.033327510794,0.981292673150525,0.981236885893518,4.73520131934859,17589.907190421,0,4,-3001.69843310331,6013.39686620662,6037.98539425579,22556.6643239692,1006,617.1,1.25299866746619,24.9072216503431
59,120.045738025972,0.976019944768993,0.975943656152139,5.57211982627931,12793.78215286,0,4,-2968.46401118938,5946.92802237875,5971.19451784468,29278.7537549853,943,617.1,1.25299866746619,24.9072216503431
60,125.147917482826,0.979597539751379,0.979535588961151,5.50884437475034,15812.5108031157,0,4,-3098.28701167585,6206.57402335169,6231.07263888812,29983.1979490759,988,617.1,1.25299866746619,24.9072216503431
61,120.313104507678,0.984274949004141,0.984233237993542,6.04355308986049,23597.4850493189,0,4,-3650.34773490807,7310.69546981614,7335.86740946571,41309.2478974073,1131,617.1,1.25299866746619,24.9072216503431
62,117.06492997327,0.983366928435964,0.983327231367792,6.54518402343826,24771.7772047318,0,4,-4156.35623074696,8322.71246149391,8348.41076317374,53849.168413144,1257,617.1,1.25299866746619,24.9072216503431
63,109.952349881268,0.971225281587283,0.971161195354738,9.21475849209344,15154.9754606795,0,4,-4915.29241469219,9840.58482938437,9866.62783107417,114376.159669068,1347,617.1,1.25299866746619,24.9072216503431
64,112.67600755111,0.980150036138247,0.980108363715864,7.57646102261138,23520.3518319799,0,4,-4933.22733626106,9876.45467252212,9902.79229966126,82028.5463651967,1429,617.1,1.25299866746619,24.9072216503431
65,107.58374789873,0.984666912709085,0.984635684425397,6.20080433993683,31531.252967341,0,4,-4788.82040691282,9587.64081382564,9614.12965523829,56636.8123827902,1473,617.1,1.25299866746619,24.9072216503431
66,108.699561412033,0.982703321065888,0.982667435839884,6.60032185470433,27384.6212072317,0,4,-4791.77980931834,9593.55961863668,9619.95621281375,62993.9034549042,1446,617.1,1.25299866746619,24.9072216503431
67,108.423539102551,0.9842317164389,0.984197733069156,5.94330915414409,28962.1577807164,0,4,-4466.87876211487,8943.75752422974,8969.96435564636,49169.5097928123,1392,617.1,1.25299866746619,24.9072216503431
68,110.038254184973,0.98328995317963,0.983251122706771,5.84952248412182,25322.636599027,0,4,-4122.95854581156,8255.91709162312,8281.74842149379,44174.0350602905,1291,617.1,1.25299866746619,24.9072216503431
69,115.327285088235,0.978638310243305,0.978582680842897,6.45191426924185,17592.1060278322,0,4,-3793.5091410205,7597.018282041,7622.28188728716,47954.5317937689,1152,617.1,1.25299866746619,24.9072216503431
70,122.017942955828,0.985918795081088,0.985876167820991,4.84088402730525,23128.8333527275,0,4,-2979.05167717951,5968.10335435902,5992.61706804482,23223.2507423267,991,617.1,1.25299866746619,24.9072216503431
71,124.406378485058,0.985917514582102,0.985874050120936,4.33958362577234,22683.3023607192,0,4,-2815.43162184868,5640.86324369736,5665.28055662943,18304.6904358094,972,617.1,1.25299866746619,24.9072216503431
72,121.417058713698,0.983476229274717,0.983427148767612,4.41726224136354,20038.0209433192,0,4,-2943.1171006905,5896.234201381,5920.84249230176,19707.3277660658,1010,617.1,1.25299866746619,24.9072216503431
73,117.31891674496,0.98337033703116,0.983324776310698,5.48420089439071,21583.7310526935,0,4,-3427.76646130518,6865.53292261037,6890.54370238238,32933.7230977893,1095,617.1,1.25299866746619,24.9072216503431
74,115.583769488409,0.984668336773739,0.984630543027084,6.09012950533231,26053.7370314145,0,4,-3936.46393823565,7882.9278764713,7908.46500384186,45138.1373857222,1217,617.1,1.25299866746619,24.9072216503431
75,112.569135332509,0.979760665601874,0.979715954259316,7.25734574599355,21913.0227261914,0,4,-4630.0946286072,9270.18925721441,9296.27280464795,71524.5933620175,1358,617.1,1.25299866746619,24.9072216503431
76,110.567149178474,0.976329975125757,0.976280730968599,8.09804341952215,19826.3110074346,0,4,-5074.26845279653,10158.5369055931,10184.9196876067,94563.9190176799,1442,617.1,1.25299866746619,24.9072216503431
77,107.022631369501,0.982781503846161,0.982746974776334,6.31896899886885,28462.437846255,0,4,-4891.73922103122,9793.47844206243,9820.04454399789,59734.3363361638,1496,617.1,1.25299866746619,24.9072216503431
78,102.946941255079,0.986760767357807,0.986733619238924,5.37634770283795,36347.2980058694,0,4,-4547.08770741261,9104.17541482521,9130.63028871593,42288.1826917094,1463,617.1,1.25299866746619,24.9072216503431
79,113.169913895436,0.949434645596352,0.949324720912865,11.0359650025803,8637.13786099383,0,4,-5285.01276164155,10580.0255232831,10606.189188964,168073.682482683,1380,617.1,1.25299866746619,24.9072216503431
80,110.689579743585,0.971039906738684,0.970971008816572,7.83033311600588,14093.8924856423,0,4,-4396.33046736793,8802.66093473586,8828.37507174167,77317.1011683067,1261,617.1,1.25299866746619,24.9072216503431
81,112.191896302802,0.985233455363784,0.984954841314044,5.141468244356,3536.19444634409,2.87845730959566e-145,4,-496.148238388286,1002.29647677657,1017.76522778061,4203.11661752767,159,617.1,1.25299866746619,24.9072216503431
