"Age","power_predict","r.squared","adj.r.squared","sigma","statistic","p.value","df","logLik","AIC","BIC","deviance","df.residual","GHI","Wind_speed","Ambient_temp"
0,NA,NA,NA,NA,NA,NA,NA,NA,NA,NA,NA,NA,513.6,2.30435535282565,22.31093096544
1,112.093011729679,0.982924319458622,0.982878210510266,7.41258907340282,21317.4308782273,0,4,-3813.65832417931,7637.31664835862,7662.39969677809,61045.5356927265,1111,513.6,2.30435535282565,22.31093096544
2,107.704396604695,0.98226517546759,0.982227943505661,6.49483662469455,26382.3103742968,0,4,-4712.48986300379,9434.97972600758,9461.31735314673,60279.3680747259,1429,513.6,2.30435535282565,22.31093096544
3,101.549805582269,0.988350482047552,0.988324878711393,5.00045880554442,38602.4100883208,0,4,-4143.97004172964,8297.94008345928,8324.04926258572,34131.2629830173,1365,513.6,2.30435535282565,22.31093096544
4,96.3909227148712,0.977999089862471,0.977948043667256,6.43425032539955,19159.0986507279,0,4,-4252.90121629237,8515.80243258473,8541.64147850632,53529.6533841262,1293,513.6,2.30435535282565,22.31093096544
5,90.6381339244672,0.981731719491165,0.981685431618254,5.2036902660252,21209.2640632008,0,4,-3643.14483490535,7296.28966981071,7321.68980231032,32060.8165835149,1184,513.6,2.30435535282565,22.31093096544
6,81.3970617152599,0.953700101116824,0.953567941557691,6.08447564018001,7216.27786418347,0,4,-3400.03263191248,6810.06526382496,6834.87174405451,38908.906850557,1051,513.6,2.30435535282565,22.31093096544
7,88.5159100140737,0.893374210331946,0.893014797557784,10.5666203171046,2485.64957774516,0,4,-3374.31036621661,6758.62073243322,6782.59926130909,99371.5837840048,890,513.6,2.30435535282565,22.31093096544
8,115.338961180661,0.984135502179737,0.984072380835624,4.28885770621247,15591.1683443633,0,4,-2177.21359731592,4364.42719463184,4387.58061156005,13869.3025198001,754,513.6,2.30435535282565,22.31093096544
9,112.506710639721,0.982273791019598,0.982222111110034,5.65912757327871,19006.8790620839,0,4,-3254.22726536033,6518.45453072066,6543.15564306625,32954.470912472,1029,513.6,2.30435535282565,22.31093096544
10,116.940449092556,0.986835588167094,0.986800294837783,5.78604597180043,27960.9662063473,0,4,-3562.83379997407,7135.66759994815,7160.78639472184,37462.2490183347,1119,513.6,2.30435535282565,22.31093096544
11,118.826882351802,0.988576726574975,0.988548544156986,5.9174954426631,35077.7824297354,0,4,-3898.15594119424,7806.31188238848,7831.84491307711,42580.3708137493,1216,513.6,2.30435535282565,22.31093096544
12,110.414176289451,0.97847822425292,0.97843180777036,7.95030979091571,21080.4044228005,0,4,-4869.54557991228,9749.09115982456,9775.29440829584,87921.5292481984,1391,513.6,2.30435535282565,22.31093096544
13,111.736838543361,0.974693079593731,0.974639764452426,8.50167676111482,18281.7311504728,0,4,-5080.53756861307,10171.0751372261,10197.3952879406,102924.595036683,1424,513.6,2.30435535282565,22.31093096544
14,106.161534539065,0.98188542216503,0.981847788000553,6.39801139184286,26090.2676014747,0,4,-4740.08972609093,9490.17945218185,9516.56914504658,59109.4898680981,1444,513.6,2.30435535282565,22.31093096544
15,98.6444243428146,0.981815633644121,0.981776159621641,6.03489288375243,24872.4495745679,0,4,-4456.06144929021,8922.12289858041,8948.29378447916,50332.3461875813,1382,513.6,2.30435535282565,22.31093096544
16,92.9951880227969,0.988745642477553,0.988720025578792,4.42203459000274,38597.3982132769,0,4,-3839.11878301819,7688.23756603638,7714.17207113844,25772.6859082082,1318,513.6,2.30435535282565,22.31093096544
17,92.1276347574509,0.987293440204615,0.987261831846915,4.40234811022985,31235.202080929,0,4,-3508.29936468105,7026.5987293621,7052.09060755505,23373.086673675,1206,513.6,2.30435535282565,22.31093096544
18,97.1959509991262,0.950871778945965,0.950735940546738,8.06518829364457,7000.02196986831,0,4,-3816.57001705188,7643.14003410376,7668.10510971843,70576.2794999565,1085,513.6,2.30435535282565,22.31093096544
19,109.936606902251,0.980895742732936,0.980833105823864,5.17902620260665,15660.0278854767,0,4,-2813.40321281796,5636.80642563593,5660.9228562477,24542.4158526669,915,513.6,2.30435535282565,22.31093096544
20,112.463161320605,0.973214554007182,0.973126540493514,5.51980155713182,11057.5582481969,0,4,-2865.71179150235,5741.42358300471,5765.52912036599,27817.4750270949,913,513.6,2.30435535282565,22.31093096544
21,109.625398348037,0.98355975684426,0.983508858258638,4.85518917816684,19323.911358925,0,4,-2916.00983933173,5842.01967866346,5866.42159907439,22842.1032351589,969,513.6,2.30435535282565,22.31093096544
22,108.624685699329,0.985358405889269,0.985319807662263,5.73975424003619,25528.5924338009,0,4,-3613.97381614326,7237.94763228652,7263.1503142376,37491.1582015832,1138,513.6,2.30435535282565,22.31093096544
23,103.518150258937,0.980140331795446,0.980093822033843,6.86689696049169,21073.8627335517,0,4,-4297.158232836,8604.316465672,8630.10903565864,60404.6248223588,1281,513.6,2.30435535282565,22.31093096544
24,107.121491775467,0.980750625541643,0.980708535072711,7.94427840979425,23301.0144676667,0,4,-4802.15042347305,9614.30084694609,9640.43552703856,86589.0595685872,1372,513.6,2.30435535282565,22.31093096544
25,105.768618363583,0.977162641926862,0.97711571584863,7.83274006878975,20823.4456986993,0,4,-5088.69261978257,10187.3852395651,10213.8298780377,89573.6527984277,1460,513.6,2.30435535282565,22.31093096544
26,100.535664333022,0.977061442811434,0.97701375350335,7.14641151370752,20488.0607846848,0,4,-4896.8864566286,9803.77291325719,9830.15915189035,73695.7380260518,1443,513.6,2.30435535282565,22.31093096544
27,95.1449085521384,0.97869229978812,0.978646112576678,6.59153665762695,21189.6814991406,0,4,-4584.95546084458,9179.91092168915,9206.08901739448,60132.5240242343,1384,513.6,2.30435535282565,22.31093096544
28,91.2348268437231,0.988850500019469,0.988825482442849,4.53608660000234,39526.2304986668,0,4,-3928.47229055091,7866.94458110183,7892.95043551824,27510.2211563177,1337,513.6,2.30435535282565,22.31093096544
29,87.0485330383538,0.987417247181783,0.987386482504965,4.6390734106979,32095.8108238957,0,4,-3633.69761247928,7277.39522495856,7302.97313558948,26406.2695887789,1227,513.6,2.30435535282565,22.31093096544
30,104.364408363346,0.981564781652836,0.981515751816806,5.76937589405508,20019.7443258512,0,4,-3588.13722461662,7186.27444923323,7211.43315552705,37546.2675773875,1128,513.6,2.30435535282565,22.31093096544
31,104.412422425219,0.979275913996467,0.979212147577995,5.01837600554862,15357.2356336773,0,4,-2966.36786962962,5942.73573925924,5967.16839747189,24554.4952897395,975,513.6,2.30435535282565,22.31093096544
32,105.347782360752,0.975333276318054,0.975244547096176,5.32027411198171,10992.2442198868,0,4,-2587.80350719939,5185.60701439878,5209.26210490119,23606.6340666034,834,513.6,2.30435535282565,22.31093096544
33,109.863048460536,0.980367165553877,0.980297873197008,5.33552726489667,14148.272765667,0,4,-2639.69591416405,5289.3918283281,5313.14148429704,24197.6735152874,850,513.6,2.30435535282565,22.31093096544
34,106.965629243744,0.985110022088995,0.985068965164608,5.62188852754187,23993.7607796514,0,4,-3432.99827395673,6875.99654791346,6900.97537869498,34386.9261103243,1088,513.6,2.30435535282565,22.31093096544
35,106.190665418655,0.984821122792248,0.984785379753297,6.17929416890303,27552.8089301301,0,4,-4138.89908847131,8287.79817694262,8313.56343511731,48646.0037665189,1274,513.6,2.30435535282565,22.31093096544
36,101.903576964595,0.98075065195212,0.980708438469559,7.01921486594087,23233.1139827573,0,4,-4618.33042513889,9246.66085027778,9272.78097431921,67400.5081932476,1368,513.6,2.30435535282565,22.31093096544
37,99.9784221048014,0.978658387517384,0.978614474734498,7.54329562790922,22286.4123655549,0,4,-5026.68910469603,10063.3782093921,10089.8160125936,82962.1084199901,1458,513.6,2.30435535282565,22.31093096544
38,93.5691715227945,0.976240022863929,0.976192055211568,7.49776695975216,20352.0492418521,0,4,-5113.9775289862,10237.9550579724,10264.4877149671,83537.7329427682,1486,513.6,2.30435535282565,22.31093096544
39,91.4228888809335,0.979987777558883,0.979946172106823,6.34367500314616,23554.3114910287,0,4,-4724.47338165179,9458.94676330359,9485.33300193674,58069.5127032164,1443,513.6,2.30435535282565,22.31093096544
40,85.6616089325963,0.985019541229359,0.984986398621459,5.26144474081422,29720.6406994852,0,4,-4185.90514844449,8381.81029688897,8407.88649678262,37537.87783143,1356,513.6,2.30435535282565,22.31093096544
41,84.7374950156814,0.98913657619874,0.989110853806156,4.14869560568836,38454.2990304289,0,4,-3609.8388615808,7229.67772316159,7255.41551951754,21807.1925147095,1267,513.6,2.30435535282565,22.31093096544
42,83.88595233095,0.983060357224548,0.983013476294358,4.84933004649328,20969.3014458696,0,4,-3259.57996862293,6529.15993724586,6554.12041938294,25491.3460594076,1084,513.6,2.30435535282565,22.31093096544
43,106.577119634688,0.984983931076908,0.984938381828406,4.37350230769029,21624.5923577914,0,4,-2872.23710703438,5754.47421406877,5778.97786738899,18917.1196885832,989,513.6,2.30435535282565,22.31093096544
44,107.426698949298,0.974916679872335,0.974832034247607,5.09040126757513,11517.6263747557,0,4,-2718.33711656809,5446.67423313618,5470.64716604056,23035.9325227232,889,513.6,2.30435535282565,22.31093096544
45,103.968398568027,0.981930256461607,0.981871011400825,5.1289909114303,16574.0442073493,0,4,-2804.48145934675,5618.9629186935,5643.07934930528,24070.4912091242,915,513.6,2.30435535282565,22.31093096544
46,110.899436918148,0.974759092163632,0.974682294269606,6.55316892420638,12692.523727805,0,4,-3263.89434704702,6537.78869409403,6562.27721880968,42342.8066278956,986,513.6,2.30435535282565,22.31093096544
47,108.664187336125,0.983655739728161,0.983615647511631,6.51326114224249,24534.8305700582,0,4,-4038.23632972094,8086.47265944188,8112.03429666543,51882.8039747173,1223,513.6,2.30435535282565,22.31093096544
48,105.628115605881,0.976669374435997,0.976614306082974,7.84205526667413,17735.58352165,0,4,-4433.00719899839,8876.01439799678,8901.76790528474,78163.7429538814,1271,513.6,2.30435535282565,22.31093096544
49,104.713653859744,0.971824913323676,0.971765178157578,8.49063862814386,16268.891120615,0,4,-5046.66118077549,10103.322361551,10129.6108999368,102008.686203926,1415,513.6,2.30435535282565,22.31093096544
50,101.563783741918,0.980597757112083,0.980558133743354,6.60669634337346,24747.9653687314,0,4,-4869.24107640517,9748.48215281034,9774.95743489265,64119.5533265366,1469,513.6,2.30435535282565,22.31093096544
51,94.1459032437577,0.974721691422841,0.974668021977879,6.9724051093935,18161.5757739022,0,4,-4760.3907209173,9530.78144183459,9557.06292803305,68692.1938424187,1413,513.6,2.30435535282565,22.31093096544
52,92.7871811244313,0.984549829010625,0.984516070443277,5.40865755509471,29164.4434692916,0,4,-4276.25271749428,8562.50543498856,8588.6437474822,40165.1606007927,1373,513.6,2.30435535282565,22.31093096544
53,83.9753674053755,0.956108335435978,0.956004408842693,8.3090290925366,9199.84293927776,0,4,-4492.61037754866,8995.22075509732,9020.95855145327,87473.6349716049,1267,513.6,2.30435535282565,22.31093096544
54,87.4964071044919,0.886072808205939,0.885769272170964,13.1101645756331,2919.16842189117,0,4,-4509.32526611006,9028.65053222011,9053.80039677864,193532.843515407,1126,513.6,2.30435535282565,22.31093096544
55,106.286048614146,0.982623219603685,0.98257314242675,4.6931526658604,19622.1768029471,0,4,-3096.46620199005,6202.93240398009,6227.69126480209,22928.7349048206,1041,513.6,2.30435535282565,22.31093096544
56,107.324900808083,0.97459379379556,0.97450608537368,5.21608789220033,11111.7470011497,0,4,-2678.70446380037,5367.40892760075,5391.26860537995,23643.3808493691,869,513.6,2.30435535282565,22.31093096544
57,113.830786016324,0.98270688138654,0.98263976708403,3.59382802183749,14642.2870331894,0,4,-2094.46241063787,4198.92482127574,4222.20202302758,9983.75868447077,773,513.6,2.30435535282565,22.31093096544
58,113.447385666218,0.989302433486735,0.989271515664443,4.08651156697037,31997.8045064707,0,4,-2943.34484239467,5896.68968478933,5921.4341709009,17334.160704888,1038,513.6,2.30435535282565,22.31093096544
59,107.617127127204,0.987192995257185,0.987161399028379,5.60477690095569,31244.0133697456,0,4,-3831.91721226704,7673.83442453408,7699.36745522272,38198.8453171355,1216,513.6,2.30435535282565,22.31093096544
60,106.74763513954,0.98198525934166,0.981944161073998,7.23847226831945,23893.5924848936,0,4,-4480.41890271806,8970.83780543611,8996.7609511997,68900.057224687,1315,513.6,2.30435535282565,22.31093096544
61,106.340389650609,0.971342127108768,0.971282916627588,9.0607070619412,16404.9017631204,0,4,-5272.91881579787,10555.8376315957,10582.2548727395,119203.990895276,1452,513.6,2.30435535282565,22.31093096544
62,101.622892649937,0.977654276002433,0.977609851103829,7.7399655291335,22006.8994355591,0,4,-5241.05036734464,10492.1007346893,10518.7099832582,90399.7631857917,1509,513.6,2.30435535282565,22.31093096544
63,94.9839280874661,0.974231009360713,0.97417922974121,7.15506223504988,18814.9511084327,0,4,-5067.97501373026,10145.9500274605,10172.5061193826,76434.0089720433,1493,513.6,2.30435535282565,22.31093096544
64,92.5395843871758,0.960725612364523,0.96064222725277,8.69248244584388,11521.5485375242,0,4,-5072.83686058757,10155.6737211751,10181.9552073736,106765.221763753,1413,513.6,2.30435535282565,22.31093096544
65,88.8326846318384,0.983710814340117,0.983674535530184,5.52908956011876,27115.2999825211,0,4,-4225.22428828745,8460.4485765749,8486.4915782647,41178.9098470578,1347,513.6,2.30435535282565,22.31093096544
66,87.7256387584262,0.989263575074766,0.989237324647076,4.08389421491559,37685.6174213668,0,4,-3476.78985602851,6963.57971205702,6989.15762268794,20464.141533228,1227,513.6,2.30435535282565,22.31093096544
67,106.038946370133,0.988885677887515,0.988852697703205,3.97407842918775,29984.2374618364,0,4,-2838.70843263739,5687.41686527478,5712.03008473216,15967.0256543101,1011,513.6,2.30435535282565,22.31093096544
68,116.138682433678,0.98745037959219,0.987405019518427,3.73581335407586,21769.1528622248,0,4,-2280.5732024786,4571.14640495721,4594.777571969,11583.730175688,830,513.6,2.30435535282565,22.31093096544
69,111.899013870404,0.977927339483941,0.977846289322928,4.80492724220624,12065.7050800786,0,4,-2451.61964784074,4913.23929568148,4936.79191122874,18862.3451809657,817,513.6,2.30435535282565,22.31093096544
70,108.029682013788,0.989250082401341,0.98921780036651,4.18516425918413,30643.9816320764,0,4,-2857.03194066922,5724.06388133844,5748.61763527825,17498.0842764759,999,513.6,2.30435535282565,22.31093096544
71,110.296805369471,0.987458816593608,0.987426298399815,5.26873884386273,30366.3488464871,0,4,-3574.72356424165,7159.44712848331,7184.73231339179,32117.867618586,1157,513.6,2.30435535282565,22.31093096544
72,104.350394170007,0.981279821346487,0.981236885156914,6.88780674121899,22854.3760198983,0,4,-4391.47985532889,8792.95971065778,8818.8562505053,62053.9812693314,1308,513.6,2.30435535282565,22.31093096544
73,101.727615227353,0.974314833101463,0.974260796985968,8.3209112564171,18030.8081767073,0,4,-5056.92293808426,10123.8458761685,10150.1730247848,98732.7664596027,1426,513.6,2.30435535282565,22.31093096544
74,102.8881124634,0.972688316272491,0.972632616033754,8.56588671416173,17462.911081234,0,4,-5258.91840942156,10527.8368188431,10554.318885187,107933.764758983,1471,513.6,2.30435535282565,22.31093096544
75,98.6087886915949,0.966912299186305,0.966845002167701,8.45295439963457,14367.8326208502,0,4,-5253.55656494473,10517.1131298895,10543.608737203,105392.346171395,1475,513.6,2.30435535282565,22.31093096544
76,90.3725723183538,0.966431657629464,0.966361626317148,7.84836128782232,13799.9935408487,0,4,-5015.0660452058,10040.1320904116,10066.5010220008,88576.1623122224,1438,513.6,2.30435535282565,22.31093096544
77,86.2452226819774,0.975841051650436,0.975787325301252,6.50729115804045,18163.1744289092,0,4,-4451.88605056093,8913.77210112186,8939.82249926272,57123.1867527249,1349,513.6,2.30435535282565,22.31093096544
78,94.014429145155,0.977100398840558,0.977044455189517,6.15233797250249,17465.7960404616,0,4,-3984.46624972532,7978.93249945064,8004.51447017111,46481.3503842564,1228,513.6,2.30435535282565,22.31093096544
79,97.8197166776394,0.99066255167211,0.990636875828862,3.57815452033089,38583.4475658634,0,4,-2947.69168354101,5905.38336708203,5930.37591529328,13968.2800405585,1091,513.6,2.30435535282565,22.31093096544
80,100.155288977094,0.971268935911401,0.971180893835542,5.37727790234225,11031.8722773952,0,4,-3046.39767915349,6102.79535830698,6127.24840390771,28307.9001685989,979,513.6,2.30435535282565,22.31093096544
81,100.875554376415,0.987208189869957,0.987169465924054,3.48316834354051,25493.4812773541,0,4,-2651.54242114593,5313.08484229187,5337.59855597766,12023.2695540578,991,513.6,2.30435535282565,22.31093096544
82,103.998124605974,0.988307138406336,0.988271954269144,3.96554597669347,28089.5658460275,0,4,-2797.37465324829,5604.74930649658,5629.29308039316,15678.37822859,997,513.6,2.30435535282565,22.31093096544
83,97.7941023048389,0.983777050234046,0.9837357354214,5.6662728388288,23811.7272525414,0,4,-3725.39825125931,7460.79650251862,7486.17131850845,37821.6312074097,1178,513.6,2.30435535282565,22.31093096544
84,100.292127250272,0.986877785414861,0.98684616562068,5.61981478649801,31210.7593036167,0,4,-3926.39810387853,7862.79620775707,7888.4467003077,39319.9862020044,1245,513.6,2.30435535282565,22.31093096544
85,96.7486099241332,0.972379588608056,0.972321521870721,7.83006159510429,16745.89676035,0,4,-4973.45384935383,9956.90769870766,9983.23834260544,87489.1767601223,1427,513.6,2.30435535282565,22.31093096544
86,93.6165593843818,0.971973718224106,0.971916715617105,7.67301200199146,17051.3906178557,0,4,-5110.37934327737,10230.7586865547,10257.2542938683,86840.7919444899,1475,513.6,2.30435535282565,22.31093096544
87,92.4862522642438,0.965926320999945,0.965856830152222,8.01641530527856,13900.0509081963,0,4,-5161.13136469793,10332.2627293959,10358.7447957397,94530.7470040021,1471,513.6,2.30435535282565,22.31093096544
88,91.4259224627343,0.963765540767483,0.963689364609321,7.94661252608544,12651.8003010147,0,4,-4994.59739522235,9999.1947904447,10025.5254343425,90113.1244629061,1427,513.6,2.30435535282565,22.31093096544
89,97.3249078884979,0.972933077131661,0.972873632937953,6.88450897306199,16367.1675304775,0,4,-4585.04798653087,9180.09597306175,9206.20880315586,64743.5695510336,1366,513.6,2.30435535282565,22.31093096544
90,95.2352904501843,0.983498858128634,0.98346045360915,5.07134526707465,25608.9353898521,0,4,-3932.00713801492,7874.01427602985,7899.83787792371,33151.2016922479,1289,513.6,2.30435535282565,22.31093096544
91,100.12549923604,0.985559937217518,0.985520910020809,4.39846118026636,25253.1572932545,0,4,-3228.81171597499,6467.62343194998,6492.70199405242,21474.5714372843,1110,513.6,2.30435535282565,22.31093096544
92,106.74930613268,0.986217142903754,0.986171854216691,3.83918072717807,21776.2361166851,0,4,-2532.76475541353,5075.52951082707,5099.63504818835,13456.9888028691,913,513.6,2.30435535282565,22.31093096544
93,106.915954383465,0.982028724807208,0.981965741366112,4.23691437742466,15591.8556959558,0,4,-2459.98079921945,4929.96159843889,4953.74626038513,15366.4355860334,856,513.6,2.30435535282565,22.31093096544
94,104.198692371273,0.98793122571633,0.987896039785474,3.8284240831955,28077.450323949,0,4,-2850.51383186242,5711.02766372484,5735.72877607044,15081.8790586542,1029,513.6,2.30435535282565,22.31093096544
95,98.7264397662497,0.985966196257253,0.985930757358913,4.98073705586545,27821.5814382946,0,4,-3603.22020520819,7216.44041041639,7241.85734965452,29471.5970441694,1188,513.6,2.30435535282565,22.31093096544
96,97.3839834839465,0.980053661852564,0.980006949116855,6.2681806338975,20980.4381394603,0,4,-4179.93258897157,8369.86517794315,8395.6577479298,50330.6033161938,1281,513.6,2.30435535282565,22.31093096544
97,94.4052878040223,0.975271648486902,0.975218885290217,7.40377810100598,18483.9378536314,0,4,-4821.50698755992,9653.01397511984,9679.2707000367,77071.1978175236,1406,513.6,2.30435535282565,22.31093096544
98,94.179772108293,0.966340518100847,0.966271069376159,8.18116017038184,13914.4458365733,0,4,-5131.28356214819,10272.5671242964,10298.9912288592,97318.2290404251,1454,513.6,2.30435535282565,22.31093096544
99,91.0610283761908,0.971512481316424,0.971454775336646,7.46218369763208,16835.5599377997,0,4,-5089.74544034103,10189.4908806821,10216.0067309383,82468.2787806021,1481,513.6,2.30435535282565,22.31093096544
100,86.0197144062428,0.974652819556835,0.974599902687434,6.47380093029271,18418.5653948588,0,4,-4734.13471328966,9478.26942657932,9504.63488955932,60224.8115230294,1437,513.6,2.30435535282565,22.31093096544
101,83.7881111538756,0.985538933500001,0.985507359118997,4.72931041075825,31213.2463773019,0,4,-4094.40240541259,8198.80481082518,8224.94675308305,30731.4019448349,1374,513.6,2.30435535282565,22.31093096544
102,93.3287063585929,0.970404149801664,0.970335481935774,7.2362544542231,14131.8524645063,0,4,-4405.257727515,8820.51545503,8846.35450095159,67705.848434459,1293,513.6,2.30435535282565,22.31093096544
103,97.7295193476815,0.969136810462196,0.969054362048471,6.39443826572152,11754.4627807175,0,4,-3688.20819195135,7386.4163839027,7411.5529564729,45918.1681444209,1123,513.6,2.30435535282565,22.31093096544
104,106.901616127859,0.978762312237732,0.978698407460112,4.32365109642593,15315.9489586671,0,4,-2883.91777178112,5777.83554356224,5802.37931745882,18637.8769272143,997,513.6,2.30435535282565,22.31093096544
105,112.583578737094,0.990690632519729,0.990662648449147,2.86745296041407,35401.9487485775,0,4,-2475.30342142774,4960.60684285549,4985.15560926371,8205.84190722706,998,513.6,2.30435535282565,22.31093096544
106,106.13587363297,0.98322251487422,0.983170625744965,3.9689606060617,18948.5260013233,0,4,-2722.70515117491,5455.41030234981,5479.81735886802,15280.0688436956,970,513.6,2.30435535282565,22.31093096544
107,108.648778401464,0.982212724258195,0.982159680692364,4.96453015109654,18517.0945595565,0,4,-3049.46579507425,6108.93159014851,6133.52011819769,24794.4389788735,1006,513.6,2.30435535282565,22.31093096544
108,103.324468950452,0.97841773784089,0.978366146775968,6.61122653212106,18964.868031254,0,4,-4162.40084430672,8334.80168861345,8360.49205378367,54853.9369050719,1255,513.6,2.30435535282565,22.31093096544
109,103.180708617808,0.973963967468053,0.973886170558097,7.07089531841865,12519.314302055,0,4,-3399.92106771158,6809.84213542317,6834.42075266632,50197.5508464509,1004,513.6,2.30435535282565,22.31093096544
110,101.155927107536,0.965545210373231,0.965473078922512,7.86506538241242,13385.9114262773,0,4,-5000.72501428038,10011.4500285608,10037.8015929912,88644.3102219686,1433,513.6,2.30435535282565,22.31093096544
111,96.5880885640843,0.9710961260897,0.971036734567966,6.77631322392469,16350.75340294,0,4,-4876.5894534985,9763.178906997,9789.6235454696,67040.8945267554,1460,513.6,2.30435535282565,22.31093096544
112,94.415131667262,0.971890379401494,0.971831201252865,6.83500123904404,16423.1291773551,0,4,-4772.27931448418,9554.55862896837,9580.88227985801,66572.0697612703,1425,513.6,2.30435535282565,22.31093096544
113,96.8924570610502,0.980656656299482,0.980614847919726,5.65802077673336,23455.9832746193,0,4,-4385.59876894071,8781.19753788143,8807.3900220859,44434.3203646056,1388,513.6,2.30435535282565,22.31093096544
114,91.5527373422162,0.981058360575718,0.981002153930542,5.06902010692301,17454.4906123694,0,4,-3085.71339895078,6181.42679790155,6206.04001735893,25977.609457678,1011,513.6,2.30435535282565,22.31093096544
