"Age","power_predict","r.squared","adj.r.squared","sigma","statistic","p.value","df","logLik","AIC","BIC","deviance","df.residual","GHI","Wind_speed","Ambient_temp"
0,115.030493969466,0.976794285806307,0.975009230868331,9.60456257467757,547.206847826017,6.75987115245641e-32,4,-156.191374744081,322.382749488162,331.18875006663,3597.65726778499,39,521,0.607413791388588,24.8653044031788
1,117.930145205795,0.946254825939227,0.946130607509194,12.8757794058499,7617.66853510275,0,4,-5172.51796311377,10355.0359262275,10380.8942103414,215189.832509925,1298,521,0.607413791388588,24.8653044031788
2,118.376517442209,0.95595311320617,0.955850757930894,12.3380863510311,9339.55881245204,0,4,-5089.4570590886,10188.9141181772,10214.7454480479,196526.831873899,1291,521,0.607413791388588,24.8653044031788
3,116.369830345749,0.967295564288159,0.967213116130902,9.33714078003564,11732.167175987,0,4,-4359.6053454355,8729.21069087101,8754.63601234077,103746.815555983,1190,521,0.607413791388588,24.8653044031788
4,121.585380510663,0.929930388903764,0.929744855952936,13.9467409050702,5012.21149532237,0,4,-4607.60412205774,9225.20824411549,9250.38898658424,220381.62226229,1133,521,0.607413791388588,24.8653044031788
5,132.629411374649,0.945433768341293,0.945272329786089,11.9985851919626,5856.30716993745,0,4,-3971.99042673246,7953.98085346491,7978.60882945046,145981.571261308,1014,521,0.607413791388588,24.8653044031788
6,135.403837760047,0.841406981372903,0.840827469733584,18.2965911022783,1451.92421391393,0,4,-3566.65910592328,7143.31821184657,7166.89512877824,274842.26693642,821,521,0.607413791388588,24.8653044031788
7,134.18277352731,0.606834457718134,0.605166145657532,29.6204502359435,363.741575721253,7.97007718322249e-143,4,-3416.05827152925,6842.1165430585,6864.94990520751,620301.348031264,707,521,0.607413791388588,24.8653044031788
8,131.325954957849,0.7923414926614,0.791513067765103,21.2635760342672,956.443361616159,4.10758468412019e-256,4,-3381.80086742584,6773.60173485167,6796.74194173257,340009.028655328,752,521,0.607413791388588,24.8653044031788
9,120.199248385207,0.957360197688434,0.957232533609657,11.640307277741,7499.05695367649,0,4,-3894.64886111795,7799.2977222359,7823.8664089892,135767.74702727,1002,521,0.607413791388588,24.8653044031788
10,113.335191255284,0.950432411826266,0.950302879801421,13.0410729147059,7337.43190511417,0,4,-4591.06932426096,9192.13864852193,9217.38492272821,195239.881016143,1148,521,0.607413791388588,24.8653044031788
11,114.077574751815,0.934043334301911,0.933883245307498,14.9946008434138,5834.52558826876,0,4,-5115.01638715606,10240.0327743121,10265.6471076051,277899.835304286,1236,521,0.607413791388588,24.8653044031788
12,112.28083360741,0.935274481614428,0.935130326785061,15.2160758179976,6487.98577005271,0,4,-5592.88120379302,11195.762407586,11221.8054092759,311869.513563821,1347,521,0.607413791388588,24.8653044031788
13,110.597621868812,0.958682252337587,0.958590570944845,11.236480133209,10456.6719992462,0,4,-5202.46630321766,10414.9326064353,10440.9940787778,170701.47277997,1352,521,0.607413791388588,24.8653044031788
14,106.111049164121,0.948333023961756,0.948218968827014,11.5883704591337,8314.68943598887,0,4,-5271.36307254246,10552.7261450849,10578.8133622434,182500.558331548,1359,521,0.607413791388588,24.8653044031788
15,102.863588122161,0.958585065401392,0.958481614274168,9.1972048754931,9266.06689676106,0,4,-4381.59164775938,8773.18329551877,8798.65446974839,101590.881603675,1201,521,0.607413791388588,24.8653044031788
16,101.5466256679,0.957477544441766,0.957362203242241,8.40117531707427,8301.26224093805,0,4,-3935.51065195738,7881.02130391477,7906.0818803863,78061.199859289,1106,521,0.607413791388588,24.8653044031788
17,127.566770515778,0.949653101673547,0.94950603186344,10.8963564113158,6457.15868529345,0,4,-3923.39147933727,7856.78295867455,7881.47438109463,121936.308784568,1027,521,0.607413791388588,24.8653044031788
18,136.957476630294,0.872885814909071,0.872381393539662,17.0551163635163,1730.46953964843,0,4,-3232.09018493872,6474.18036987744,6497.34696204384,219903.007594851,756,521,0.607413791388588,24.8653044031788
19,153.871567550221,0.746020181621574,0.744998815059731,20.554030124799,730.413751038639,1.84256671290234e-221,4,-3329.49132366364,6668.98264732728,6692.08301335994,315161.243160873,746,521,0.607413791388588,24.8653044031788
20,137.4920412935,0.73817147691453,0.737107133324752,25.8379919076856,693.546223234422,3.30333489487603e-214,4,-3463.71668615061,6937.43337230122,6960.48011851706,492690.147456359,738,521,0.607413791388588,24.8653044031788
21,121.974202358087,0.981217130239346,0.981160097233999,6.89868931321859,17204.3735778015,0,4,-3321.4637692506,6652.92753850121,6677.42615403763,47020.8112694325,988,521,0.607413791388588,24.8653044031788
22,111.954120593055,0.982688142465607,0.982641936440159,7.7463516623576,21267.5323822984,0,4,-3907.82550358008,7825.65100716016,7850.79201432045,67446.7036224473,1124,521,0.607413791388588,24.8653044031788
23,107.716435457428,0.977042349625482,0.976988118955306,9.06986437905137,18016.4166596894,0,4,-4614.84015961923,9239.68031923847,9265.42990341913,104473.298615069,1270,521,0.607413791388588,24.8653044031788
24,107.233431307275,0.979015695372967,0.978968183739849,8.84785410980361,20605.8102222118,0,4,-4781.21881151755,9572.43762303509,9598.39853332866,103726.992111588,1325,521,0.607413791388588,24.8653044031788
25,103.265076331903,0.985108228985024,0.985077118042793,7.0372690584516,31664.3649569937,0,4,-4851.02575987275,9712.0515197455,9738.41351170835,71115.2517302939,1436,521,0.607413791388588,24.8653044031788
26,96.3114251315976,0.986091021545435,0.986060674683352,6.2509723818295,32494.0028019566,0,4,-4482.05769916301,8974.11539832602,9000.26096771498,53727.6516127934,1375,521,0.607413791388588,24.8653044031788
27,95.5245152077389,0.98609963513979,0.986067971438514,5.75147193597242,31142.9048215527,0,4,-4183.44589444583,8376.89178889165,8402.82251041426,43565.6085596765,1317,521,0.607413791388588,24.8653044031788
28,103.777620509813,0.929127407552146,0.928951545039869,12.7712183348421,5283.2601759138,0,4,-4808.91554464338,9627.83108928677,9653.33534883149,197192.757467253,1209,521,0.607413791388588,24.8653044031788
29,117.329542437682,0.968366193727955,0.968278807522784,8.74951316010578,11081.4537812765,0,4,-3908.84720784008,7827.69441568017,7852.66408055628,83137.6228652066,1086,521,0.607413791388588,24.8653044031788
30,124.473527910245,0.98762926087185,0.98758327299405,4.85391366630691,21475.860772942,0,4,-2429.96009734322,4869.92019468643,4893.41153495701,19013.3056491285,807,521,0.607413791388588,24.8653044031788
31,141.127841895895,0.985552275217053,0.985499928388129,5.24173823289872,18827.3539291781,0,4,-2556.88747154638,5123.77494309277,5147.39410529687,22749.9787134483,828,521,0.607413791388588,24.8653044031788
32,144.518428645817,0.980569595517373,0.980493596542865,5.12054536332258,12902.4056161449,0,4,-2351.2405952016,4712.48119040321,4735.71963227103,20110.7283552867,767,521,0.607413791388588,24.8653044031788
33,122.24741614894,0.986060798181894,0.986018896773623,5.55602836815048,23532.8796542543,0,4,-3138.08570539823,6286.17141079646,6310.72017720469,30807.7123252375,998,521,0.607413791388588,24.8653044031788
34,110.113321842019,0.987459856107698,0.987426534201872,6.3199344932441,29633.9549508664,0,4,-3694.57593858524,7399.15187717048,7424.31499847562,45094.0347867542,1129,521,0.607413791388588,24.8653044031788
35,103.501244949953,0.984457935646257,0.984421337378549,7.36497273549623,26899.0309452535,0,4,-4363.22808375105,8736.4561675021,8762.22142567679,69105.3570047239,1274,521,0.607413791388588,24.8653044031788
36,102.540711001825,0.978378520328793,0.978329969101987,8.88020774655502,20151.4685555949,0,4,-4825.70007862693,9661.40015725387,9687.40228171859,105354.40773496,1336,521,0.607413791388588,24.8653044031788
37,103.097453390164,0.978238571466864,0.978179809733651,8.66187724660988,16647.544549519,0,4,-3987.32145887377,7984.64291774754,8009.72596616701,83356.2384706605,1111,521,0.607413791388588,24.8653044031788
38,102.555670418841,0.969476400201821,0.969397255172093,9.68864377502253,12249.3655450213,0,4,-4281.9623058444,8573.92461168881,8599.2097965973,108607.37965657,1157,521,0.607413791388588,24.8653044031788
39,94.100504125968,0.979652848623943,0.979606987275988,7.16051388526994,21361.1874117641,0,4,-4520.33657593563,9050.67315187127,9076.65658472544,68244.3085636222,1331,521,0.607413791388588,24.8653044031788
40,92.602092677668,0.974694777815963,0.974633057761856,7.17684031443067,15792.1892958773,0,4,-4181.00717718178,8372.01435436355,8397.60443538588,63353.6553855699,1230,521,0.607413791388588,24.8653044031788
41,111.395231330824,0.921739846613315,0.921530221202458,12.2109012189551,4397.0806919074,0,4,-4405.50124726046,8821.00249452092,8846.12573967319,166998.841608569,1120,521,0.607413791388588,24.8653044031788
42,136.555465066316,0.985840100079584,0.985795942387525,5.50376415554514,22325.4444265571,0,4,-3016.13802438672,6042.27604877344,6066.64186794451,29140.3459244287,962,521,0.607413791388588,24.8653044031788
43,145.654741794776,0.984932458762602,0.984876026023885,5.32133378102324,17453.2103377885,0,4,-2485.97833979667,4981.95667959334,5005.41089098044,22681.5911604563,801,521,0.607413791388588,24.8653044031788
44,147.418296672603,0.964509006671514,0.964362551403308,7.36995164651171,6585.69007785779,0,4,-2495.34612300624,5000.69224601248,5023.66431331123,39487.8681466863,727,521,0.607413791388588,24.8653044031788
45,124.186586592663,0.990642757609791,0.99061501874895,4.60759250623057,35713.1737782807,0,4,-2991.78637784259,5993.57275568517,6018.19089882587,21484.6676079138,1012,521,0.607413791388588,24.8653044031788
46,111.935331013987,0.993022954874994,0.993004431746343,4.45684051938145,53609.8935343959,0,4,-3301.76784717995,6613.53569435989,6638.70322678133,22445.6729791763,1130,521,0.607413791388588,24.8653044031788
47,105.557259694354,0.994946644951137,0.994935246405914,4.31428628743701,87287.1603775912,0,4,-3841.0781642924,7692.15632858481,7718.13601471719,24755.3780060562,1330,521,0.607413791388588,24.8653044031788
48,101.04167800598,0.994856365372275,0.994845946125899,4.15904089085971,95482.5646165113,0,4,-4221.66849488451,8453.33698976902,8479.8528400252,25617.7768962597,1481,521,0.607413791388588,24.8653044031788
49,98.4661189169058,0.993976071602396,0.993964546229186,4.49268795964072,86242.4195309997,0,4,-4590.42207612279,9190.84415224558,9217.64467211053,31648.8963210347,1568,521,0.607413791388588,24.8653044031788
50,98.5737078238756,0.995245680233833,0.995236903028111,3.89809954154604,113389.808982348,0,4,-4525.68521577705,9061.3704315541,9088.34903959711,24692.1675581773,1625,521,0.607413791388588,24.8653044031788
51,102.336062934139,0.996010056262898,0.99600239802156,3.51490119001458,130057.282384104,0,4,-4191.21101014145,8392.4220202829,8419.20661149468,19310.1309770095,1563,521,0.607413791388588,24.8653044031788
52,107.711866569114,0.994703436114968,0.994692339961578,3.79016256008186,89643.9875257052,0,4,-3948.93213776699,7907.86427553398,7934.21235928202,20571.1557560039,1432,521,0.607413791388588,24.8653044031788
53,113.113266488282,0.993554073304151,0.993538701459884,4.01746676825871,64634.6694686784,0,4,-3543.69950474206,7097.39900948413,7123.10127469963,20304.1693564513,1258,521,0.607413791388588,24.8653044031788
54,121.499816213095,0.990041456264421,0.990014321267866,4.42546972689424,36485.7778503197,0,4,-3209.4744010272,6428.94880205439,6453.98680512415,21562.8453163268,1101,521,0.607413791388588,24.8653044031788
55,132.490582326424,0.987719849175594,0.987677259057128,4.82929472192427,23191.2914250441,0,4,-2599.46764767859,5208.93529535719,5232.77201098351,20173.6056971929,865,521,0.607413791388588,24.8653044031788
56,136.035508754059,0.987767907739624,0.987724582737521,4.65163612512636,22799.0273467122,0,4,-2513.68535632816,5037.37071265633,5061.10277329919,18327.1476885717,847,521,0.607413791388588,24.8653044031788
57,138.386249640385,0.983269557165126,0.98321322570777,5.82788572915784,17455.0704581065,0,4,-2845.52108601296,5701.04217202591,5725.02629061729,30262.1485962603,891,521,0.607413791388588,24.8653044031788
58,125.743324899747,0.980191931664767,0.980138444531548,7.62542341536768,18325.7518712301,0,4,-3845.22182215845,7700.44364431691,7725.52669273638,64601.4083949015,1111,521,0.607413791388588,24.8653044031788
59,115.046517658436,0.98698857365821,0.986956233741867,7.00592193483407,30519.206147785,0,4,-4073.85250548405,8157.7050109681,8183.20101968586,59243.1111834859,1207,521,0.607413791388588,24.8653044031788
60,116.79181225857,0.984080337734158,0.984044723277187,7.65634684548954,27631.4851170551,0,4,-4644.26386426561,9298.52772853122,9324.5484749914,78608.9466517248,1341,521,0.607413791388588,24.8653044031788
61,116.307393445456,0.971992772479969,0.971870291893147,10.4817376533112,7935.89251731976,0,4,-2598.30955382355,5206.61910764709,5229.30256563505,75368.6414237293,686,521,0.607413791388588,24.8653044031788
62,106.368452014429,0.95029077643307,0.950184786617362,12.2285422378468,8965.86874962993,0,4,-5532.9427761274,11075.8855522548,11102.1458220141,210398.904084764,1407,521,0.607413791388588,24.8653044031788
63,92.5910043451995,0.987160611934885,0.98713255791872,5.49813291994544,35187.8535361356,0,4,-4298.84604441967,8607.69208883935,8633.83040133299,41505.0562761974,1373,521,0.607413791388588,24.8653044031788
64,94.3591223409119,0.960998640112139,0.960878512720287,9.42810166285289,7999.82939193659,0,4,-3580.05126750336,7170.10253500671,7194.53008335689,86577.9843399971,974,521,0.607413791388588,24.8653044031788
65,115.067283149499,0.986684369930425,0.986650314610554,5.11298989405078,28972.9878816841,0,4,-3588.69741507208,7187.39483014415,7212.74845068045,30665.3468152685,1173,521,0.607413791388588,24.8653044031788
66,136.644844733378,0.959694018775064,0.959579729603349,9.56104871409886,8397.06863188711,0,4,-3902.58360546387,7815.16721092774,7840.00675693675,96715.6443591471,1058,521,0.607413791388588,24.8653044031788
67,152.455722416511,0.983942827724901,0.983885548870175,5.92895307471275,17178.1162946921,0,4,-2700.96957622108,5411.93915244215,5435.63583557894,29563.2395167646,841,521,0.607413791388588,24.8653044031788
68,156.611662246499,0.978495955927028,0.9784127144661,6.52167305794909,11754.9108944362,0,4,-2564.07497264694,5138.14994529387,5161.44000052322,32962.4700929538,775,521,0.607413791388588,24.8653044031788
69,152.000763070112,0.983907342996426,0.98385411480347,5.84882921756495,18484.7030936646,0,4,-2899.69461337538,5809.38922675076,5833.46194123706,31027.384517131,907,521,0.607413791388588,24.8653044031788
70,136.145194651762,0.979493933838075,0.97943702523633,7.15364961609849,17211.7026919083,0,4,-3672.41520139613,7354.83040279225,7379.77707912212,55319.8537591284,1081,521,0.607413791388588,24.8653044031788
71,126.829624835429,0.983135502792067,0.983093655404455,7.04367994115651,23493.3542779347,0,4,-4087.1037387004,8184.2074774008,8209.71173694552,59982.6333801618,1209,521,0.607413791388588,24.8653044031788
72,118.63976430338,0.980959183158788,0.980915974043414,8.03801331233,22702.5981597077,0,4,-4643.13474097512,9296.26948195023,9322.21909280396,85413.9678881548,1322,521,0.607413791388588,24.8653044031788
73,112.716558896895,0.976607340691299,0.97655742747798,9.34100076310934,19566.1083660438,0,4,-5149.22337592775,10308.4467518555,10334.7034767724,122679.539130511,1406,521,0.607413791388588,24.8653044031788
74,112.659367854701,0.983027795595628,0.98299193882576,7.81443493479118,27415.402982582,0,4,-4946.27071923883,9902.54143847766,9928.84756393752,86712.8585571205,1420,521,0.607413791388588,24.8653044031788
75,104.76004972789,0.980661831377039,0.98062033316111,7.76807320292631,23631.4214821306,0,4,-4861.48002579163,9732.96005158326,9759.18832692123,84359.4598778586,1398,521,0.607413791388588,24.8653044031788
76,102.498906270283,0.979476911716715,0.979429587147269,7.15233689433568,20697.0062944721,0,4,-4417.21979430545,8844.43958861089,8870.30938020967,66553.855888148,1301,521,0.607413791388588,24.8653044031788
77,115.397504492554,0.983945927055492,0.983905657641752,6.17001994672435,24434.076279294,0,4,-3884.36538400853,7778.73076801707,7804.18115219595,45530.6987869997,1196,521,0.607413791388588,24.8653044031788
78,116.403439749227,0.98571009871408,0.985670441263703,4.99352839828573,24855.6094589641,0,4,-3282.37950060783,6574.75900121565,6599.70567754552,26955.0872595094,1081,521,0.607413791388588,24.8653044031788
79,125.351634005061,0.975853238096846,0.975775345316513,5.62833511792509,12528.1602984002,0,4,-2937.06227430533,5884.12454861066,5908.3219308018,29460.685265692,930,521,0.607413791388588,24.8653044031788
80,124.766673984466,0.966264587637432,0.966146768967947,6.69019017034242,8201.28585614014,0,4,-2862.79360951353,5735.58721902705,5759.38929248247,38447.6756386825,859,521,0.607413791388588,24.8653044031788
81,112.509806791379,0.956607477272098,0.956465362022989,6.94017391978727,6731.20923525536,0,4,-3085.75977799594,6181.51955599188,6205.6414243421,44120.0688577962,916,521,0.607413791388588,24.8653044031788
82,104.54360542887,0.988175544914882,0.988139421325009,4.52546417601487,27355.4081525973,0,4,-2885.65339603396,5781.30679206793,5805.77507384094,20111.1891402428,982,521,0.607413791388588,24.8653044031788
83,131.73991105898,0.977240645585964,0.977181683527896,9.10235649993794,16574.0592783926,0,4,-4213.11886179732,8436.23772359465,8461.52721328171,95943.6510805725,1158,521,0.607413791388588,24.8653044031788
84,123.165088082837,0.978913802685519,0.978865550517752,8.50403243616285,20287.4574961791,0,4,-4678.71182181891,9367.42364363782,9393.33160336088,94809.6422223311,1311,521,0.607413791388588,24.8653044031788
85,113.960740036544,0.980608966707368,0.980567503343236,8.21930978045449,23650.0097670264,0,4,-4958.2698036709,9926.53960734179,9952.78568262737,94782.5457337059,1403,521,0.607413791388588,24.8653044031788
86,104.44430584483,0.987433611757323,0.987406969238081,6.11410571487239,37062.3214258571,0,4,-4580.71024570696,9171.42049141392,9197.70902979972,52895.9385000788,1415,521,0.607413791388588,24.8653044031788
87,105.492852064423,0.975950779405403,0.97589979165856,8.32543889743154,19140.8885432365,0,4,-5018.78001060979,10047.5600212196,10073.8485596054,98077.7999613356,1415,521,0.607413791388588,24.8653044031788
88,109.370280990504,0.987135422650417,0.987106426608307,5.8133758616281,34043.7987673254,0,4,-4242.0954692281,8494.1909384562,8520.17437131037,44981.5960872936,1331,521,0.607413791388588,24.8653044031788
89,110.967172192797,0.995402874532694,0.995287946396011,3.08169726440155,8661.08947090347,4.92523933133096e-140,4,-313.474991732074,636.949983464147,651.051391292172,1139.6229635304,120,521,0.607413791388588,24.8653044031788
