"Age","power_predict","r.squared","adj.r.squared","sigma","statistic","p.value","df","logLik","AIC","BIC","deviance","df.residual","GHI","Wind_speed","Ambient_temp"
1,202.660436995841,0.836297567014361,0.835191469494188,27.12696606535,756.079415930146,5.1047527595053e-174,4,-2112.31215512537,4234.62431025075,4255.14827641282,326727.295832329,444,762.67037037,2.10644345205548,25.5475460441072
2,204.055435800593,0.930533446681726,0.930326700987326,16.830846398661,4500.86009957269,0,4,-4291.05369016921,8592.10738033842,8616.70579958766,285543.609619284,1008,762.67037037,2.10644345205548,25.5475460441072
3,204.507300438608,0.89984006118119,0.899567640676697,20.2514640173879,3303.1289728133,0,4,-4898.86872068043,9807.73744136086,9832.7844860244,452364.339716857,1103,762.67037037,2.10644345205548,25.5475460441072
4,194.448172826789,0.945723592112051,0.945591318169189,15.7814010616651,7149.73464648671,0,4,-5157.54348446871,10325.0869689374,10350.6811001827,306583.774566493,1231,762.67037037,2.10644345205548,25.5475460441072
5,184.51553831837,0.969784780413729,0.969718470495105,11.6761362944098,14625.0334872952,0,4,-5312.65891545358,10635.3178309072,10661.434309305,186366.061032621,1367,762.67037037,2.10644345205548,25.5475460441072
6,146.038991325948,0.510153936459034,0.509123404768555,62.2658100660766,495.039542376385,2.21758984256856e-220,4,-7934.99914654308,15879.9982930862,15906.3254417024,5528646.35314141,1426,762.67037037,2.10644345205548,25.5475460441072
7,147.724678289212,0.39755217785996,0.39634244327735,56.2786070054323,328.627604413913,7.74979732542918e-164,4,-8160.97833997802,16331.956679956,16358.5161107764,4731918.72006901,1494,762.67037037,2.10644345205548,25.5475460441072
8,167.200925789414,0.877275983458127,0.877034400748399,20.1281466318456,3631.36908450737,0,4,-6753.37354118096,13516.7470823619,13543.4056572106,617436.845133609,1524,762.67037037,2.10644345205548,25.5475460441072
9,167.835781565459,0.872733925690209,0.872472420058066,23.503551329749,3337.34275065868,0,4,-6697.39311552006,13404.7862310401,13431.2308695127,806528.710660814,1460,762.67037037,2.10644345205548,25.5475460441072
10,170.401381530545,0.838372916287921,0.838016385956204,23.7420416124252,2351.47711626247,0,4,-6253.5546532096,12517.1093064192,12543.2001906112,766610.974299537,1360,762.67037037,2.10644345205548,25.5475460441072
11,182.323508409681,0.973934317757951,0.973875301118913,9.27235175626962,16502.7072639792,0,4,-4843.49852466625,9696.99704933251,9722.95795962607,113918.871896895,1325,762.67037037,2.10644345205548,25.5475460441072
12,188.556073005444,0.970800699813739,0.970728898255904,9.38196888010462,13520.6077567803,0,4,-4475.05601246785,8960.1120249357,8985.66142225106,107386.034882047,1220,762.67037037,2.10644345205548,25.5475460441072
13,192.073482933867,0.941010200973513,0.940840038091706,13.9943589904805,5530.05562070727,0,4,-4234.12309664271,8478.24619328541,8503.00026712763,203675.76689662,1040,762.67037037,2.10644345205548,25.5475460441072
14,206.107479258732,0.957045218510938,0.956910704581431,14.2563195681118,7114.84098355027,0,4,-3919.24137534671,7848.48275069341,7872.82782294674,194706.456427746,958,762.67037037,2.10644345205548,25.5475460441072
15,199.456685428052,0.948397836354565,0.94825761308379,12.7819428449871,6763.48391467804,0,4,-4393.40134931194,8796.80269862389,8821.85425796042,180369.381433339,1104,762.67037037,2.10644345205548,25.5475460441072
16,191.624424211599,0.970220044080559,0.970142827254493,12.5651701931879,12564.878582962,0,4,-4583.79242299956,9177.58484599911,9202.8700309076,182671.21179523,1157,762.67037037,2.10644345205548,25.5475460441072
17,190.575904928961,0.90163541466744,0.9014176332977,21.0624774228633,4140.09433288037,0,4,-6067.87768959262,12145.7553791852,12171.827901256,601115.879280588,1355,762.67037037,2.10644345205548,25.5475460441072
18,178.337937181466,0.979513130146006,0.979469939274915,10.4306792478168,22678.7074539521,0,4,-5368.78271396883,10747.5654279377,10773.8820760251,154821.075999301,1423,762.67037037,2.10644345205548,25.5475460441072
19,170.227066653839,0.955156364048159,0.955068262602281,14.5785712294768,10841.5515151944,0,4,-6272.78750144393,12555.5750028879,12582.2433848662,324540.5465949,1527,762.67037037,2.10644345205548,25.5475460441072
20,173.723371413936,0.968175041161504,0.968113245124925,12.147648467989,15667.2675910912,0,4,-6063.9962600141,12137.9925200282,12164.7193442303,227988.486301335,1545,762.67037037,2.10644345205548,25.5475460441072
21,167.492965962119,0.974776910656588,0.974726963945017,10.6960696738315,19516.3381130453,0,4,-5753.20717539633,11516.4143507927,11543.0433883056,173324.948298199,1515,762.67037037,2.10644345205548,25.5475460441072
22,174.258915090931,0.985543392638945,0.985513564700786,7.62801112484325,33040.9493068528,0,4,-5029.21361200006,10068.4272240001,10094.851328563,84603.2491099449,1454,762.67037037,2.10644345205548,25.5475460441072
23,184.976281568849,0.971845488460423,0.971783610413084,9.88755726210938,15705.8202422694,0,4,-5077.28230777193,10164.5646155439,10190.6737946703,133447.571454686,1365,762.67037037,2.10644345205548,25.5475460441072
24,187.979882554387,0.943411374187378,0.943274245045667,15.1446654125795,6879.72930055648,0,4,-5135.63768383809,10281.2753676762,10306.8977589886,283948.78238822,1238,762.67037037,2.10644345205548,25.5475460441072
25,198.552697792491,0.95893913322706,0.95882983189581,12.4198401439526,8773.35273285165,0,4,-4452.13881349458,8914.27762698916,8939.43191436974,173842.487709906,1127,762.67037037,2.10644345205548,25.5475460441072
26,205.288325749639,0.965997533673965,0.965883303663912,12.1073263131035,8456.60026833952,0,4,-3507.73163424059,7025.46326848118,7049.45854779148,130902.503953609,893,762.67037037,2.10644345205548,25.5475460441072
27,202.585272158101,0.969678499174948,0.969588878975465,11.8070227425254,10819.8654407128,0,4,-3959.49412726882,7928.98825453764,7953.62113970375,141496.872833149,1015,762.67037037,2.10644345205548,25.5475460441072
28,192.465035694559,0.969858473446573,0.969780183767214,12.2826594315406,12388.0756873769,0,4,-4549.53673212206,9109.07346424411,9134.35002846081,174247.599731451,1155,762.67037037,2.10644345205548,25.5475460441072
29,184.714081921136,0.979611549494425,0.979564929561866,10.3415845141801,21012.7191468069,0,4,-4939.7238617111,9889.44772342221,9915.35948398163,140316.261786275,1312,762.67037037,2.10644345205548,25.5475460441072
30,179.511919600487,0.97485866484594,0.974805846914944,11.5731940553817,18456.9642631619,0,4,-5536.4435045067,11082.8870090134,11109.221145751,191264.63587895,1428,762.67037037,2.10644345205548,25.5475460441072
31,175.548998730864,0.979763853886704,0.979724381560085,10.4005650344312,24821.5379687619,0,4,-5797.14894769704,11604.2978953941,11631.0020731647,166368.156168494,1538,762.67037037,2.10644345205548,25.5475460441072
32,143.542103845424,0.909495249464591,0.90932197936146,18.9828360290656,5249.00275944972,0,4,-6851.44369065901,13712.887381318,13739.6847195093,564665.415827916,1567,762.67037037,2.10644345205548,25.5475460441072
33,144.07669427809,0.943871809891022,0.943744727196435,14.2061423914985,7427.22534301917,0,4,-5410.49961739495,10830.9992347899,10856.9601450835,267404.188182978,1325,762.67037037,2.10644345205548,25.5475460441072
34,150.203044715435,0.952971312507441,0.952874078832404,12.8642497043598,9800.83610078116,0,4,-5779.28065109117,11568.5613021823,11594.9751080804,240124.42358183,1451,762.67037037,2.10644345205548,25.5475460441072
35,176.591703860149,0.971972419317759,0.971911840973345,9.22878726027261,16044.8825189762,0,4,-5066.63964626464,10143.2792925293,10169.4717767338,118216.673841974,1388,762.67037037,2.10644345205548,25.5475460441072
36,181.731918134675,0.96875011676105,0.96867192689473,11.3735052971977,12389.7144523168,0,4,-4629.81744720734,9269.63489441467,9295.09776299455,155098.590671716,1199,762.67037037,2.10644345205548,25.5475460441072
37,182.527480950548,0.971341087541052,0.97126560313598,9.87382401396315,12868.102843447,0,4,-4237.18432416621,8484.36864833243,8509.5757066514,111043.844350277,1139,762.67037037,2.10644345205548,25.5475460441072
38,195.893620128117,0.96634565444297,0.966239600833021,12.3123545296278,9111.86007634347,0,4,-3754.63769308188,7519.27538616375,7543.58917572901,144317.558508209,952,762.67037037,2.10644345205548,25.5475460441072
39,185.279904294621,0.970180292257237,0.970096607389858,10.9602444670431,11593.2584067069,0,4,-4089.57394045649,8189.14788091298,8214.03894962613,128415.718932987,1069,762.67037037,2.10644345205548,25.5475460441072
40,181.743620422934,0.969000398815666,0.968921653004021,10.5703725416859,12305.4214385575,0,4,-4473.7340063823,8957.46801276459,8982.85550303244,131956.408066303,1181,762.67037037,2.10644345205548,25.5475460441072
41,178.262677549129,0.944518470299425,0.944388840557134,17.400683515554,7286.27900978669,0,4,-5504.77393921499,11019.54787843,11045.3521079633,388774.382262079,1284,762.67037037,2.10644345205548,25.5475460441072
42,170.596489096875,0.98041512266207,0.980373423136155,9.69230862800739,23511.4213209037,0,4,-5212.35034004893,10434.7006800979,10460.9680320113,132362.65277563,1409,762.67037037,2.10644345205548,25.5475460441072
43,168.451348592445,0.979977600387137,0.979937555587911,10.3796165527306,24472.0318077547,0,4,-5651.20616951271,11312.4123390254,11338.991756548,161604.659672579,1500,762.67037037,2.10644345205548,25.5475460441072
44,166.087533164787,0.981077754708586,0.981041666510319,9.10724225585515,27185.5565480353,0,4,-5719.36683613846,11448.7336722769,11475.5500702117,130467.548150249,1573,762.67037037,2.10644345205548,25.5475460441072
45,164.750936464568,0.982733510872391,0.982699046822236,8.68132213409371,28514.7423606693,0,4,-5393.22668241321,10796.4533648264,10823.0427458196,113274.127055846,1503,762.67037037,2.10644345205548,25.5475460441072
46,162.646855509539,0.983343445917409,0.98330933693294,8.3251181606304,28829.4553828655,0,4,-5195.6362271299,10401.2724542598,10427.7341401407,101535.622849091,1465,762.67037037,2.10644345205548,25.5475460441072
47,170.535343574709,0.978462030568552,0.978414694372,9.47920824454189,20670.4826713447,0,4,-5019.54291176926,10049.0858235385,10075.195002665,122652.605907729,1365,762.67037037,2.10644345205548,25.5475460441072
48,174.444700593096,0.975309586752336,0.975251491662341,9.50006570978127,16788.1586351722,0,4,-4692.23030698824,9394.46061397649,9420.22978298438,115070.341824956,1275,762.67037037,2.10644345205548,25.5475460441072
49,180.262951547192,0.976055198600678,0.975993058112617,9.86240105655811,15707.2341892456,0,4,-4298.89164074081,8607.78328148162,8633.06415790212,112440.599518061,1156,762.67037037,2.10644345205548,25.5475460441072
50,191.036300399897,0.967807403597172,0.967715686798303,11.5521918488535,10552.1280238447,0,4,-4084.16131095224,8178.32262190448,8203.13857183383,140526.15274789,1053,762.67037037,2.10644345205548,25.5475460441072
51,192.892472203984,0.974629433487911,0.974560802559564,9.33750671038325,14201.0236050905,0,4,-4063.76069144907,8137.52138289814,8162.59545465452,96692.6360071955,1109,762.67037037,2.10644345205548,25.5475460441072
52,183.310907542251,0.961528996759742,0.961429330948239,13.2562670507699,9647.5309061053,0,4,-4649.95775983961,9309.91551967922,9335.20500936628,203493.737468496,1158,762.67037037,2.10644345205548,25.5475460441072
53,175.962240575707,0.971727214044736,0.971661156133626,11.5223724817741,14710.23224486,0,4,-4973.83598405007,9957.67196810014,9983.47619763346,170470.346809629,1284,762.67037037,2.10644345205548,25.5475460441072
54,172.058338308485,0.980923002142033,0.980882064378389,9.74808239376477,23961.3236003632,0,4,-5179.80192956885,10369.6038591377,10395.8321344757,132845.104277166,1398,762.67037037,2.10644345205548,25.5475460441072
55,169.623757402733,0.98541394424879,0.985384517102016,7.99756734433386,33486.560956833,0,4,-5213.6285489347,10437.2570978694,10463.7931094432,95110.1310561801,1487,762.67037037,2.10644345205548,25.5475460441072
56,168.078072375938,0.98277698220484,0.982744071979753,8.60770656895112,29862.3597872063,0,4,-5619.69026332759,11249.3805266552,11276.1874038001,116325.401432148,1570,762.67037037,2.10644345205548,25.5475460441072
57,167.19222844967,0.986173075945062,0.986146262259112,7.83638570053603,36778.7210523795,0,4,-5391.93532604242,10793.8706520848,10820.6039279007,94999.631491184,1547,762.67037037,2.10644345205548,25.5475460441072
58,165.983819353242,0.968897211534104,0.968833563263027,11.005341201268,15222.679189107,0,4,-5609.45657426817,11228.9131485363,11255.3782369352,177558.306245974,1466,762.67037037,2.10644345205548,25.5475460441072
59,169.648853029326,0.958763021787119,0.958663735322722,12.8113749883093,9656.53301897849,0,4,-4959.58676872897,9929.17353745795,9954.82803160943,204507.636047482,1246,762.67037037,2.10644345205548,25.5475460441072
60,172.792494712559,0.974255372608091,0.974196007594889,9.45134617674144,16411.2718933285,0,4,-4780.94683944295,9571.8936788859,9597.76347048468,116215.655862939,1301,762.67037037,2.10644345205548,25.5475460441072
61,170.96545007242,0.960247358932637,0.96014680419132,11.6012111416524,9549.49857515353,0,4,-4603.35379231359,9216.70758462719,9242.11612755772,159621.486544495,1186,762.67037037,2.10644345205548,25.5475460441072
62,186.259824996129,0.958999773042609,0.958883295125116,13.1081233412203,8233.31832923295,0,4,-4229.69713092248,8469.39426184496,8494.22438278049,181444.979790249,1056,762.67037037,2.10644345205548,25.5475460441072
63,201.285657642841,0.964107828530478,0.964003389622226,12.8730833575223,9231.30895046749,0,4,-4111.16592713038,8232.33185426075,8257.04263778925,170853.479658739,1031,762.67037037,2.10644345205548,25.5475460441072
64,184.894104518062,0.969165050653762,0.969082970043258,11.8329399125351,11807.4785834975,0,4,-4397.38931444953,8804.77862889907,8829.93291627965,157800.812279323,1127,762.67037037,2.10644345205548,25.5475460441072
65,176.561874238396,0.970530526160809,0.970454834019099,11.9292489978879,12822.0777511619,0,4,-4566.37266831346,9142.74533662692,9168.07767147761,166214.554571417,1168,762.67037037,2.10644345205548,25.5475460441072
66,174.062915227373,0.978589978337574,0.978543129274855,10.2068938898286,20888.1442135634,0,4,-5143.24969328394,10296.4993865679,10322.6304316184,142831.71622604,1371,762.67037037,2.10644345205548,25.5475460441072
67,169.943729603082,0.978848296356938,0.97880545023207,10.2096785942889,22845.6668923393,0,4,-5555.27520934603,11120.5504186921,11147.0662689482,154375.792295047,1481,762.67037037,2.10644345205548,25.5475460441072
68,185.203803639834,0.918882583597344,0.918719914981563,17.1076779454242,5648.80065639687,0,4,-6385.6961764803,12781.3923529606,12807.9584548961,437838.276447792,1496,762.67037037,2.10644345205548,25.5475460441072
69,205.398451391802,0.940717600144026,0.940590747647901,15.2522545712205,7415.83830730061,0,4,-5823.99135733192,11657.9827146638,11684.2252350257,326149.039846453,1402,762.67037037,2.10644345205548,25.5475460441072
70,244.26900677675,0.688887220172746,0.688046374821861,32.2013041818882,819.279335311917,8.1950695707513e-281,4,-5446.50967376769,10903.0193475354,10928.0979096378,1150985.63002609,1110,762.67037037,2.10644345205548,25.5475460441072
71,217.405420409837,0.768936043374433,0.768175964569744,32.0641555621555,1011.65305311821,1.53910411471577e-289,4,-4474.19201832009,8958.38403664019,8982.48411846356,937636.385585665,912,762.67037037,2.10644345205548,25.5475460441072
