"Age","power_predict","r.squared","adj.r.squared","sigma","statistic","p.value","df","logLik","AIC","BIC","deviance","df.residual","GHI","Wind_speed","Ambient_temp"
0,NA,NA,NA,NA,NA,NA,NA,NA,NA,NA,NA,NA,646.6,1.57413984601059,21.093254975866
1,17.2403012637626,0.982637286174606,0.982588922069243,0.829805071913844,20317.4912219505,0,4,-1330.19266490357,2670.38532980714,2695.31353889534,741.596844591734,1077,646.6,1.57413984601059,21.093254975866
2,16.8046248016454,0.940661347796502,0.940490670944526,1.82647950922272,5511.35866937172,0,4,-2114.32750903897,4238.65501807795,4263.4234391323,3479.47657570771,1043,646.6,1.57413984601059,21.093254975866
3,15.9030511602375,0.988386416103089,0.988362085969227,0.844475509352379,40623.9612860049,0,4,-1792.85215876173,3595.70431752345,3622.05240127149,1021.21488460301,1432,646.6,1.57413984601059,21.093254975866
4,15.8973240098928,0.990205550332726,0.990184755322817,0.792550918118132,47617.4598931313,0,4,-1679.18266300737,3368.36532601474,3394.64681221319,887.557521385379,1413,646.6,1.57413984601059,21.093254975866
5,15.619407460635,0.983246833482052,0.983212075875168,1.00088644630939,28288.6804253162,0,4,-2056.74288723169,4123.48577446338,4149.88236864045,1448.56473897485,1446,646.6,1.57413984601059,21.093254975866
6,15.6226723465189,0.984407323396057,0.984375371189902,0.940147897031554,30808.7434902489,0,4,-1990.39689727143,3990.79379454286,4017.25207558874,1293.99749198074,1464,646.6,1.57413984601059,21.093254975866
7,15.9779837827046,0.968068400642979,0.96799385216199,1.28648579602158,12985.7562192824,0,4,-2151.72620770773,4313.45241541545,4339.26052543015,2126.73372882439,1285,646.6,1.57413984601059,21.093254975866
8,15.7862845449328,0.960034550041023,0.959940365948425,1.38380795425968,10193.1708801534,0,4,-2224.80088107444,4459.60176214888,4485.36310642904,2437.69883028871,1273,646.6,1.57413984601059,21.093254975866
9,15.4602649297052,0.985553281984057,0.985515496322289,0.67088897010824,26082.7318054337,0,4,-1171.77124804443,2353.54249608885,2378.78442813246,516.255535714191,1147,646.6,1.57413984601059,21.093254975866
10,16.3233253993392,0.988562148498082,0.988530639265294,0.547654668267198,31373.7295719059,0,4,-890.789526818031,1791.57905363606,1816.56246107694,326.619017249917,1089,646.6,1.57413984601059,21.093254975866
11,16.3100606033918,0.983727318467513,0.9836779074912,0.617649342483505,19909.0848201742,0,4,-927.603267379715,1865.20653475943,1889.70515029585,376.912821747062,988,646.6,1.57413984601059,21.093254975866
12,16.2650438541083,0.986880212658285,0.986843324783847,0.584610297864705,26753.5125755766,0,4,-942.756117084331,1895.51223416866,1920.3939745209,364.667736794213,1067,646.6,1.57413984601059,21.093254975866
13,16.4808443237855,0.991909851242956,0.991888523961522,0.560914898311652,46508.9680718833,0,4,-958.13578915556,1926.27157831112,1951.4742602622,358.043845342391,1138,646.6,1.57413984601059,21.093254975866
14,15.9707269255653,0.990626361921914,0.990603756685391,0.671141403423994,43822.8709054417,0,4,-1271.16034223405,2552.3206844681,2577.96717221274,560.33589453707,1244,646.6,1.57413984601059,21.093254975866
15,15.3539482488065,0.974174023481111,0.974116160949702,1.2226348978168,16836.0076850938,0,4,-2173.58558867638,4357.17117735276,4383.18448333537,2001.58552900838,1339,646.6,1.57413984601059,21.093254975866
16,14.8733634386781,0.982444159659617,0.982408159987012,1.0001450049038,27290.3637329895,0,4,-2079.79280336413,4169.58560672826,4196.04048061897,1463.42431511018,1463,646.6,1.57413984601059,21.093254975866
17,14.5244698261009,0.991347978233645,0.991329660615227,0.696118768515444,54119.9164423326,0,4,-1499.57291640464,3009.14583280928,3035.44141344977,686.651758609193,1417,646.6,1.57413984601059,21.093254975866
18,14.1548796376517,0.973014148863093,0.972959299572164,1.21681297565453,17739.7762557846,0,4,-2388.45430753589,4786.90861507177,4813.40760190556,2185.41551495652,1476,646.6,1.57413984601059,21.093254975866
19,15.6542547863244,0.977072272931606,0.977022965991674,1.12982529227909,19816.1206977863,0,4,-2153.8582973303,4317.71659466061,4343.93415953394,1780.72474154757,1395,646.6,1.57413984601059,21.093254975866
20,15.1193828325187,0.968427475565346,0.968351822551525,1.1867227481057,12800.9107192476,0,4,-1995.20517270067,4000.41034540134,4026.08878213648,1763.20522285118,1252,646.6,1.57413984601059,21.093254975866
21,15.5712041090499,0.983864311068048,0.983822902114416,0.742752728419992,23759.6998902857,0,4,-1313.57055858881,2637.14111717763,2662.47771642089,644.915808607575,1169,646.6,1.57413984601059,21.093254975866
22,16.4053728436088,0.991895696139852,0.991873287926414,0.484148663347804,44264.827219519,0,4,-753.29978632134,1516.59957264268,1541.56464825734,254.32392212029,1085,646.6,1.57413984601059,21.093254975866
23,15.8677096362212,0.980398778132729,0.980340843486816,0.672139583798753,16922.4953856289,0,4,-1039.05668789843,2088.11337579687,2112.74626096298,458.548194410798,1015,646.6,1.57413984601059,21.093254975866
24,15.9900006306131,0.987581709192668,0.987542982714059,0.557334023711604,25501.4590704225,0,4,-803.976013733069,1617.95202746614,1642.3178466372,298.817607855077,962,646.6,1.57413984601059,21.093254975866
25,15.9816990645262,0.985818937541437,0.985780332108247,0.660989911140981,25535.7563968391,0,4,-1109.43991963217,2228.87983926434,2253.92236517475,481.472244218438,1102,646.6,1.57413984601059,21.093254975866
26,15.9705774733523,0.990994936701766,0.990973026572086,0.638404253397083,45229.9895620162,0,4,-1198.07844852106,2406.15689704212,2431.75911890408,502.521468601515,1233,646.6,1.57413984601059,21.093254975866
27,15.4352538223328,0.987833554473045,0.9878072770529,0.801231257966271,37592.4862119921,0,4,-1665.88181255859,3341.76362511717,3367.95969998607,891.698453422934,1389,646.6,1.57413984601059,21.093254975866
28,15.5857963519749,0.987907683013897,0.987882698887893,0.847043770323046,39541.4145302533,0,4,-1822.27151686966,3654.54303373933,3680.96027488311,1041.78553212015,1452,646.6,1.57413984601059,21.093254975866
29,15.3008735279639,0.986130238423798,0.986101542365364,0.882640879713416,34364.6581536029,0,4,-1879.62106825155,3769.24213650311,3795.65250479358,1129.62963768485,1450,646.6,1.57413984601059,21.093254975866
30,14.4279304957264,0.955948003450603,0.955802296736548,1.48288659329886,6560.76838770486,0,4,-1649.57402673724,3309.14805347447,3333.22076796077,1994.45005226705,907,646.6,1.57413984601059,21.093254975866
31,13.6592733044885,0.987689614059805,0.987663328538225,0.738657782112754,37575.4238330593,0,4,-1570.46649732554,3150.93299465108,3177.18617221057,766.589523301404,1405,646.6,1.57413984601059,21.093254975866
32,11.9363257734605,0.944199926011276,0.944072528582078,1.32945700133381,7411.45195751008,0,4,-2243.48558226709,4496.97116453417,4522.89051810948,2322.43707677168,1314,646.6,1.57413984601059,21.093254975866
33,15.3730307164895,0.989409057283989,0.989382312479151,0.65259112294607,36994.4392289227,0,4,-1180.62040731593,2371.24081463186,2396.65775386999,505.939706412639,1188,646.6,1.57413984601059,21.093254975866
34,15.8779128621495,0.989507422084157,0.989478727705171,0.535429994393051,34484.3644314627,0,4,-872.469358275556,1754.93871655111,1779.95858723473,314.493750948629,1097,646.6,1.57413984601059,21.093254975866
35,15.2760982407587,0.987727516251454,0.987691349796399,0.499256210075937,27310.5980323147,0,4,-738.233399749938,1486.46679949988,1511.1143833537,253.743385038777,1018,646.6,1.57413984601059,21.093254975866
36,15.5808540283227,0.983504307258305,0.983454721007579,0.611808873095718,19834.2139776248,0,4,-927.454392802397,1864.90878560479,1889.45755201302,373.561477004255,998,646.6,1.57413984601059,21.093254975866
37,15.3568843458208,0.984285790333815,0.984243811145036,0.679598202031148,23446.9940693964,0,4,-1161.83243551779,2333.66487103557,2358.80144360577,518.661723297058,1123,646.6,1.57413984601059,21.093254975866
38,16.1936826230722,0.988615113807293,0.988587480588379,0.693557427210175,35776.3283702839,0,4,-1303.73821719388,2617.47643438777,2643.09076768076,594.543074380259,1236,646.6,1.57413984601059,21.093254975866
39,15.5360881433617,0.987529419971496,0.987501500762477,0.802837304845473,35370.9669675137,0,4,-1609.90371281162,3229.80742562324,3255.82445322865,863.693968989067,1340,646.6,1.57413984601059,21.093254975866
40,15.4914048330436,0.989295129417996,0.98927163665154,0.731275567581571,42110.627169029,0,4,-1514.2869047796,3038.57380955921,3064.69028795702,731.02232749897,1367,646.6,1.57413984601059,21.093254975866
41,14.9714784870783,0.985048870942041,0.985017980179524,0.916514110011539,31888.1371224695,0,4,-1937.04085154491,3884.08170308982,3910.49894423361,1219.67726131055,1452,646.6,1.57413984601059,21.093254975866
42,14.5017295705627,0.984978673856776,0.984948651219581,0.822469795490046,32807.8665261738,0,4,-1839.35733260985,3688.7146652197,3715.29740610562,1015.36130330465,1501,646.6,1.57413984601059,21.093254975866
43,13.1820175366838,0.991912018404807,0.991894991075132,0.606793428440783,58254.114848912,0,4,-1311.77931457597,2633.55862915195,2659.8822800416,524.68252733846,1425,646.6,1.57413984601059,21.093254975866
44,14.7670740024616,0.958583181430184,0.95849168624925,1.27575458582366,10476.8707120582,0,4,-2262.28987164455,4534.57974328911,4560.66329072265,2210.21257849363,1358,646.6,1.57413984601059,21.093254975866
45,15.4256319848174,0.985290120785764,0.985254675293681,0.731429220451667,27797.3322670357,0,4,-1379.62024504415,2769.2404900883,2794.89098263893,666.060937140514,1245,646.6,1.57413984601059,21.093254975866
46,15.6385072231131,0.988970629343923,0.988941756645871,0.530557618106821,34252.7957568674,0,4,-900.875103575986,1811.75020715197,1836.98779325876,322.589128506336,1146,646.6,1.57413984601059,21.093254975866
47,15.1850958323058,0.97955892679935,0.979500634765508,0.633182378458489,16804.3360684893,0,4,-1013.80669316517,2037.61338633033,2062.42460365166,421.767760458648,1052,646.6,1.57413984601059,21.093254975866
48,15.7710388828476,0.984962643543922,0.984919720547378,0.573944115282706,22947.2013335225,0,4,-909.215825299335,1828.43165059867,1853.23813082822,346.211851688498,1051,646.6,1.57413984601059,21.093254975866
49,15.4563763127125,0.981098441703109,0.981047310346129,0.728011793157652,19187.8037207072,0,4,-1223.96645584591,2457.93291169183,2483.00698344821,587.771298613071,1109,646.6,1.57413984601059,21.093254975866
50,15.2912217406012,0.986391975358988,0.986358595085952,0.739604028810025,29550.1470073352,0,4,-1368.92162554464,2747.84325108928,2773.40488831283,668.998268065361,1223,646.6,1.57413984601059,21.093254975866
51,15.1778141447629,0.987144854615179,0.987115257196795,0.796747237025246,33352.3972194146,0,4,-1555.57594009544,3121.15188019088,3147.029328759,827.152426098694,1303,646.6,1.57413984601059,21.093254975866
52,14.8513080339071,0.984339138531562,0.98430612195784,0.923908470129393,29813.4853980477,0,4,-1909.88645847764,3829.77291695528,3856.08956504267,1214.68256345464,1423,646.6,1.57413984601059,21.093254975866
53,14.6603686217281,0.988503601271578,0.988479158184274,0.791910909133179,40441.028950105,0,4,-1675.6666618128,3361.3333236256,3387.60774767599,884.870394973838,1411,646.6,1.57413984601059,21.093254975866
54,13.9545882923476,0.988754714208996,0.988732118189322,0.728012594399965,43757.9152648113,0,4,-1646.94522181748,3303.89044363496,3330.44653555705,791.293490044217,1493,646.6,1.57413984601059,21.093254975866
55,14.4648795026209,0.9739779479111,0.973923659902569,1.08466631225197,17940.9408132162,0,4,-2161.30137706781,4332.60275413561,4358.97168572483,1691.8084508475,1438,646.6,1.57413984601059,21.093254975866
56,14.5730563433271,0.983981814125619,0.983947489441602,0.817520493912995,28666.886304087,0,4,-1707.30989843812,3424.61979687624,3450.85519979916,935.675661154847,1400,646.6,1.57413984601059,21.093254975866
57,14.8606927528148,0.986474256942099,0.986442630107201,0.73613848793219,31191.0521597891,0,4,-1429.91503946845,2869.8300789369,2895.63042497488,695.257537591561,1283,646.6,1.57413984601059,21.093254975866
58,14.9751501378513,0.991721332651306,0.991699018184059,0.489352430437265,44442.9760149366,0,4,-784.661756641099,1579.3235132822,1604.41552227754,266.525436707617,1113,646.6,1.57413984601059,21.093254975866
59,15.0255814108703,0.984573283691481,0.984528176333854,0.56600185744354,21827.3322908351,0,4,-873.270138967504,1756.54027793501,1781.22684834113,328.687413297905,1026,646.6,1.57413984601059,21.093254975866
60,15.6286320592879,0.982950691890368,0.982899798433325,0.592358641941271,19313.8911952238,0,4,-901.349204613549,1812.6984092271,1837.28198432887,352.64320448592,1005,646.6,1.57413984601059,21.093254975866
61,15.5198901243333,0.985679462642092,0.985640012125955,0.607792803917073,24985.2108197253,0,4,-1004.66823491446,2019.33646982893,2044.31987726981,402.289768725289,1089,646.6,1.57413984601059,21.093254975866
62,15.0596188271912,0.988181658254839,0.988151250857553,0.672184939076456,32498.06778792,0,4,-1193.40518707979,2396.81037415957,2422.13416929853,526.836802646542,1166,646.6,1.57413984601059,21.093254975866
63,14.5933139588614,0.987832969634734,0.987805586970747,0.739627827984914,36075.1229344686,0,4,-1491.8677186368,2993.7354372736,3019.72635515911,729.216748798266,1333,646.6,1.57413984601059,21.093254975866
64,14.0444612008826,0.987374918849367,0.987348321066044,0.761831027280919,37122.451403569,0,4,-1635.78186953702,3281.56373907404,3307.88388978854,826.470396118131,1424,646.6,1.57413984601059,21.093254975866
65,14.0851654276375,0.987858991776034,0.987834197341268,0.763522541565605,39841.9645812301,0,4,-1690.65973381321,3391.31946762642,3417.79474970873,856.378040402359,1469,646.6,1.57413984601059,21.093254975866
66,13.5078275495958,0.989607602095874,0.98958673382699,0.685851085484586,47421.6432425173,0,4,-1558.67931019264,3127.35862038529,3153.91805120567,702.765216921815,1494,646.6,1.57413984601059,21.093254975866
67,12.9172793797597,0.988755022228753,0.988731836707575,0.649771833578419,42645.3653832128,0,4,-1439.20406297239,2888.40812594479,2914.8356586874,614.305998960758,1455,646.6,1.57413984601059,21.093254975866
68,11.5449457591073,0.992150168518618,0.99213294138296,0.473026886823235,57592.2885980311,0,4,-917.027025678127,1844.05405135625,1870.17052975407,305.87231354405,1367,646.6,1.57413984601059,21.093254975866
69,10.9143825296892,0.988535329357967,0.988507636916802,0.464535580207496,35696.9370627828,0,4,-810.664657809283,1631.32931561857,1656.9677841153,268.015285156164,1242,646.6,1.57413984601059,21.093254975866
70,11.4436472130034,0.865426623178149,0.86507708193965,1.4619501014895,2475.89276417329,0,4,-2082.70115684825,4175.40231369649,4200.67887791319,2468.57930462816,1155,646.6,1.57413984601059,21.093254975866
71,15.2656674643646,0.983732694042637,0.983686827578472,0.5625988388142,21447.7551723435,0,4,-899.121337485741,1808.24267497148,1833.11039006908,336.774570454932,1064,646.6,1.57413984601059,21.093254975866
72,15.5160437535117,0.983063240778034,0.983009643438724,0.574970883921446,18341.6425784081,0,4,-821.954316052339,1653.90863210468,1678.20145727864,313.400758454824,948,646.6,1.57413984601059,21.093254975866
73,14.6505652420463,0.979570126264231,0.979513165649726,0.663733331674937,17197.3237082859,0,4,-1087.78509836383,2185.57019672766,2210.49377832825,474.023122680112,1076,646.6,1.57413984601059,21.093254975866
74,15.3891637619795,0.986943034474601,0.986909555075818,0.650687569224323,29479.1146301462,0,4,-1159.33247902079,2328.66495804158,2354.00581804352,495.371345909379,1170,646.6,1.57413984601059,21.093254975866
75,14.5702840151002,0.984685017113107,0.984648696995589,0.79883244775936,27111.2838942864,0,4,-1513.60729076977,3037.21458153954,3062.94450387811,807.238598685412,1265,646.6,1.57413984601059,21.093254975866
76,14.1810099306305,0.983211650297943,0.983176181953502,0.862069666387777,27720.8216451836,0,4,-1807.2167274604,3624.4334549208,3650.73958038066,1055.29303578242,1420,646.6,1.57413984601059,21.093254975866
77,13.9435026774687,0.988246834136356,0.988221702634153,0.754598226614221,39323.0307583816,0,4,-1598.27492896304,3206.54985792608,3232.79593321165,798.894132503886,1403,646.6,1.57413984601059,21.093254975866
78,13.2649393767369,0.988328943789616,0.988305027690824,0.722136196190365,41324.8394896951,0,4,-1603.1040849004,3216.2081698008,3242.66645084667,763.447724081895,1464,646.6,1.57413984601059,21.093254975866
79,12.5765073545255,0.992529930371496,0.992514747303145,0.523091109586002,65370.8399021375,0,4,-1138.98687747834,2287.97375495669,2314.47274179048,403.869479977602,1476,646.6,1.57413984601059,21.093254975866
80,11.8787697244934,0.992758704106686,0.99274300765605,0.471853122893591,63247.3370662979,0,4,-924.974315973853,1859.94863194771,1886.12672765304,308.141191504857,1384,646.6,1.57413984601059,21.093254975866
81,10.934683646941,0.990332101556313,0.990309652875716,0.456439761827937,44115.3811818067,0,4,-820.490332939695,1650.98066587939,1676.81585526395,269.171734981387,1292,646.6,1.57413984601059,21.093254975866
82,12.2551295858207,0.905326244032226,0.905083075138473,1.56947785208666,3723.03476016302,0,4,-2189.26331946599,4388.52663893199,4413.85897378267,2877.08853052655,1168,646.6,1.57413984601059,21.093254975866
83,14.9475991460571,0.987249256061137,0.987214130044777,0.506613189927802,28105.9271261749,0,4,-805.647944593132,1621.29588918626,1646.27929662715,279.499390463409,1089,646.6,1.57413984601059,21.093254975866
84,15.8290922062483,0.982453792390596,0.982398903315697,0.555153949819171,17898.8950751499,0,4,-797.698688828503,1605.39737765701,1629.747644716,295.559875771834,959,646.6,1.57413984601059,21.093254975866
85,14.9590837326232,0.982309932869677,0.982256272403155,0.585638640708216,18306.0266994473,0,4,-875.694957064365,1761.38991412873,1785.89356744896,339.19991869817,989,646.6,1.57413984601059,21.093254975866
86,15.2394850143649,0.984615317676289,0.984574831670173,0.661017962404402,24319.8925297489,0,4,-1147.6756182549,2305.35123650981,2330.56266736951,498.117011148245,1140,646.6,1.57413984601059,21.093254975866
87,14.2918056162055,0.97914366866463,0.979095052507671,0.878299376450886,20140.2934726478,0,4,-1662.31635307895,3334.63270615791,3360.44856811214,992.804405745457,1287,646.6,1.57413984601059,21.093254975866
88,14.1925151481107,0.980420249214823,0.980377960336237,0.929990782205412,23183.8791191418,0,4,-1873.47371768886,3756.94743537771,3783.14351024661,1201.32228557699,1389,646.6,1.57413984601059,21.093254975866
89,14.0523533491756,0.979703225918737,0.97966163416857,0.95758005516752,23555.2296307865,0,4,-2017.36717814313,4044.73435628626,4071.19263733213,1342.42879884798,1464,646.6,1.57413984601059,21.093254975866
90,14.144747198529,0.982265967243324,0.982228944210429,0.923772623087209,26531.2128811998,0,4,-1928.43174022648,3866.86348045295,3893.22894343295,1226.27236962071,1437,646.6,1.57413984601059,21.093254975866
91,14.371661967541,0.978016624120185,0.977969950286045,0.986951741202474,20954.28074737,0,4,-1990.02200382758,3990.04400765515,4016.32549385361,1376.36619386065,1413,646.6,1.57413984601059,21.093254975866
92,13.828423982616,0.979695885334835,0.979652715707623,0.904451673316834,22694.101121928,0,4,-1863.69182957947,3737.38365915894,3763.65808320933,1154.24432223489,1411,646.6,1.57413984601059,21.093254975866
93,13.53194142984,0.985490618872798,0.985457441934245,0.729760073220503,29704.0854838638,0,4,-1450.72812717074,2911.45625434149,2937.36801490091,698.705290980434,1312,646.6,1.57413984601059,21.093254975866
94,15.0746365644772,0.981842459449628,0.981792983862297,0.766402580803696,19844.9884563596,0,4,-1271.94075871397,2553.88151742794,2578.9195204977,646.697580364684,1101,646.6,1.57413984601059,21.093254975866
95,14.9701331151894,0.985262441668295,0.985222930788049,0.618858144296118,24936.4842174471,0,4,-1052.56005889907,2115.12011779814,2140.23891257183,428.56066569027,1119,646.6,1.57413984601059,21.093254975866
96,15.1115945582314,0.984485189542779,0.98443524916577,0.595539080666998,19713.2110032061,0,4,-841.004364670132,1692.00872934026,1716.21680672265,330.549454432778,932,646.6,1.57413984601059,21.093254975866
97,14.7555018851066,0.975170452948334,0.975098898057696,0.720851923724416,13628.2851422525,0,4,-1138.73592135617,2287.47184271234,2312.23070353433,540.932223270616,1041,646.6,1.57413984601059,21.093254975866
98,14.3835112868902,0.984575706864083,0.984535364336265,0.656778800151841,24405.4044232219,0,4,-1147.3051617379,2304.61032347581,2329.85225551942,494.768076001239,1147,646.6,1.57413984601059,21.093254975866
99,14.486723277361,0.98231153581374,0.982268567884542,0.804620519055142,22861.5051775248,0,4,-1486.72218994621,2983.44437989241,3009.05467930056,799.556511910439,1235,646.6,1.57413984601059,21.093254975866
100,14.0934095581481,0.981304941048054,0.981264151828522,0.903286774445479,24057.9484559581,0,4,-1814.44807530498,3638.89615060996,3665.04171999893,1121.89962072116,1375,646.6,1.57413984601059,21.093254975866
101,13.6392060790431,0.977626146195084,0.977579982810342,1.00452039129166,21177.5230880629,0,4,-2073.38551180276,4156.77102360553,4183.19512816837,1467.17500882116,1454,646.6,1.57413984601059,21.093254975866
102,13.8080593238192,0.978456998001266,0.978412518299961,0.98554519581079,21997.8320288479,0,4,-2044.17634608786,4098.35269217572,4124.77336620669,1411.29793082826,1453,646.6,1.57413984601059,21.093254975866
103,12.9384097134136,0.980700601812385,0.980661534204718,0.871098778690337,25102.6530768313,0,4,-1901.4721120298,3812.9442240596,3839.46344018599,1124.56098787345,1482,646.6,1.57413984601059,21.093254975866
104,12.7482101643142,0.985852679295947,0.985822341939183,0.731104387378395,32496.3274480634,0,4,-1549.34966844555,3108.6993368911,3134.93117729161,747.78456171627,1399,646.6,1.57413984601059,21.093254975866
105,12.9217565048002,0.971425878407524,0.971360690297427,0.949225605886173,14901.8874295247,0,4,-1800.8454077058,3611.69081541161,3637.61396117519,1184.85346489401,1315,646.6,1.57413984601059,21.093254975866
106,13.8793273853243,0.983220352687969,0.983178015478603,0.699009150820664,23223.5512782556,0,4,-1263.58721518909,2537.17443037818,2562.59556248867,580.96179979499,1189,646.6,1.57413984601059,21.093254975866
107,14.3622841157069,0.984018749294927,0.983974025645565,0.633572997716268,22002.2015946741,0,4,-1033.70919408254,2077.41838816508,2102.32341686869,430.316604962511,1072,646.6,1.57413984601059,21.093254975866
108,15.0968217411235,0.983316136465519,0.983267400739518,0.569528539808414,20176.495091859,0,4,-880.524016499583,1771.04803299917,1795.73945541925,333.120552113025,1027,646.6,1.57413984601059,21.093254975866
109,14.9173637879399,0.982420693144522,0.982370370701233,0.543552212667469,19522.5157791057,0,4,-849.389280916916,1708.77856183383,1733.57080380032,309.630560274695,1048,646.6,1.57413984601059,21.093254975866
110,14.3728316945901,0.982378785823651,0.982331160920472,0.664248659548005,20627.4180154179,0,4,-1122.95796116333,2255.91592232667,2280.9944844291,489.761172699567,1110,646.6,1.57413984601059,21.093254975866
111,13.6794382054736,0.984640201728772,0.984602950803297,0.734133943301932,26432.6372875196,0,4,-1375.35133491212,2760.70266982423,2786.32103375025,666.684423977852,1237,646.6,1.57413984601059,21.093254975866
112,13.2542722131145,0.977424259187981,0.977374239082784,0.956479735235772,19540.6278205194,0,4,-1864.49044783162,3738.98089566324,3765.04973720383,1238.7116172232,1354,646.6,1.57413984601059,21.093254975866
113,13.0828200358493,0.976544641504271,0.976494523216887,0.97065349522871,19484.7967174413,0,4,-1953.92430356556,3917.84860713112,3944.09823481471,1322.8041637508,1404,646.6,1.57413984601059,21.093254975866
114,12.7652949138758,0.979980548924019,0.979939271705306,0.893958757653205,23741.438485214,0,4,-1904.68103857027,3819.36207714054,3845.78960988315,1162.78108885997,1455,646.6,1.57413984601059,21.093254975866
115,12.3477935109135,0.977255611098976,0.977208715451757,0.919142114650987,20838.9406919464,0,4,-1945.21367689878,3900.42735379756,3926.85488654018,1229.216340176,1455,646.6,1.57413984601059,21.093254975866
116,12.5028946676448,0.979857144418332,0.979815641281831,0.807244378085186,23609.2311818901,0,4,-1757.01941661273,3524.03883322546,3550.46979179897,948.792915543401,1456,646.6,1.57413984601059,21.093254975866
117,12.1262176345237,0.985037781576791,0.985004679323642,0.649391406090839,29757.4239781223,0,4,-1340.6147301013,2691.2294602026,2717.30566009625,571.837672901088,1356,646.6,1.57413984601059,21.093254975866
118,11.9694849392583,0.98972807308838,0.989703499100553,0.473309632703002,40275.4359635244,0,4,-842.030581866013,1694.06116373203,1719.74755591833,280.923598545451,1254,646.6,1.57413984601059,21.093254975866
119,13.3105825088552,0.983475777408922,0.983431712815346,0.588567720381517,22318.9571851611,0,4,-1001.53660270395,2013.0732054079,2038.21864322865,389.713456659482,1125,646.6,1.57413984601059,21.093254975866
120,14.6902462588805,0.975343260119103,0.975260519381247,0.672933354999811,11787.9449156485,0,4,-916.496470276622,1842.99294055324,1866.99379089476,404.838334442544,894,646.6,1.57413984601059,21.093254975866
122,9.98800985458618,0.340676238139074,0.334336586582719,4.23059585228625,53.7373758022348,4.99210987049452e-28,4,-902.152149933596,1814.30429986719,1833.08301093513,5584.15767479906,312,646.6,1.57413984601059,21.093254975866
123,12.5701697966457,0.75726787406055,0.753965396156612,2.52012738862307,229.302934368624,6.4099343618522e-46,3,-349.971994624873,707.943989249745,719.98653042613,933.603182068554,147,646.6,1.57413984601059,21.093254975866
