"Age","power_predict","r.squared","adj.r.squared","sigma","statistic","p.value","df","logLik","AIC","BIC","deviance","df.residual","GHI","Wind_speed","Ambient_temp"
1,75.7368270185492,0.986764549458658,0.986724401479261,6.44123665620143,24578.1871035495,0,4,-3256.68342962303,6523.36685924607,6547.87051256629,41033.1448349198,989,367.7,0.81003742260982,21.4200779638255
2,75.6885751335543,0.980666684306447,0.980619758782919,7.34934126823764,20898.3642712148,0,4,-4230.79779885403,8471.59559770806,8497.20993100106,66759.8419071977,1236,367.7,0.81003742260982,21.4200779638255
3,70.5664014169956,0.9679124616416,0.967830396326106,8.69790182276966,11794.4158967494,0,4,-4214.03455750931,8438.06911501862,8463.42273555492,88741.5509470471,1173,367.7,0.81003742260982,21.4200779638255
4,71.1206828236179,0.964839503695542,0.964738370916142,8.64784716527928,9540.32420969026,0,4,-3742.32881055318,7494.65762110635,7519.42604216071,78001.0267995721,1043,367.7,0.81003742260982,21.4200779638255
5,80.116288913837,0.961896022416477,0.961778175063126,8.23375169011523,8162.21998257954,0,4,-3433.46949360397,6876.93898720793,6901.34604372615,65760.8268876412,970,367.7,0.81003742260982,21.4200779638255
6,75.1512606974269,0.942931852795409,0.942732313819169,7.82934626500785,4725.55222325125,0,4,-2995.01207217058,6000.02414434117,6023.82042069449,52594.2528002827,858,367.7,0.81003742260982,21.4200779638255
7,67.3919466441485,0.938576685159687,0.938334543314061,7.59665343253731,3876.14409535656,0,4,-2634.67920740069,5279.35841480139,5302.55779397052,43916.6581076755,761,367.7,0.81003742260982,21.4200779638255
8,70.554815168664,0.954499072169171,0.954355081891225,7.59058435295237,6628.91332517162,0,4,-3278.44223665827,6566.88447331653,6591.17729849049,54620.8883366825,948,367.7,0.81003742260982,21.4200779638255
9,72.9331147977522,0.967250426645346,0.967155956722207,8.77389517795129,10238.71296294,0,4,-3746.70720086617,7503.41440173233,7528.16847557455,80060.486057424,1040,367.7,0.81003742260982,21.4200779638255
10,78.8743007029204,0.981075463884721,0.981028659590949,7.59192937090657,20961.2278022387,0,4,-4191.80826861234,8393.61653722469,8419.13725768963,69914.1559778475,1213,367.7,0.81003742260982,21.4200779638255
11,82.7519923784861,0.980258379401387,0.980213613821798,8.20251200456209,21897.5915962225,0,4,-4673.52088949652,9357.04177899304,9382.9951591647,89013.0318137354,1323,367.7,0.81003742260982,21.4200779638255
12,79.7055164633002,0.982778231954469,0.982739444188601,7.42540576002534,25337.3250547889,0,4,-4572.25507458995,9154.51014917991,9180.49732595039,73442.0187337553,1332,367.7,0.81003742260982,21.4200779638255
13,82.8994184350141,0.977601063850381,0.977551581664483,8.44913292643924,19756.6264731043,0,4,-4837.1862676859,9684.37253537181,9710.45608280535,96944.6965093327,1358,367.7,0.81003742260982,21.4200779638255
14,82.7247472134155,0.975429887521838,0.975373834033294,7.71389684089569,17401.7695039214,0,4,-4564.32486554148,9138.64973108296,9164.57287684655,78248.0288806544,1315,367.7,0.81003742260982,21.4200779638255
15,88.3876193744761,0.975407049903874,0.975346723779354,8.29462411199724,16168.8995880213,0,4,-4334.88484768897,8679.76969537794,8705.3313326015,84143.3651418556,1223,367.7,0.81003742260982,21.4200779638255
16,75.0457525320814,0.93903894330599,0.938877099792644,11.5275075050118,5802.14136412786,0,4,-4379.40353939615,8768.8070787923,8793.97461121374,150158.275084258,1130,367.7,0.81003742260982,21.4200779638255
17,73.6161839383659,0.962896204114104,0.96278145010621,7.52814705991581,8390.95925084508,0,4,-3346.20607807094,6702.41215614189,6726.8192126601,54972.8082110475,970,367.7,0.81003742260982,21.4200779638255
18,76.2782018317375,0.905338550905145,0.905011379998135,9.85862520826486,2767.17315478737,0,4,-3230.74814626134,6471.49629252268,6495.35023964223,84363.0821854267,868,367.7,0.81003742260982,21.4200779638255
19,85.0410765787939,0.970179437977689,0.970039872164792,5.31537093450324,6951.41179519497,0,4,-1990.74793227292,3991.49586454585,4013.84211612983,18110.2807978429,641,367.7,0.81003742260982,21.4200779638255
20,85.0523546344863,0.946805596144252,0.946601525541224,8.53829299265143,4639.59816896411,0,4,-2798.90560849698,5607.81121699396,5631.1460009561,57009.7137325779,782,367.7,0.81003742260982,21.4200779638255
21,83.5132896013794,0.968689468951045,0.968592130512551,8.14329260056132,9951.76709157057,0,4,-3405.12886149134,6820.25772298267,6844.63904604213,63992.2518751143,965,367.7,0.81003742260982,21.4200779638255
22,85.3034894481296,0.976077619195698,0.976013598551262,7.1812755331142,15246.294813065,0,4,-3812.21393124953,7634.42786249907,7659.55555407226,57810.7751946877,1121,367.7,0.81003742260982,21.4200779638255
23,77.7264124825874,0.986209891481347,0.986176900791111,6.52931633950216,29893.5816263952,0,4,-4143.40970940294,8296.81941880588,8322.50581099218,53460.4927140576,1254,367.7,0.81003742260982,21.4200779638255
24,71.2872514619428,0.971455898894616,0.971393210532012,9.25488844222483,15496.5907315461,0,4,-4990.40095735741,9990.80191471483,10016.9147448089,117001.943466585,1366,367.7,0.81003742260982,21.4200779638255
25,77.261319678972,0.981801193540132,0.981761716736531,7.3198018567869,24870.3315363069,0,4,-4727.00383611751,9464.00767223501,9490.18216433659,74100.4474248848,1383,367.7,0.81003742260982,21.4200779638255
26,77.3095356037893,0.977055834613048,0.977004002914131,7.50618965059372,18850.5461916403,0,4,-4572.97276914578,9155.94553829156,9181.91772254706,74823.3487178635,1328,367.7,0.81003742260982,21.4200779638255
27,75.5470815290835,0.981246815212701,0.981201626815623,7.01058576070666,21714.5745073159,0,4,-4202.58017015321,8415.16034030641,8440.81083285704,61189.6493217377,1245,367.7,0.81003742260982,21.4200779638255
28,74.7249713442094,0.973117754126525,0.973046195353126,7.74135224889857,13598.8601803384,0,4,-3917.49382347884,7844.98764695767,7870.14193433825,67539.4585410009,1127,367.7,0.81003742260982,21.4200779638255
29,69.0936201701889,0.954183547083818,0.954044989262498,7.89827000214049,6886.53688402276,0,4,-3469.63592564989,6949.27185129978,6973.7905875877,61883.6076744986,992,367.7,0.81003742260982,21.4200779638255
30,75.7062016654596,0.942622333775139,0.942426282523801,7.20397896203847,4808.04038404742,0,4,-2991.12599054821,5992.25198109642,6016.16294137646,45565.8407134627,878,367.7,0.81003742260982,21.4200779638255
31,78.9450758635659,0.948462364010918,0.948239257361614,5.89546946446076,4251.16134804735,0,4,-2223.60076219456,4457.20152438911,4479.93545144292,24086.2962230278,693,367.7,0.81003742260982,21.4200779638255
32,80.4025240186421,0.951997069617604,0.951839854780107,6.49911062778026,6055.38945798418,0,4,-3025.35120383966,6060.70240767931,6084.82427602953,38690.4100801478,916,367.7,0.81003742260982,21.4200779638255
33,81.3215043068701,0.96287071607722,0.962746121164728,8.2873405307355,7728.00989073123,0,4,-3171.22907884164,6352.45815768327,6376.45900802478,61399.9316866999,894,367.7,0.81003742260982,21.4200779638255
34,82.8440950895113,0.974756380123409,0.974690698545239,7.33344745815125,14840.6357959843,0,4,-3944.96812390215,7899.9362478043,7925.20417644027,62007.7077195492,1153,367.7,0.81003742260982,21.4200779638255
35,96.8386385062244,0.973746236814368,0.973683628476088,8.82480416979446,15552.9800591647,0,4,-4536.78606479193,9083.57212958387,9109.27439479937,97969.4781431089,1258,367.7,0.81003742260982,21.4200779638255
36,92.7057215296673,0.978863603127013,0.978815419851467,7.80492602140097,20315.4225616307,0,4,-4583.27252713396,9176.54505426793,9202.47198934583,80166.6011825972,1316,367.7,0.81003742260982,21.4200779638255
37,91.7022133639256,0.969570858106428,0.969502935914702,8.14332448999707,14274.7286778876,0,4,-4737.74976186128,9485.49952372255,9511.53141017991,89125.6581591748,1344,367.7,0.81003742260982,21.4200779638255
38,85.444853650334,0.962738429867753,0.962653615975191,9.42573244287038,11351.1878866279,0,4,-4839.66594082044,9689.33188164089,9715.26638674295,117096.961487475,1318,367.7,0.81003742260982,21.4200779638255
39,73.401520951643,0.974351610340043,0.974290494240774,7.77448911557236,15942.634133912,0,4,-4380.33689850997,8770.67379701994,8796.38002263169,76097.3353892648,1259,367.7,0.81003742260982,21.4200779638255
40,76.9682295374732,0.938945764899534,0.938783242534582,11.5724745862998,5777.33264695182,0,4,-4372.21578500092,8754.43157000184,8779.58585738242,150930.283392976,1127,367.7,0.81003742260982,21.4200779638255
41,91.2559794907208,0.965190975032395,0.96508768415712,8.64457416340466,9344.3972903185,0,4,-3627.50449761331,7265.00899522662,7289.622214684,75550.6777537361,1011,367.7,0.81003742260982,21.4200779638255
42,94.6261776827347,0.966776524577336,0.966663902626751,6.40501524906592,8584.26372081961,0,4,-2910.37713309854,5830.75426619708,5854.70475237465,36306.4350015787,885,367.7,0.81003742260982,21.4200779638255
43,93.1595235159202,0.949565206273773,0.949370477340468,6.57259040634138,4876.34369558287,0,4,-2576.73702883342,5163.47405766685,5186.77693341605,33565.5799926854,777,367.7,0.81003742260982,21.4200779638255
44,88.1004536632647,0.965710814424241,0.965568535645919,5.68461181827881,6787.45506398905,0,4,-2292.91637826371,4595.83275652741,4618.77738891508,23363.6087322244,723,367.7,0.81003742260982,21.4200779638255
45,82.1587602674177,0.967750463754278,0.967644495946242,7.24284399145296,9132.49487450498,0,4,-3114.83504843789,6239.67009687578,6263.77563423706,47894.8744341724,913,367.7,0.81003742260982,21.4200779638255
46,89.4596785073216,0.968665775051921,0.968583962454145,8.70301319864708,11840.056438595,0,4,-4128.74336638531,8267.48673277061,8292.73734537196,87028.0621074632,1149,367.7,0.81003742260982,21.4200779638255
47,74.9898190395625,0.95054295356805,0.950427129103338,12.0028841627072,8206.7545568462,0,4,-5014.7467494776,10039.4934989552,10065.2860689418,184552.681354133,1281,367.7,0.81003742260982,21.4200779638255
48,74.5877465680062,0.976145292532921,0.976092085006972,8.61284047524659,18346.0004036058,0,4,-4816.88498321907,9643.76996643814,9669.80556071918,99773.4733150019,1345,367.7,0.81003742260982,21.4200779638255
49,73.2918784075601,0.986439319460124,0.986410281600295,5.92038771413375,33970.7996831907,0,4,-4490.26051106262,8990.52102212523,9016.75998503407,49106.4379506178,1401,367.7,0.81003742260982,21.4200779638255
50,93.4352372542337,0.338846331639081,0.337425514300197,43.5100779577023,238.486906350055,6.47598429239566e-125,4,-7266.70070772007,14543.4014154401,14569.6225530182,2642805.12990392,1396,367.7,0.81003742260982,21.4200779638255
51,71.9126398729783,0.95501153249395,0.954907951985494,9.8998372164755,9219.99270644398,0,4,-4848.87103288838,9707.74206577676,9733.61951434488,127702.830317266,1303,367.7,0.81003742260982,21.4200779638255
52,70.9657103575335,0.920126201335784,0.919921221527407,12.6492304389529,4488.86262808742,0,4,-4639.01203354799,9288.02406709597,9313.36066633924,187043.542885649,1169,367.7,0.81003742260982,21.4200779638255
53,76.7661590597596,0.892305160563109,0.892004056631785,13.1123773576292,2963.44573330362,0,4,-4297.91355739514,8605.82711479029,8630.73678817607,184485.654086594,1073,367.7,0.81003742260982,21.4200779638255
54,78.1639201690173,0.872353302765512,0.871919130325939,12.764034975537,2009.2323308759,0,4,-3511.49047555666,7032.98095111332,7056.91453586634,143695.959371638,882,367.7,0.81003742260982,21.4200779638255
55,72.9152219100167,0.77718346438133,0.776355150122524,13.476514624209,938.27126132312,1.57753378559567e-262,4,-3258.1234460255,6526.24689205099,6549.73823232157,146564.472258131,807,367.7,0.81003742260982,21.4200779638255
56,75.6596992171908,0.886004462640801,0.885587913783215,10.3661740180578,2127.01210555882,0,4,-3097.92153146648,6205.84306293296,6229.41997986463,88222.6598573504,821,367.7,0.81003742260982,21.4200779638255
57,77.4523192265636,0.786645991450621,0.785906889804376,16.6537397008079,1064.32720783022,6.6031252558139e-290,4,-3679.46418618489,7368.92837236978,7392.77083842802,240182.541855282,866,367.7,0.81003742260982,21.4200779638255
58,75.7670857514119,0.856973733487739,0.856567793280041,17.5455194301188,2111.08364541532,0,4,-4543.0413338545,9096.082667709,9120.91750340207,325392.43144082,1057,367.7,0.81003742260982,21.4200779638255
59,85.5674307559515,0.899112451137204,0.89886757844579,17.3036331283645,3671.75468176264,0,4,-5292.61699213851,10595.233984277,10620.84831757,370077.829229116,1236,367.7,0.81003742260982,21.4200779638255
60,94.3562818906661,0.940338912294395,0.940199734018254,13.9723573791061,6756.36269085864,0,4,-5230.26196789432,10470.5239357886,10496.3359232754,251061.627158088,1286,367.7,0.81003742260982,21.4200779638255
61,100.163009588855,0.933432054984293,0.933283465821311,13.1674239531603,6281.96590016847,0,4,-5385.52763869371,10781.0552773874,10807.0871638448,233024.135987678,1344,367.7,0.81003742260982,21.4200779638255
62,99.6023780319855,0.984106394954602,0.984070598546842,5.84635679522518,27491.7640215531,0,4,-4252.83265981243,8515.66531962485,8541.65249639533,45527.6105190648,1332,367.7,0.81003742260982,21.4200779638255
63,106.699850141166,0.970013636849093,0.969941727105326,8.49081491900955,13489.3212801578,0,4,-4463.19081687207,8936.38163374413,8962.05608800196,90189.5164240828,1251,367.7,0.81003742260982,21.4200779638255
64,105.620002987958,0.972019129803684,0.971948112366637,7.99665100484408,13687.0488464318,0,4,-4146.57879604721,8303.15759209442,8328.54929999221,75584.6770606497,1182,367.7,0.81003742260982,21.4200779638255
65,75.5765326700204,0.923080384695836,0.922861448409392,13.4603415464458,4216.20554402653,0,4,-4249.76624320355,8509.53248640711,8534.3531644692,190964.557452512,1054,367.7,0.81003742260982,21.4200779638255
66,72.2950009409061,0.959546758089802,0.959422668390691,7.89848935282862,7732.68663687537,0,4,-3420.8649878585,6851.729975717,6876.17793225877,61013.6391074986,978,367.7,0.81003742260982,21.4200779638255
67,68.7372363747364,0.941471892404279,0.941267724587084,7.71446457818397,4611.26491599778,0,4,-2989.19412869254,5988.38825738508,6012.1961212291,51181.1488061275,860,367.7,0.81003742260982,21.4200779638255
68,71.5603132427956,0.952207413212954,0.952032134777305,5.99019051442011,5432.54171390528,0,4,-2635.84387667179,5281.68775334357,5305.24645531886,29351.7888024219,818,367.7,0.81003742260982,21.4200779638255
69,71.8542669779219,0.968202452757209,0.968096460933066,6.15275094748304,9134.68996867397,0,4,-2923.19295460936,5856.38590921872,5880.42005602068,34070.7097995781,900,367.7,0.81003742260982,21.4200779638255
70,72.5378120715733,0.973802847571057,0.973728423842565,7.68479501536804,13084.5748702939,0,4,-3663.66938758237,7337.33877516474,7362.16889610027,62363.2145962062,1056,367.7,0.81003742260982,21.4200779638255
71,72.1693337679294,0.976280437021603,0.976222348295942,8.09648919434856,16806.7112147146,0,4,-4312.24032297079,8634.48064594159,8660.05042648942,80302.5931608987,1225,367.7,0.81003742260982,21.4200779638255
72,70.192285261417,0.980719907333655,0.980675922331374,7.70627010338586,22296.6887912476,0,4,-4563.02012381824,9136.04024763649,9161.96339340007,78093.3775618354,1315,367.7,0.81003742260982,21.4200779638255
73,74.2030414311859,0.982259168813103,0.98222043337383,7.47708883355681,25358.1523084821,0,4,-4725.61476486471,9461.22952972942,9487.37147198729,76816.0221018125,1374,367.7,0.81003742260982,21.4200779638255
74,76.4208166980397,0.979392480170056,0.979346921909563,7.65521322802861,21497.5828655134,0,4,-4699.33394729517,9408.66789459034,9434.7477696036,79523.3069418548,1357,367.7,0.81003742260982,21.4200779638255
75,76.2172534219426,0.988085553614958,0.98805799514221,6.042163328381,35854.1477469894,0,4,-4184.22546214149,8378.45092428297,8404.30536667554,47350.5357798214,1297,367.7,0.81003742260982,21.4200779638255
76,73.2322968156004,0.974548128804946,0.974485439467027,7.93270430180622,15545.6758861679,0,4,-4262.69427408784,8535.38854817567,8560.92976887433,76646.0574035919,1218,367.7,0.81003742260982,21.4200779638255
77,73.3295642753102,0.957403562466891,0.957289362902459,9.18268549972061,8383.60082395579,0,4,-4081.51442546129,8173.02885092258,8198.14764569627,94355.9968322059,1119,367.7,0.81003742260982,21.4200779638255
78,72.7556395617749,0.956714863736346,0.956575083963697,8.33336904432928,6844.44426833095,0,4,-3300.07522941055,6610.15045882111,6634.34248482534,64514.4418153276,929,367.7,0.81003742260982,21.4200779638255
79,65.5708312429175,0.516928469097698,0.514924022911382,22.1196785374893,257.890919011207,9.10689153260465e-114,4,-3280.69476841569,6571.38953683137,6594.33416921904,353749.569129148,723,367.7,0.81003742260982,21.4200779638255
80,75.2786124950334,0.946409143478186,0.946195917258604,6.55519896047305,4438.52142259935,0,4,-2498.786032162,5007.572064324,5030.72548125221,32399.8575921857,754,367.7,0.81003742260982,21.4200779638255
81,68.8728772100396,0.951650504803843,0.95150294785004,7.64342648590599,6449.37754728646,0,4,-3405.89426621817,6821.78853243634,6846.26188263351,57428.7949818765,983,367.7,0.81003742260982,21.4200779638255
82,78.4246945272941,0.975826386171398,0.975753058728035,6.74945477371781,13307.7923001264,0,4,-3303.09741969098,6616.19483938195,6640.69849270218,45054.0332052951,989,367.7,0.81003742260982,21.4200779638255
83,72.4947324582882,0.977616538865292,0.977559486712867,7.39466651169171,17135.4891500704,0,4,-4036.65939053754,8083.31878107509,8108.68936515607,64359.6462481216,1177,367.7,0.81003742260982,21.4200779638255
84,78.1913498930986,0.962948530107511,0.962863354314655,10.0905151995826,11305.4249078976,0,4,-4881.26650251846,9772.53300503692,9798.41809886647,132873.138575875,1305,367.7,0.81003742260982,21.4200779638255
85,88.7613967690268,0.980149430991651,0.980104075540756,8.28193296460568,21610.399889138,0,4,-4650.9776117864,9311.9552235728,9337.87078208151,90059.2130964819,1313,367.7,0.81003742260982,21.4200779638255
86,92.2943408325756,0.982189867895628,0.982149420964279,6.46705832098643,24283.4211426514,0,4,-4351.4963079241,8712.9926158482,8738.9384545403,55247.9760350197,1321,367.7,0.81003742260982,21.4200779638255
87,92.0298432542712,0.938232683875669,0.938089372237329,12.5230498122577,6546.80034885181,0,4,-5116.6196849835,10243.239369967,10269.0784158886,202777.022144171,1293,367.7,0.81003742260982,21.4200779638255
88,75.2082502153057,0.982183338239345,0.982139882966758,6.77336626845325,22602.167234684,0,4,-4109.60667594113,8229.21335188227,8254.80343290459,56430.5434461429,1230,367.7,0.81003742260982,21.4200779638255
89,79.5192538715736,0.970117175220801,0.970036191955817,8.37250663834723,11979.2302200848,0,4,-3935.26023828657,7880.52047657313,7905.58555552133,77599.4462219495,1107,367.7,0.81003742260982,21.4200779638255
90,80.2852308949605,0.965638442273966,0.965536277087466,7.42439975841802,9451.73669582333,0,4,-3466.21464977781,6942.42929955562,6967.03265707686,55617.8071787527,1009,367.7,0.81003742260982,21.4200779638255
91,79.3179380304045,0.949333544575453,0.949161987728643,7.08875552878667,5533.63833754168,0,4,-3003.92450891099,6017.84901782199,6041.80512513562,44521.9030829566,886,367.7,0.81003742260982,21.4200779638255
92,77.245415416128,0.959599755756571,0.959458660607874,5.7104426788201,6801.08256465112,0,4,-2726.14122536951,5462.28245073901,5486.08452419443,28011.2646501694,859,367.7,0.81003742260982,21.4200779638255
93,80.025687608906,0.958455438651409,0.95830932647785,6.87830464130529,6559.72336394548,0,4,-2866.64061904926,5743.28123809852,5767.04842769151,40356.3467520274,853,367.7,0.81003742260982,21.4200779638255
94,80.3135298525138,0.971223568020925,0.971141971332894,7.20976812259132,11902.732714435,0,4,-3602.82281754769,7215.64563509537,7240.48518110438,54995.6402516629,1058,367.7,0.81003742260982,21.4200779638255
95,84.4042011935739,0.98774024528857,0.987705775500253,5.40441687255357,28655.2454631704,0,4,-3324.68835917216,6659.37671834431,6684.25845869655,31164.6390884086,1067,367.7,0.81003742260982,21.4200779638255
96,81.4699016401144,0.982062158961239,0.982019313799523,6.93491268840839,22921.1915560704,0,4,-4225.93563475685,8461.87126951369,8487.56560451342,60404.8255787846,1256,367.7,0.81003742260982,21.4200779638255
97,81.1613380916592,0.983118954212866,0.983080529981181,6.12438604383781,25585.9105332631,0,4,-4269.66590412707,8549.33180825415,8575.2663133562,49435.6816175932,1318,367.7,0.81003742260982,21.4200779638255
98,103.74464162936,0.552148355923094,0.55116622512468,35.0367255705711,562.194319549478,5.21530989260445e-238,4,-6824.15717437392,13658.3143487478,13684.4344727893,1679318.68575188,1368,367.7,0.81003742260982,21.4200779638255
99,85.7426120710733,0.950618784474231,0.950506384135402,11.6471580503818,8457.43700039968,0,4,-5119.42594549754,10248.8518909951,10274.7863960971,178794.991077455,1318,367.7,0.81003742260982,21.4200779638255
100,76.4563792010416,0.972509474658018,0.972443444573129,8.00736379691964,14728.2784248685,0,4,-4382.61985888277,8775.23971776554,8800.90619754002,80083.2258452979,1249,367.7,0.81003742260982,21.4200779638255
101,73.222869786747,0.974196116617959,0.974128449091608,7.03249392070193,14396.8040379872,0,4,-3866.15946735218,7742.31893470435,7767.54781758875,56577.6305319479,1144,367.7,0.81003742260982,21.4200779638255
102,70.173140124194,0.964601711087842,0.964496359037509,7.28957945574063,9155.9842265201,0,4,-3444.24503939562,6898.49007879124,6923.08849804048,53563.0723906882,1008,367.7,0.81003742260982,21.4200779638255
103,67.2573664760258,0.961913328658301,0.961775166609903,5.51807126073451,6962.21096757167,0,4,-2596.50468415656,5203.00936831312,5226.6225172874,25181.414332676,827,367.7,0.81003742260982,21.4200779638255
104,69.5839268008863,0.957007994978862,0.956833230730809,5.14180055929001,5475.99412144308,0,4,-2265.80024589437,4541.60049178875,4564.64723800459,19511.3273877381,738,367.7,0.81003742260982,21.4200779638255
105,73.1972443576331,0.959901110211587,0.959761554910699,5.59918251051073,6878.28483837872,0,4,-2718.58558205035,5447.1711641007,5470.99058864351,27024.4282055399,862,367.7,0.81003742260982,21.4200779638255
106,75.1656398250876,0.970735317599478,0.970647170965742,5.9033798138227,11012.7327210386,0,4,-3192.45955920222,6394.91911840445,6419.45789479936,34710.4936533444,996,367.7,0.81003742260982,21.4200779638255
107,80.3812108537171,0.973640277335799,0.973571152188952,6.58741154781558,14085.1820466338,0,4,-3791.10218218641,7592.20436437282,7617.43324725722,49642.7255899364,1144,367.7,0.81003742260982,21.4200779638255
108,82.8199502008388,0.969032365159919,0.968890744878638,8.62561504445596,6842.46886389209,0,4,-2356.6192848288,4723.23856965761,4745.69976883271,48807.2100912151,656,367.7,0.81003742260982,21.4200779638255
110,87.0522211922109,0.982974413289435,0.982929172580727,6.18495300369203,21727.6528452929,0,4,-3670.1151079038,7350.23021580761,7375.39333711275,43188.3636897454,1129,367.7,0.81003742260982,21.4200779638255
111,110.11722117669,0.900506522747874,0.900272787092622,15.4630868684525,3852.67075225766,0,4,-5323.61887251972,10657.2377450394,10683.0147265489,305339.709875169,1277,367.7,0.81003742260982,21.4200779638255
112,124.853283569845,0.977463789335068,0.977407165690181,6.91904638073809,17262.4667890915,0,4,-4015.15000518049,8040.30001036098,8065.74205425436,57160.604165653,1194,367.7,0.81003742260982,21.4200779638255
113,110.865907577421,0.953429140949781,0.953302704228378,9.76466751673686,7540.76134186152,0,4,-4098.75571922417,8207.51143844833,8232.56750838508,105360.34854222,1105,367.7,0.81003742260982,21.4200779638255
114,105.210420009132,0.970877157643892,0.970792661969745,6.62383818362134,11490.258731485,0,4,-3433.37497150004,6876.74994300009,6901.47519831872,45366.9901804152,1034,367.7,0.81003742260982,21.4200779638255
115,100.507940985421,0.962162915517489,0.962032592608824,5.58030470421071,7382.91467993614,0,4,-2743.90458986335,5497.8091797267,5521.68029915849,27122.7663154893,871,367.7,0.81003742260982,21.4200779638255
116,94.1550934607081,0.966694856105045,0.966579213244298,4.4318395704762,8359.31288681276,0,4,-2521.92522800798,5053.85045601595,5077.68141458926,16969.998509371,864,367.7,0.81003742260982,21.4200779638255
117,89.5072100290726,0.95055925579035,0.95039051604902,5.97424204337891,5633.28619742362,0,4,-2829.24291967988,5668.48583935976,5692.40246536278,31372.8882657382,879,367.7,0.81003742260982,21.4200779638255
118,97.8440678222998,0.977988270669317,0.97790644267924,5.42596746803243,11951.7572135201,0,4,-2520.31433529209,5050.62867058419,5074.12001085476,23758.9862320661,807,367.7,0.81003742260982,21.4200779638255
119,94.8624897718628,0.974825100560734,0.974752059266423,7.22774317940765,13346.2188718503,0,4,-3523.94239467119,7057.88478934238,7082.61004466101,54016.4406973679,1034,367.7,0.81003742260982,21.4200779638255
120,101.979453868377,0.959706283155304,0.959604273745571,9.95495041704122,9408.01721785686,0,4,-4417.51972287348,8845.03944574695,8870.44378523041,117434.729799813,1185,367.7,0.81003742260982,21.4200779638255
121,110.161851574328,0.977502760676026,0.977451082484623,7.17089625155421,18915.1890602931,0,4,-4437.5465664246,8885.0931328492,8910.98204493018,67156.8094840237,1306,367.7,0.81003742260982,21.4200779638255
122,114.005746527134,0.977885763729069,0.977835693760153,6.81360015980658,19530.3848776695,0,4,-4434.01182309346,8878.02364618692,8903.98455648049,61513.3199574741,1325,367.7,0.81003742260982,21.4200779638255
123,118.908751281892,0.976214670903119,0.976157264638203,7.38739029814913,17005.3681829123,0,4,-4261.13197893731,8532.26395787461,8557.90643760301,67834.9045235646,1243,367.7,0.81003742260982,21.4200779638255
124,117.939795246514,0.984345475593808,0.984306175532537,5.91457153132736,25046.9196170391,0,4,-3830.42940729687,7670.85881459374,7696.30503036888,41803.6768970297,1195,367.7,0.81003742260982,21.4200779638255
125,117.258303553906,0.965416338307802,0.965323120890842,7.72182084389702,10356.6089877927,0,4,-3866.15482186085,7742.3096437217,7767.40165271705,66364.3135826548,1113,367.7,0.81003742260982,21.4200779638255
