"Age","power_predict","r.squared","adj.r.squared","sigma","statistic","p.value","df","logLik","AIC","BIC","deviance","df.residual","GHI","Wind_speed","Ambient_temp"
0,117.887756116562,0.994815319178296,0.994426468116668,3.11339435963639,2558.345385541,1.01005608591349e-45,4,-110.30786836429,230.61573672858,239.536684898171,387.728977544628,40,601.2,1.17198883491945,24.3135074946702
1,100.083847459184,0.988848507496099,0.988826234208808,5.27575964675646,44396.1636447495,0,4,-4639.58152310491,9289.16304620981,9315.74910825161,41806.1270552165,1502,601.2,1.17198883491945,24.3135074946702
2,96.155453517406,0.981290634219049,0.981251951863885,6.38960826513577,25367.9133563778,0,4,-4761.10197155072,9532.20394310145,9558.61774899948,59240.1130775244,1451,601.2,1.17198883491945,24.3135074946702
3,91.707899820552,0.993731337303908,0.993717846638134,3.36403683334222,73660.6594505468,0,4,-3677.64528718587,7365.29057437174,7391.50456398571,15775.5408796199,1394,601.2,1.17198883491945,24.3135074946702
4,86.8363873424754,0.994503242316431,0.994490247617416,2.85105055864666,76531.4564906818,0,4,-3138.01184677052,6286.02369354103,6311.76935153382,10315.0529064205,1269,601.2,1.17198883491945,24.3135074946702
5,81.819329581237,0.978905878111231,0.978851974903679,4.81395027766571,18160.4383591255,0,4,-3520.75440532548,7051.50881065096,7076.86667747202,27206.4136818335,1174,601.2,1.17198883491945,24.3135074946702
6,89.3485829333374,0.94862962232664,0.948482288547462,6.71569017811256,6438.6431110358,0,4,-3487.55057719478,6985.10115438956,7009.88388160532,47175.1173185438,1046,601.2,1.17198883491945,24.3135074946702
7,113.333491334861,0.951548268654186,0.951392808553612,7.21653400589984,6120.85200727326,0,4,-3186.1949319826,6382.38986396519,6406.61394136123,48693.2694595188,935,601.2,1.17198883491945,24.3135074946702
8,116.620281015248,0.977602031803069,0.977531597940815,5.43525676766452,13879.716382309,0,4,-2979.1436065652,5968.28721313039,5992.61145202024,28183.0833884426,954,601.2,1.17198883491945,24.3135074946702
9,111.308249504922,0.975699044584024,0.975627501045017,6.53741674890837,13637.8358986587,0,4,-3370.295762278,6750.59152455601,6775.24399838576,43549.8362861369,1019,601.2,1.17198883491945,24.3135074946702
10,113.27086503664,0.980079512851308,0.980028565313844,6.59396674239503,19237.0340476354,0,4,-3888.09180129311,7786.18360258622,7811.53722312253,51002.5061499792,1173,601.2,1.17198883491945,24.3135074946702
11,109.579134752821,0.98367141986308,0.983634196656081,6.63455051370762,26426.2942171524,0,4,-4368.81984279201,8747.63968558402,8773.56662066192,57926.7148429224,1316,601.2,1.17198883491945,24.3135074946702
12,107.123002847492,0.98115482609455,0.981114472403104,7.07577293060692,24313.8803645451,0,4,-4740.73653017719,9491.47306035439,9517.71202326323,70143.254154279,1401,601.2,1.17198883491945,24.3135074946702
13,104.752759441256,0.98869224096203,0.988667835726697,5.39607899503417,40511.4815506359,0,4,-4325.82501378863,8661.65002757726,8687.84969053386,40473.5592437021,1390,601.2,1.17198883491945,24.3135074946702
14,101.456808516991,0.990183591679582,0.990163800533775,4.87471523176936,50031.6455308348,0,4,-4478.4736453863,8966.9472907726,8993.48665467642,35359.1187031762,1488,601.2,1.17198883491945,24.3135074946702
15,94.2289865341419,0.978710084524658,0.978658326221233,6.55805497293312,18909.2381273538,0,4,-4082.94191358559,8175.88382717119,8201.49008943741,53071.9769245678,1234,601.2,1.17198883491945,24.3135074946702
16,103.261570611058,0.90036229941664,0.900040541503023,13.4726846049381,2798.2600001836,0,4,-3748.28511872842,7506.57023745683,7530.76226346107,168625.791101182,929,601.2,1.17198883491945,24.3135074946702
17,116.199819745649,0.984511410930932,0.984472331227646,5.70183977411263,25192.3972841529,0,4,-3767.55145565736,7545.10291131473,7570.52404342521,38655.5514266771,1189,601.2,1.17198883491945,24.3135074946702
18,117.161570430436,0.98376172291132,0.983717030405571,4.98978525572108,22011.7826564421,0,4,-3308.80289414135,6627.6057882827,6652.59376819761,27138.7730190505,1090,601.2,1.17198883491945,24.3135074946702
19,115.022902000361,0.9725406866452,0.972452863681379,5.49567225495654,11073.8768578099,0,4,-2939.76702635322,5889.53405270643,5913.77407907931,28329.8638947974,938,601.2,1.17198883491945,24.3135074946702
20,118.614601839544,0.967360399171026,0.967258506556576,5.9076616669697,9493.9206770581,0,4,-3081.35287070918,6172.70574141835,6197.06638192504,33539.3481828993,961,601.2,1.17198883491945,24.3135074946702
21,112.989548188162,0.951327189969667,0.951121530208975,8.73089641965055,4625.73323420559,0,4,-2558.26027518725,5126.52055037449,5149.37496518619,54122.2721263734,710,601.2,1.17198883491945,24.3135074946702
22,117.03431633521,0.983690320742118,0.983648608007443,5.95093499446769,23582.494133003,0,4,-3767.32365432885,7544.6473086577,7570.000929194,41540.1848327299,1173,601.2,1.17198883491945,24.3135074946702
23,111.821953917823,0.984814026614966,0.984779513039091,6.11584114187384,28534.1058306881,0,4,-4274.27977384682,8558.55954769363,8584.50161137612,49372.6369918804,1320,601.2,1.17198883491945,24.3135074946702
24,111.199466452155,0.983267131753417,0.983231954034608,6.89829400804758,27951.4182572699,0,4,-4792.15152891004,9594.30305782008,9620.63370171786,67905.8787360308,1427,601.2,1.17198883491945,24.3135074946702
25,107.824969471789,0.987249471330166,0.987220839903512,6.10829258795954,34481.3230324474,0,4,-4324.30201022407,8658.60402044813,8684.60614491286,49847.8144224022,1336,601.2,1.17198883491945,24.3135074946702
26,102.621094442247,0.977833094961265,0.977782677436537,7.79311667326389,19394.706508045,0,4,-4591.690316,9193.38063199999,9219.31891782057,80106.3884102138,1319,601.2,1.17198883491945,24.3135074946702
27,90.2112084665219,0.992360804664741,0.992344744688563,4.13201207054873,61790.9263174374,0,4,-4058.75020068041,8127.50040136081,8153.8310452586,24363.9183929058,1427,601.2,1.17198883491945,24.3135074946702
28,88.1929274308767,0.993137066335129,0.993121860425975,3.55163647255865,65312.5739653138,0,4,-3646.05628645499,7302.11257290999,7328.18141445058,17079.5206913648,1354,601.2,1.17198883491945,24.3135074946702
29,85.7042548301247,0.989326194362661,0.989299487592927,3.83590299069518,37044.0230768089,0,4,-3322.29877866052,6654.59755732104,6680.06042590091,17642.267953075,1199,601.2,1.17198883491945,24.3135074946702
30,95.4979748406975,0.945048878501731,0.94489082158467,8.46036532345711,5979.16811281313,0,4,-3719.380609886,7448.761219772,7473.52964082635,74655.6260068288,1043,601.2,1.17198883491945,24.3135074946702
31,109.789537217779,0.977570935451265,0.977504380363583,5.44156248543941,14688.1473603701,0,4,-3157.69589476561,6325.39178953122,6350.0050089886,29936.3189080539,1011,601.2,1.17198883491945,24.3135074946702
32,111.338722650584,0.965139953361485,0.965016336174823,6.29021753484576,7807.49003781402,0,4,-2767.23933872372,5544.47867744744,5568.20485919486,33473.5437937862,846,601.2,1.17198883491945,24.3135074946702
33,106.790877250103,0.984077594858137,0.984032015454105,4.44109639738559,21590.4006591696,0,4,-3059.14767397267,6128.29534794533,6153.08758991182,20670.0573969931,1048,601.2,1.17198883491945,24.3135074946702
34,105.2043148038,0.985098649701908,0.985058120190671,5.45328814345424,24305.7125447293,0,4,-3446.47549685235,6902.95099370471,6927.99803836825,32801.401787819,1103,601.2,1.17198883491945,24.3135074946702
35,105.39912490322,0.96029739126257,0.960148320140902,9.06582260387258,6441.87405663204,0,4,-2907.62544710559,5825.25089421118,5848.69266778091,65669.1224484247,799,601.2,1.17198883491945,24.3135074946702
36,100.591179883329,0.981097429218295,0.981050212138906,6.90059458275069,20778.4437735769,0,4,-4035.40473870625,8080.8094774125,8106.28065164213,57189.4649201813,1201,601.2,1.17198883491945,24.3135074946702
37,99.9953902562098,0.987829523333848,0.987800954139796,5.80608820366636,34576.7375003945,0,4,-4071.99492039691,8153.98984079383,8179.77072398123,43082.2237723471,1278,601.2,1.17198883491945,24.3135074946702
38,96.444265699435,0.982939831591074,0.982903864967584,6.29420916265645,27329.2218229666,0,4,-4647.97453159062,9305.94906318124,9332.26571126862,56375.0891631909,1423,601.2,1.17198883491945,24.3135074946702
39,91.4795245136113,0.989462154964263,0.989439860510732,4.77388677639701,44381.5388244668,0,4,-4238.54244911842,8487.08489823684,8513.38399628865,32316.212844571,1418,601.2,1.17198883491945,24.3135074946702
40,88.0650488973641,0.98906736428934,0.989042685653424,4.30184436859948,40077.8781966492,0,4,-3834.34751493519,7678.69502987037,7704.67096647127,24594.2945473243,1329,601.2,1.17198883491945,24.3135074946702
41,85.0061689413417,0.978365869338646,0.9783105390812,5.47119415043499,17682.2938207894,0,4,-3668.39510062845,7346.7902012569,7372.1438217932,35112.5414514475,1173,601.2,1.17198883491945,24.3135074946702
42,106.185751148687,0.983952465486456,0.983908579794988,5.07834429581003,22420.8035140363,0,4,-3349.35647914411,6708.71295828822,6733.73282897184,28291.1701231045,1097,601.2,1.17198883491945,24.3135074946702
43,112.068493118543,0.978646928831775,0.978580956418279,5.298082497043,14834.1841228863,0,4,-3007.12229408746,6024.24458817491,6048.6567755299,27255.6574792547,971,601.2,1.17198883491945,24.3135074946702
44,110.561735951665,0.970856460047844,0.970762851247141,5.54303477237581,10371.4229085109,0,4,-2935.32459830984,5880.64919661968,5904.86794636471,28697.3690115747,934,601.2,1.17198883491945,24.3135074946702
45,107.810370670287,0.972398945424294,0.972314452400083,5.59064066460505,11508.6299076243,0,4,-3087.78782800091,6185.57565600182,6210.03378548708,30630.1577799208,980,601.2,1.17198883491945,24.3135074946702
46,107.109135482723,0.982084113782319,0.982035692468217,5.55578937751753,20282.0623933665,0,4,-3489.02626059485,6988.05252118971,7013.13108329214,34262.1431241437,1110,601.2,1.17198883491945,24.3135074946702
47,105.352995324432,0.987211717839332,0.987180219607409,5.631919348913,31341.8137328488,0,4,-3844.10587198565,7698.21174397131,7723.75296466996,38633.1519431406,1218,601.2,1.17198883491945,24.3135074946702
48,103.919258712783,0.984091359085886,0.984052525951026,6.62834481262772,25341.5379068935,0,4,-4079.58882551963,8169.17765103925,8194.76367855507,53996.0596398042,1229,601.2,1.17198883491945,24.3135074946702
49,101.183170454003,0.987469678133266,0.987443627568054,5.66103130883976,37905.8830438401,0,4,-4559.72929405107,9129.45858810214,9155.84482673529,46244.2185171552,1443,601.2,1.17198883491945,24.3135074946702
50,97.7998136319307,0.988341453864217,0.988317547071047,5.385972228994,41341.4483007553,0,4,-4549.71152527423,9109.42305054845,9135.87792443916,42439.7234937366,1463,601.2,1.17198883491945,24.3135074946702
51,94.1196422300002,0.987927381739346,0.987901947852561,5.12141039083205,38842.9574326269,0,4,-4356.77927066755,8723.5585413351,8749.8786920496,37349.8744132432,1424,601.2,1.17198883491945,24.3135074946702
52,90.4044993044088,0.992604652775236,0.992588387348789,3.49914723856037,61025.4305955931,0,4,-3652.55137612574,7315.10275225148,7341.2082777424,16700.8588256781,1364,601.2,1.17198883491945,24.3135074946702
53,86.8947025830565,0.988877290329105,0.988850574453194,3.78239578135737,37014.5936306913,0,4,-3442.86487261472,6895.72974522944,6921.39622500392,17868.8407906907,1249,601.2,1.17198883491945,24.3135074946702
54,99.1357035271618,0.907418457401416,0.907165271778995,11.4688657171437,3584.00468685708,0,4,-4246.28695768936,8502.57391537873,8527.59378606234,144293.764279149,1097,601.2,1.17198883491945,24.3135074946702
55,107.593019581335,0.980990668333601,0.980933353765763,4.79362447119416,17115.9044782424,0,4,-2981.23509300713,5972.47018601426,5997.0039599075,22863.9413929773,995,601.2,1.17198883491945,24.3135074946702
56,117.94149660627,0.961138053723336,0.960987231163401,6.48141521929012,6372.64116280482,0,4,-2552.67558785951,5115.35117571903,5138.62837747087,32472.7585282656,773,601.2,1.17198883491945,24.3135074946702
57,118.606864751055,0.966212318762748,0.966108463185175,6.4660974613228,9303.42251554817,0,4,-3217.79696680782,6445.59393361564,6470.03169647396,40806.9663862214,976,601.2,1.17198883491945,24.3135074946702
58,115.624354522857,0.980381927914185,0.980327684396897,5.84298293413756,18073.7160296875,0,4,-3465.56831178975,6941.13662357951,6966.10169919417,37042.3877819557,1085,601.2,1.17198883491945,24.3135074946702
59,108.126245529394,0.984804371208661,0.984753436140087,5.41083800897069,19334.5056514791,0,4,-2791.49645751118,5592.99291502237,5616.99933019473,26203.0653235931,895,601.2,1.17198883491945,24.3135074946702
60,103.205735398028,0.97525120048813,0.975179946746733,7.62463403047034,13687.0174304984,0,4,-3607.03387616642,7224.06775233284,7248.83139555597,60576.7159507478,1042,601.2,1.17198883491945,24.3135074946702
61,100.445255635636,0.931865674442817,0.931311736836661,11.9684351671562,1682.25746742397,8.4550552570071e-215,4,-1453.14101922108,2916.28203844217,2935.88993054038,52856.8294893058,369,601.2,1.17198883491945,24.3135074946702
62,51.9936629534344,0.267607765378943,0.265201219153463,25.5022565209338,111.19992732555,2.25469448792054e-61,4,-4269.11154347908,8548.22308695816,8572.32862431944,593783.325033134,913,601.2,1.17198883491945,24.3135074946702
63,40.3697560071585,0.493867965280088,0.492786486573422,8.46208814537389,456.659906696059,5.20215204423818e-207,4,-5002.78173260033,10015.5634652007,10041.8130928842,100536.137835228,1404,601.2,1.17198883491945,24.3135074946702
64,39.392582003301,0.549017059632898,0.548034525993754,7.88558236491298,558.776857870438,1.7018968272419e-237,4,-4809.36603187461,9628.73206374923,9654.88487951628,85625.1775149792,1377,601.2,1.17198883491945,24.3135074946702
65,42.1525002622875,0.578356872372775,0.577363212213402,7.69894350394307,582.046957319683,4.1064373626342e-238,4,-4416.44450224014,8842.88900448028,8868.65034876044,75455.4596609028,1273,601.2,1.17198883491945,24.3135074946702
66,60.077963981082,0.289189996844519,0.287351695112221,24.0567487243043,157.313672594384,1.52407040538494e-85,4,-5351.64473114145,10713.2894622829,10738.5875504244,671323.504653808,1160,601.2,1.17198883491945,24.3135074946702
67,126.799950755196,0.983040521938552,0.982991077396099,4.94439740235136,19881.6790117737,0,4,-3114.75713844071,6239.51427688143,6264.21538922703,25156.0305768778,1029,601.2,1.17198883491945,24.3135074946702
68,128.022665937259,0.978471885519078,0.978405303721715,5.11160190897607,14695.7866002715,0,4,-2969.13551965311,5948.27103930622,5972.67809582443,25344.6198535724,970,601.2,1.17198883491945,24.3135074946702
69,123.188089874036,0.974017985261945,0.973940657837129,5.18633040713687,12596.0225312577,0,4,-3099.7405457968,6209.48109159361,6234.07951084284,27113.2072767284,1008,601.2,1.17198883491945,24.3135074946702
70,116.631895075591,0.983000016878981,0.982951812768052,4.80841875214231,20392.4519699884,0,4,-3172.64006848789,6355.28013697577,6380.11968298478,24461.9025679192,1058,601.2,1.17198883491945,24.3135074946702
71,114.82458640277,0.984745467898983,0.984706816212916,5.61945931808093,25477.4259057666,0,4,-3734.4633204728,7478.9266409456,7504.32677344521,37388.7344646388,1184,601.2,1.17198883491945,24.3135074946702
72,111.881602449754,0.982899756110944,0.98286138607978,6.3047615894621,25616.3397911418,0,4,-4369.98379812112,8749.96759624223,8775.97345065864,53145.7750018421,1337,601.2,1.17198883491945,24.3135074946702
73,108.354213406276,0.981613213705967,0.981575198296675,6.62396174405756,25821.455877974,0,4,-4813.51206031489,9637.02412062977,9663.4379265278,63665.337189957,1451,601.2,1.17198883491945,24.3135074946702
74,104.60725688005,0.987583940197816,0.987558618525887,5.4819900554969,39001.5297170583,0,4,-4600.5971908794,9211.19438175881,9237.67644810267,44206.8082187618,1471,601.2,1.17198883491945,24.3135074946702
75,99.9288670170655,0.989384376793288,0.989362168376537,4.72777520634661,44549.9734587563,0,4,-4272.29873112017,8554.59746224034,8580.95250493175,32052.5649481034,1434,601.2,1.17198883491945,24.3135074946702
76,90.0743942437125,0.9877519423779,0.987725621337165,4.44735790937583,37527.0853579131,0,4,-4073.74535216005,8157.49070432011,8183.71184189813,27611.4733542265,1396,601.2,1.17198883491945,24.3135074946702
77,90.3575159800435,0.928439422342926,0.928274662762749,10.7870677662812,5635.11646086351,0,4,-4961.05041597781,9932.10083195561,9957.97828052373,151618.162785629,1303,601.2,1.17198883491945,24.3135074946702
78,112.940943452663,0.982903790444446,0.98276517252913,5.51334739499249,7090.7413966564,0,4,-1167.15454918242,2344.30909836483,2363.93037735191,11246.8898142121,370,601.2,1.17198883491945,24.3135074946702
