"Age","power_predict","r.squared","adj.r.squared","sigma","statistic","p.value","df","logLik","AIC","BIC","deviance","df.residual","GHI","Wind_speed","Ambient_temp"
1,7.71021058520918,0.972622996620431,0.972548127878281,0.68759852317417,12991.0423053442,0,4,-1147.86796441975,2305.73592883949,2330.7557995231,518.652526791216,1097,483.9,1.25939616502011,20.0603193931562
2,7.68834505801162,0.992137727898034,0.992116128249402,0.326879182869327,45933.0494125975,0,4,-327.644519969583,665.289039939165,690.286152276705,116.680200211104,1092,483.9,1.25939616502011,20.0603193931562
3,6.70708724192147,0.768715245328798,0.767988696361245,1.42100654807249,1058.03638799085,5.19394755339219e-303,4,-1695.71734413077,3401.43468826154,3425.76414363596,1928.39292722999,955,483.9,1.25939616502011,20.0603193931562
4,7.14427535926713,0.853080389888574,0.852236024313221,0.941919617674284,1010.32113907759,6.83683945265296e-217,4,-712.880636497764,1435.76127299553,1457.08777905922,463.124959535347,522,483.9,1.25939616502011,20.0603193931562
5,7.96021478999493,0.983979193317558,0.983917416428037,0.317751287889477,15927.9497713025,0,4,-211.052501436451,432.105002872902,455.414276575629,78.5514553833175,778,483.9,1.25939616502011,20.0603193931562
6,8.17426349094278,0.982707980306949,0.9826610760944,0.446195252033285,20951.3799913194,0,4,-677.249671466184,1364.49934293237,1389.5599194039,220.193764448374,1106,483.9,1.25939616502011,20.0603193931562
7,8.25752604638695,0.991498816986334,0.991477826410991,0.388976609931442,47235.4283202619,0,4,-576.659019091614,1163.31803818323,1188.84696883063,183.832905734615,1215,483.9,1.25939616502011,20.0603193931562
8,8.19149806368992,0.984840004432208,0.984803851819566,0.55486298423246,27241.1848678863,0,4,-1045.33625505306,2100.67251010612,2126.37477532162,387.304147539359,1258,483.9,1.25939616502011,20.0603193931562
9,8.12376100593486,0.983261671398976,0.983220879371516,0.641726048537168,24104.2608722208,0,4,-1202.54752181711,2415.09504363421,2440.68917487952,506.940967607858,1231,483.9,1.25939616502011,20.0603193931562
10,7.87892691269296,0.987284860362275,0.987260009926501,0.544044703955647,39729.0763566012,0,4,-1244.91777982379,2499.83555964758,2526.53000031677,454.336422249857,1535,483.9,1.25939616502011,20.0603193931562
11,7.77869121702019,0.981011696447741,0.980974754222932,0.6415852170079,26555.2955052774,0,4,-1505.54107514139,3021.08215028279,3047.79928142852,634.735912833301,1542,483.9,1.25939616502011,20.0603193931562
12,8.2565770332906,0.977935023364352,0.977884761458576,0.678416491391268,19456.7835872239,0,4,-1359.87484540873,2729.74969081745,2755.68041234007,606.147848437587,1317,483.9,1.25939616502011,20.0603193931562
13,8.02476432839084,0.976925137862258,0.976872092202171,0.632743867481073,18416.6835941782,0,4,-1256.27182892286,2522.54365784571,2548.42875167526,522.476066394551,1305,483.9,1.25939616502011,20.0603193931562
14,7.99472646534789,0.985727991088722,0.985688782273031,0.434219677113772,25140.4683802258,0,4,-638.864617746372,1287.72923549274,1312.72634783028,205.893026968125,1092,483.9,1.25939616502011,20.0603193931562
15,7.96809612274668,0.980707296568017,0.980649302469524,0.439210076508345,16910.4671346431,0,4,-595.349406526352,1200.6988130527,1225.24757946093,192.519680323853,998,483.9,1.25939616502011,20.0603193931562
16,8.23927471118818,0.984874679054393,0.984812774603047,0.33244441852474,15909.5938601454,0,4,-232.106979189524,474.213958379048,497.226897839995,81.0106406022489,733,483.9,1.25939616502011,20.0603193931562
17,8.20857770810786,0.982585194359761,0.982522850186824,0.346502564646049,15760.6581029131,0,4,-300.335099752581,610.670199505163,634.349099576375,100.613654882671,838,483.9,1.25939616502011,20.0603193931562
18,8.22965538724977,0.983131081038932,0.983076547895739,0.426995177289391,18028.1389165036,0,4,-527.330662655171,1064.66132531034,1088.84798938377,169.197489965554,928,483.9,1.25939616502011,20.0603193931562
19,7.8755836716855,0.986504662035766,0.986471119356485,0.45550524115583,29410.4312228139,0,4,-764.063757585688,1538.12751517138,1563.62352388914,250.43442483756,1207,483.9,1.25939616502011,20.0603193931562
20,7.86896587409528,0.989586490768322,0.989562913011571,0.447701496586553,41971.1892535183,0,4,-815.74392405854,1641.48784811708,1667.44875841065,265.578534810737,1325,483.9,1.25939616502011,20.0603193931562
21,7.74308561272976,0.981684394700669,0.981647468077082,0.618906979227985,26584.7320803162,0,4,-1399.19156791194,2808.38313582388,2834.9224997277,569.972223218418,1488,483.9,1.25939616502011,20.0603193931562
22,7.47466167350206,0.986401853372712,0.986375225148246,0.548690749888434,37043.4707215789,0,4,-1255.54860781122,2521.09721562244,2547.78190019098,461.226277768118,1532,483.9,1.25939616502011,20.0603193931562
23,7.76285605528523,0.982171793441563,0.982136443395512,0.643900484248899,27784.1729547354,0,4,-1482.72688630027,2975.45377260054,3002.07622249728,627.301652260958,1513,483.9,1.25939616502011,20.0603193931562
24,7.89420747855878,0.98035991212923,0.980317796143803,0.65282867610055,23277.6201765373,0,4,-1390.47181615107,2790.94363230214,2817.17547270265,596.233207194537,1399,483.9,1.25939616502011,20.0603193931562
25,7.90950709013866,0.931792658531766,0.931646812470181,1.16217713158806,6388.87775508702,0,4,-2205.90885056578,4421.81770113156,4448.06377641713,1894.96992631631,1403,483.9,1.25939616502011,20.0603193931562
26,8.35483969404417,0.984255029386847,0.984214726561045,0.518849253416297,24421.4893077823,0,4,-895.045438785631,1800.09087757126,1825.44024821355,315.5077299872,1172,483.9,1.25939616502011,20.0603193931562
27,9.02912819575791,0.98630566757281,0.986265191713419,0.445278571229094,24367.7511094223,0,4,-619.46719109534,1248.93438219068,1273.56726735679,201.247101085761,1015,483.9,1.25939616502011,20.0603193931562
28,8.94515348172456,0.977034197942091,0.976957217599997,0.462722551098648,12691.9960521188,0,4,-580.827024786262,1171.65404957252,1195.66046474488,191.63038256924,895,483.9,1.25939616502011,20.0603193931562
29,8.65802787235214,0.972089352113664,0.971989074336827,0.467234917698055,9693.96592918565,0,4,-550.070155571363,1110.14031114273,1133.80136467506,182.287571044118,835,483.9,1.25939616502011,20.0603193931562
30,8.90605379301096,0.976307876750054,0.976236227183774,0.522130237604726,13626.1519425486,0,4,-764.019880230439,1538.03976046088,1562.5584967488,270.439025140998,992,483.9,1.25939616502011,20.0603193931562
31,8.82970667399735,0.991663232219832,0.99164051623133,0.395370376799082,43654.8571126621,0,4,-540.558269376264,1091.11653875253,1116.15454182229,172.105826070124,1101,483.9,1.25939616502011,20.0603193931562
32,8.83300113754444,0.985451676121271,0.985417498383107,0.608413660523367,28833.1448785613,0,4,-1179.12789165532,2368.25578331063,2394.03276482011,472.703491811712,1277,483.9,1.25939616502011,20.0603193931562
33,8.83094206385715,0.986517034574924,0.986488204285348,0.600285140366516,34218.0758182098,0,4,-1276.38051057856,2562.76102115711,2589.00709644269,505.560176392021,1403,483.9,1.25939616502011,20.0603193931562
34,8.48969978720186,0.980644393019654,0.980606316415758,0.76321268599628,25754.5130785358,0,4,-1754.39025372956,3518.78050745911,3545.44235348876,888.302746200125,1525,483.9,1.25939616502011,20.0603193931562
35,8.56241962849865,0.987298038897416,0.987273051432951,0.584942179193729,39511.7335860891,0,4,-1347.63995718604,2705.27991437209,2731.94176040173,521.78996332486,1525,483.9,1.25939616502011,20.0603193931562
36,8.30852820419361,0.974691519546215,0.974636936195129,0.77918461849742,17856.9380615926,0,4,-1629.35374352074,3268.70748704148,3294.91073551275,844.515979556831,1391,483.9,1.25939616502011,20.0603193931562
37,7.9581127486362,0.990764329046174,0.990743307033381,0.443699223706465,47129.8509229918,0,4,-799.565443669825,1609.13088733965,1635.06539244171,259.473343473155,1318,483.9,1.25939616502011,20.0603193931562
38,7.46864514718085,0.987560507456705,0.987530142544069,0.415202885648003,32523.080810036,0,4,-663.755759820135,1337.51151964027,1363.09754715609,211.871533151776,1229,483.9,1.25939616502011,20.0603193931562
39,7.89162134845402,0.930082594183355,0.929882448937697,0.88522444753046,4647.03816033226,0,4,-1362.46594112317,2734.93188224634,2759.72412421283,821.236193985877,1048,483.9,1.25939616502011,20.0603193931562
40,8.76626201951795,0.979629756894091,0.979564467653367,0.435064104424702,15004.4593263737,0,4,-549.471775060932,1108.94355012186,1133.17294949818,177.1668053615,936,483.9,1.25939616502011,20.0603193931562
41,8.92574886216073,0.989549778975637,0.989504408985662,0.281336093149929,21810.6677896438,0,4,-102.753844989945,215.507689979889,238.227249207713,54.6926481404263,691,483.9,1.25939616502011,20.0603193931562
42,8.65666152896702,0.984041996829016,0.983993195596077,0.419968415579171,20164.2855635085,0,4,-541.088248303873,1092.17649660775,1116.63970481361,173.022374152482,981,483.9,1.25939616502011,20.0603193931562
43,8.53349110990668,0.987128034506002,0.987092212709636,0.466489757967032,27556.6312876775,0,4,-708.24199739572,1426.48399479144,1451.41682708847,234.586484442615,1078,483.9,1.25939616502011,20.0603193931562
44,8.93174987428803,0.989984942542168,0.989959967336537,0.420322089905189,39638.7103749402,0,4,-664.507573313204,1339.01514662641,1364.4946127319,212.534803092506,1203,483.9,1.25939616502011,20.0603193931562
45,8.66679401421134,0.978814253980824,0.97876862782285,0.750170043300343,21452.9186205531,0,4,-1578.6791050032,3167.3582100064,3193.56862180268,783.917845754277,1393,483.9,1.25939616502011,20.0603193931562
46,8.50056384448981,0.983404754382419,0.983371935834724,0.658427381609588,29964.9077568267,0,4,-1520.57538908006,3051.15077816012,3077.78639462141,657.659877766393,1517,483.9,1.25939616502011,20.0603193931562
47,8.26379110481543,0.982612017750452,0.982578428602513,0.655883170571961,29253.853641857,0,4,-1550.58478526608,3111.16957053216,3137.92215139133,668.073785031586,1553,483.9,1.25939616502011,20.0603193931562
48,8.29032748101613,0.980705240118414,0.980666521536711,0.649088188092659,25329.0589945136,0,4,-1477.13834205539,2964.27668411079,2990.8394516013,629.86663650251,1495,483.9,1.25939616502011,20.0603193931562
49,8.21425324910743,0.97511398725795,0.97505827230405,0.752693880158826,17501.8360242419,0,4,-1523.22448540757,3056.44897081513,3082.46599842055,759.174423486255,1340,483.9,1.25939616502011,20.0603193931562
50,8.58236116900337,0.989160346069771,0.98913377829053,0.44991569863863,37231.5780369146,0,4,-759.655732800811,1529.31146560162,1554.87717614516,247.76714231894,1224,483.9,1.25939616502011,20.0603193931562
51,8.60784370358323,0.989143801811182,0.989113922366626,0.40057099567763,33104.4909467707,0,4,-549.453589013701,1108.9071780274,1133.89515794231,174.898263610203,1090,483.9,1.25939616502011,20.0603193931562
52,8.87879505399385,0.984681957093017,0.984633635191102,0.394758298388184,20377.5496839871,0,4,-465.427166999975,940.854333999951,965.162890702354,148.198242553164,951,483.9,1.25939616502011,20.0603193931562
53,9.21081839581975,0.879674776084594,0.879173420984946,0.952350900959996,1754.59425206414,0,4,-989.959028434896,1989.91805686979,2012.84201383172,653.020011762707,720,483.9,1.25939616502011,20.0603193931562
54,9.3772770645533,0.8802536693414,0.879869456515757,1.01763955471029,2291.05748323013,0,4,-1346.79816133856,2703.59632267712,2727.82040007316,968.27689619575,935,483.9,1.25939616502011,20.0603193931562
55,8.8588237011072,0.820441276309874,0.819868216553416,1.70049343197808,1431.68538195933,0,4,-1838.66075516964,3687.32151033928,3711.57214117001,2718.17723746855,940,483.9,1.25939616502011,20.0603193931562
56,8.616278958074,0.918547290039991,0.918347651044991,1.19170167687659,4601.04144503376,0,4,-1955.8226773025,3921.645354605,3947.21106514854,1738.26713328466,1224,483.9,1.25939616502011,20.0603193931562
57,8.75250604645275,0.849960991363195,0.849623319175716,1.8321289750004,2517.11874083305,0,4,-2704.64279621301,5419.28559242603,5445.27651031154,4474.476542521,1333,483.9,1.25939616502011,20.0603193931562
58,8.54343842970525,0.945186171709839,0.945069711734718,1.13784086526094,8115.97435711221,0,4,-2190.06573685711,4390.13147371423,4416.4094300855,1828.09075053678,1412,483.9,1.25939616502011,20.0603193931562
59,7.92743820710465,0.962593966430061,0.962519698990809,0.878410560714278,12961.1842837809,0,4,-1951.28283665799,3912.56567331598,3939.1815269057,1165.89532600648,1511,483.9,1.25939616502011,20.0603193931562
60,7.7664067180691,0.96352421666869,0.963447263539299,0.846433477434053,12520.9231163771,0,4,-1783.65559043328,3577.31118086657,3603.62432387144,1018.79137630741,1422,483.9,1.25939616502011,20.0603193931562
61,7.69223146276175,0.960404198563277,0.960316402994681,0.860445412702623,10939.0965161856,0,4,-1719.53261257582,3449.06522515163,3475.13038345081,1001.71561505006,1353,483.9,1.25939616502011,20.0603193931562
62,7.90260394946817,0.934666748633552,0.934502594735647,1.03252586012611,5693.84437749253,0,4,-1736.23071024654,3482.46142049309,3507.90346438646,1272.93492428403,1194,483.9,1.25939616502011,20.0603193931562
63,8.40795579793865,0.910993656234341,0.910736412466232,1.1262193770823,3541.3633649189,0,4,-1600.3888286412,3210.77765728239,3235.52214339396,1316.56814855764,1038,483.9,1.25939616502011,20.0603193931562
64,8.50187560516198,0.892659519367,0.892303694569321,0.999055059675913,2508.70519758902,0,4,-1286.95135645197,2583.90271290393,2607.96443837482,903.290466098958,905,483.9,1.25939616502011,20.0603193931562
65,8.98036275292409,0.848837828291522,0.848267405002056,1.03609654989749,1488.08410169617,0,4,-1160.05967216827,2330.11934433653,2353.53614906536,853.429368264032,795,483.9,1.25939616502011,20.0603193931562
66,8.79142396105393,0.856376297421205,0.855754549790994,1.05032731343045,1377.3696204202,1.8538021999659e-291,4,-1021.21838105177,2052.43676210354,2075.17068915734,764.508913479254,693,483.9,1.25939616502011,20.0603193931562
67,9.14119251889321,0.876195009767605,0.875816401234784,1.30801199174563,2314.25056175996,0,4,-1660.1311779446,3330.26235588921,3354.72556409507,1678.38835850991,981,483.9,1.25939616502011,20.0603193931562
68,8.86631739304647,0.902950531514099,0.902708512889446,1.27306440131281,3730.91340721515,0,4,-2002.05776677945,4014.11553355889,4039.59499966438,1949.69364277761,1203,483.9,1.25939616502011,20.0603193931562
69,8.16266617026147,0.926776792382182,0.926612982074312,1.19281046260601,5657.62194353842,0,4,-2143.60933145459,4297.21866290919,4323.23940936937,1907.97050840086,1341,483.9,1.25939616502011,20.0603193931562
70,8.14600516905428,0.923376812941969,0.923215500969215,1.3054637447168,5724.16787904235,0,4,-2406.57222396441,4823.14444792881,4849.46809881846,2428.53571399728,1425,483.9,1.25939616502011,20.0603193931562
71,7.68933529629686,0.961774335450196,0.961671945277294,0.942586967434646,9393.22894178197,0,4,-1526.42449410463,3062.84898820926,3087.97223336153,995.08661411896,1120,483.9,1.25939616502011,20.0603193931562
72,8.21289765851479,0.981751173263532,0.981715060809568,0.652531067876017,27185.9446118673,0,4,-1505.90121274637,3021.80242549274,3048.43475356195,645.507940527818,1516,483.9,1.25939616502011,20.0603193931562
73,8.61657152196323,0.891003276212319,0.890773486914102,1.50217251500268,3877.47942626214,0,4,-2603.4864784958,5216.97295699159,5243.28960507898,3211.03118285233,1423,483.9,1.25939616502011,20.0603193931562
74,8.07952778533586,0.989179727694751,0.989154544749122,0.441167307685643,39279.7467885052,0,4,-774.582320240486,1559.16464048097,1584.98824237483,250.876256854702,1289,483.9,1.25939616502011,20.0603193931562
75,8.2057621851613,0.982020987970826,0.981974966608977,0.507783530537258,21338.3730621434,0,4,-869.693055142209,1749.38611028442,1774.73548092671,302.193301473082,1172,483.9,1.25939616502011,20.0603193931562
76,8.51166711725966,0.986090832834195,0.986047093314806,0.38959925060084,22544.6197535244,0,4,-454.29303555146,918.586071102919,942.910309992774,144.805347569575,954,483.9,1.25939616502011,20.0603193931562
77,8.5246377982662,0.977816482313494,0.977740250293953,0.408087430594139,12826.8474087096,0,4,-456.372363772081,922.744727544162,946.627262506023,145.385361430792,873,483.9,1.25939616502011,20.0603193931562
78,8.52034910244639,0.977067183198873,0.976992806495734,0.456252815209535,13136.7369346234,0,4,-587.195657928968,1184.39131585794,1208.561859552,192.554134032629,925,483.9,1.25939616502011,20.0603193931562
79,8.80989686239094,0.974337354272892,0.974261949829032,0.568970669131435,12921.4845225641,0,4,-874.383529772306,1758.76705954461,1783.42929900247,330.525902400842,1021,483.9,1.25939616502011,20.0603193931562
80,8.7545480510064,0.990552148542172,0.990528310397198,0.441270317385587,41553.2395512984,0,4,-714.799841021092,1439.59968204218,1465.02081415267,231.52147718363,1189,483.9,1.25939616502011,20.0603193931562
81,8.36648076028757,0.979664713578153,0.979619955060717,0.680276781427205,21887.7829225374,0,4,-1411.04173065164,2832.08346130329,2858.18533048691,630.764368612629,1363,483.9,1.25939616502011,20.0603193931562
82,8.51411623103323,0.976188295669181,0.976138893792976,0.774250749797161,19760.1461859058,0,4,-1684.46184645998,3378.92369291995,3405.32028709702,866.825267269881,1446,483.9,1.25939616502011,20.0603193931562
83,8.28066307184311,0.973481175269379,0.973429279330571,0.774501005322883,18758.3305676534,0,4,-1786.14659301184,3582.29318602368,3608.98112474137,919.572820508358,1533,483.9,1.25939616502011,20.0603193931562
84,8.07070273221946,0.978548273210948,0.978506538333926,0.690970550167309,23446.7750487628,0,4,-1620.18499616913,3250.36999233826,3277.087123484,736.212944448108,1542,483.9,1.25939616502011,20.0603193931562
85,7.89406281200516,0.97686999318978,0.976821058055484,0.674172555600273,19962.5485299762,0,4,-1455.07699687574,2920.15399375148,2946.4530918033,644.493244039487,1418,483.9,1.25939616502011,20.0603193931562
86,7.55163115873308,0.98805125145559,0.988024177251939,0.429994435496511,36494.194407753,0,4,-761.537915266009,1533.07583053202,1559.0329771822,244.801264074743,1324,483.9,1.25939616502011,20.0603193931562
87,7.36794873048818,0.971912870326217,0.97183850016821,0.610173902389501,13068.5868684244,0,4,-1049.63876450268,2109.27752900535,2134.45827147411,421.829712581144,1133,483.9,1.25939616502011,20.0603193931562
88,8.25665225172637,0.984875874863245,0.984832414733542,0.415382527111306,22661.5953883826,0,4,-564.317664337222,1138.63532867444,1163.40852299885,180.134520157867,1044,483.9,1.25939616502011,20.0603193931562
89,8.3342976389989,0.979492386829145,0.97942271203921,0.391775044278225,14058.0601354313,0,4,-425.415109385292,860.830218770585,884.769443682133,135.529626136858,883,483.9,1.25939616502011,20.0603193931562
90,8.50434345895978,0.981467638718334,0.981401214484349,0.334261466296692,14775.7464383834,0,4,-269.728025698123,549.456051396247,573.129009696111,93.5186192111316,837,483.9,1.25939616502011,20.0603193931562
91,8.45060975048059,0.99018312980211,0.990151048526953,0.312813760997035,30864.8308077417,0,4,-234.757186018862,479.514372037725,503.647098155507,89.8285482454432,918,483.9,1.25939616502011,20.0603193931562
92,8.18134263844153,0.989536468803302,0.989508640262885,0.442226136248303,35558.3316258904,0,4,-680.597694647144,1371.19538929429,1396.3540955881,220.596141895484,1128,483.9,1.25939616502011,20.0603193931562
93,8.08575299013525,0.988552536309312,0.98852593492196,0.503252414192326,37161.6909753699,0,4,-946.293179955894,1902.58635991179,1928.41768978246,326.962523176012,1291,483.9,1.25939616502011,20.0603193931562
94,7.82034450678965,0.963872326583312,0.963796321660276,0.931666313581498,12681.7091324506,0,4,-1925.86309776061,3861.72619552122,3888.05334413749,1237.77102292398,1426,483.9,1.25939616502011,20.0603193931562
95,7.69634694430039,0.978169901167864,0.978127041026177,0.713254130016427,22822.3674184533,0,4,-1654.12160966898,3318.24321933797,3344.91486608947,777.34166168983,1528,483.9,1.25939616502011,20.0603193931562
96,7.51451363810857,0.978796262204526,0.978754794659946,0.670030474943653,23603.9117364525,0,4,-1564.46031566849,3138.92063133699,3165.61182208732,688.675244499835,1534,483.9,1.25939616502011,20.0603193931562
97,7.70084060766252,0.975539637697858,0.975487778272482,0.761935169063883,18811.2311432876,0,4,-1625.65364245435,3261.30728490869,3287.59582329449,821.471460626818,1415,483.9,1.25939616502011,20.0603193931562
98,7.62302859599468,0.983662883187457,0.983626225483316,0.516935778270844,26833.7285767165,0,4,-1015.95266049576,2041.90532099152,2067.91117540793,357.276614671118,1337,483.9,1.25939616502011,20.0603193931562
99,7.11700496962965,0.985925042641818,0.985889855248422,0.405790261758963,28019.2690479065,0,4,-620.488369526301,1250.9767390526,1276.44376218195,197.598883846089,1200,483.9,1.25939616502011,20.0603193931562
100,7.69848589921082,0.983217512356057,0.983167265387064,0.439238029448556,19567.6979536137,0,4,-597.798090324475,1205.59618064895,1230.16486740225,193.315906606878,1002,483.9,1.25939616502011,20.0603193931562
101,7.91403918238914,0.98199073366973,0.981928704049764,0.389740008908134,15830.997097843,0,4,-415.075650904753,840.151301809506,864.022421241294,132.302526127573,871,483.9,1.25939616502011,20.0603193931562
102,7.84429140671027,0.976875541011966,0.976791756740271,0.398632971751573,11659.4143654917,0,4,-413.349858902075,836.699717804151,860.318880008257,131.576027826682,828,483.9,1.25939616502011,20.0603193931562
103,7.61173477118419,0.983335466523417,0.983287534020608,0.416300310147845,20515.0035758096,0,4,-566.088060447183,1142.17612089437,1166.94454194872,180.758104003047,1043,483.9,1.25939616502011,20.0603193931562
104,8.04501329573391,0.988711195058814,0.988679749919702,0.416614622278085,31442.4175876338,0,4,-585.352107488596,1180.70421497719,1205.63242406539,186.932459745097,1077,483.9,1.25939616502011,20.0603193931562
105,7.68953724291575,0.985995631029461,0.985962808289686,0.52684283048237,30040.0160924243,0,4,-997.058690943353,2004.11738188671,2029.90605930796,355.281111079265,1280,483.9,1.25939616502011,20.0603193931562
106,7.60540584943675,0.970417330656847,0.970354832059644,0.773377703127325,15527.0257905431,0,4,-1652.61512964264,3315.23025928529,3341.53638474515,849.320561806185,1420,483.9,1.25939616502011,20.0603193931562
107,7.50644585704409,0.975726182440425,0.975677439834884,0.726869897501913,20017.9323941428,0,4,-1645.69360004021,3301.38720008043,3327.94663090081,789.339732754295,1494,483.9,1.25939616502011,20.0603193931562
108,7.42921520502379,0.952627042285693,0.952535998805141,0.950317977108695,10463.4295229215,0,4,-2138.88597627628,4287.77195255256,4314.55015806743,1409.74574613852,1561,483.9,1.25939616502011,20.0603193931562
109,7.29315030473,0.967349303445394,0.967282212973022,0.769559911653425,14418.5794083368,0,4,-1691.8482820821,3393.6965641642,3420.14120263681,864.644788131079,1460,483.9,1.25939616502011,20.0603193931562
110,7.04385730261141,0.983194975804508,0.98315729637806,0.517302658587804,26093.6821100461,0,4,-1017.66387274669,2045.32774549337,2071.33732708103,358.051530298729,1338,483.9,1.25939616502011,20.0603193931562
111,6.65025937124222,0.876703295059281,0.876396586838035,1.293429243756,2858.42776401267,0,4,-2026.24170599956,4062.48341199912,4087.97529019207,2017.58880557549,1206,483.9,1.25939616502011,20.0603193931562
112,7.20686554410932,0.983242348609299,0.983195408409325,0.405523843095181,20946.7013168863,0,4,-553.086414508728,1116.17282901746,1141.07320872027,176.125508018312,1071,483.9,1.25939616502011,20.0603193931562
113,7.30802957484709,0.976332300750988,0.97625802972824,0.421657164900334,13145.5346193951,0,4,-531.156621046766,1072.31324209353,1096.64790851584,169.971795064469,956,483.9,1.25939616502011,20.0603193931562
114,7.26119203135693,0.973744993911761,0.973661201339139,0.403349518112395,11620.8986481895,0,4,-480.367224665546,970.734449331091,994.985080161819,152.929383735811,940,483.9,1.25939616502011,20.0603193931562
115,7.47177126543192,0.980180287085888,0.98011676236501,0.427881479293027,15429.9030917372,0,4,-533.823456851343,1077.64691370269,1101.87631307901,171.365276461382,936,483.9,1.25939616502011,20.0603193931562
116,7.32031105897128,0.980594778165085,0.980544418592849,0.507149692292599,19471.8647245633,0,4,-856.384323531369,1722.76864706274,1748.04952348324,297.324136813704,1156,483.9,1.25939616502011,20.0603193931562
117,6.54679412153941,0.857228680976659,0.856865703046938,1.63019840203369,2361.65510568942,0,4,-2256.64268142515,4523.2853628503,4548.66863192752,3135.90525939196,1180,483.9,1.25939616502011,20.0603193931562
123,6.19557492084757,0.986518169073587,0.986485760826168,0.373005615169748,30440.3430494439,0,4,-539.833261530545,1089.66652306109,1115.32901081939,173.638219807307,1248,483.9,1.25939616502011,20.0603193931562
124,6.49461313578718,0.960073382216176,0.959964885972198,0.590782785171884,8848.90893008943,0,4,-987.032267428658,1984.06453485732,2009.11609419385,385.322826378016,1104,483.9,1.25939616502011,20.0603193931562
125,7.34803732909172,0.980057820887675,0.979991932630696,0.396555691057864,14874.5446582288,0,4,-448.523365940321,907.046731880641,931.124931831013,142.788825828225,908,483.9,1.25939616502011,20.0603193931562
126,7.49114141130165,0.979354637109283,0.979281856746566,0.385541529724719,13456.3033289305,0,4,-396.281813139733,802.563626279466,826.31913362415,126.494572742248,851,483.9,1.25939616502011,20.0603193931562
127,7.27214321179794,0.978067898531647,0.977999997288711,0.429849198799847,14404.2709122781,0,4,-557.098900711008,1124.19780142202,1148.59972183295,179.042453363896,969,483.9,1.25939616502011,20.0603193931562
128,6.96508907755072,0.97962293663922,0.979568838240917,0.465666643384449,18108.1689545267,0,4,-740.373277985226,1490.74655597045,1515.91408839189,245.035327719862,1130,483.9,1.25939616502011,20.0603193931562
130,6.65595283462336,0.950728082023774,0.950620735797247,0.804823263215918,8856.65116303114,0,4,-1657.69112695831,3325.38225391661,3351.53506968366,891.938647863615,1377,483.9,1.25939616502011,20.0603193931562
131,6.45078249732629,0.952864239290319,0.95277003057471,0.810489935837554,10114.3958192307,0,4,-1817.27471550579,3644.54943101158,3671.1321718975,985.997798077039,1501,483.9,1.25939616502011,20.0603193931562
132,6.44659003084524,0.888938663096644,0.888723288816935,1.23975978730939,4127.41328396813,0,4,-2532.1083426729,5074.21668534579,5100.94996116167,2377.7456988649,1547,483.9,1.25939616502011,20.0603193931562
133,6.31711540870859,0.953579632615023,0.953485537275729,0.779205412189105,10134.1856012323,0,4,-1733.47290102317,3476.94580204635,3503.45828416499,898.598390089494,1480,483.9,1.25939616502011,20.0603193931562
134,6.22981576833374,0.953400054607873,0.953298750378759,0.701227650768584,9411.25620275329,0,4,-1470.59502679168,2951.19005358336,2977.35371926425,678.573901119349,1380,483.9,1.25939616502011,20.0603193931562
135,6.14785023823199,0.962044243810302,0.961760991898439,0.545069082793742,3396.42630293771,4.27867428623636e-285,4,-327.700976689123,665.401953378247,685.433719176255,119.43432261708,402,483.9,1.25939616502011,20.0603193931562
