"Age","power_predict","r.squared","adj.r.squared","sigma","statistic","p.value","df","logLik","AIC","BIC","deviance","df.residual","GHI","Wind_speed","Ambient_temp"
1,64.3545076247647,0.984502580175317,0.984447232247372,6.5102940268441,17787.5237018517,0,4,-2776.71598745916,5563.43197491832,5587.1227373913,35602.499785408,840,333.310205055,1.61144871369414,23.148991382318
2,63.5633636274697,0.993894724538793,0.99388075365673,4.22932584637472,71140.441964196,0,4,-3760.18715001655,7530.3743000331,7556.28225975616,23450.1154175202,1311,333.310205055,1.61144871369414,23.148991382318
3,62.3884163715194,0.988187920736657,0.988163260863456,6.14527579982784,40072.7089177108,0,4,-4659.08774753525,9328.1754950705,9354.5409580505,54267.4638605998,1437,333.310205055,1.61144871369414,23.148991382318
4,60.087376277659,0.992755770259596,0.992741243060919,4.64339887521603,68337.7292700049,0,4,-4429.57504982429,8869.15009964859,8895.71620158404,32255.4850590788,1496,333.310205055,1.61144871369414,23.148991382318
5,56.7997003273928,0.995483905636007,0.995474745201192,3.52878053167733,108672.123725209,0,4,-3972.27548186801,7954.55096373603,7981.06007544672,18416.9399282618,1479,333.310205055,1.61144871369414,23.148991382318
6,54.2680866996831,0.996227764438353,0.996220343647084,2.9470986729964,134248.185719094,0,4,-3820.12998957286,7650.25997914572,7676.92182517536,13245.2206472751,1525,333.310205055,1.61144871369414,23.148991382318
7,53.2212952467021,0.995235040840384,0.995224866550364,3.01207183047311,97818.6231011646,0,4,-3550.88462328068,7111.76924656135,7138.02242412085,12746.9702802611,1405,333.310205055,1.61144871369414,23.148991382318
8,55.2275744567443,0.992817648112912,0.992800814475676,3.41617727175457,58978.2014564999,0,4,-3397.33642003705,6804.67284007409,6830.46151749534,14937.9419546272,1280,333.310205055,1.61144871369414,23.148991382318
9,58.8882314284682,0.96389544986441,0.963798568245083,8.25571453047484,9949.20869993179,0,4,-3958.48157859166,7926.96315718332,7952.07749761374,76199.3274529192,1118,333.310205055,1.61144871369414,23.148991382318
10,67.2637642011669,0.990572455179513,0.990544563035074,3.8230024515823,35514.3885524771,0,4,-2807.65023291973,5625.30046583945,5649.928441825,14819.9626132316,1014,333.310205055,1.61144871369414,23.148991382318
11,65.3893118221999,0.988446016277333,0.98841020847654,3.85202525161597,27604.2089817437,0,4,-2688.04240371147,5386.08480742294,5410.48158644524,14363.2793858363,968,333.310205055,1.61144871369414,23.148991382318
12,67.1172949336752,0.986724529282381,0.986683681680173,4.96354945113464,24156.2411486594,0,4,-2955.61328389761,5921.22656779522,5945.65922600787,24020.9025750125,975,333.310205055,1.61144871369414,23.148991382318
13,68.3787517811139,0.99184255042677,0.991819087005179,4.28662781707447,42271.8633157924,0,4,-3007.53369853574,6025.06739707148,6049.83581812583,19165.3106979276,1043,333.310205055,1.61144871369414,23.148991382318
14,64.7937890363507,0.992395976726124,0.992378140862307,4.93025296401702,55640.4773506917,0,4,-3865.38076611645,7740.76153223291,7766.54631405599,31089.157295885,1279,333.310205055,1.61144871369414,23.148991382318
15,64.3836621794455,0.98694111616861,0.986913311589835,6.43759952773519,35495.6327211513,0,4,-4634.18335273752,9278.36670547504,9304.63405738847,58392.7469404103,1409,333.310205055,1.61144871369414,23.148991382318
16,64.7863319472035,0.99107426685948,0.991056149674485,5.44841853379302,54703.5462281697,0,4,-4613.33642920034,9236.67285840069,9263.17859742997,43874.8209596426,1478,333.310205055,1.61144871369414,23.148991382318
17,59.745021878518,0.993117776944766,0.99310439608335,4.53163089166552,74219.2707950895,0,4,-4530.73901222201,9071.47802444402,9098.19838869688,31686.5519845927,1543,333.310205055,1.61144871369414,23.148991382318
18,57.5408992206087,0.990618593487852,0.990600222587371,4.67751917349958,53923.2464150673,0,4,-4547.17843929622,9104.35687859244,9131.04156316098,33518.9123674748,1532,333.310205055,1.61144871369414,23.148991382318
19,60.282822739759,0.973875769815034,0.973821344335482,8.16923698167987,17893.7471535611,0,4,-5079.88670579951,10169.773411599,10196.1492731963,96100.4633224984,1440,333.310205055,1.61144871369414,23.148991382318
20,63.1508976883825,0.990265126692257,0.990242557434202,4.71075269000537,43876.7248917529,0,4,-3851.48144535819,7712.96289071639,7738.80579020271,28715.4010328724,1294,333.310205055,1.61144871369414,23.148991382318
21,64.9408037204443,0.991555844771429,0.99153383567874,3.99825557323501,45052.1000004989,0,4,-3237.53670863022,6485.07341726044,6510.33269537522,18399.9408208694,1151,333.310205055,1.61144871369414,23.148991382318
22,64.9139048108037,0.989045307686291,0.989014449398083,3.95044990445,32051.2045590937,0,4,-2983.46524669617,5976.93049339233,6001.80288794746,16620.447986661,1065,333.310205055,1.61144871369414,23.148991382318
23,59.496621247254,0.981432847489492,0.981374945766486,4.12467734755238,16949.9765558295,0,4,-2737.50068364444,5485.00136728889,5509.36718645995,16366.4706189981,962,333.310205055,1.61144871369414,23.148991382318
24,66.0705133754355,0.981094917938625,0.981038930528769,5.37737778869489,17523.4918075699,0,4,-3151.85481481709,6313.70962963417,6338.33269161442,29292.1023768197,1013,333.310205055,1.61144871369414,23.148991382318
25,64.2456063341033,0.9884792537534,0.988449612039215,4.91145566547688,33347.5738812379,0,4,-3520.2919871097,7050.5839742194,7075.90776935836,28126.7146150998,1166,333.310205055,1.61144871369414,23.148991382318
26,66.5641352189391,0.989811535401591,0.989786965149344,5.33737517521742,40284.9561922479,0,4,-3858.90009934378,7727.80019868757,7753.44668643221,35438.5417587178,1244,333.310205055,1.61144871369414,23.148991382318
27,65.7564749277762,0.989421056573104,0.989397599935794,5.77342130253284,42180.856679881,0,4,-4302.67703957287,8615.35407914573,8641.41923744491,45098.7284549386,1353,333.310205055,1.61144871369414,23.148991382318
28,63.7140403024264,0.989829472191953,0.989808588151279,5.68392742253318,47396.4539555228,0,4,-4622.38839247302,9254.77678494604,9281.22483755329,47200.5722100966,1461,333.310205055,1.61144871369414,23.148991382318
29,63.8537601570715,0.992134793854872,0.992119229462764,4.68447109605486,63743.8832808226,0,4,-4502.04851899088,9014.09703798177,9040.72936605097,33267.5124858565,1516,333.310205055,1.61144871369414,23.148991382318
30,59.822564591629,0.992440343781042,0.992425384039184,4.21991002808207,66340.7399134995,0,4,-4343.30092160685,8696.60184321369,8723.23417128289,26996.3832179831,1516,333.310205055,1.61144871369414,23.148991382318
31,55.1039466337258,0.99454007888195,0.994528766890683,3.46595720603641,87919.0988956639,0,4,-3863.11579243511,7736.23158487023,7762.63507084715,17394.6203447016,1448,333.310205055,1.61144871369414,23.148991382318
32,46.3568043812867,0.987162318993785,0.987133186586055,4.59021381909665,33885.3667075333,0,4,-3900.23615280047,7810.47230560095,7836.42191645467,27854.6231604442,1322,333.310205055,1.61144871369414,23.148991382318
33,46.5870754439795,0.990156762297941,0.990132497948635,3.47119003294947,40807.0601764357,0,4,-3250.05209400459,6510.10418800918,6535.64131537973,14663.8280179797,1217,333.310205055,1.61144871369414,23.148991382318
34,44.821652752289,0.988638130874396,0.98860750589023,2.91278051252808,32282.0781070132,0,4,-2777.14453049071,5564.28906098142,5589.38106997677,9443.01511966382,1113,333.310205055,1.61144871369414,23.148991382318
35,48.3863114665325,0.867464476881571,0.867082896680654,11.6857565311809,2273.34771247932,0,4,-4053.66163419322,8117.32326838643,8142.08691160956,142292.29574569,1042,333.310205055,1.61144871369414,23.148991382318
36,57.4014997950332,0.989169607202649,0.989139550608392,3.96001340693809,32910.235894911,0,4,-3030.77305357857,6071.54610715714,6096.49278348701,16951.9243839629,1081,333.310205055,1.61144871369414,23.148991382318
37,59.7772500630839,0.990280516421598,0.990253960455537,4.24348500578209,37290.3216602669,0,4,-3154.48074841654,6318.96149683309,6343.98590678165,19771.8671637386,1098,333.310205055,1.61144871369414,23.148991382318
38,58.4645482716135,0.989403537225664,0.989377817655823,5.13792976266297,38468.8991051084,0,4,-3786.92683165851,7583.85366331702,7609.46799661002,32628.3262961277,1236,333.310205055,1.61144871369414,23.148991382318
39,57.4303817934879,0.985223606795189,0.985188646874358,6.62620811118586,28181.5171018774,0,4,-4208.28027219645,8426.5605443929,8452.3022731124,55673.611826721,1268,333.310205055,1.61144871369414,23.148991382318
40,57.0474419870703,0.990756625548494,0.990737812710398,5.33743940720283,52663.8575453937,0,4,-4570.4630675618,9150.92613512359,9177.41836063113,41991.6943932779,1474,333.310205055,1.61144871369414,23.148991382318
41,55.941974949891,0.992790069220132,0.992775876443006,4.51167040065513,69950.3740829302,0,4,-4468.32333833586,8946.64667667173,8973.30525152036,31021.278781521,1524,333.310205055,1.61144871369414,23.148991382318
42,56.0858783526866,0.9908920197993,0.990874322946579,4.54578248775963,55992.5561561433,0,4,-4538.49567107521,9086.99134215043,9113.71493742118,31905.4297297781,1544,333.310205055,1.61144871369414,23.148991382318
43,49.7697427485009,0.993872327932136,0.993859965446458,3.41664933048452,80394.2147070718,0,4,-3945.56723669936,7901.13447339873,7927.67048497255,17358.4835668329,1487,333.310205055,1.61144871369414,23.148991382318
44,47.5227088888178,0.981085757469582,0.981043787996512,5.38161011598794,23376.1752458185,0,4,-4204.20889107975,8418.41778215949,8444.47925450199,39156.255499561,1352,333.310205055,1.61144871369414,23.148991382318
45,56.8130388578205,0.990984057418843,0.990962367099883,4.2850098345959,45687.8508441273,0,4,-3593.44758257286,7196.89516514573,7222.55365769806,22896.5526753817,1247,333.310205055,1.61144871369414,23.148991382318
46,57.7587720043902,0.99097963128597,0.990955273854699,3.35265940352689,40684.8990051551,0,4,-2928.98844768942,5867.97689537884,5893.05994379831,12488.0011594996,1111,333.310205055,1.61144871369414,23.148991382318
47,58.8899666849932,0.983635297309845,0.983587071270483,4.2816857484706,20396.352475213,0,4,-2934.49368487947,5878.98736975893,5903.63495361275,18662.823839932,1018,333.310205055,1.61144871369414,23.148991382318
48,59.0140752351312,0.987451558498656,0.987415603078881,4.0499199928321,27463.2187494456,0,4,-2959.33126231121,5928.66252462241,5953.4500114768,17172.7389899132,1047,333.310205055,1.61144871369414,23.148991382318
49,57.8368708256206,0.989630401404976,0.989601382005922,4.33435493935333,34102.374056381,0,4,-3102.80646377465,6215.61292754931,6240.51795625292,20139.270297598,1072,333.310205055,1.61144871369414,23.148991382318
50,57.4823734513839,0.989018361025055,0.988991962854442,5.05171556704321,37465.4128700752,0,4,-3802.40717497022,7614.81434994045,7640.47683769875,31848.7480525428,1248,333.310205055,1.61144871369414,23.148991382318
51,53.9588885445825,0.990973971585871,0.990954363993371,4.74872413218463,50540.3185827135,0,4,-4120.88520465752,8251.77040931505,8277.93768640816,31142.0760002415,1381,333.310205055,1.61144871369414,23.148991382318
52,52.4658340058253,0.992867843147514,0.992853167927653,4.30943041463491,67656.0796053597,0,4,-4208.18338791644,8426.36677583287,8452.80457903442,27076.7957469302,1458,333.310205055,1.61144871369414,23.148991382318
53,51.1739302354142,0.993459954330996,0.993447205703961,4.11881578367169,77926.819225018,0,4,-4371.63742094823,8753.27484189645,8779.98226115827,26108.5862846676,1539,333.310205055,1.61144871369414,23.148991382318
54,50.8286804676999,0.996176953589914,0.996169601577587,2.83536593523005,135497.182168673,0,4,-3847.17275823505,7704.34551647011,7731.12052607563,12541.3079791942,1560,333.310205055,1.61144871369414,23.148991382318
55,50.6831754741832,0.98028688989004,0.980247172408287,6.31855056760836,24681.4965760403,0,4,-4868.80287915302,9747.60575830604,9774.14847229373,59446.9570191063,1489,333.310205055,1.61144871369414,23.148991382318
56,58.0274271706036,0.991282502863332,0.991263592891235,4.17682834513075,52421.1510087908,0,4,-3948.85374279911,7907.70748559823,7933.8819776998,24127.672819143,1383,333.310205055,1.61144871369414,23.148991382318
57,52.1862903561467,0.990893555619634,0.990872044333696,3.79437395692597,46063.8921578881,0,4,-3504.62830136903,7019.25660273806,7045.00618691872,18284.5376307475,1270,333.310205055,1.61144871369414,23.148991382318
58,55.262161484187,0.986640892678984,0.986605798701783,4.29425370632413,28114.2512585611,0,4,-3294.1403982497,6598.28079649939,6623.50096098577,21059.1822092661,1142,333.310205055,1.61144871369414,23.148991382318
59,56.6531640042564,0.985738535722567,0.985697238046088,3.85784143097805,23869.1040214471,0,4,-2877.80434326527,5765.60868653055,5790.34356649122,15418.7263648073,1036,333.310205055,1.61144871369414,23.148991382318
60,55.9795443268662,0.99003421222692,0.990004522690357,3.50595191518252,33346.2332804091,0,4,-2700.80404430683,5411.60808861366,5436.20156470877,12377.740723393,1007,333.310205055,1.61144871369414,23.148991382318
61,55.7397172220065,0.988986679333506,0.98895588719744,4.36017468810382,32118.157609913,0,4,-3112.08863309959,6234.17726619917,6259.08693958496,20398.9353124682,1073,333.310205055,1.61144871369414,23.148991382318
62,60.2133382454706,0.990153525919782,0.990128971121576,4.55805457863598,40324.2379616385,0,4,-3541.54884557476,7093.09769114952,7118.57715725501,24993.3614348148,1203,333.310205055,1.61144871369414,23.148991382318
63,56.9942936028891,0.989233436383059,0.989209546079175,5.2515566209826,41407.3191030508,0,4,-4171.03696060341,8352.07392120682,8378.13539354932,37286.6010674581,1352,333.310205055,1.61144871369414,23.148991382318
64,55.0880416400191,0.989917735786815,0.989897047146159,5.07461507323834,47848.3701385151,0,4,-4459.31264488193,8928.62528976385,8955.07675417609,37649.0119229283,1462,333.310205055,1.61144871369414,23.148991382318
65,54.6764479911611,0.988315808629057,0.988291449647741,5.43820816773656,40572.953188526,0,4,-4489.1733361334,8988.3466722668,9014.71907006067,42557.1415208411,1439,333.310205055,1.61144871369414,23.148991382318
66,49.105247506062,0.982521406171518,0.982478249149719,6.27777115233436,22766.2003822662,0,4,-3967.00407502788,7944.00815005576,7969.53708070317,47883.6489289139,1215,333.310205055,1.61144871369414,23.148991382318
67,46.9366809310391,0.98761826307649,0.987593614628733,4.83782962157275,40068.1727625865,0,4,-4524.05389217244,9058.10778434488,9084.71041915624,35270.7253391817,1507,333.310205055,1.61144871369414,23.148991382318
68,46.0661550479673,0.993376698608358,0.993362383115437,3.26380269093854,69391.7215468188,0,4,-3619.74659453174,7249.49318906347,7275.68567326794,14785.5423114642,1388,333.310205055,1.61144871369414,23.148991382318
69,52.9998949885756,0.94645942502302,0.946333050731178,9.30459994689495,7489.33514268677,0,4,-4651.04232817675,9312.08465635351,9337.83816364147,110037.562398304,1271,333.310205055,1.61144871369414,23.148991382318
71,61.8415832141434,1,1,1.26893556419674e-10,9.38289740234355e+23,0,2,6155.19887638622,-12304.3977527724,-12293.408871332,4.60516475299821e-18,286,333.310205055,1.61144871369414,23.148991382318
72,57.3729814213492,0.982233582697752,0.982180389831577,4.04639119397174,18465.513391917,0,4,-2831.66055088221,5673.32110176441,5697.88978851771,16406.0282580414,1002,333.310205055,1.61144871369414,23.148991382318
73,56.0942695027485,0.985167566718683,0.985121787603617,4.6052331887795,21520.0220734458,0,4,-2873.42056605319,5756.84113210638,5781.25844503845,20614.3438867912,972,333.310205055,1.61144871369414,23.148991382318
74,56.449356387299,0.924288611572675,0.923906230823042,10.6945610710307,2417.19441279376,0,4,-2263.62023398156,4537.24046796312,4559.20842173287,67937.9400821908,594,333.310205055,1.61144871369414,23.148991382318
75,41.7778208407441,0.988684665682047,0.988659351735028,3.91537929223929,39056.9145499046,0,4,-3742.27626508018,7494.55253016036,7520.57327662054,20557.791497811,1341,333.310205055,1.61144871369414,23.148991382318
76,49.857195826843,0.950579576575401,0.950478374343133,11.3092518945295,9392.8716320266,0,4,-5645.65543564614,11301.3108712923,11327.7725571731,187372.296376392,1465,333.310205055,1.61144871369414,23.148991382318
77,50.9247490030841,0.990136042950081,0.990116523246157,5.14258269668726,50724.9519138525,0,4,-4643.86817790083,9297.73635580167,9324.36868387087,40092.3736970771,1516,333.310205055,1.61144871369414,23.148991382318
78,48.1743209187322,0.991317202543784,0.991299940521009,4.49917388883986,57427.6384303504,0,4,-4420.24267120963,8850.48534241926,8877.0945909882,30546.0316141658,1509,333.310205055,1.61144871369414,23.148991382318
79,47.1613620694471,0.991216937364187,0.991199487570871,4.17815581454794,56803.9356915937,0,4,-4311.09340672809,8632.18681345617,8658.79936562616,26360.0488760675,1510,333.310205055,1.61144871369414,23.148991382318
80,44.6236550923632,0.993912953921605,0.993900121076745,3.24631996949685,77450.7106410978,0,4,-3703.14642636038,7416.29285272076,7442.60950080815,14996.4183290157,1423,333.310205055,1.61144871369414,23.148991382318
81,44.4507791898448,0.985543817198744,0.985509882497332,4.51049097401417,29042.3600682597,0,4,-3748.28857904944,7506.57715809887,7532.35804128627,26000.3078404757,1278,333.310205055,1.61144871369414,23.148991382318
82,55.0627662890469,0.989414985611853,0.989386683434345,4.01278639341632,34958.9703943343,0,4,-3160.2823072835,6330.56461456701,6355.69674861051,18066.954105168,1122,333.310205055,1.61144871369414,23.148991382318
83,52.0672699344363,0.989328011391746,0.989297807650402,3.73630688183825,32755.1477851774,0,4,-2910.2027394594,5830.4054789188,5855.25443226831,14797.5884621882,1060,333.310205055,1.61144871369414,23.148991382318
84,55.0835849773868,0.986636611215635,0.986593871166218,3.93196407632493,23084.5921957326,0,4,-2624.3648401152,5258.72968023041,5282.96970660329,14501.8003246642,938,333.310205055,1.61144871369414,23.148991382318
85,52.7835783021182,0.980735694542311,0.980682380043812,4.88507965661361,18395.2906273358,0,4,-3267.57136242356,6545.14272484712,6570.1032069842,25868.5795245828,1084,333.310205055,1.61144871369414,23.148991382318
86,50.9740231753733,0.983180026390421,0.983137154749955,5.20453131713734,22933.109526452,0,4,-3621.85753360443,7253.71506720887,7279.08565128985,31881.5711139615,1177,333.310205055,1.61144871369414,23.148991382318
87,52.5431265390068,0.982698785370792,0.982633084555744,5.66990322621321,14957.1779993662,0,4,-2502.35874822339,5014.71749644679,5038.10291375302,25396.7640497521,790,333.310205055,1.61144871369414,23.148991382318
100,51.9769658101876,0.971231265157152,0.970892809453119,7.45909029909515,2869.59638612266,4.09819736043592e-196,4,-885.932742114289,1781.86548422858,1799.64962453708,14187.6971629641,255,333.310205055,1.61144871369414,23.148991382318
101,49.5216084346802,0.983245111510134,0.983211646353363,5.85899816184204,29381.1595818027,0,4,-4797.49458225764,9604.98916451528,9631.57522655708,51560.4449096236,1502,333.310205055,1.61144871369414,23.148991382318
102,48.7292788626745,0.984239738843665,0.984209017087025,5.62369640514892,32037.2220370114,0,4,-4852.16385080266,9714.32770160533,9741.03512086714,48672.3543749615,1539,333.310205055,1.61144871369414,23.148991382318
103,47.8212725804068,0.984123720162777,0.984086481038843,5.32549239297818,26427.1447928059,0,4,-3964.31915406137,7938.63830812275,7964.42308994583,36273.551742188,1279,333.310205055,1.61144871369414,23.148991382318
109,48.1908257757402,0.982421787512335,0.982275302408271,4.31984819155703,6706.63268999668,1.87332303274464e-315,4,-1047.09473083003,2104.18946166005,2123.67523099824,6717.99182331547,360,333.310205055,1.61144871369414,23.148991382318
110,50.0291544058463,0.98287057867516,0.982822190479327,4.85096812536617,20312.1972571509,0,4,-3193.98878084602,6397.97756169205,6422.83590471568,24990.8690420244,1062,333.310205055,1.61144871369414,23.148991382318
111,47.0201452390738,0.988080894311086,0.988053002488101,4.3342610443576,35425.4684193013,0,4,-3708.73659390519,7427.47318781038,7453.26964733437,24083.4197024152,1282,333.310205055,1.61144871369414,23.148991382318
112,49.4868073586734,0.981534526328827,0.981494354885017,6.05914678907402,24433.6382575527,0,4,-4451.9590154344,8913.9180308688,8940.07808252712,50627.585280122,1379,333.310205055,1.61144871369414,23.148991382318
113,49.4912842097576,0.982639207892405,0.982601521657729,5.79931911584494,26074.2209013462,0,4,-4400.87427179617,8811.74854359234,8837.91942949109,46479.5652506331,1382,333.310205055,1.61144871369414,23.148991382318
114,47.7124463651466,0.984088459790914,0.984056910140797,5.50113513257963,31191.7392470793,0,4,-4736.94302726948,9483.88605453895,9510.50850443569,45787.1439610626,1513,333.310205055,1.61144871369414,23.148991382318
115,46.8109029877261,0.984424809382271,0.984393844788597,4.92523673881334,31791.9498561796,0,4,-4557.13670616014,9124.27341232028,9150.88266088922,36605.2570124352,1509,333.310205055,1.61144871369414,23.148991382318
116,43.523028731557,0.988562585382872,0.988538370673027,4.06251088244392,40824.8784181766,0,4,-4006.26837819641,8022.53675639283,8048.83233703331,23386.160447355,1417,333.310205055,1.61144871369414,23.148991382318
117,40.3822570307476,0.990613673364238,0.990592674870646,3.36727335768679,47175.4637545587,0,4,-3539.4383183188,7088.87663663761,7114.89738309779,15204.9685494843,1341,333.310205055,1.61144871369414,23.148991382318
118,41.4877141198682,0.968830428728492,0.968754651812921,6.27940779311259,12785.2977576222,0,4,-4029.18995247337,8068.37990494674,8093.98616721296,48657.8073945386,1234,333.310205055,1.61144871369414,23.148991382318
119,50.6883495398515,0.986256236569504,0.986219257833816,4.04165669356821,26670.9020261247,0,4,-3148.64522306518,6307.29044613035,6332.39139967191,18213.5125439611,1115,333.310205055,1.61144871369414,23.148991382318
120,50.5225083462242,0.982710171724669,0.98265926938431,4.00305845073126,19305.7954661934,0,4,-2868.53123049051,5747.06246098102,5771.71493481078,16328.9420222104,1019,333.310205055,1.61144871369414,23.148991382318
121,47.4767709219326,0.983087215964342,0.983040061362012,3.8482620156311,20848.1710668769,0,4,-2985.88125460173,5981.76250920347,6006.68609080406,15934.6137020613,1076,333.310205055,1.61144871369414,23.148991382318
122,48.7417380527097,0.986425235017787,0.986388347069466,3.88866668429003,26741.1249448663,0,4,-3074.91778533871,6159.83557067741,6184.88713001395,16694.388353984,1104,333.310205055,1.61144871369414,23.148991382318
123,48.1266526105492,0.981027241711639,0.980980356806479,5.40546246966204,20924.1596703516,0,4,-3781.52923523912,7573.05847047824,7598.58329771959,35471.8957562628,1214,333.310205055,1.61144871369414,23.148991382318
124,47.1006722494555,0.981199066160383,0.981157684794632,5.6754266735609,23711.1329785566,0,4,-4310.99727689287,8631.99455378575,8658.09642296937,43902.8677844554,1363,333.310205055,1.61144871369414,23.148991382318
125,45.6902773895596,0.977162062624216,0.977116111039959,6.31398363149343,21265.035328418,0,4,-4874.24678936158,9758.49357872317,9785.04298615229,59440.7864444615,1491,333.310205055,1.61144871369414,23.148991382318
126,46.1886363778405,0.980402341546939,0.980362830138768,5.68282335441263,24813.1460486461,0,4,-4707.32628835618,9424.65257671236,9451.19194061618,48054.1881408569,1488,333.310205055,1.61144871369414,23.148991382318
127,44.7627058437276,0.983550060378925,0.983516805784003,4.92957688399901,29576.36569341,0,4,-4483.11454593096,8976.22909186191,9002.75503293888,36062.280730802,1484,333.310205055,1.61144871369414,23.148991382318
128,44.80321577765,0.983786489387427,0.983753196757832,4.68350148613549,29549.6781529937,0,4,-4338.76962187497,8687.53924374993,8713.98729635719,32047.3069952953,1461,333.310205055,1.61144871369414,23.148991382318
129,42.700561357206,0.988531212442605,0.988506334378489,3.74683100412105,39735.0536537056,0,4,-3798.16760465672,7606.33520931345,7632.50970141502,19415.5809790713,1383,333.310205055,1.61144871369414,23.148991382318
130,40.3363574933468,0.991679728624164,0.991614895340716,3.06049300851688,15295.8430590432,0,4,-985.082806168608,1980.16561233722,1999.98350905531,3606.14772024457,385,333.310205055,1.61144871369414,23.148991382318
