"Age","power_predict","r.squared","adj.r.squared","sigma","statistic","p.value","df","logLik","AIC","BIC","deviance","df.residual","GHI","Wind_speed","Ambient_temp"
1,128.009493719538,0.98763872448698,0.987604099065375,6.51227499700943,28523.5147675886,0,4,-3537.57071436877,7085.14142873754,7110.04180844035,45420.816156878,1071,487.5,1.60551145825177,18.2058489876414
2,143.15018402555,0.962413156966243,0.962288559696518,10.0207020366275,7724.19138147375,0,4,-3382.7404327659,6775.48086553181,6799.54259100269,90875.0947227187,905,487.5,1.60551145825177,18.2058489876414
3,159.445040898086,0.976058027625985,0.975971385988926,7.68969421687136,11265.4615119921,0,4,-2879.19186963045,5768.38373926089,5792.00890747173,49019.9282365084,829,487.5,1.60551145825177,18.2058489876414
4,162.977708089269,0.980992222822195,0.980911681393475,6.73821098758359,12179.9704626362,0,4,-2366.62825033214,4743.25650066428,4766.09689022134,32145.6690177401,708,487.5,1.60551145825177,18.2058489876414
5,154.441529604604,0.64916832203774,0.648070829823051,35.189046122798,591.501528073873,1.49446708281099e-217,4,-4793.42129748713,9596.84259497425,9621.19286203324,1187499.93938408,959,487.5,1.60551145825177,18.2058489876414
7,123.992455895506,0.969639056212226,0.969561472880571,11.8384379172754,12498.0332182732,0,4,-4580.75847739242,9171.51695478483,9196.87482160589,164534.47086507,1174,487.5,1.60551145825177,18.2058489876414
8,113.278352531173,0.957568184708456,0.957476075123887,13.6921182661041,10395.9668169937,0,4,-5591.55893197033,11193.1178639407,11219.2887498394,259089.209811142,1382,487.5,1.60551145825177,18.2058489876414
9,112.28530802212,0.986278089078797,0.986250293175513,7.68283954415006,35482.8579953518,0,4,-5133.02000189736,10276.0400037947,10302.5558540509,87417.5407459719,1481,487.5,1.60551145825177,18.2058489876414
10,112.220246851483,0.985590825566563,0.985561910835258,7.79040578804475,34086.1139322173,0,4,-5202.27271924837,10414.5454384967,10441.1082059873,90732.1814018898,1495,487.5,1.60551145825177,18.2058489876414
11,114.90617328935,0.987064241147015,0.987036659571635,7.13208238704671,35787.0871248594,0,4,-4772.17461823342,9554.34923646684,9580.6095062261,71569.3050401,1407,487.5,1.60551145825177,18.2058489876414
12,122.046505393768,0.989942281820585,0.989918143296954,6.29960728559111,41010.8876984433,0,4,-4085.31679302248,8180.63358604496,8206.30405465092,49606.3149408407,1250,487.5,1.60551145825177,18.2058489876414
13,131.43892908036,0.98605206292572,0.986017105689945,7.10219562394856,28207.3808486608,0,4,-4056.58701924786,8123.17403849573,8148.62858760613,60378.0956689584,1197,487.5,1.60551145825177,18.2058489876414
14,146.333491108467,0.989303201764888,0.989269315392443,5.81701668551867,29194.7213698664,0,4,-3021.91527134477,6053.83054268953,6078.11811300226,32044.2859142637,947,487.5,1.60551145825177,18.2058489876414
15,160.867097565111,0.887434374141834,0.886946372873663,16.0530145476864,1818.50833598742,0,4,-2917.59952120989,5845.19904241978,5867.92579072145,178327.899039216,692,487.5,1.60551145825177,18.2058489876414
16,163.743048285424,0.976585353752302,0.976496773753887,7.24742418585357,11024.8969431789,0,4,-2707.46393374716,5424.92786749432,5448.33214088827,41652.4497624483,793,487.5,1.60551145825177,18.2058489876414
17,159.325008902833,0.965694490564243,0.965578331954415,10.3918299325105,8313.58512293948,0,4,-3344.35851012051,6698.71702024103,6722.67312755466,95679.2546007518,886,487.5,1.60551145825177,18.2058489876414
18,137.53330285842,0.917892109483185,0.917638950519619,18.9465249792291,3625.75393954471,0,4,-4258.26210553861,8526.52421107723,8550.94664433744,349278.596951262,973,487.5,1.60551145825177,18.2058489876414
19,126.517769122622,0.972097422025711,0.972026960970221,11.6513805756967,13796.2370171279,0,4,-4616.23758374115,9242.4751674823,9267.89210672042,161276.547151831,1188,487.5,1.60551145825177,18.2058489876414
20,117.481409077133,0.983450657037801,0.983413606269975,8.72518203122571,26543.3272978618,0,4,-4816.44112344756,9642.88224689511,9668.89927450053,102012.593980552,1340,487.5,1.60551145825177,18.2058489876414
21,113.881816119105,0.980282188011384,0.980239995831666,9.44390882091846,23233.7412891023,0,4,-5150.01489736827,10310.0297947365,10336.2723150984,125040.754172586,1402,487.5,1.60551145825177,18.2058489876414
22,112.2827926739,0.98045796440963,0.980417864473398,8.6862645247097,24450.3621835803,0,4,-5247.27637629865,10504.5527525973,10531.0042170095,110309.641816903,1462,487.5,1.60551145825177,18.2058489876414
23,114.519802096425,0.985173342386335,0.985141996387152,7.52102541910857,31428.9978962795,0,4,-4888.33735634887,9786.67471269774,9812.97732568819,80266.9033405708,1419,487.5,1.60551145825177,18.2058489876414
24,120.009461465978,0.980478490082341,0.980434290437245,8.84706122456476,22182.9493865796,0,4,-4781.09971013015,9572.19942026029,9598.16033055386,103708.402312336,1325,487.5,1.60551145825177,18.2058489876414
25,132.253480675579,0.98511153655239,0.985073588047426,7.06865269328012,25959.1659139794,0,4,-3983.40915911425,7976.8183182285,8002.18890230949,58809.8065072006,1177,487.5,1.60551145825177,18.2058489876414
26,144.785609108364,0.984445051315874,0.984397531106044,7.33627579248515,20716.344789975,0,4,-3362.00101598144,6734.00203196288,6758.47031373589,52852.1655383424,982,487.5,1.60551145825177,18.2058489876414
27,163.230112786604,0.978078877171395,0.978002050806342,7.00552528374399,12731.0315474384,0,4,-2892.4437539178,5794.88750783559,5818.67216978183,42010.2411330069,856,487.5,1.60551145825177,18.2058489876414
28,178.345074747216,0.875636638152348,0.875052772603767,17.2739600827351,1499.72307885122,1.07323980086732e-288,4,-2742.4069394174,5494.81387883481,5517.14460245599,190671.016344613,639,487.5,1.60551145825177,18.2058489876414
30,149.285630968639,0.802421520233681,0.801862335856984,26.3481366030365,1434.98558556527,0,4,-4988.51382935847,9987.02765871693,10011.8766120664,735877.76059941,1060,487.5,1.60551145825177,18.2058489876414
31,131.293094688768,0.985542608409041,0.985493153249665,8.59196953134825,19928.0038896101,0,4,-3142.95975426355,6295.91950852711,6319.82479665679,64741.8417550198,877,487.5,1.60551145825177,18.2058489876414
32,122.847007463782,0.984935885100615,0.984900661137483,8.60251058442527,27962.0973203387,0,4,-4593.86439042011,9197.72878084021,9223.52912687819,94946.090659656,1283,487.5,1.60551145825177,18.2058489876414
33,118.409662562682,0.985398221814188,0.985367263980578,7.66933894867422,31830.335230949,0,4,-4902.30092757012,9814.60185514024,9840.89039352605,83228.5452721567,1415,487.5,1.60551145825177,18.2058489876414
34,117.254438916248,0.988318954931485,0.988293671284151,6.81893144964464,39089.2556702043,0,4,-4638.70854301662,9287.41708603323,9313.60238116386,64445.9869953246,1386,487.5,1.60551145825177,18.2058489876414
35,113.362535851788,0.983480576822872,0.983445896438316,7.59164645566019,28358.41036358,0,4,-4936.09661087033,9882.19322174067,9908.53084887981,82357.6940521574,1429,487.5,1.60551145825177,18.2058489876414
36,126.110101967594,0.989795580907642,0.989768513482994,6.07132277594889,36567.7781973531,0,4,-3655.55103195559,7321.10206391118,7346.27400356076,41689.7460424737,1131,487.5,1.60551145825177,18.2058489876414
37,126.770467736357,0.955875414637826,0.955754525362861,11.3897924487071,7907.0324056098,0,4,-4230.96639246916,8471.93278493832,8496.94356471034,142051.472366963,1095,487.5,1.60551145825177,18.2058489876414
38,143.994288212053,0.987557355162567,0.987518350006337,6.43950981109413,25318.6360627368,0,4,-3151.4125330059,6312.82506601179,6337.16493805664,39684.1932830689,957,487.5,1.60551145825177,18.2058489876414
39,155.659203911224,0.974919940537043,0.974717136821709,8.11088574793447,4807.20946818939,1.80911445272235e-296,4,-1315.04386141805,2640.0877228361,2659.72235296595,24406.7794855533,371,487.5,1.60551145825177,18.2058489876414
40,163.565502662876,0.842217967932335,0.841300630536593,19.4701231682695,918.111451513296,2.09223849878946e-206,4,-2279.65850089937,4569.31700179875,4590.58614585662,195608.219232793,516,487.5,1.60551145825177,18.2058489876414
41,166.614603862547,0.938594187977891,0.938373303761984,12.2634720520225,4249.25875361611,0,4,-3287.6175294474,6585.2350588948,6608.89014939721,125427.550806795,834,487.5,1.60551145825177,18.2058489876414
43,133.01359249892,0.990290770809447,0.990262843975725,6.83955010452082,35460.1878852619,0,4,-3496.71470124393,7003.42940248787,7028.19782354222,48790.9617944375,1043,487.5,1.60551145825177,18.2058489876414
44,122.778716779539,0.976431841862252,0.976379738343893,10.50102323697,18740.2285414466,0,4,-5129.5267484438,10269.0534968876,10295.1333719009,149638.410604732,1357,487.5,1.60551145825177,18.2058489876414
45,117.966835044805,0.981364710221937,0.981324720329709,9.00985940430541,24540.318954512,0,4,-5069.39285791182,10148.7857158236,10175.0139911616,113486.23794652,1398,487.5,1.60551145825177,18.2058489876414
46,113.47859265921,0.983314377858386,0.983281095367412,8.24991320820926,29544.4946902447,0,4,-5319.94229240471,10649.8845848094,10676.4772825523,102363.84618625,1504,487.5,1.60551145825177,18.2058489876414
47,105.058018696968,0.972307124395225,0.97225079990247,10.5162190294257,17262.5988593696,0,4,-5576.5741900481,11163.1483800962,11189.6439874098,163121.522445412,1475,487.5,1.60551145825177,18.2058489876414
48,101.991734356297,0.939736461158955,0.939555670542432,14.5904436790354,5197.92718909562,0,4,-4113.69853162367,8237.39706324734,8261.9557997486,212881.046751103,1000,487.5,1.60551145825177,18.2058489876414
49,119.125401090465,0.981560414140397,0.981516335449099,8.61294403623803,22268.3656260947,0,4,-4495.40256540634,9000.80513081268,9026.4954959829,93099.4202390672,1255,487.5,1.60551145825177,18.2058489876414
50,132.332959399386,0.977370325007681,0.977304604751169,8.51630959539591,14871.6754449727,0,4,-3690.6718673651,7391.34373473021,7416.06417077136,74920.9375857453,1033,487.5,1.60551145825177,18.2058489876414
51,147.879566980509,0.984445789265554,0.984396358511102,6.78803029840346,19915.653729457,0,4,-3158.72194688242,6327.44389376484,6351.71566627611,43497.023433449,944,487.5,1.60551145825177,18.2058489876414
52,159.522126617673,0.865953641771586,0.86547433417363,15.9279223023405,1806.67622517167,0,4,-3527.6465430396,7065.29308607919,7088.9779208692,212853.216741424,839,487.5,1.60551145825177,18.2058489876414
54,124.963889788398,0.770934184144685,0.769953873948442,30.1178796884702,786.418612292012,8.61062295853627e-224,4,-3398.95486911187,6807.90973822375,6830.70072723781,635867.760527345,701,487.5,1.60551145825177,18.2058489876414
55,127.204834686629,0.98335326975215,0.983307703884683,9.08960926334068,21580.9184466828,0,4,-3986.67385544984,7983.34771089968,8008.36303819361,90552.6122299886,1096,487.5,1.60551145825177,18.2058489876414
56,118.501964194677,0.991543079182096,0.991522452545955,6.16943481160325,48071.0025809874,0,4,-3994.36222459456,7998.72444918913,8024.31453021146,46816.1688503851,1230,487.5,1.60551145825177,18.2058489876414
57,111.163515996773,0.983864618578555,0.983829182162549,8.36184569022459,27764.2247570739,0,4,-4851.38334041507,9712.76668083014,9738.87951092425,95511.3529321762,1366,487.5,1.60551145825177,18.2058489876414
58,110.270879174562,0.983131069550215,0.983097196195898,8.01310517060101,29023.7293996455,0,4,-5241.02261261548,10492.045225231,10518.6046560513,95929.5225858183,1494,487.5,1.60551145825177,18.2058489876414
59,106.394373353603,0.985272384161273,0.985242449982739,7.5483943917915,32914.6291100737,0,4,-5089.60193997347,10189.2038799469,10215.7028667807,84099.9086515872,1476,487.5,1.60551145825177,18.2058489876414
60,116.173917778972,0.98771697087391,0.98768920215697,7.14179188011554,35569.4133451607,0,4,-4503.30187237115,9016.6037447423,9042.57217383428,67683.8888005395,1327,487.5,1.60551145825177,18.2058489876414
61,120.787816040916,0.985111231665061,0.985071136238665,7.350451138573,24569.1671150434,0,4,-3814.51326399445,7639.02652798889,7664.12301125747,60188.4529817717,1114,487.5,1.60551145825177,18.2058489876414
62,132.42798275739,0.988398746548206,0.988366962292174,6.1300899327637,31097.1175648538,0,4,-3550.12695288396,7110.25390576793,7135.26468553995,41147.9128292291,1095,487.5,1.60551145825177,18.2058489876414
63,137.554822198866,0.812966370841833,0.81225880351841,23.8160819007296,1148.95974408322,4.20059078201909e-288,4,-3655.66674218216,7321.33348436432,7344.73775775827,449794.165382091,793,487.5,1.60551145825177,18.2058489876414
64,158.440383460866,0.978917815054822,0.978841059527109,7.02719094501017,12753.7109602684,0,4,-2787.29993212871,5584.59986425741,5608.19493002934,40690.2839639696,824,487.5,1.60551145825177,18.2058489876414
65,160.741783542339,0.971040490419417,0.970933628760448,8.50134296933887,9086.89327667683,0,4,-2905.83099806131,5821.66199612262,5845.19019159692,58757.8126455322,813,487.5,1.60551145825177,18.2058489876414
66,167.859047807464,0.926097532689886,0.925858623851599,15.5622326505378,3876.36363447275,0,4,-3878.64380811741,7767.28761623481,7791.47428030824,224745.902944464,928,487.5,1.60551145825177,18.2058489876414
67,137.695550002081,0.976223209461093,0.976007709848958,10.3043712860812,4530.04624829226,2.57633501232514e-268,4,-1254.74272005894,2519.48544011789,2538.55609277701,35145.6023760685,331,487.5,1.60551145825177,18.2058489876414
