"Age","power_predict","r.squared","adj.r.squared","sigma","statistic","p.value","df","logLik","AIC","BIC","deviance","df.residual","GHI","Wind_speed","Ambient_temp"
1,27.2567820841715,0.880221189302165,0.87975391175718,5.98054813917502,1883.72242310579,0,4,-2477.35424416965,4964.70848833929,4987.95988358223,27504.7891985971,769,425.4,1.52580671006797,16.4625778204076
2,22.0261877122531,0.828989425770023,0.828612473732779,5.89299932889026,2199.1907294881,0,4,-4356.03751222747,8722.07502445494,8748.16957299303,47264.0473238997,1361,425.4,1.52580671006797,16.4625778204076
3,23.5991877208439,0.86121946285494,0.860928721506173,5.73570118734288,2962.14991952656,0,4,-4543.8685140166,9097.7370280332,9124.08511178124,47110.3199342167,1432,425.4,1.52580671006797,16.4625778204076
4,26.2393784012953,0.89587938100593,0.895669601384048,4.76106670967331,4270.57391451543,0,4,-4446.25685662928,8902.51371325856,8929.05642724626,33752.2890025856,1489,425.4,1.52580671006797,16.4625778204076
5,28.055007849891,0.857926831394235,0.857634900225867,5.4352269698191,2938.79833451949,0,4,-4553.73075000328,9117.46150000657,9143.90613847917,43130.8706316354,1460,425.4,1.52580671006797,16.4625778204076
6,26.0312036144041,0.903238794167597,0.903000661585565,4.88874225347103,3793.00802292397,0,4,-3674.18012978129,7358.36025956258,7383.90557024102,29133.8572006442,1219,425.4,1.52580671006797,16.4625778204076
7,26.6923870376239,0.84525001837557,0.844838084085531,5.54338662984911,2051.90497323432,0,4,-3539.77289110662,7089.54578221324,7114.70006959382,34631.7355146445,1127,425.4,1.52580671006797,16.4625778204076
8,27.4939833754017,0.771969189306305,0.771285096874224,5.84943043905765,1128.45743221846,2.20303871480612e-320,4,-3196.01996550186,6402.03993100373,6426.59866750498,34215.8364613741,1000,425.4,1.52580671006797,16.4625778204076
9,27.461217234621,0.697377333394486,0.696278219593255,5.52542379744084,634.490561954212,7.85390902583518e-214,4,-2594.48290614442,5198.96581228883,5222.57294079278,25218.0345247349,826,425.4,1.52580671006797,16.4625778204076
10,26.646341468866,0.667381607772502,0.666099017571111,5.36827601094953,520.338925908301,1.98338785870689e-185,4,-2421.76113062296,4853.52226124593,4876.83153494866,22420.7053425347,778,425.4,1.52580671006797,16.4625778204076
11,28.753005290398,0.727840121601791,0.726925810700117,6.57682985263755,796.053202766614,9.07593215105413e-252,4,-2960.3302926777,5930.6605853554,5954.6558646657,38626.4389831162,893,425.4,1.52580671006797,16.4625778204076
12,27.5038894628874,0.822346394677935,0.821852455089459,6.42341247921599,1664.87241327282,0,4,-3549.03205397096,7108.06410794193,7133.00155917693,44519.7858805214,1079,425.4,1.52580671006797,16.4625778204076
13,26.106743527762,0.888058523060622,0.887770755767718,5.54220874105967,3086.0300838952,0,4,-3664.78593171088,7339.57186342176,7364.89993023974,35845.6627103011,1167,425.4,1.52580671006797,16.4625778204076
14,26.9957746666306,0.877389113243863,0.877111294014053,5.83188682268486,3158.12952848504,0,4,-4224.06365519077,8458.12731038154,8484.08445703172,45030.4367802895,1324,425.4,1.52580671006797,16.4625778204076
15,27.4536238582757,0.86367136439735,0.863397612117024,5.78933806551439,3154.93760770478,0,4,-4754.08215378421,9518.16430756842,9544.72373838881,50073.5542438,1494,425.4,1.52580671006797,16.4625778204076
16,26.9091044768427,0.863515301180514,0.863245034450178,5.88833431521157,3195.04846234015,0,4,-4846.51122235257,9703.02244470514,9729.65148221812,52528.8087266626,1515,425.4,1.52580671006797,16.4625778204076
17,27.3993319942453,0.875612648831451,0.875328875406732,5.42078917189815,3085.60482609718,0,4,-4099.00530439407,8208.01060878814,8233.93375455172,38641.2161487113,1315,425.4,1.52580671006797,16.4625778204076
18,26.8712550927285,0.890979968206218,0.890728769976279,5.31396571460973,3546.91977097327,0,4,-4032.5925997259,8075.18519945179,8101.05882100098,36766.1775640941,1302,425.4,1.52580671006797,16.4625778204076
19,26.544893760088,0.868607921994114,0.8682925810069,5.50696825545567,2754.50371887211,0,4,-3916.68758836113,7843.37517672226,7869.04564532823,37908.3742082455,1250,425.4,1.52580671006797,16.4625778204076
20,26.5536359261169,0.854394140971079,0.853761072018779,5.05952507607971,1349.60676537279,3.84127865355551e-288,4,-2107.90075467838,4225.80150935675,4248.51386915929,17663.1678568808,690,425.4,1.52580671006797,16.4625778204076
21,28.1626456671675,0.798711685237666,0.797652273054706,4.50613171820624,753.919671762056,6.6088393948512e-198,4,-1676.58574495906,3363.17148991812,3384.93463689972,11573.9771452399,570,425.4,1.52580671006797,16.4625778204076
22,31.8351529563967,0.696272967351706,0.694066717719878,5.87374026252282,315.59119933988,1.84238285602536e-106,4,-1327.98271712066,2665.96543424133,2686.13086535032,14248.8405893632,413,425.4,1.52580671006797,16.4625778204076
23,28.6560784682872,0.778920545783931,0.778010753791272,5.33843739167362,856.152342589496,2.33104796162782e-238,4,-2265.80234725259,4541.60469450518,4564.59042301461,20775.7081491331,729,425.4,1.52580671006797,16.4625778204076
24,27.3897532856865,0.865211913236474,0.864777112956592,5.50581702582414,1989.90652322166,0,4,-2916.50632797051,5843.01265594101,5867.21003813216,28192.0396433252,930,425.4,1.52580671006797,16.4625778204076
25,19.5997107550102,0.812697436105032,0.812196180358658,6.37938724164871,1621.32293142663,0,4,-3679.0083411041,7368.0166822082,7393.14437378139,45620.8679499586,1121,425.4,1.52580671006797,16.4625778204076
26,19.4039136236005,0.832754550603762,0.83236470107137,5.49754414984132,2136.0922135622,0,4,-4030.0997449117,8070.19948982341,8096.01535177764,38896.990291458,1287,425.4,1.52580671006797,16.4625778204076
27,23.3215997732911,0.860882266413982,0.860582873873983,5.98807273572288,2875.42991691775,0,4,-4483.77112225059,8977.54224450119,9003.75623411516,49984.6790331009,1394,425.4,1.52580671006797,16.4625778204076
28,25.0938878770021,0.894111455233174,0.893903558875648,4.97453081672797,4300.7557509479,0,4,-4629.64639815661,9269.29279631322,9295.96444306472,37811.8220615686,1528,425.4,1.52580671006797,16.4625778204076
29,23.4000184841649,0.887986876722126,0.887756397044599,5.07853188866552,3852.77733053086,0,4,-4448.26788244062,8906.53576488125,8932.97356808279,37603.9867982328,1458,425.4,1.52580671006797,16.4625778204076
30,25.8211796630453,0.842971941808662,0.842635693290051,5.92221083800178,2506.9907974342,0,4,-4490.69310008327,8991.38620016654,9017.62516307538,49136.6862748538,1401,425.4,1.52580671006797,16.4625778204076
31,26.9560072906405,0.864369990010355,0.864035651448343,5.45543926531301,2585.31347627986,0,4,-3802.08531140264,7614.17062280528,7639.70775017583,36220.1319918406,1217,425.4,1.52580671006797,16.4625778204076
32,27.1230012961737,0.805837757124399,0.80530139733745,5.54975247719459,1502.42016037038,0,4,-3412.63045005114,6835.26090010229,6860.2305649784,33448.5312781265,1086,425.4,1.52580671006797,16.4625778204076
33,27.620207197352,0.810301823956954,0.809647692315426,4.78856860379482,1238.74427181732,1.92303079639648e-313,4,-2607.03405038961,5224.06810077922,5247.9335026575,19949.438667727,870,425.4,1.52580671006797,16.4625778204076
34,28.5750618088244,0.802433242836466,0.801581661986624,4.18412384024056,942.286622561531,1.52931537484344e-244,4,-1993.15936449184,3996.31872898368,4019.0741306589,12184.7970480867,696,425.4,1.52580671006797,16.4625778204076
35,29.5407543317881,0.699538297390439,0.698390036106581,6.08211021210952,609.21526069395,2.01680160630362e-204,4,-2541.95991507607,5093.91983015213,5117.27366175636,29038.7707363138,785,425.4,1.52580671006797,16.4625778204076
36,28.8360281798177,0.773782844982512,0.773131547991099,6.54030485422522,1188.06451616434,0,4,-3446.57690383798,6903.15380767597,6927.91745089909,44572.1622648224,1042,425.4,1.52580671006797,16.4625778204076
37,25.2497933790173,0.903602751947179,0.903351499345825,4.77471138902081,3596.39162769913,0,4,-3442.52076179987,6895.04152359974,6920.30080171451,26240.3470445602,1151,425.4,1.52580671006797,16.4625778204076
38,25.6932589175569,0.897779561858875,0.89753462470678,5.42435332015618,3665.34661719835,0,4,-3903.95235917508,7817.90471835015,7843.5831550853,36838.3583952455,1252,425.4,1.52580671006797,16.4625778204076
39,23.0143984137394,0.886164953695582,0.885903664377362,5.33153908638899,3391.50853824873,0,4,-4052.36734158468,8114.73468316937,8140.62741058818,37151.8789018094,1307,425.4,1.52580671006797,16.4625778204076
40,23.5115466503389,0.943704053870648,0.943576687476691,3.57901876362644,7409.36462551698,0,4,-3581.05317264613,7172.10634529226,7198.07101639834,16985.2316615773,1326,425.4,1.52580671006797,16.4625778204076
41,25.0646734381383,0.886268169881511,0.886034953551808,5.4342661787939,3800.19774348662,0,4,-4562.80692893206,9135.61385786411,9162.06873175483,43204.2171436015,1463,425.4,1.52580671006797,16.4625778204076
42,24.7589782966894,0.890212656306605,0.889962381207,4.90390207011047,3556.93657783609,0,4,-3969.83704972987,7949.67409945974,7975.60103453764,31647.5042554156,1316,425.4,1.52580671006797,16.4625778204076
43,24.6623269285631,0.911107239323554,0.910881623179705,4.47356563709512,4038.30693930285,0,4,-3457.70604607233,6925.41209214467,6950.80380004246,23655.1172001087,1182,425.4,1.52580671006797,16.4625778204076
44,25.574520340837,0.892877031445196,0.892564111381258,4.0932090187024,2853.37098621413,0,4,-2913.94020867785,5837.88041735571,5862.57183977579,17206.7277926979,1027,425.4,1.52580671006797,16.4625778204076
45,27.6208228935417,0.83776429606341,0.837221096161837,4.13580075248682,1542.27622950002,0,4,-2552.75308810096,5115.50617620191,5139.51815001853,15325.9436863864,896,425.4,1.52580671006797,16.4625778204076
46,28.2787625701936,0.690033075084853,0.688766180296371,5.49619416828902,544.664861958988,3.69544248640748e-186,4,-2302.76443967278,4615.52887934555,4638.54859846855,22172.7823462821,734,425.4,1.52580671006797,16.4625778204076
47,27.9756401870009,0.707770482192204,0.706740295877958,5.5713225956043,687.031532456527,9.07904652030338e-227,4,-2679.76351951549,5369.52703903099,5393.28254637567,26414.7297801116,851,425.4,1.52580671006797,16.4625778204076
48,29.5139783084192,0.714745249427865,0.713794400259291,6.53116785228924,751.691512229999,1.45040483820411e-244,4,-2977.14953352959,5964.29906705917,5988.33321386113,38390.5381632988,900,425.4,1.52580671006797,16.4625778204076
49,23.2717645072082,0.822471627192142,0.8217586618395,5.750218901399,1153.59270144664,7.91105817664975e-280,4,-2377.2951740604,4764.5903481208,4787.69737637962,24699.5680082627,747,425.4,1.52580671006797,16.4625778204076
50,19.2069943816491,0.995724174506822,0.995673473018761,0.687726294639061,19638.9536595267,2.67847567720539e-299,4,-266.439838051044,542.879676102088,560.625056526564,119.660766453507,253,425.4,1.52580671006797,16.4625778204076
56,20.8395373204026,0.806396740009303,0.80434440863131,3.97161808355323,392.917415119282,1.51622457313515e-100,4,-801.044111032984,1612.08822206597,1630.38563314477,4463.9713070548,283,425.4,1.52580671006797,16.4625778204076
57,21.8850165829511,0.764149834196526,0.76338820825744,4.21905585089254,1003.31382504391,8.27065291110564e-291,4,-2665.02276108451,5340.04552216902,5364.23754817325,16536.601581571,929,425.4,1.52580671006797,16.4625778204076
58,22.0208068076367,0.781412172389684,0.780620187507038,3.16357373564236,986.65036355105,8.18630448025616e-273,4,-2136.76836469642,4283.53672939283,4307.15589159694,8286.78859054063,828,425.4,1.52580671006797,16.4625778204076
59,24.0225415593559,0.660354319661628,0.659064525938824,4.32912467428208,511.984442152542,1.03906706712125e-184,4,-2288.13224265692,4586.26448531384,4609.64990262008,14805.6431519276,790,425.4,1.52580671006797,16.4625778204076
60,22.441941479857,0.730421980563085,0.729504007738669,4.75899802127455,795.690200336316,3.33640265967019e-250,4,-2634.38894296921,5278.77788593843,5302.70582416347,19952.9427686822,881,425.4,1.52580671006797,16.4625778204076
61,22.7158647892909,0.8455850129228,0.845122230743748,4.68097295490131,1827.17712824199,0,4,-2975.25274977066,5960.50549954131,5985.06921364378,21933.419312322,1001,425.4,1.52580671006797,16.4625778204076
62,21.3053004094531,0.868840281649472,0.86849083302154,5.05715623605271,2486.31762210899,0,4,-3432.90587211218,6875.81174422436,6900.96160878289,28797.2576745236,1126,425.4,1.52580671006797,16.4625778204076
63,20.6130844854896,0.927800866499298,0.927587048729799,3.27977791276088,4339.2131003652,0,4,-2649.0244424483,5308.04888489661,5332.67194687685,10896.7834180755,1013,425.4,1.52580671006797,16.4625778204076
71,18.119439382355,0.853606388199169,0.852738441884144,1.5952300661593,983.478325125312,1.25178971867025e-210,4,-959.829931194442,1929.65986238888,1950.83191601748,1287.64803577317,506,425.4,1.52580671006797,16.4625778204076
72,25.8644468282776,0.778687773538017,0.777915754143382,4.38059001037153,1008.63757950841,4.65283537581078e-281,4,-2500.24472436131,5010.48944872262,5034.29731256664,16503.0292015115,860,425.4,1.52580671006797,16.4625778204076
73,26.2610178623736,0.84673438184472,0.84602041157381,4.63011032561007,1185.95187551138,9.64029084443503e-262,4,-1910.57826231966,3831.15652463932,3853.52597812108,13806.0215279947,644,425.4,1.52580671006797,16.4625778204076
74,19.1849279246,0.744438935954584,0.743784769408392,6.22178103361047,1137.99603524336,0,4,-3816.46240370876,7642.92480741752,7668.27417805981,45368.7754177885,1172,425.4,1.52580671006797,16.4625778204076
75,21.2355760825344,0.874172733616819,0.873891869182928,4.75549562584479,3112.43656416811,0,4,-4012.66381389704,8035.32762779407,8061.35951425143,30394.2087421444,1344,425.4,1.52580671006797,16.4625778204076
76,21.8639171157243,0.873535542002579,0.87326836357019,4.74439951383323,3269.48374609453,0,4,-4235.68363574991,8481.36727149983,8507.67339695969,31963.2439805427,1420,425.4,1.52580671006797,16.4625778204076
77,24.1706366271484,0.755367310068299,0.754879345926148,5.71759982503681,1547.99757772888,0,4,-4767.02870318764,9544.05740637528,9570.65010411812,49167.1854299284,1504,425.4,1.52580671006797,16.4625778204076
78,20.685481545831,0.827738757950395,0.827366166943799,4.72643297305195,2221.57471140373,0,4,-4132.20118698882,8274.40237397765,8300.59126493726,30984.42691582,1387,425.4,1.52580671006797,16.4625778204076
79,21.5929311117994,0.793656044832758,0.793181690912833,4.57951577338978,1673.13057085889,0,4,-3847.15306341686,7704.30612683372,7730.19122066327,27368.4139579372,1305,425.4,1.52580671006797,16.4625778204076
80,19.1854687445754,0.793051178341705,0.792486258901328,4.59965801985292,1403.83056708359,0,4,-3246.24366567503,6502.48733135005,6527.51627644632,23251.3824356574,1099,425.4,1.52580671006797,16.4625778204076
81,16.5238251880913,0.788934733665881,0.788221675333671,3.38683254574382,1106.40980972885,2.32386036816338e-299,4,-2351.83513189648,4713.67026379296,4737.63759445586,10185.9236073037,888,425.4,1.52580671006797,16.4625778204076
82,15.4630502657604,0.686419134972092,0.685270487114847,3.03909020454234,597.588835118188,1.07809696589412e-205,4,-2080.59393190179,4171.18786380358,4194.75264480697,7564.34073323174,819,425.4,1.52580671006797,16.4625778204076
83,26.139445498178,0.724521835303572,0.7233361330165,4.17600617780123,611.048695109323,1.33250136749727e-194,4,-1994.6482701288,3999.29654025759,4022.05907969276,12155.0022351327,697,425.4,1.52580671006797,16.4625778204076
84,20.9174916027566,0.799834403621943,0.799093049561283,3.56170019554132,1078.88314918037,2.34930447431587e-282,4,-2186.98477915983,4383.96955831965,4407.47936014967,10275.4237091644,810,425.4,1.52580671006797,16.4625778204076
85,16.5780347065943,0.790456285473619,0.78975311864635,3.93691271489531,1124.13762256507,8.64576762499148e-303,4,-2502.81869864992,5015.63739729983,5039.63824764134,13856.3578618857,894,425.4,1.52580671006797,16.4625778204076
86,15.5814551439154,0.768430085399837,0.767854518089315,5.35803755235379,1335.0829196718,0,4,-3749.11316464027,7508.22632928055,7533.72233799831,34651.2396598071,1207,425.4,1.52580671006797,16.4625778204076
87,21.6461107302009,0.842372116660779,0.842028451217452,5.67141045151443,2451.14000554245,0,4,-4351.03649594465,8712.0729918893,8738.22218578006,44258.8975971369,1376,425.4,1.52580671006797,16.4625778204076
88,21.2556669290265,0.857843097063018,0.85751654981278,5.12094087845704,2627.01062843907,0,4,-3996.47944444798,8002.95888889596,8028.84780097693,34248.590337732,1306,425.4,1.52580671006797,16.4625778204076
89,21.0044708721483,0.86722249461037,0.866932798234975,4.60939396638985,2993.55659326511,0,4,-4061.95824967263,8133.91649934525,8160.06206873422,29213.9550139128,1375,425.4,1.52580671006797,16.4625778204076
90,19.9295222212678,0.854388570882262,0.854074527541246,4.59409293487599,2720.60718790663,0,4,-4104.47239143125,8218.94478286249,8245.14803133377,29358.01464294,1391,425.4,1.52580671006797,16.4625778204076
91,22.6348021563352,0.862370420997449,0.862050103901245,4.49723523290819,2692.23975621575,0,4,-3776.66184360539,7563.32368721078,7589.14728910464,26070.1857900028,1289,425.4,1.52580671006797,16.4625778204076
92,23.6292605838728,0.808963140220887,0.808510088379513,4.90407482350033,1785.58625381276,0,4,-3816.42417278162,7642.84834556324,7668.57826790182,30423.1865912296,1265,425.4,1.52580671006797,16.4625778204076
93,23.2173004215205,0.829058860135777,0.828559032241437,4.35353921051619,1658.68865968513,0,4,-2974.62159531026,5959.24319062053,5983.92976102664,19446.0895525969,1026,425.4,1.52580671006797,16.4625778204076
94,23.4371150677712,0.733022038850183,0.732128139426691,4.3621599806707,820.027420966535,2.35600663914745e-256,4,-2600.71083101466,5211.42166202933,5235.43363584595,17049.4819684806,896,425.4,1.52580671006797,16.4625778204076
95,23.6986484698191,0.647126527784784,0.645341333153004,4.63642761940603,362.496344244255,1.15863023414004e-133,4,-1760.8642376529,3531.7284753058,3553.68806087277,12747.4014145047,593,425.4,1.52580671006797,16.4625778204076
97,24.3561088167786,0.764347808268923,0.76358600161462,5.5340855421844,1003.33569410495,1.15298188092281e-290,4,-2915.02975655612,5840.05951311225,5864.24617718567,28421.0233874629,928,425.4,1.52580671006797,16.4625778204076
98,22.3245634650355,0.874244462115272,0.873925824772659,4.61272173154228,2743.69744282036,0,4,-3499.93148201413,7009.86296402827,7035.26309652788,25192.2068988086,1184,425.4,1.52580671006797,16.4625778204076
99,22.3687102586633,0.85069363560353,0.850340943404168,5.14559539364279,2412.00014387336,0,4,-3892.7162877452,7795.4325754904,7821.18215967107,33625.9829829489,1270,425.4,1.52580671006797,16.4625778204076
100,21.1998705345921,0.88657713918502,0.886310888338036,4.63834966916428,3329.8565966248,0,4,-3784.12383431862,7578.24766863723,7604.02855182463,27495.2596210918,1278,425.4,1.52580671006797,16.4625778204076
101,21.6293414060266,0.853890778341035,0.853481508812578,5.04608528329179,2086.37760441484,0,4,-3263.36390059567,6536.72780119135,6561.62818089416,27270.848030978,1071,425.4,1.52580671006797,16.4625778204076
103,27.3842798614157,0.845804354534508,0.84520124249227,6.03304961279757,1402.40004393888,8.59317842244189e-311,4,-2477.67817534819,4965.35635069637,4988.59479256419,27917.0264125758,767,425.4,1.52580671006797,16.4625778204076
104,27.1431132236327,0.867579235787579,0.86720691873731,5.14748505260813,2330.21623683424,0,4,-3272.52176719239,6555.04353438478,6579.92527473702,28271.8747254014,1067,425.4,1.52580671006797,16.4625778204076
