"Age","power_predict","r.squared","adj.r.squared","sigma","statistic","p.value","df","logLik","AIC","BIC","deviance","df.residual","GHI","Wind_speed","Ambient_temp"
1,104.327249024147,0.973238601299365,0.973160198764109,7.79005568411304,12413.3562533973,0,4,-3566.9926631953,7143.98532639061,7168.66217862068,62141.4067830599,1024,534.7,1.59185655674144,20.7727992865904
2,105.856600258967,0.993640980017568,0.993622313618402,4.2784650174739,53231.5296163788,0,4,-2945.21478267621,5900.42956535243,5925.09668048108,18707.9786896744,1022,534.7,1.59185655674144,20.7727992865904
3,103.001615810929,0.991959047326224,0.991940923465952,4.96775422363731,54732.2166728259,0,4,-4032.24204804724,8074.48409609448,8100.46752894865,32847.1926772267,1331,534.7,1.59185655674144,20.7727992865904
4,100.677945241764,0.993833564647729,0.993821031242542,4.33223229436111,79294.7766210875,0,4,-4267.82908843595,8545.6581768719,8572.15716370569,27701.9172988026,1476,534.7,1.59185655674144,20.7727992865904
5,98.2760509037953,0.995607904253826,0.995598559369259,3.6368365418938,106540.41761427,0,4,-3830.01176149014,7670.02352298028,7696.29441221257,18649.4778457602,1410,534.7,1.59185655674144,20.7727992865904
6,95.0575926257115,0.995758780118269,0.995750095026361,3.34589793035866,114651.495996621,0,4,-3856.5808350617,7723.1616701234,7749.62335600427,16400.7232869543,1465,534.7,1.59185655674144,20.7727992865904
7,95.2586197877461,0.996753642664916,0.996746620983585,2.7040115087539,141953.699657483,0,4,-3355.41897091928,6720.83794183857,6747.02683279818,10141.2977181498,1387,534.7,1.59185655674144,20.7727992865904
8,84.7926049722962,0.992540198001339,0.992522450653206,3.51731757508248,55926.113048055,0,4,-3383.94286367424,6777.88572734847,6803.59986435428,15600.4904071439,1261,534.7,1.59185655674144,20.7727992865904
9,100.939282216619,0.899610839932162,0.899345727713673,13.0854058520961,3393.32093050798,0,4,-4547.09362023733,9104.18724047467,9129.38115818161,194514.833412785,1136,534.7,1.59185655674144,20.7727992865904
10,112.997916777632,0.989836051629951,0.989806788822743,3.7550894967461,33825.7380644748,0,4,-2866.18114828729,5742.36229657458,5767.1259397977,14692.9264079729,1042,534.7,1.59185655674144,20.7727992865904
11,112.493317276335,0.984269301448963,0.984218828619388,4.16911336599085,19500.973290516,0,4,-2670.99249497136,5351.98498994273,5376.20906733877,16251.7083516821,935,534.7,1.59185655674144,20.7727992865904
12,113.632654324839,0.991519398527182,0.991493088491588,3.58651602957641,37685.9770873905,0,4,-2615.92819420983,5241.85638841966,5266.24802076111,12438.615021805,967,534.7,1.59185655674144,20.7727992865904
13,113.464838012968,0.989120435521992,0.989090102163782,4.59769359649351,32608.3392637349,0,4,-3178.04907153146,6366.09814306291,6391.0217246635,22745.3341741875,1076,534.7,1.59185655674144,20.7727992865904
14,110.942529642844,0.992112044998892,0.992092790430134,4.80012132287035,51526.0589566555,0,4,-3681.68255149425,7373.36510298849,7398.95113050432,28317.5914338434,1229,534.7,1.59185655674144,20.7727992865904
15,109.020493924877,0.993039406063833,0.993024404783798,4.71855696588723,66196.9781083594,0,4,-4144.73354483966,8299.46708967933,8325.67392109594,30992.5735377295,1392,534.7,1.59185655674144,20.7727992865904
16,108.552621434552,0.992605963799562,0.992590320563595,5.13092334856657,63452.7258866817,0,4,-4341.10394606099,8692.20789212199,8718.5069901738,37330.7989117713,1418,534.7,1.59185655674144,20.7727992865904
17,103.972866460747,0.992045532138798,0.992029243126113,5.16412379272159,60902.7417020198,0,4,-4494.1273460175,8998.254692035,9024.71637791587,39068.8757107004,1465,534.7,1.59185655674144,20.7727992865904
18,100.95062586434,0.996524595310488,0.996517434449177,3.19841015867081,139162.672206267,0,4,-3767.12215069866,7544.24430139732,7570.67525997083,14894.628902737,1456,534.7,1.59185655674144,20.7727992865904
19,97.0066245665747,0.995407704518312,0.995397750120592,3.43906678186259,99996.7785571025,0,4,-3681.94160522646,7373.88321045291,7400.06130615825,16368.8175768732,1384,534.7,1.59185655674144,20.7727992865904
20,91.0682717196891,0.973565228921756,0.973503705016997,7.59009863482575,15824.1781423125,0,4,-4453.39447404645,8916.78894809291,8942.61254998676,74258.7709021486,1289,534.7,1.59185655674144,20.7727992865904
21,102.52097049162,0.985301165226415,0.985262787067737,5.31274544684415,25673.487190963,0,4,-3559.668022918,7129.336045836,7154.58665843734,32430.8285462247,1149,534.7,1.59185655674144,20.7727992865904
22,108.207912841983,0.990580343343325,0.990554129085467,3.61579266371806,37787.8461690835,0,4,-2923.99439963536,5857.98879927073,5882.92163156776,14093.7252007831,1078,534.7,1.59185655674144,20.7727992865904
23,101.797454941715,0.984115994376262,0.984067958068932,3.83788909587943,20486.9201876527,0,4,-2750.80156305567,5511.60312611135,5536.12186239927,14611.557570572,992,534.7,1.59185655674144,20.7727992865904
24,108.375418609401,0.986637812181165,0.986598473060992,4.15153047752232,25080.3222806434,0,4,-2905.78722748682,5821.57445497363,5846.22692880339,17562.6742066069,1019,534.7,1.59185655674144,20.7727992865904
25,106.727975499052,0.920489614792007,0.920280376936197,11.6653619966085,4399.24989302909,0,4,-4431.63996204637,8873.27992409273,8898.49135495243,155131.964383587,1140,534.7,1.59185655674144,20.7727992865904
26,113.286351947842,0.902056345763753,0.9018149070105,16.2125250872041,3736.17049297383,0,4,-5131.96304835332,10273.9260967066,10299.4632240772,319883.54512882,1217,534.7,1.59185655674144,20.7727992865904
27,111.716932693117,0.901947161289785,0.901730070133969,17.8646448458681,4154.6932573078,0,4,-5844.09180537998,11698.18361076,11724.2561328307,432442.200560496,1355,534.7,1.59185655674144,20.7727992865904
28,105.422014797085,0.95134330101383,0.951235653449701,12.937402709644,8837.57388022708,0,4,-5409.52012752104,10829.0402550421,10855.1164549357,226962.383309759,1356,534.7,1.59185655674144,20.7727992865904
29,100.314430030101,0.968663869060482,0.96859991777285,9.86814134344218,15146.9017268198,0,4,-5463.95786271529,10937.9157254306,10964.3944007943,143148.913954005,1470,534.7,1.59185655674144,20.7727992865904
30,96.4529468312468,0.960298892225069,0.96022027617007,10.1283313828507,12215.048086892,0,4,-5670.36126561047,11350.7225312209,11377.3515687339,155413.39135027,1515,534.7,1.59185655674144,20.7727992865904
31,91.597732272075,0.97655466012216,0.9765044917772,7.81516110151276,19465.5546422019,0,4,-4883.85293007773,9777.70586015545,9803.94838051731,85629.5937457227,1402,534.7,1.59185655674144,20.7727992865904
32,88.0081823038143,0.981478648599768,0.98143668179146,6.08958040076002,23387.0215094893,0,4,-4281.48450454372,8572.96900908743,8598.92615573761,49097.8780414925,1324,534.7,1.59185655674144,20.7727992865904
33,89.4675326556933,0.900151722145958,0.89990313722184,12.5037493575706,3621.10343312235,0,4,-4767.46188526675,9544.92377053349,9570.41151478657,188394.216336323,1205,534.7,1.59185655674144,20.7727992865904
34,98.9895160188015,0.937455385436563,0.937285427244815,8.71305632450567,5515.79994934257,0,4,-3968.80374740637,7947.60749481273,7972.65905414927,83812.7549674651,1104,534.7,1.59185655674144,20.7727992865904
35,93.707872640018,0.828817888327518,0.828317843210656,12.3235861010988,1657.48621550078,0,4,-4050.29369818292,8110.58739636585,8135.27881878593,155971.285299757,1027,534.7,1.59185655674144,20.7727992865904
36,101.554345335255,0.909511558448972,0.909252526650639,10.1780049629573,3511.19655695481,0,4,-3931.60044958754,7873.20089917507,7897.99314114156,108564.190707231,1048,534.7,1.59185655674144,20.7727992865904
37,99.4815245440097,0.890365818894153,0.890068438656072,12.3243493317699,2994.03156255378,0,4,-4360.86854741174,8731.73709482347,8756.797671295,167989.882615356,1106,534.7,1.59185655674144,20.7727992865904
38,100.762204064161,0.928105167892185,0.927907654617163,12.9086928905959,4698.95083148866,0,4,-4356.61241714521,8723.22483429042,8748.22194662796,181964.712540945,1092,534.7,1.59185655674144,20.7727992865904
39,102.256045350574,0.924965884104142,0.924794833687966,14.6414079177177,5407.56289743594,0,4,-5413.68267595229,10837.3653519046,10863.2922869825,282112.006769917,1316,534.7,1.59185655674144,20.7727992865904
40,99.8574435740029,0.971982025957327,0.971921858511279,9.57285431157701,16154.6166542265,0,4,-5150.69293992321,10311.3858798464,10337.6105875781,128020.436919938,1397,534.7,1.59185655674144,20.7727992865904
41,99.9952641360897,0.975122617704871,0.975070933392623,8.90684824588369,18866.8974259604,0,4,-5219.13623534512,10448.2724706902,10474.662163555,114555.329554991,1444,534.7,1.59185655674144,20.7727992865904
42,93.0311277203405,0.975467589200728,0.975418128695084,8.08757659894197,19722.1515733755,0,4,-5233.82466931314,10477.6493386263,10504.1887025301,97328.4361227056,1488,534.7,1.59185655674144,20.7727992865904
43,92.3104674474936,0.965405058820901,0.965332278439739,8.78818434454432,13264.6331800513,0,4,-5135.05292759836,10280.1058551967,10306.433003813,110133.094489087,1426,534.7,1.59185655674144,20.7727992865904
44,85.5519445587182,0.968651660432608,0.968581894098259,7.50108698748515,13884.2275357316,0,4,-4640.74674965006,9291.49349930012,9317.54020058313,75846.9804796682,1348,534.7,1.59185655674144,20.7727992865904
45,97.0027822153269,0.929605913758834,0.929432813546766,11.8944184852024,5370.33376591871,0,4,-4765.48625793204,9540.97251586408,9566.52191317945,172602.173143371,1220,534.7,1.59185655674144,20.7727992865904
46,93.9872438142576,0.954359715555174,0.954232109913669,7.36410954992463,7478.97745195283,0,4,-3676.55081345018,7363.10162690037,7388.01130028615,58188.9074541114,1073,534.7,1.59185655674144,20.7727992865904
47,94.8288300591296,0.92179758159939,0.921566895999388,8.34066405022195,3995.90430261882,0,4,-3612.41914948756,7234.83829897512,7259.48098806594,70749.3103042422,1017,534.7,1.59185655674144,20.7727992865904
48,101.705003566955,0.911356046890261,0.911090910440282,9.47031584087938,3437.30953236149,0,4,-3690.76651437218,7391.53302874436,7416.10668320795,89955.9427723889,1003,534.7,1.59185655674144,20.7727992865904
49,103.048976990011,0.917553002288522,0.91732097509046,11.3967498605258,3954.50623871291,0,4,-4119.92167270207,8249.84334540413,8274.72041504141,138458.377270699,1066,534.7,1.59185655674144,20.7727992865904
50,101.019203431014,0.933038151213809,0.932867184791376,12.0032061423272,5457.43507957181,0,4,-4600.94503175952,9211.89006351904,9237.25217302173,169290.425291861,1175,534.7,1.59185655674144,20.7727992865904
51,97.4890592855092,0.965109532299721,0.965029385742982,9.13976496126056,12041.8090504544,0,4,-4755.35783618886,9520.71567237771,9546.60458445869,109097.106432495,1306,534.7,1.59185655674144,20.7727992865904
52,90.9074785020196,0.927614616601166,0.927334415117041,13.4164811588778,3310.52713549848,0,4,-3126.00891402252,6262.01782804503,6285.30788327439,139501.524182055,775,534.7,1.59185655674144,20.7727992865904
53,88.3690594187237,0.959661750333395,0.959579983611098,10.2336977768149,11736.5808897857,0,4,-5555.0200753367,11120.0401506734,11146.552632792,154998.283877036,1480,534.7,1.59185655674144,20.7727992865904
54,86.2455048747358,0.977229493682981,0.977184581441725,7.14632322139719,21758.644555346,0,4,-5160.94056984086,10331.8811396817,10358.5298881269,77677.3720242995,1521,534.7,1.59185655674144,20.7727992865904
55,79.296304342267,0.952237419222817,0.952137844697222,10.7327796714166,9563.06257579944,0,4,-5470.20114798214,10950.4022959643,10976.7746937582,165762.093084773,1439,534.7,1.59185655674144,20.7727992865904
56,94.0646670880935,0.965240327790289,0.965159050302659,9.34744846794398,11875.8632425478,0,4,-4700.74887279144,9411.49774558288,9437.29809162087,112101.859240494,1283,534.7,1.59185655674144,20.7727992865904
57,94.1741747113704,0.946201453128623,0.946072439826773,9.67891170806097,7334.13872493565,0,4,-4627.55124761647,9265.10249523294,9290.77694949077,117195.346147402,1251,534.7,1.59185655674144,20.7727992865904
58,90.1992096935066,0.916549482748814,0.916328714184658,10.0970030944421,4151.6304019569,0,4,-4244.07611867981,8498.15223735962,8523.33737543306,115610.700668722,1134,534.7,1.59185655674144,20.7727992865904
59,102.662329316521,0.885775724500429,0.885442060599262,10.5455965804546,2654.69450366633,0,4,-3889.6570849936,7789.31416998721,7814.00559240729,114212.266633113,1027,534.7,1.59185655674144,20.7727992865904
60,106.227685572587,0.929653409137969,0.929418659669019,8.8281376804426,3960.19387518098,0,4,-3245.98056067146,6501.96112134292,6525.98973411001,70064.4773994606,899,534.7,1.59185655674144,20.7727992865904
61,87.9804994872973,0.859578654880302,0.859158650857012,12.3894428263365,2046.59624007547,0,4,-3961.32975827127,7932.65951654254,7957.23317100614,153958.788427702,1003,534.7,1.59185655674144,20.7727992865904
62,105.966678177181,0.89713372500492,0.896829686753703,14.6729010070723,2950.72650041212,0,4,-4180.93079736199,8371.86159472399,8396.4944798901,218523.434322794,1015,534.7,1.59185655674144,20.7727992865904
63,100.826519257357,0.931096881111602,0.930922000099195,13.0830768861886,5324.17366697377,0,4,-4730.44271151159,9470.88542302319,9496.27713092098,202319.276757327,1182,534.7,1.59185655674144,20.7727992865904
64,95.6472549670444,0.929833308981528,0.929675512824815,13.289389795756,5892.62329545516,0,4,-5357.89721256022,10725.7944251204,10751.7890813239,235594.913445489,1334,534.7,1.59185655674144,20.7727992865904
65,92.6001481165123,0.970057308526377,0.969969328042125,8.78000957872033,11025.8237014521,0,4,-3679.19751999555,7368.39503999109,7393.05727944895,78707.4281346716,1021,534.7,1.59185655674144,20.7727992865904
66,88.3975538908664,0.969557649227891,0.969480122018794,8.54165165045623,12506.0305990656,0,4,-4210.51804441698,8431.03608883396,8456.41090482379,85946.6596170996,1178,534.7,1.59185655674144,20.7727992865904
67,83.0934397609032,0.975726469933676,0.97567264835925,6.97393489964192,18128.9098346103,0,4,-4559.0343715764,9128.06874315279,9154.13390145197,65804.1940829522,1353,534.7,1.59185655674144,20.7727992865904
68,86.5050284914961,0.963376490231148,0.963288169869969,7.87393089294991,10907.7507991584,0,4,-4344.15173245206,8698.30346490412,8723.94995264877,77126.491907447,1244,534.7,1.59185655674144,20.7727992865904
69,82.345821402312,0.942718686869762,0.942576901441222,8.4234119554868,6648.91093940961,0,4,-4314.74015898574,8639.48031797148,8664.99692828411,85996.0891938676,1212,534.7,1.59185655674144,20.7727992865904
70,90.3558616746138,0.940996430333659,0.940839644940392,8.57847503772582,6001.81184434762,0,4,-4040.76105221367,8091.52210442734,8116.68522573248,83083.3741553872,1129,534.7,1.59185655674144,20.7727992865904
71,88.829754789247,0.921324438829648,0.921097271665537,7.72879099836152,4055.7113191787,0,4,-3610.83444694149,7231.66889388297,7256.41817615798,62063.8444979119,1039,534.7,1.59185655674144,20.7727992865904
72,93.7121626670888,0.862904399262799,0.862481699568851,10.2626140063213,2041.41240605804,0,4,-3659.25075087716,7328.50150175431,7352.92393501453,102477.572594187,973,534.7,1.59185655674144,20.7727992865904
73,97.7649065532074,0.856723171243859,0.856275431153996,12.2154788498616,1913.43860118962,0,4,-3778.4591502424,7566.9183004848,7591.27375695785,143249.20659016,960,534.7,1.59185655674144,20.7727992865904
74,98.7672808120194,0.898623707529706,0.898338408395174,12.8705640040344,3149.75966893299,0,4,-4250.04932573984,8510.09865147968,8534.97572111696,176584.411355553,1066,534.7,1.59185655674144,20.7727992865904
75,94.6369880175859,0.935452027771627,0.935303641628573,11.4438795757337,6304.17374911411,0,4,-5046.01614130732,10102.0322826146,10127.9173764442,170905.905565783,1305,534.7,1.59185655674144,20.7727992865904
76,95.6627917553981,0.948459268033629,0.948348268610873,11.4596192848291,8544.72252633695,0,4,-5387.29905898451,10784.598117969,10810.8085297653,182932.763695446,1393,534.7,1.59185655674144,20.7727992865904
77,92.8094545894641,0.919503304170302,0.919286136825437,14.2581680478013,4234.07720320424,0,4,-4547.11202198192,9104.22404396384,9129.31157467854,226064.435960228,1112,534.7,1.59185655674144,20.7727992865904
78,88.8460196770692,0.960738067921385,0.96065363365885,9.9005091505682,11378.5333001168,0,4,-5190.42021635716,10390.8404327143,10417.0579975876,136738.013609476,1395,534.7,1.59185655674144,20.7727992865904
79,92.2563150784415,0.967052145920537,0.966983217355517,9.06545040942195,14029.7733696153,0,4,-5208.45944552557,10426.9188910511,10453.2739337425,117849.548874238,1434,534.7,1.59185655674144,20.7727992865904
80,89.1055737411746,0.984965444659216,0.984933250750563,5.68926969356664,30594.7766481709,0,4,-4434.31334332408,8878.62668664817,8904.86564955701,45347.2732942363,1401,534.7,1.59185655674144,20.7727992865904
81,87.8918191926897,0.962948243425082,0.962860581540441,7.99555390179892,10984.7996922369,0,4,-4447.22917786166,8904.45835572332,8930.20008444282,81061.8226252532,1268,534.7,1.59185655674144,20.7727992865904
82,91.0642808032282,0.925453434945151,0.925250679101847,10.567114160352,4564.37368148551,0,4,-4178.78697631269,8367.57395262539,8392.62099728893,123165.283550737,1103,534.7,1.59185655674144,20.7727992865904
83,92.3190380308594,0.938717620250697,0.938521411991095,8.04667242902899,4784.29206879766,0,4,-3295.44528003879,6600.89056007758,6625.12527577551,60669.7541377492,937,534.7,1.59185655674144,20.7727992865904
84,96.7751758498681,0.898048542701871,0.897712438996493,9.69395218755207,2671.93883414847,0,4,-3371.05844576206,6752.11689152411,6776.20604438138,85515.1652032364,910,534.7,1.59185655674144,20.7727992865904
85,93.9545246239012,0.902411308977521,0.902132484146028,9.59582302489148,3236.48114174807,0,4,-3876.9970182377,7763.9940364754,7788.79577512091,96683.8105012894,1050,534.7,1.59185655674144,20.7727992865904
86,96.6653897692214,0.877758563768258,0.877438839000433,13.2761192685343,2745.35679465663,0,4,-4607.64264451048,9225.28528902096,9250.52722106457,202164.878228702,1147,534.7,1.59185655674144,20.7727992865904
87,96.8144770567505,0.919101942306684,0.918905269557024,12.4528389737692,4673.25516065369,0,4,-4876.81506626162,9763.63013252323,9789.23639478946,191360.326957177,1234,534.7,1.59185655674144,20.7727992865904
88,98.671896795566,0.926412741074316,0.925465265637504,12.5898069257732,977.769665662305,1.12996995570329e-131,4,-934.565702835189,1879.13140567038,1896.47170637605,36931.2545537815,233,534.7,1.59185655674144,20.7727992865904
97,94.6179603402293,0.926107745237131,0.92589418380718,8.09280852463459,4336.49346444174,0,4,-3655.32691872433,7320.65383744866,7345.39832356022,67982.3047094215,1038,534.7,1.59185655674144,20.7727992865904
98,94.2480029333667,0.912801919280018,0.912570419950672,10.760565498257,3943.00027504331,0,4,-4301.32987655289,8612.65975310579,8637.82728552723,130842.439921774,1130,534.7,1.59185655674144,20.7727992865904
99,92.5296875375236,0.921379414497655,0.921184648389887,12.3918500908589,4730.69686023214,0,4,-4780.20941045375,9570.4188209075,9595.93131768637,185958.6758446,1211,534.7,1.59185655674144,20.7727992865904
100,94.4371026233455,0.935020238006297,0.93487432536709,12.3134434155975,6408.08255600911,0,4,-5263.70142250611,10537.4028450122,10563.404969477,202565.507368827,1336,534.7,1.59185655674144,20.7727992865904
101,94.4160252019501,0.960925693692048,0.960843776907335,9.96736688922952,11730.5103839509,0,4,-5333.69310208828,10677.3862041766,10703.7308048175,142167.564270152,1431,534.7,1.59185655674144,20.7727992865904
102,88.1258274329147,0.973250721018793,0.973195756746914,7.95134786817716,17706.9701415844,0,4,-5110.69516910912,10231.3903382182,10257.8349766908,92306.9420643177,1460,534.7,1.59185655674144,20.7727992865904
103,84.1793999964313,0.965090025674558,0.96501468040623,8.60660316244029,12808.9002413463,0,4,-4976.62386755929,9963.24773511857,9989.44739807517,102962.329014061,1390,534.7,1.59185655674144,20.7727992865904
104,82.244407236142,0.970161860873583,0.970099741222383,7.18243892243951,15617.6321362383,0,4,-4897.38177400409,9804.76354800819,9831.14287101092,74337.4850082611,1441,534.7,1.59185655674144,20.7727992865904
105,77.4261165542921,0.97006721328983,0.969999847678329,6.5242457781172,14400.0357404746,0,4,-4402.69522340659,8815.39044681319,8841.3813646987,56740.1887033824,1333,534.7,1.59185655674144,20.7727992865904
106,75.3577120287997,0.915100117729839,0.914851872460043,9.63800421563277,3686.27413719748,0,4,-3793.18827290548,7596.37654581097,7621.06311621708,95306.2945173296,1026,534.7,1.59185655674144,20.7727992865904
107,79.9365268583894,0.935934295593705,0.935699048209105,7.42175741086032,3978.51095000176,0,4,-2808.5690827551,5627.1381655102,5650.69078105746,45002.3886646443,817,534.7,1.59185655674144,20.7727992865904
108,94.1219591546471,0.882569703719103,0.882203877250938,9.74938494405351,2412.53649072091,0,4,-3572.16587540859,7154.33175081717,7178.70274329444,91533.6380362058,963,534.7,1.59185655674144,20.7727992865904
109,98.1597358438448,0.899910497516207,0.899616979913615,9.79843268390588,3065.95069450682,0,4,-3799.08841724385,7608.17683448769,7632.84882053734,98217.4965714388,1023,534.7,1.59185655674144,20.7727992865904
110,95.5536814330704,0.887524092806286,0.887194251436216,11.941863973021,2690.76038769533,0,4,-4002.25753164308,8014.51506328617,8039.18704933581,145888.10179859,1023,534.7,1.59185655674144,20.7727992865904
111,94.6307307548898,0.935915076872566,0.935758262215648,10.5407868057813,5968.28826630606,0,4,-4640.25133023481,9290.50266046962,9316.07650771145,136218.636630529,1226,534.7,1.59185655674144,20.7727992865904
112,92.6238588517735,0.926116826020567,0.925950172244673,12.4051599770792,5557.13077039809,0,4,-5250.02309144612,10510.0461828922,10536.0258690246,204671.032095715,1330,534.7,1.59185655674144,20.7727992865904
113,87.6635851017112,0.951433419218945,0.951330305459325,10.2102347155213,9227.02675883927,0,4,-5300.87758289396,10611.7551657879,10638.0366519864,147303.685732749,1413,534.7,1.59185655674144,20.7727992865904
114,83.5270218429254,0.95740359731427,0.957316010468446,9.57927964820412,10930.9062143681,0,4,-5379.70264011616,10769.4052802323,10795.8465022374,133881.631326028,1459,534.7,1.59185655674144,20.7727992865904
115,78.3502817222726,0.955000913853667,0.954910735324316,8.98098309048644,10590.1140850573,0,4,-5422.68320587418,10855.3664117484,10881.9358459065,120745.11173559,1497,534.7,1.59185655674144,20.7727992865904
116,77.6429845965158,0.970685242793952,0.970622649006324,7.20268831295319,15507.6930086728,0,4,-4779.28770439302,9568.57540878604,9594.82858634554,72889.6001016413,1405,534.7,1.59185655674144,20.7727992865904
117,75.162287630879,0.975833887629327,0.975780540802902,5.73060858458266,18292.2575346684,0,4,-4311.56530552912,8633.13061105824,8659.21782821672,44629.389784832,1359,534.7,1.59185655674144,20.7727992865904
118,71.6280879287637,0.937755107150993,0.93649338635,9.11372481786984,743.235037745815,5.48496923167589e-89,4,-549.538658123347,1109.07731624669,1124.19671885092,12292.8770482668,148,534.7,1.59185655674144,20.7727992865904
119,63.5665323074793,0.872543599055297,0.869850858190268,8.53546941481443,324.035487553653,2.70319889920374e-63,4,-518.194749284999,1046.38949857,1061.30753167854,10345.301814635,142,534.7,1.59185655674144,20.7727992865904
121,86.7492440635151,0.842562985249267,0.841068330045937,11.5056960132528,563.717293040049,1.81447111760359e-126,4,-1233.75723531117,2477.51447062234,2496.35607560131,41832.4088768042,316,534.7,1.59185655674144,20.7727992865904
122,88.9688877356,0.902255197258478,0.901983180182203,9.60919633513899,3316.90645901206,0,4,-3981.55146694491,7973.10293388981,7998.03576618684,99538.9132354141,1078,534.7,1.59185655674144,20.7727992865904
123,88.7865123791521,0.913366579004215,0.913149271092018,11.0522265428393,4203.09858840807,0,4,-4583.88118479288,9177.76236958575,9203.21275376463,146093.447018873,1196,534.7,1.59185655674144,20.7727992865904
124,84.3774664334438,0.940864210457034,0.940731021741847,10.0610755788143,7064.14360358546,0,4,-4978.08744501361,9966.17489002722,9992.1620667977,134832.02208108,1332,534.7,1.59185655674144,20.7727992865904
125,78.6403948945047,0.943190617097196,0.943073080442914,9.60034255603712,8024.65088751756,0,4,-5349.78929841377,10709.5785968275,10735.988965118,133641.536930223,1450,534.7,1.59185655674144,20.7727992865904
126,78.0749950867669,0.967961321713565,0.967896158300101,7.62186418016801,14854.3679690642,0,4,-5100.48741482112,10210.9748296422,10237.4704369558,85686.900031869,1475,534.7,1.59185655674144,20.7727992865904
127,71.8116938516904,0.981759495379193,0.980799468820203,6.02298912696746,1022.63784911554,1.66423775554582e-49,4,-194.017265134441,398.034530268881,408.588899589748,2067.75468734339,57,534.7,1.59185655674144,20.7727992865904
128,80.8234341226142,0.936200886928044,0.936014883682936,10.8701143670396,5033.25028757293,0,4,-3928.51541332299,7867.03082664598,7891.73193899158,121586.008556744,1029,534.7,1.59185655674144,20.7727992865904
129,81.6973827112429,0.962328622105843,0.962241754977724,7.86559186757649,11078.1678057837,0,4,-4541.27132648932,9092.54265297864,9118.41244457743,80489.6635908984,1301,534.7,1.59185655674144,20.7727992865904
