"Age","power_predict","r.squared","adj.r.squared","sigma","statistic","p.value","df","logLik","AIC","BIC","deviance","df.residual","GHI","Wind_speed","Ambient_temp"
1,91.7930537470553,0.77765242225483,0.777162669880942,22.9977214918135,1587.84819373353,0,4,-6219.21687105351,12448.433742107,12474.5319523077,720355.253976058,1362,530.3,1.88251989628004,26.4287076167076
2,113.278943723444,0.836407495529166,0.836031708765451,20.8770907503222,2225.75028257859,0,4,-5837.4410909008,11684.8821818016,11710.7710938826,569223.911165526,1306,530.3,1.88251989628004,26.4287076167076
3,116.717929706545,0.831763170715255,0.831334723781592,18.6799366478111,1941.34466923451,0,4,-5135.42790337488,10280.8558067498,10306.2306227396,411051.359069826,1178,530.3,1.88251989628004,26.4287076167076
4,126.795876035846,0.835113001549863,0.834638734056718,17.974144150218,1760.84807333452,0,4,-4508.33901479057,9026.67802958114,9051.44645063549,336961.861823928,1043,530.3,1.88251989628004,26.4287076167076
5,135.966220851161,0.804463486943584,0.803876290207679,19.6332270817395,1370.00674178394,0,4,-4407.346410483,8824.692820966,8849.24657490581,385078.142037508,999,530.3,1.88251989628004,26.4287076167076
6,146.733867982787,0.83042428218682,0.82993885551369,19.3467316750753,1710.71003748813,0,4,-4607.2942464884,9224.5884929768,9249.38073494329,392262.235779715,1048,530.3,1.88251989628004,26.4287076167076
7,116.986960697023,0.848355493338791,0.847973196263175,19.2413050896349,2219.1001382125,0,4,-5222.93802545791,10455.8760509158,10481.3013723856,440571.107647367,1190,530.3,1.88251989628004,26.4287076167076
8,110.298896108216,0.834103798751381,0.833732942861854,20.8429957240283,2249.13186578802,0,4,-5995.71445586918,12001.4289117384,12027.4533742894,583005.691749,1342,530.3,1.88251989628004,26.4287076167076
9,104.926810191215,0.84905961500385,0.848744060192012,19.5807593516655,2690.68822008018,0,4,-6320.22349942537,12650.4469988507,12676.8055173852,550187.806290543,1435,530.3,1.88251989628004,26.4287076167076
10,95.598871604089,0.874057002082263,0.87380444259446,18.6572151182826,3460.7965421763,0,4,-6515.75453972222,13041.5090794444,13068.0751813799,520745.147250931,1496,530.3,1.88251989628004,26.4287076167076
11,91.8646273311512,0.85053746581253,0.850246305031645,19.2568911438796,2921.19516656123,0,4,-6755.7882024119,13521.5764048238,13548.2870634767,571074.899051933,1540,530.3,1.88251989628004,26.4287076167076
12,77.3941335704168,0.885151595321138,0.884914468539282,16.9437156413928,3732.82000621561,0,4,-6188.55063088713,12387.1012617743,12413.5219358052,417141.043116959,1453,530.3,1.88251989628004,26.4287076167076
13,95.7781975076219,0.850892325626331,0.850576419536556,18.4532228375702,2693.49769810742,0,4,-6152.52932432849,12315.058648657,12341.35070941,482178.349259721,1416,530.3,1.88251989628004,26.4287076167076
14,82.0426880065402,0.866659519830652,0.866352047547402,17.1452528649288,2818.65900454654,0,4,-5558.15805583403,11126.3161116681,11152.1859032668,382441.564238855,1301,530.3,1.88251989628004,26.4287076167076
15,116.238089645932,0.81500823108228,0.814539501938063,19.7644707387727,1738.76158787479,0,4,-5228.5520742715,10467.104148543,10492.5042810426,462511.015443223,1184,530.3,1.88251989628004,26.4287076167076
16,131.532126821495,0.836496440086006,0.836023886444636,17.6545125784082,1770.16187550903,0,4,-4468.10316351759,8946.20632703518,8970.95081314675,323525.723327656,1038,530.3,1.88251989628004,26.4287076167076
17,141.271766472374,0.858581726569156,0.858131349902178,16.9921127752775,1906.36369404234,0,4,-4020.0924328973,8050.18486579461,8074.44607863987,271985.446566821,942,530.3,1.88251989628004,26.4287076167076
18,135.482690103285,0.832201129298492,0.831727121189165,18.2915969576069,1755.66854854297,0,4,-4608.8516433193,9227.70328663861,9252.56162966224,355326.635453625,1062,530.3,1.88251989628004,26.4287076167076
19,114.293784175561,0.858688619710782,0.858309090488878,18.3720595758777,2262.50989423468,0,4,-4851.66808029583,9713.33616059166,9738.44604270702,377023.884107574,1117,530.3,1.88251989628004,26.4287076167076
20,105.032102243155,0.838825731712928,0.838457473674191,20.0550200682432,2277.82055916721,0,4,-5815.7365062054,11641.4730124108,11667.3885709195,528093.628708119,1313,530.3,1.88251989628004,26.4287076167076
21,101.055433321618,0.859024323474123,0.858723093396076,19.6081113296259,2851.721611083,0,4,-6185.99080860816,12381.9816172163,12408.2312448999,539807.154000665,1404,530.3,1.88251989628004,26.4287076167076
22,89.8177643674421,0.866284253661404,0.866012657697277,17.8991908439313,3189.6065040785,0,4,-6371.76816864435,12753.5363372887,12780.03870136,473202.785545258,1477,530.3,1.88251989628004,26.4287076167076
23,87.9558879219171,0.899436953125856,0.899236361941931,16.1534166664306,4483.93062710292,0,4,-6333.21108191694,12676.4221638339,12703.0148615767,392443.036478973,1504,530.3,1.88251989628004,26.4287076167076
24,83.3274305598244,0.886501762143528,0.886270290550347,17.5602995674925,3829.85121396686,0,4,-6317.75157507732,12645.5031501546,12671.9852164985,453603.621844016,1471,530.3,1.88251989628004,26.4287076167076
25,90.6915857847648,0.847883873042895,0.847564524980703,18.5703610550819,2655.04624397903,0,4,-6217.9413718656,12445.8827437312,12472.2203708703,492802.524584312,1429,530.3,1.88251989628004,26.4287076167076
26,105.45654034331,0.834122343375887,0.833747901713079,18.6615869713882,2227.64298481055,0,4,-5790.42288691709,11590.8457738342,11616.8217104351,462830.666798322,1329,530.3,1.88251989628004,26.4287076167076
27,93.6583966833812,0.780363661400559,0.779820007097095,23.0974427969931,1435.40418318842,0,4,-5541.32780219636,11092.6556043927,11118.1722147053,646592.138877564,1212,530.3,1.88251989628004,26.4287076167076
28,91.6559526749803,0.821534016005049,0.821045959531042,18.4971736484922,1683.27654638289,0,4,-4772.54504023995,9555.09008047989,9580.10995116351,375333.539981776,1097,530.3,1.88251989628004,26.4287076167076
29,108.001775134991,0.848755622831302,0.848301889699796,17.1654269207471,1870.60534903853,0,4,-4276.87918003774,8563.75836007547,8588.31709657673,294651.881371509,1000,530.3,1.88251989628004,26.4287076167076
30,108.483725501059,0.867321206319672,0.866907016537111,16.0313787158985,2094.01883589978,0,4,-4044.71032037629,8099.42064075259,8123.78128125928,246981.904494793,961,530.3,1.88251989628004,26.4287076167076
31,98.2332304161914,0.875225190384364,0.874871720668739,17.4690234611851,2476.09668295551,0,4,-4546.96415408141,9103.92830816283,9128.77256005453,323171.620747993,1059,530.3,1.88251989628004,26.4287076167076
32,86.258854834899,0.871071586256207,0.870765342993158,19.2606614140188,2844.37795490615,0,4,-5543.6599924349,11097.3199848698,11123.0420207714,468538.997647212,1263,530.3,1.88251989628004,26.4287076167076
33,85.2924070235431,0.874694690374897,0.874421892168166,17.9780812249579,3206.37991303745,0,4,-5951.7800220499,11913.5600440998,11939.7164791214,445385.315443971,1378,530.3,1.88251989628004,26.4287076167076
34,78.9338884354355,0.87189333713783,0.871633310081953,19.1433102754466,3353.08698626182,0,4,-6475.65902507786,12961.3180501557,12987.823789185,541637.233230385,1478,530.3,1.88251989628004,26.4287076167076
35,76.0734261758593,0.850421614619954,0.850125419797419,19.6432522557247,2871.15624554915,0,4,-6676.54276179437,13363.0855235887,13389.7145611017,584573.899160783,1515,530.3,1.88251989628004,26.4287076167076
36,71.4364278940606,0.830762574200879,0.830423647446942,19.6973759650042,2451.15667190951,0,4,-6605.93212056337,13221.8642411267,13248.4370052884,581203.956620276,1498,530.3,1.88251989628004,26.4287076167076
37,75.8173711751056,0.828264960347542,0.827907179014933,18.4492245096229,2315.00328512679,0,4,-6256.23672223898,12522.473444478,12548.8493060752,490138.394409316,1440,530.3,1.88251989628004,26.4287076167076
38,90.8800350560815,0.818501792439277,0.818102895279802,19.394728342845,2051.91180984678,0,4,-5999.610696224,12009.221392448,12035.3305715744,513452.240427609,1365,530.3,1.88251989628004,26.4287076167076
39,86.3343578333609,0.837903118847605,0.837486059976716,19.0080905770699,2009.07636147502,0,4,-5103.64636603459,10217.2927320692,10242.6165272081,421284.553612184,1166,530.3,1.88251989628004,26.4287076167076
40,97.5505934780699,0.834033592696629,0.833583005165489,18.0179808167786,1850.9912837264,0,4,-4778.12876243125,9566.2575248625,9591.31359479925,358735.634148752,1105,530.3,1.88251989628004,26.4287076167076
41,120.324844769221,0.875001515359555,0.87459742543076,16.130411491937,2165.36333377525,0,4,-3912.06477617367,7834.12955234735,7858.31621642078,241456.482306469,928,530.3,1.88251989628004,26.4287076167076
42,125.800699118926,0.85137927903924,0.850941730302358,16.6062024658431,1945.79302206912,0,4,-4323.97132143994,8657.94264287988,8682.59511670964,281005.513582967,1019,530.3,1.88251989628004,26.4287076167076
43,111.766234692726,0.822227343276097,0.82174945979028,18.8441182599744,1720.5602781408,0,4,-4875.75251417533,9761.50502835065,9786.6104481721,396292.484983427,1116,530.3,1.88251989628004,26.4287076167076
44,94.7874395232371,0.864703711346308,0.864376381615694,18.9501351299655,2641.69010778494,0,4,-5422.76927455383,10855.5385491077,10881.1689854742,445293.4505905,1240,530.3,1.88251989628004,26.4287076167076
45,95.3042591782903,0.865542564391894,0.865250477276163,18.3568928689834,2963.30278802656,0,4,-5993.58408978901,11997.168179578,12023.3354566711,465363.187324402,1381,530.3,1.88251989628004,26.4287076167076
46,93.2273453501277,0.852059882799988,0.851755896257796,19.5377841595134,2802.95264604958,0,4,-6426.84402667795,12863.6880533559,12890.1326918285,557318.51440105,1460,530.3,1.88251989628004,26.4287076167076
47,85.8809471950485,0.844609468493381,0.844302170144983,19.2345123720147,2748.49986306894,0,4,-6653.35298162395,13316.7059632479,13343.3415797092,561239.129208997,1517,530.3,1.88251989628004,26.4287076167076
48,78.9754617111334,0.858587376305992,0.858305303253411,18.9084522078271,3043.84757228463,0,4,-6570.68706637641,13151.3741327528,13177.9668304957,537724.465603105,1504,530.3,1.88251989628004,26.4287076167076
49,72.0850864123463,0.856424862019252,0.856120892072927,18.5073920739312,2817.46558294329,0,4,-6161.02872354867,12332.0574470973,12358.3530277378,485355.886472926,1417,530.3,1.88251989628004,26.4287076167076
50,88.9021717678684,0.864750183494919,0.864443957495285,17.4276416905338,2823.89537311675,0,4,-5682.1247769235,11374.249553847,11400.2104641406,402432.570734061,1325,530.3,1.88251989628004,26.4287076167076
51,92.616704070258,0.815408768319133,0.814955598355923,20.1652839592358,1799.34425164295,0,4,-5420.47340922844,10850.9468184569,10876.5043790394,496912.463485382,1222,530.3,1.88251989628004,26.4287076167076
52,110.274926443788,0.831560436153676,0.831112458590255,18.2499078513833,1856.25465213769,0,4,-4891.74403251157,9793.48806502314,9818.64677131695,375690.706066733,1128,530.3,1.88251989628004,26.4287076167076
53,129.150878217227,0.8491029925539,0.848651655542596,16.3097994377931,1881.30592281796,0,4,-4238.17560270139,8486.35120540278,8510.92485986637,266807.586374138,1003,530.3,1.88251989628004,26.4287076167076
54,134.428151216142,0.823919158165764,0.823413662926049,16.7909731270776,1629.92466285036,0,4,-4445.52535657389,8901.05071314778,8925.82867618976,294623.933589182,1045,530.3,1.88251989628004,26.4287076167076
55,124.073011013561,0.854063757055466,0.853661728837988,17.0581896378578,2124.38759252536,0,4,-4649.33319623478,9308.66639246956,9333.64979991044,316879.216922297,1089,530.3,1.88251989628004,26.4287076167076
56,104.34976287842,0.829647119115394,0.829232298788564,19.3532275091149,2000.01558616148,0,4,-5413.89875734858,10837.7975146972,10863.3956928873,461442.415304099,1232,530.3,1.88251989628004,26.4287076167076
57,101.261341859318,0.851153326076752,0.850821079036744,19.3945564481946,2561.80860500119,0,4,-5907.53596683064,11825.0719336613,11851.1038201186,505544.013841045,1344,530.3,1.88251989628004,26.4287076167076
58,98.2107182307282,0.840570443468433,0.840197654170229,18.4827607496559,2254.8137715323,0,4,-5578.14185812715,11166.2837162543,11192.0840622923,438288.766843932,1283,530.3,1.88251989628004,26.4287076167076
59,95.7432117802461,0.833428805664625,0.833100262875009,19.1092253162685,2536.74355976103,0,4,-6660.88974501856,13331.7794900371,13358.4282384823,555412.15061782,1521,530.3,1.88251989628004,26.4287076167076
60,86.7749913036316,0.854990486555836,0.854701431047309,18.5533830993196,2957.87646779004,0,4,-6546.43968511759,13102.8793702352,13129.475382529,518063.17676733,1505,530.3,1.88251989628004,26.4287076167076
61,83.272848382253,0.86978491346042,0.869511925857612,16.8524362984118,3186.17001106482,0,4,-6087.32466298933,12184.6493259787,12210.9939266196,406410.595753792,1431,530.3,1.88251989628004,26.4287076167076
62,91.2537407569702,0.869042450454749,0.86874116774874,16.5760199046719,2884.4750565562,0,4,-5526.77638056966,11063.5527611393,11089.4340337994,358292.824387622,1304,530.3,1.88251989628004,26.4287076167076
63,103.675354548709,0.820037647259152,0.819608142837336,19.0861188892975,1909.26473769975,0,4,-5505.91852487368,11021.8370497474,11047.5353514272,457899.877360294,1257,530.3,1.88251989628004,26.4287076167076
64,114.675785721332,0.807101174783164,0.806594878653985,18.2359197663894,1594.12866950703,0,4,-4955.71107430535,9921.4221486107,9946.64667419635,380103.243797038,1143,530.3,1.88251989628004,26.4287076167076
65,123.981583522381,0.84376084953691,0.84330489870871,15.9010734325284,1850.55229062418,0,4,-4317.25167047043,8644.50334094086,8669.19961067107,259923.772123246,1028,530.3,1.88251989628004,26.4287076167076
66,127.27638965938,0.861563283518133,0.861140790995808,15.9385817124273,2039.23912966942,0,4,-4131.23730636697,8272.47461273395,8296.94796293111,249719.73442466,983,530.3,1.88251989628004,26.4287076167076
67,120.057133124506,0.839396248941561,0.838939555810589,18.2453813637766,1837.98746251184,0,4,-4575.89489836964,9161.78979673928,9186.61519846729,351203.107870676,1055,530.3,1.88251989628004,26.4287076167076
68,110.192621512371,0.830985069769468,0.830556460478943,19.6307009171253,1938.79388090433,0,4,-5216.08808709254,10442.1761741851,10467.5720961581,455886.107082688,1183,530.3,1.88251989628004,26.4287076167076
69,98.8184654452257,0.829357396490435,0.82881452500525,20.1966205170745,1527.72326254903,0,4,-4187.95353409238,8385.90706818475,8410.17356365068,384652.981933004,943,530.3,1.88251989628004,26.4287076167076
70,98.7129327455776,0.828440127129039,0.828048139605343,20.1225414768339,2113.43493618809,0,4,-5820.16314512588,11650.3262902518,11676.2418487605,531655.594914301,1313,530.3,1.88251989628004,26.4287076167076
71,92.5222968502937,0.833002707267901,0.832668712682437,19.161342504412,2494.0605133169,0,4,-6573.23472624508,13156.4694524902,13183.0488700127,550735.569857081,1500,530.3,1.88251989628004,26.4287076167076
72,91.0388541616433,0.869811611634112,0.86954019734287,17.2082784990822,3204.73770063057,0,4,-6151.42412761073,12312.8482552215,12339.2206530153,426123.65756994,1439,530.3,1.88251989628004,26.4287076167076
73,83.1731709597314,0.886868685417124,0.886640904246823,16.0209831761623,3893.51184843248,0,4,-6262.09705790245,12534.1941158049,12560.7401776334,382441.133877006,1490,530.3,1.88251989628004,26.4287076167076
74,83.7645069982429,0.889849609157027,0.889606630353697,15.902693993321,3662.25200289659,0,4,-5706.9195737536,11423.8391475072,11449.9300316992,343938.119693484,1360,530.3,1.88251989628004,26.4287076167076
75,104.982100354565,0.831815475952043,0.831425859294017,19.5284890158553,2134.95870573429,0,4,-5701.66288155318,11413.3257631064,11439.1725131897,493863.638798884,1295,530.3,1.88251989628004,26.4287076167076
76,107.96907471378,0.871794737390735,0.87145912152003,15.8585432658393,2597.59687633285,0,4,-4808.0404436203,9626.08088724059,9651.31847334738,288211.430113613,1146,530.3,1.88251989628004,26.4287076167076
77,113.544707055595,0.862024965005276,0.861609794388441,15.1564501538636,2076.31496558568,0,4,-4139.49808532926,8288.99617065852,8313.5399445551,229028.827322753,997,530.3,1.88251989628004,26.4287076167076
78,132.531314644964,0.816021868021693,0.815473225481002,16.9385912563962,1487.34705659949,0,4,-4289.01441788931,8588.02883577862,8612.61736382779,288637.368993769,1006,530.3,1.88251989628004,26.4287076167076
79,123.063285230445,0.842521184651229,0.842074224910409,16.4557467131861,1885.00463846316,0,4,-4475.00592505988,8960.01185011975,8984.84668581282,286226.721082183,1057,530.3,1.88251989628004,26.4287076167076
80,110.872063888827,0.856315050743992,0.85591555598239,17.4706221543082,2143.49506689693,0,4,-4632.65068624156,9275.30137248312,9300.23882371813,329335.226896834,1079,530.3,1.88251989628004,26.4287076167076
81,103.609391941411,0.838843929881853,0.83847766608613,18.9574972017192,2290.27258406976,0,4,-5772.14370751215,11554.2874150243,11580.2294787068,474390.444202211,1320,530.3,1.88251989628004,26.4287076167076
82,97.1622616172452,0.862807854940091,0.862520842084317,17.7506388086027,3006.16448909133,0,4,-6174.7249473959,12359.4498947918,12385.8049374832,451832.145414719,1434,530.3,1.88251989628004,26.4287076167076
83,93.0150679479971,0.870700562717907,0.870446036266564,17.0750303889042,3420.86473969484,0,4,-6502.0145153225,13014.029030645,13040.6876054936,444332.35407977,1524,530.3,1.88251989628004,26.4287076167076
84,88.7127660706108,0.846883433139636,0.846587650975707,18.2097876959968,2863.19980181127,0,4,-6725.63525167786,13461.2705033557,13488.0230842149,514969.159400377,1553,530.3,1.88251989628004,26.4287076167076
85,75.1446421742983,0.89995057318111,0.899748589143118,15.2172587926685,4455.55293441102,0,4,-6168.63676869992,12347.2735373998,12373.8061943945,344105.538232289,1486,530.3,1.88251989628004,26.4287076167076
86,87.010057189858,0.861520166080125,0.861227190408927,16.7600169025137,2940.5860307633,0,4,-6024.34023524881,12058.6804704976,12084.9795685494,398313.600199868,1418,530.3,1.88251989628004,26.4287076167076
87,94.2656905914476,0.842305285812239,0.841813514354273,16.9222974246439,1712.79823618899,0,4,-4101.14910507853,8212.29821015706,8236.66402932813,275482.312423242,962,530.3,1.88251989628004,26.4287076167076
