"Age","power_predict","r.squared","adj.r.squared","sigma","statistic","p.value","df","logLik","AIC","BIC","deviance","df.residual","GHI","Wind_speed","Ambient_temp"
1,90.2637751209367,0.930596148211229,0.93044646341226,24.4302227520292,6217.03843422351,0,4,-6435.58668040651,12881.173360813,12907.3766092843,830198.575145845,1391,319.524199308,1.05373424521908,20.7048573467291
2,93.5296380224822,0.990220522295891,0.990194696210405,8.23553580786965,38341.8742582926,0,4,-4019.22901674391,8048.45803348781,8073.65195119476,77048.1208485108,1136,319.524199308,1.05373424521908,20.7048573467291
3,114.192422786455,0.983516010142259,0.983454426120374,10.8200257213968,15970.3114549326,0,4,-3064.8671342804,6139.7342685608,6163.20088690215,94009.5841591853,803,319.524199308,1.05373424521908,20.7048573467291
4,121.446458080933,0.976066218536771,0.975990398743328,10.9755419894853,12873.501419941,0,4,-3625.68787115121,7261.37574230242,7285.66331261515,114078.008298917,947,319.524199308,1.05373424521908,20.7048573467291
5,122.200308942703,0.979152901571474,0.979084847931338,9.63506496902402,14387.9577874958,0,4,-3398.64846830362,6807.29693660723,6831.43508277975,85314.8843237715,919,319.524199308,1.05373424521908,20.7048573467291
6,121.3030337475,0.974048835155377,0.973933153885639,11.3325499568636,8420.10843552284,0,4,-2602.15421407915,5214.30842815831,5236.89678452287,86431.1613771967,673,319.524199308,1.05373424521908,20.7048573467291
7,119.870312406575,0.987379955350176,0.987336637119113,8.98134463498093,22793.635176457,0,4,-3171.16481805599,6352.32963611197,6376.21786908015,70500.8179693109,874,319.524199308,1.05373424521908,20.7048573467291
8,113.425395861045,0.984728318607612,0.98468851405142,10.5596382185617,24739.0854919724,0,4,-4359.25060051983,8728.50120103966,8753.76047915444,128343.359162253,1151,319.524199308,1.05373424521908,20.7048573467291
9,101.111682734226,0.975124056871679,0.975054245992928,14.3978802270285,13968.0816846304,0,4,-4382.29521047999,8774.59042095998,8799.48148967314,221602.582929056,1069,319.524199308,1.05373424521908,20.7048573467291
10,96.2268569678692,0.973013961713918,0.972947384316831,15.5125565782758,14614.7792536403,0,4,-5073.91447794574,10157.8289558915,10183.3619865801,292617.524498556,1216,319.524199308,1.05373424521908,20.7048573467291
11,88.3617734944357,0.97991581932572,0.979869003053752,13.7294032056758,20931.0946415192,0,4,-5211.67236191152,10433.344723823,10459.1605857773,242595.011438234,1287,319.524199308,1.05373424521908,20.7048573467291
12,89.7538184417656,0.990706569355151,0.990687368052165,8.63392895327367,51595.7989995484,0,4,-5202.67046921882,10415.3409384376,10441.7581795814,108238.946755097,1452,319.524199308,1.05373424521908,20.7048573467291
13,86.5950537170546,0.996392239188814,0.996384696831717,5.16859191376283,132106.213804657,0,4,-4403.55158793587,8817.10317587173,8843.46169440617,38335.0813024058,1435,319.524199308,1.05373424521908,20.7048573467291
14,89.8002770874255,0.995465753237262,0.995455479264235,5.26519375929466,96891.995977328,0,4,-4088.31198666444,8186.62397332887,8212.58111997905,36704.27928754,1324,319.524199308,1.05373424521908,20.7048573467291
15,104.296052231102,0.957077400360248,0.956969282980803,14.841375142243,8852.2067892441,0,4,-4917.04377554215,9844.08755108431,9869.51705840613,262337.30159033,1191,319.524199308,1.05373424521908,20.7048573467291
16,101.468652044033,0.742725136481223,0.741656127353029,36.1049195552917,694.779040601591,2.63467329802859e-212,4,-3631.8913948475,7273.782789695,7296.72053976913,941174.086019927,722,319.524199308,1.05373424521908,20.7048573467291
17,120.44850481756,0.980961036287963,0.980898817452303,8.65860538483834,15766.3033368951,0,4,-3296.44345907493,6602.88691814987,6627.01964426765,68823.7885391027,918,319.524199308,1.05373424521908,20.7048573467291
18,123.719884420303,0.980870439988419,0.980807306126995,9.12323635939761,15536.3606448116,0,4,-3311.96935127801,6633.93870255603,6658.022381959,75659.198477516,909,319.524199308,1.05373424521908,20.7048573467291
19,120.360921994071,0.984525821825732,0.984477914153366,8.95510073848739,20550.4833192708,0,4,-3511.65632667997,7033.31265335995,7057.71457377088,77707.8205301273,969,319.524199308,1.05373424521908,20.7048573467291
20,110.221916514646,0.990957032948902,0.990930719756707,7.81790181828759,37660.0841735988,0,4,-3594.98828333057,7199.97656666113,7224.68735018963,63014.2960944363,1031,319.524199308,1.05373424521908,20.7048573467291
21,101.997786645175,0.991770698732415,0.991751545975392,8.13217861062708,51782.1375552906,0,4,-4542.59113872478,9095.18227744957,9121.00587934343,85244.5720231761,1289,319.524199308,1.05373424521908,20.7048573467291
22,95.9686049652396,0.994315305710247,0.994303071791403,6.9872444220191,81275.2903094345,0,4,-4699.50579609747,9409.01159219494,9435.22558180891,68057.2889505736,1394,319.524199308,1.05373424521908,20.7048573467291
23,91.2180686478902,0.99473258855417,0.994721904149615,6.82678730845271,93101.3594059488,0,4,-4950.9098967536,9911.8197935072,9938.32890521789,68928.8319082247,1479,319.524199308,1.05373424521908,20.7048573467291
24,86.4921287687197,0.991329804748126,0.991312658679731,8.38179473069982,57816.741534853,0,4,-5389.94326765041,10789.8865353008,10816.5221517621,106576.05057081,1517,319.524199308,1.05373424521908,20.7048573467291
25,92.8543109688687,0.98955585914279,0.989534383870294,9.31245899972935,46078.8499576991,0,4,-5338.37403875382,10686.7480775076,10713.1892995127,126527.241334973,1459,319.524199308,1.05373424521908,20.7048573467291
26,98.0682896778956,0.994989301191852,0.994978264410336,5.98264532888761,90152.1244914093,0,4,-4379.85373202926,8769.70746405852,8795.80567425917,48748.7654687772,1362,319.524199308,1.05373424521908,20.7048573467291
27,107.102350266597,0.993988755398774,0.993973851486539,6.09989084050995,66693.1433681879,0,4,-3915.82892065131,7841.65784130261,7867.16622116071,45022.4886020261,1210,319.524199308,1.05373424521908,20.7048573467291
28,114.758681031029,0.986218712582602,0.986178805379656,8.12749390721063,24712.7996896647,0,4,-3652.75494697486,7315.50989394972,7340.2447739104,68434.1788713689,1036,319.524199308,1.05373424521908,20.7048573467291
29,120.060167566583,0.981221311053825,0.981158506074072,8.95705232918013,15623.3043129914,0,4,-3251.84867948224,6513.69735896447,6537.71488525251,71965.2214256211,897,319.524199308,1.05373424521908,20.7048573467291
30,118.328931216581,0.981263391197813,0.981200091843751,7.76027688667222,15501.9495182419,0,4,-3091.41274309143,6192.82548618286,6216.79281684576,53477.0448537433,888,319.524199308,1.05373424521908,20.7048573467291
31,112.625287602778,0.977871567051832,0.977793282501308,9.72155246267834,12491.2458525237,0,4,-3144.67313684273,6299.34627368545,6323.0842063196,80143.2777773469,848,319.524199308,1.05373424521908,20.7048573467291
32,109.190248208729,0.994071894848898,0.994055320463573,5.85217943625239,59976.3958288638,0,4,-3429.05191125822,6868.10382251644,6893.01349590222,36748.1084573443,1073,319.524199308,1.05373424521908,20.7048573467291
33,97.2055029147589,0.973011094222803,0.972946112908732,13.9566291879111,14973.7060283232,0,4,-5066.61321715465,10143.2264343093,10168.8809284608,242705.22286791,1246,319.524199308,1.05373424521908,20.7048573467291
34,87.8550246358665,0.980734081217886,0.980687582620665,12.9710369976381,21091.6917890187,0,4,-4963.1236653475,9936.247330695,9961.8898104234,209132.016387062,1243,319.524199308,1.05373424521908,20.7048573467291
35,87.773043999788,0.985263426719724,0.985233433694052,11.4113734135179,32849.7510550532,0,4,-5693.54279812324,11397.0855962465,11423.577821754,191943.459251363,1474,319.524199308,1.05373424521908,20.7048573467291
36,81.0827228874616,0.984907133230182,0.984877558703527,11.3141935643957,33302.549342732,0,4,-5900.06707600745,11810.1341520149,11836.815580315,195984.80427531,1531,319.524199308,1.05373424521908,20.7048573467291
37,80.8754775551585,0.992889601320107,0.992875256198359,7.77810214290083,69214.4422852196,0,4,-5172.14140602192,10354.2828120438,10380.8188236177,89961.8240698075,1487,319.524199308,1.05373424521908,20.7048573467291
38,83.7578890751959,0.992282226312575,0.992265151592027,7.32987346930946,58114.1122373226,0,4,-4636.81668325876,9283.63336651752,9309.70956641117,72853.8731231736,1356,319.524199308,1.05373424521908,20.7048573467291
39,91.8992693004251,0.981908513128533,0.9818644949123,9.91271042290498,22306.8674102348,0,4,-4590.67636182888,9191.35272365776,9216.95494551972,121156.833835679,1233,319.524199308,1.05373424521908,20.7048573467291
40,104.476761579684,0.982567805579004,0.982515924047989,9.16293252555966,18938.6817689983,0,4,-3675.71010001614,7361.42020003228,7386.01861928152,84631.0071277029,1008,319.524199308,1.05373424521908,20.7048573467291
41,109.911503833853,0.983909685012133,0.983858604647092,8.39957047114364,19261.9940015177,0,4,-3364.21180224294,6738.42360448588,6762.70064847893,66672.3809742242,945,319.524199308,1.05373424521908,20.7048573467291
42,111.223786224454,0.980719489333396,0.980648691864608,7.77469408342102,13852.465435874,0,4,-2846.71129299004,5703.42258598008,5726.97520152735,49384.2742301688,817,319.524199308,1.05373424521908,20.7048573467291
43,110.926541195337,0.983768887087662,0.983735420875471,8.1573249579815,29395.8838691102,0,3,-3421.37042719219,6850.74085438439,6870.26239071313,64545.6919560046,970,319.524199308,1.05373424521908,20.7048573467291
44,105.915757187357,0.990436575051047,0.990417786396923,7.37744930978163,52714.6100264193,0,3,-3487.62897833903,6983.25795667807,7002.97210795073,55406.4399681286,1018,319.524199308,1.05373424521908,20.7048573467291
45,431.684010821285,0.993900130586726,0.993884700900183,6.43125544736057,64414.7972693083,0,4,-3901.32550907839,7812.65101815677,7838.0595610873,49054.2013022371,1186,319.524199308,1.05373424521908,20.7048573467291
46,88.121169376286,0.994525511416839,0.994517623104759,6.5625262207961,126075.832370212,0,3,-4589.23537204923,9186.47074409847,9207.42185686616,59776.6495533073,1388,319.524199308,1.05373424521908,20.7048573467291
47,59.3662325545341,0.893193180136901,0.89304806217513,28.8965761007853,6154.94573683007,0,3,-7052.92440224744,14113.8488044949,14135.03445757,1229137.82643296,1472,319.524199308,1.05373424521908,20.7048573467291
48,77.0872494070613,0.994442039536209,0.994431004538597,4.28487713791786,90117.1050980678,0,4,-4352.15342963123,8714.30685926246,8740.92271285218,27742.2200235343,1511,319.524199308,1.05373424521908,20.7048573467291
49,54.0073217336021,0.991063740601915,0.991048333258125,5.44305145108239,64324.1141447052,0,3,-3619.24080088046,7246.48160176093,7266.716634371,34367.0985549909,1160,319.524199308,1.05373424521908,20.7048573467291
50,52.5836644962341,0.993108989481299,0.993098103208757,4.6850906225412,91225.806234894,0,3,-3758.9561159872,7525.9122319744,7546.49616984525,27788.7938630422,1266,319.524199308,1.05373424521908,20.7048573467291
51,175.93153762688,0.992366678291622,0.992333917254247,4.27887423294283,30291.0639529531,0,4,-2017.4521088189,4044.9042176378,4067.68100209686,12797.8265262381,699,319.524199308,1.05373424521908,20.7048573467291
52,75.9919119604383,0.992650030330105,0.992630219091103,3.77748842645135,50105.3987693175,0,4,-3067.510047453,6145.020094906,6170.11210390134,15881.8631377269,1113,319.524199308,1.05373424521908,20.7048573467291
53,79.1227367149529,0.984160111793377,0.984111323636684,4.91832870819,20172.1109893099,0,4,-2943.64125050092,5897.28250100183,5921.71004935201,23561.018392479,974,319.524199308,1.05373424521908,20.7048573467291
54,45.622423993811,0.982064922409959,0.982006691638563,4.65738497457057,16865.0508805285,0,4,-2742.45606531491,5494.91213062982,5519.07728929375,20042.7009564527,924,319.524199308,1.05373424521908,20.7048573467291
55,109.271179959237,0.858174912638687,0.857713442723194,23.433070322591,1859.65516673627,0,4,-4232.67406272547,8475.34812545094,8499.50249662417,506278.299533503,922,319.524199308,1.05373424521908,20.7048573467291
56,107.045408181535,0.989473709558538,0.989443548267875,7.65270686912073,32806.0798394586,0,4,-3628.14803780964,7266.29607561928,7291.08356247367,61316.426778648,1047,319.524199308,1.05373424521908,20.7048573467291
57,100.639298787802,0.995057358234412,0.995044845217284,5.9596540299589,79521.7770462483,0,4,-3807.4943243799,7624.98864875979,7650.39298824325,42088.2092458143,1185,319.524199308,1.05373424521908,20.7048573467291
58,89.4183723182944,0.99799113880116,0.997986739835031,4.27681280317215,226869.475592583,0,4,-3944.32650223607,7898.65300447215,7924.78041183606,25058.8450221268,1370,319.524199308,1.05373424521908,20.7048573467291
59,85.4338238125727,0.997918364530507,0.99791422609021,4.47679514892354,241133.927969246,0,4,-4412.69828162746,8835.39656325493,8862.00581182387,30242.9174613869,1509,319.524199308,1.05373424521908,20.7048573467291
60,82.194125086261,0.997594571297355,0.997590052646067,4.82518577672324,220772.639351191,0,4,-4789.45071748601,9588.90143497202,9615.793353537,37182.0211944879,1597,319.524199308,1.05373424521908,20.7048573467291
61,85.6638080812449,0.997699509273262,0.997694974797454,4.73894784666484,220025.324084813,0,4,-4537.47147611601,9084.94295223202,9111.59497829124,34180.5078273691,1522,319.524199308,1.05373424521908,20.7048573467291
62,88.9671353342581,0.997920563164631,0.997916260881523,4.30242414548695,231951.393758297,0,4,-4182.77958265669,8375.55916531338,8401.96953360385,26840.7376151202,1450,319.524199308,1.05373424521908,20.7048573467291
63,90.9941671734795,0.998724417930318,0.998697084028825,3.14794145386509,36537.9387270905,2.38031696361473e-202,4,-367.430663119793,744.861326239586,759.710392737466,1387.33495557472,140,319.524199308,1.05373424521908,20.7048573467291
66,118.336451536631,0.995853764557032,0.995740685408588,4.16751482993453,8806.69670982828,7.86432393071744e-131,4,-322.437530005448,654.875060010897,668.556052252869,1910.49978434966,110,319.524199308,1.05373424521908,20.7048573467291
67,111.921667395912,0.983872564192397,0.983819455183151,8.43449741242437,18525.530379246,0,4,-3247.40644304478,6504.81288608957,6528.90750641594,64809.2201527761,911,319.524199308,1.05373424521908,20.7048573467291
68,112.211774498259,0.974613316500124,0.974541263472215,11.4127912502403,13526.3339346876,0,4,-4086.74359079762,8183.48718159523,8208.3220172883,137676.15695649,1057,319.524199308,1.05373424521908,20.7048573467291
69,102.213870041478,0.991692400743314,0.991671700745167,6.1784675962955,47907.8497330453,0,4,-3911.92732650582,7833.85465301165,7859.33825990412,45960.8480535221,1204,319.524199308,1.05373424521908,20.7048573467291
70,104.454323450911,1,1,1.48349852723118e-10,4.04456209613223e+23,0,2,16292.2083920313,-32578.4167840625,-32564.4854148631,1.68578819630757e-17,766,319.524199308,1.05373424521908,20.7048573467291
71,104.454323450909,1,1,1.48995368842292e-10,3.45224565335231e+23,0,2,14252.8899562062,-28499.7799124124,-28486.2491373908,1.4873745357422e-17,670,319.524199308,1.05373424521908,20.7048573467291
82,100.082524145664,0.988203247736319,0.988175982515371,9.69606128359455,36244.0946143801,0,4,-4803.23400598133,9616.46801196265,9642.3262960765,122029.658530957,1298,319.524199308,1.05373424521908,20.7048573467291
83,86.4383489011762,0.985616936134422,0.98558705442279,10.1994294013172,32983.9517986666,0,4,-5415.35664262945,10840.7132852589,10867.1029781236,150216.952002383,1444,319.524199308,1.05373424521908,20.7048573467291
84,82.7691872975377,0.993389379966366,0.9933764179663,7.50262730615657,76638.5877883085,0,4,-5266.04760892927,10542.0952178585,10568.7733877682,86122.8072374818,1530,319.524199308,1.05373424521908,20.7048573467291
85,83.3740043505178,0.992329383370977,0.992314273817539,8.08128720650539,65675.6261791586,0,4,-5355.46114900028,10720.9222980006,10747.5775995267,99462.8700380643,1523,319.524199308,1.05373424521908,20.7048573467291
86,81.1430433814132,0.99293035646492,0.992915819843532,7.52567511316724,68305.4425065818,0,4,-5026.70725960804,10063.4145192161,10089.8557412212,82631.6116411503,1459,319.524199308,1.05373424521908,20.7048573467291
87,82.2018515588484,0.995131391824634,0.995119458961459,5.81668147472831,83394.1843828785,0,4,-3902.62957864806,7815.25915729612,7840.82486783965,41412.5508552198,1224,319.524199308,1.05373424521908,20.7048573467291
