"Age","power_predict","r.squared","adj.r.squared","sigma","statistic","p.value","df","logLik","AIC","BIC","deviance","df.residual","GHI","Wind_speed","Ambient_temp"
1,98.7712873093498,0.950632515391922,0.950352018320285,8.74012521053488,3389.0996075097,0,4,-1906.20358532518,3822.40717065036,3843.79038809707,40333.8084313968,528,513.2,1.19485289968343,17.3104489407584
2,102.30633058893,0.913102459097629,0.912140493700185,10.4981704304329,949.205097734837,2.16545511783318e-143,4,-1034.77368281971,2079.54736563942,2097.63122112775,29867.3388267187,271,513.2,1.19485289968343,17.3104489407584
3,90.4496077105262,0.896393343411525,0.891611497722826,10.1068447783969,187.457605654238,6.17237869896889e-32,4,-255.458134958789,520.916269917578,532.086802440564,6639.64023934953,65,513.2,1.19485289968343,17.3104489407584
6,99.253768863959,0.957610415374701,0.957502186647998,11.207653858412,8848.02440671354,0,4,-4520.09290496409,9050.18580992819,9075.54791943087,147593.518386724,1175,513.2,1.19485289968343,17.3104489407584
7,96.0776256107088,0.99028800906733,0.990267286469323,5.31575098875967,47787.8308852537,0,4,-4354.35124961603,8718.70249923205,8744.95922414891,39729.6352557461,1406,513.2,1.19485289968343,17.3104489407584
8,95.996131158069,0.970123335187391,0.9700558427217,9.46207912495309,14373.8019533462,0,4,-4881.41624710193,9772.83249420386,9798.80467845936,118897.090135207,1328,513.2,1.19485289968343,17.3104489407584
9,98.61088861273,0.993718301373492,0.993703532489573,4.48441295057112,67284.5901479445,0,4,-3735.01591284413,7480.03182568826,7505.80490247283,25660.308336355,1276,513.2,1.19485289968343,17.3104489407584
10,98.4992113902795,0.9863654856296,0.986328734917011,6.62808737322776,26839.356740349,0,4,-3695.55103890123,7401.10207780247,7426.19408679781,48895.8064988083,1113,513.2,1.19485289968343,17.3104489407584
11,92.952928236569,0.984739814591981,0.984703451957966,5.95586819013739,27081.0913808818,0,4,-4043.78432443306,8097.56864886611,8123.27487447787,44659.7086659477,1259,513.2,1.19485289968343,17.3104489407584
12,98.2577994606586,0.982679678056175,0.982637433368507,6.0652470394877,23261.6154197221,0,4,-3973.34478902383,7956.68957804766,7982.27965906999,45248.2826295175,1230,513.2,1.19485289968343,17.3104489407584
13,99.7359647331624,0.982899932970282,0.982850126949807,5.05086693422497,19734.5606735527,0,4,-3139.80350010883,6289.60700021765,6314.31295049299,26276.5944908646,1030,513.2,1.19485289968343,17.3104489407584
14,96.4843805976007,0.96797950254686,0.967875539892791,5.49270297312722,9310.83869701708,0,4,-2895.54484073251,5801.08968146501,5825.25484012894,27876.8822187246,924,513.2,1.19485289968343,17.3104489407584
15,95.3194263524791,0.961472555607611,0.961332455809821,5.44003869048214,6862.76904585781,0,4,-2578.44394082849,5166.88788165699,5190.48898243266,24415.0672870027,825,513.2,1.19485289968343,17.3104489407584
16,95.6251487871605,0.975363605870218,0.975290645176843,5.17166258482075,13368.343429124,0,4,-3112.18506648929,6234.37013297858,6258.99319495883,27093.7931118209,1013,513.2,1.19485289968343,17.3104489407584
17,95.5632947056291,0.990134326329303,0.990106218996908,4.29197100689401,35226.9049374523,0,4,-3037.59483128977,6085.18966257954,6110.0056125089,19397.3289255918,1053,513.2,1.19485289968343,17.3104489407584
18,94.135403067291,0.992851010184198,0.992834056058153,4.25932449878569,58561.025648077,0,4,-3637.55116510138,7285.10233020277,7310.83225254134,22949.4341602343,1265,513.2,1.19485289968343,17.3104489407584
19,93.8386575956135,0.994426937214897,0.994415079634503,4.02727376684934,83864.2374064668,0,4,-3974.20503436579,7958.41006873157,7984.68095796386,22868.6969303455,1410,513.2,1.19485289968343,17.3104489407584
20,94.8238791941216,0.991861101827874,0.991844039148268,4.92988147517064,58130.4416846302,0,4,-4323.45095032438,8656.90190064876,8683.24650128972,34778.6395750591,1431,513.2,1.19485289968343,17.3104489407584
21,93.8822936547386,0.992486257140437,0.99247080736074,4.76862149921264,64239.5086901786,0,4,-4359.19411990067,8728.38823980135,8754.82946180645,33177.2967130167,1459,513.2,1.19485289968343,17.3104489407584
22,95.6164222024965,0.996958478215424,0.996952110758792,2.98608202927219,156570.909835058,0,4,-3609.03552179463,7228.07104358926,7254.42260801966,12777.6108739821,1433,513.2,1.19485289968343,17.3104489407584
23,93.8423996628954,0.992506596670209,0.992489656044746,4.46264385552652,58587.3643708805,0,4,-3877.43595733258,7764.87191466516,7790.84034375714,26427.4573705434,1327,513.2,1.19485289968343,17.3104489407584
24,91.8761131760295,0.985815926825757,0.985781993636345,5.28113858151793,29051.6731231647,0,4,-3876.51176572193,7763.02353144387,7788.70992363017,34974.5925953653,1254,513.2,1.19485289968343,17.3104489407584
25,79.3300710018645,0.945084251132863,0.944932968078133,7.9800516350669,6247.12564680202,0,4,-3818.99690421369,7647.99380842738,7672.97721586826,69348.8530430857,1089,513.2,1.19485289968343,17.3104489407584
26,80.0673272309411,0.909547382701755,0.909258088616579,8.12054178935167,3144.02343258968,0,4,-3307.55769597264,6625.11539194527,6649.35541831815,61854.7206175452,938,513.2,1.19485289968343,17.3104489407584
27,93.1754632955881,0.972712579671321,0.972598882086618,4.36186762032041,8555.26159340744,0,4,-2091.68578364835,4193.37156729669,4216.29552425862,13698.6401787837,720,513.2,1.19485289968343,17.3104489407584
28,94.154942025974,0.97609612127809,0.976021109106368,4.58838848312103,13012.5031561863,0,4,-2822.76452824546,5655.52905649092,5679.86372291323,20126.9632816681,956,513.2,1.19485289968343,17.3104489407584
29,89.4782993902036,0.973140535003582,0.973066677629623,6.36929896654816,13175.9428048982,0,4,-3579.11493721332,7168.22987442664,7193.22242263789,44259.6545338711,1091,513.2,1.19485289968343,17.3104489407584
30,93.9527453811836,0.978602808731704,0.978547327682608,6.34673458133009,17638.5058441485,0,4,-3790.84303636652,7591.68607273303,7616.97125764152,46605.1631016498,1157,513.2,1.19485289968343,17.3104489407584
31,93.4018440947185,0.992742936613562,0.992725149693498,4.3899117990258,55813.0881005255,0,4,-3557.04487280747,7124.08974561494,7149.65545615848,23588.1025383485,1224,513.2,1.19485289968343,17.3104489407584
32,92.421601084095,0.987292072531797,0.987263936899026,6.08043261250857,35090.452045987,0,4,-4379.43259332444,8768.86518664888,8794.93770871963,50096.6003233743,1355,513.2,1.19485289968343,17.3104489407584
33,93.8445917725634,0.996172863431985,0.996164627126602,3.38454481631577,120948.995586762,0,4,-3686.14196098755,7382.28392197509,7408.49791158906,15968.470197428,1394,513.2,1.19485289968343,17.3104489407584
34,93.8149038627139,0.996345240764909,0.996336990744062,3.13453955098265,120768.814925196,0,4,-3412.37095004275,6834.7419000855,6860.71783668639,13057.8744633804,1329,513.2,1.19485289968343,17.3104489407584
35,94.3192150377635,0.99644538659083,0.996436807475603,3.05464805881197,116147.803146685,0,4,-3159.89362354019,6329.78724708038,6355.42972680878,11598.2773306623,1243,513.2,1.19485289968343,17.3104489407584
36,94.3504505147277,0.995048563115714,0.995036698650336,3.05143310585253,83867.964669314,0,4,-3181.39146311504,6372.78292623008,6398.46136296522,11657.677487365,1252,513.2,1.19485289968343,17.3104489407584
37,95.079948184418,0.987702258070521,0.987669169975644,4.4094865436599,29850.6838101925,0,4,-3246.11412023335,6502.2282404667,6527.32919400826,21679.5823102703,1115,513.2,1.19485289968343,17.3104489407584
38,93.4118332882624,0.963090027992691,0.962973224283807,5.69231946501067,8245.37197658731,0,4,-3004.46541945353,6018.93083890705,6043.22366408101,30717.5708453689,948,513.2,1.19485289968343,17.3104489407584
39,97.5534647857096,0.965856735745494,0.96573212529201,5.18022149096212,7751.0089141327,0,4,-2528.68266467529,5067.36532935057,5090.94830321818,22058.11903964,822,513.2,1.19485289968343,17.3104489407584
40,93.2723137220071,0.962319580041436,0.962200714363333,5.43750031626993,8095.85740309148,0,4,-2970.20217811965,5950.4043562393,5974.71291294171,28117.6556146532,951,513.2,1.19485289968343,17.3104489407584
41,97.5080131691948,0.984510183455711,0.984464445808435,4.6936856208756,21525.1601706842,0,4,-3022.45585493858,6054.91170987716,6079.54949940855,22383.1756629362,1016,513.2,1.19485289968343,17.3104489407584
42,94.7713081134904,0.988972915605351,0.98894680569755,4.62717100896333,37877.3040157988,0,4,-3748.57066620122,7507.14133240244,7532.87912875839,27127.3715290236,1267,513.2,1.19485289968343,17.3104489407584
43,91.3708313457513,0.985675297027935,0.98564218908578,5.85875314672735,29771.566364232,0,4,-4147.30861490319,8304.61722980637,8330.47551392022,44553.8349877054,1298,513.2,1.19485289968343,17.3104489407584
44,89.0546473057701,0.993397188044315,0.993382226990035,4.15329403483017,66398.8760040457,0,4,-3773.28889488779,7556.57778977559,7582.53493642577,22838.8031738368,1324,513.2,1.19485289968343,17.3104489407584
45,88.1550508108154,0.990299903008791,0.990279680429935,4.76213135887247,48970.0107026828,0,4,-4297.60889106958,8605.21778213916,8631.59017993303,32633.4910189063,1439,513.2,1.19485289968343,17.3104489407584
46,91.1722626245047,0.993710591796343,0.993697397233678,4.03617510764172,75312.1279594345,0,4,-4033.61165978442,8077.22331956884,8103.56443467464,23295.7145843517,1430,513.2,1.19485289968343,17.3104489407584
47,84.8676215650942,0.992475228135764,0.992457943054912,4.13793948313192,57418.0263681612,0,4,-3717.26573929408,7444.53147858815,7470.42039066913,22362.041374877,1306,513.2,1.19485289968343,17.3104489407584
48,84.0137927522683,0.991766663954067,0.991747649321166,3.81953885190641,52158.0757904594,0,4,-3593.06282643316,7196.12565286632,7221.98777575195,18950.9512765481,1299,513.2,1.19485289968343,17.3104489407584
49,86.6951866837239,0.972540236291118,0.972469280829338,6.1387045732036,13706.3477834268,0,4,-3765.08495498946,7540.16990997892,7565.47229180892,43750.7685448391,1161,513.2,1.19485289968343,17.3104489407584
50,83.2778607992146,0.96984040466513,0.969742164940912,4.85467771465621,9872.181669757,0,4,-2771.9608199675,5553.921639935,5578.07060862257,21706.0319518384,921,513.2,1.19485289968343,17.3104489407584
51,84.9379025781623,0.950075731209334,0.949904757686079,5.16342091955304,5556.85882303789,0,4,-2691.26875922876,5392.53751845751,5416.43712799487,23354.9620590107,876,513.2,1.19485289968343,17.3104489407584
52,85.7338965859276,0.979589272864743,0.979510466968468,3.63110189491701,12430.4058346704,0,4,-2113.31359192914,4236.62718385829,4259.93005960749,10244.6680546767,777,513.2,1.19485289968343,17.3104489407584
53,83.2178212262503,0.973066794821359,0.972983582035019,5.44896256289014,11693.7172473483,0,4,-3034.50056029933,6079.00112059865,6103.41330795364,28830.1484144367,971,513.2,1.19485289968343,17.3104489407584
54,71.1025197932442,0.988523393049336,0.988457561651914,3.37191184530329,15015.9867745844,0,4,-1386.33088377354,2782.66176754709,2803.9977702898,5946.39990457576,523,513.2,1.19485289968343,17.3104489407584
59,101.187592352905,0.978722446019489,0.978675441113788,7.91853486645852,20821.7085308431,0,4,-4748.85018006075,9507.70036012151,9533.78390755505,85150.9380377315,1358,513.2,1.19485289968343,17.3104489407584
60,102.341781264039,0.994505462345833,0.994492908185161,3.72110471318368,79217.2004420754,0,4,-3597.30412203455,7204.60824406909,7230.52380257781,18180.6124361454,1313,513.2,1.19485289968343,17.3104489407584
61,99.4778120555062,0.985392299968252,0.985356290847384,5.04795956124961,27365.0751876284,0,4,-3707.30026950182,7424.60053900365,7450.1376663742,31011.4671058578,1217,513.2,1.19485289968343,17.3104489407584
62,102.793569615959,0.975825870599297,0.975749370189801,5.35642962146547,12755.8254528255,0,4,-2946.5646212435,5903.12924248701,5927.42206766097,27199.3886986477,948,513.2,1.19485289968343,17.3104489407584
63,104.128238016169,0.967320068578705,0.967207119506972,5.20979574316402,8564.2144175287,0,4,-2674.58124672243,5359.16249344486,5383.0164405644,23559.2314230053,868,513.2,1.19485289968343,17.3104489407584
64,103.380350295943,0.962503526133415,0.962377133524876,5.77381706766508,7615.18839795161,0,4,-2834.00661942126,5678.01323884253,5701.9917677184,29669.8975424659,890,513.2,1.19485289968343,17.3104489407584
65,104.912500732959,0.983359107774151,0.983308321734805,4.77901635571283,19362.7839545862,0,4,-2942.38795896257,5894.77591792513,5919.2492681223,22450.7343735918,983,513.2,1.19485289968343,17.3104489407584
66,102.810692869326,0.990504104063015,0.990479482033792,4.35798375736251,40228.3700946831,0,4,-3354.38722425944,6718.77444851887,6744.05963342736,21973.7699508568,1157,513.2,1.19485289968343,17.3104489407584
67,98.4030872768398,0.992027225377851,0.992008981042331,4.53663341142353,54374.5330873613,0,4,-3852.42465805695,7714.8493161139,7740.75727583696,26981.7469923437,1311,513.2,1.19485289968343,17.3104489407584
68,99.0014220100633,0.994784429999161,0.994773348759782,3.88130905122889,89771.9466221818,0,4,-3927.55436602473,7865.10873204947,7891.38668842074,21271.1586510256,1412,513.2,1.19485289968343,17.3104489407584
69,99.145059059818,0.996262713013231,0.996254845040627,3.16273764976541,126622.544738111,0,4,-3671.065257841,7352.13051568199,7378.45416657164,14254.1459537721,1425,513.2,1.19485289968343,17.3104489407584
70,99.0061213422957,0.995192888250121,0.995182824513031,3.53735781780625,98888.999123597,0,4,-3852.48904306798,7714.97808613596,7741.32965056636,17930.9861746025,1433,513.2,1.19485289968343,17.3104489407584
71,99.8107219651659,0.995752618374293,0.99574344476387,3.4932649910458,108545.33520532,0,4,-3716.99419892215,7443.9883978443,7470.1844727132,16949.8285134584,1389,513.2,1.19485289968343,17.3104489407584
72,99.203964456716,0.990221103987092,0.990198963090459,4.99371823733809,44723.6225524524,0,4,-4021.03853816322,8052.07707632643,8078.03798662,33041.818929948,1325,513.2,1.19485289968343,17.3104489407584
73,99.7987692772674,0.991741662007793,0.991720648425116,4.1722708680855,47195.2678053206,0,4,-3366.46962040185,6742.93924080371,6768.3182851236,20523.8483078797,1179,513.2,1.19485289968343,17.3104489407584
74,99.2090692681238,0.978428864536201,0.978367756503726,5.22810299365216,16011.4607671403,0,4,-3264.58143960094,6539.16287920187,6564.00713109358,28945.7115060565,1059,513.2,1.19485289968343,17.3104489407584
75,100.113371777758,0.947661166868214,0.947486897723491,6.63453027503697,5437.91712741178,0,4,-2994.65546217663,5999.31092435325,6023.35059907175,39659.3097653143,901,513.2,1.19485289968343,17.3104489407584
76,103.58898887342,0.975497617731839,0.975402401220434,4.12040491480101,10245.0468237062,0,4,-2197.86944587258,4405.73889174516,4429.00965434608,13106.8127029994,772,513.2,1.19485289968343,17.3104489407584
77,102.983611427411,0.9892790502472,0.989243114102777,3.40581049042304,27528.8032741678,0,4,-2375.33044247258,4760.66088494515,4784.66730011751,10381.5928615247,895,513.2,1.19485289968343,17.3104489407584
78,100.069724882736,0.991193043260943,0.991169326142256,4.22165680918296,41792.3043834881,0,4,-3194.54421741424,6399.08843482848,6424.18491809705,19854.1382429762,1114,513.2,1.19485289968343,17.3104489407584
79,97.194039123534,0.993446932462132,0.993431821622306,3.94396883848249,65743.9919887086,0,4,-3640.41644852944,7290.83289705888,7316.70268865766,20236.9121487961,1301,513.2,1.19485289968343,17.3104489407584
80,95.6705483766333,0.993271044167692,0.993256696713891,4.30304042934072,69229.7781890526,0,4,-4059.22255965886,8128.44511931772,8154.70538907699,26052.2328097128,1407,513.2,1.19485289968343,17.3104489407584
81,97.0536687985491,0.995715245795898,0.995706275619616,3.46134557749785,111002.862650372,0,4,-3821.27357976388,7652.54715952777,7678.89872395816,17168.648625436,1433,513.2,1.19485289968343,17.3104489407584
82,89.4200143242383,0.989133820879274,0.989110896450749,5.69666535917286,43147.5890363796,0,4,-4502.473814013,9014.94762802599,9041.26077103086,46146.7386168769,1422,513.2,1.19485289968343,17.3104489407584
83,91.9850326773447,0.994862382660707,0.994851148803551,4.07209883781406,88559.2872381468,0,4,-3882.57867593269,7775.15735186539,7801.29203195785,22750.4888324393,1372,513.2,1.19485289968343,17.3104489407584
84,90.9814242422376,0.992866347146702,0.992849808538851,4.25421620702511,60033.2480254206,0,4,-3719.1670088709,7448.33401774181,7474.17691722813,23419.2720637329,1294,513.2,1.19485289968343,17.3104489407584
85,94.3417957604346,0.872555862896659,0.872157599968211,15.199275403689,2190.90404998796,0,4,-3989.13542181104,7988.27084362208,8012.62630009513,221777.253885297,960,513.2,1.19485289968343,17.3104489407584
86,92.5581495939175,0.930796502443185,0.930587006486908,9.55542774043508,4443.02849078737,0,4,-3655.66360574413,7321.32721148827,7345.84092517406,90484.4435089521,991,513.2,1.19485289968343,17.3104489407584
87,90.5065432694552,0.936011974076869,0.935800326802592,7.74515428238644,4422.50899414414,0,4,-3155.5269959424,6321.0539918848,6345.1267063711,54408.5852761778,907,513.2,1.19485289968343,17.3104489407584
88,90.923328021993,0.970656175463742,0.970550368404116,4.71363511409059,9173.83186807565,0,4,-2480.4118694656,4970.82373893121,4994.46688199663,18485.6721826714,832,513.2,1.19485289968343,17.3104489407584
89,89.6448981006108,0.828895624329052,0.828342485183564,12.8490175626948,1498.53003731602,0,4,-3700.09158285266,7410.18316570532,7434.36982977874,153210.250158935,928,513.2,1.19485289968343,17.3104489407584
90,98.3075179069285,0.756747541625366,0.755927589518485,20.1055422742949,922.916759741171,1.29450470963562e-272,4,-3949.41654883543,7908.83309767087,7932.81162654673,359767.218827678,890,513.2,1.19485289968343,17.3104489407584
91,98.4340850381186,0.693884911287209,0.692655533420892,26.3234309358162,564.419557484215,1.72935657815446e-191,4,-3519.73254216877,7049.46508433755,7072.57211259637,517613.493125818,747,513.2,1.19485289968343,17.3104489407584
92,101.07372252325,0.630138459155794,0.628626763484768,30.1852779718168,416.842140408048,5.0777633451358e-158,4,-3559.79868679106,7129.59737358212,7152.61709270512,668784.838577111,734,513.2,1.19485289968343,17.3104489407584
93,113.065340019329,0.784463344151334,0.783637533209385,24.8530975428548,949.930915543458,2.34531541965897e-260,4,-3643.31667013429,7296.63334026859,7319.97448151068,483640.666202655,783,513.2,1.19485289968343,17.3104489407584
