"Age","power_predict","r.squared","adj.r.squared","sigma","statistic","p.value","df","logLik","AIC","BIC","deviance","df.residual","GHI","Wind_speed","Ambient_temp"
1,220.968315661437,0.975293539796209,0.97523603833724,16.4398175245731,16961.1964162097,0,4,-5452.70465654149,10915.409313083,10941.2329149768,348374.936710985,1289,588.06,0.836734518685764,26.906035772243
2,234.279419656307,0.954368671852241,0.954274392248629,24.1046001187332,10122.748031369,0,4,-6697.55008118088,13405.1001623618,13431.5174035055,843658.096475612,1452,588.06,0.836734518685764,26.906035772243
3,271.838085468806,0.983253929529535,0.983217734852726,14.7914885920716,27165.7054629426,0,4,-5723.27983207201,11456.559664144,11482.7521483485,303677.931059907,1388,588.06,0.836734518685764,26.906035772243
4,255.79673642729,0.980704117180665,0.98065378009505,14.2668886967443,19482.7353468322,0,4,-4702.71594174232,9415.43188348465,9440.68683071999,234075.730048083,1150,588.06,0.836734518685764,26.906035772243
5,244.453351277371,0.935130675617512,0.934900097450275,22.7937064816902,4055.59072147122,0,4,-3852.51397175687,7715.02794351374,7738.7423466927,438502.77856639,844,588.06,0.836734518685764,26.906035772243
6,293.586693995311,0.993368467782356,0.993349227360061,7.09323081419631,51629.2445434181,0,4,-3504.44261185523,7018.88522371046,7043.61047902909,52024.5967785017,1034,588.06,0.836734518685764,26.906035772243
7,299.29392863609,0.99436860778058,0.994351438901863,5.97844818066186,57916.9218985137,0,4,-3166.61031159451,6343.22062318902,6367.69903667776,35169.9731664774,984,588.06,0.836734518685764,26.906035772243
8,290.338872846827,0.980232803038168,0.980175837052687,12.3295429400528,17207.3351275352,0,4,-4105.8250983477,8221.65019669541,8246.4090575174,158250.35190414,1041,588.06,0.836734518685764,26.906035772243
9,285.023191981782,0.991143864533659,0.991120227161418,9.95798189023325,41931.2203752218,0,4,-4191.12546754273,8392.25093508547,8417.39194224575,111457.417338664,1124,588.06,0.836734518685764,26.906035772243
10,278.722425340418,0.992232545090053,0.992213932977648,11.0339746111664,53311.1193157927,0,4,-4795.81337325206,9601.62674650411,9627.30518323926,152429.241841271,1252,588.06,0.836734518685764,26.906035772243
11,272.647863190026,0.98754065812298,0.987513234773287,14.2902164621566,36010.9421055974,0,4,-5573.32525893378,11156.6505178676,11182.7523870512,278338.620547603,1363,588.06,0.836734518685764,26.906035772243
12,273.907760058113,0.989532828712907,0.989478966768034,12.6260460027654,18371.650541696,0,4,-2319.40226392099,4648.80452784198,4670.67965194112,92940.1329580825,583,588.06,0.836734518685764,26.906035772243
16,187.680233633846,0.703860307890417,0.700173921681584,46.7445368549311,190.935042618131,2.15840242862191e-63,4,-1287.57429479211,2585.14858958423,2602.65488063695,526597.465913464,241,588.06,0.836734518685764,26.906035772243
17,282.484349516374,0.950785600281456,0.950615700167353,22.6439092050197,5596.14456588447,0,4,-3960.39350491288,7930.78700982576,7954.64668760495,445576.816330018,869,588.06,0.836734518685764,26.906035772243
18,266.516635885561,0.979136811155323,0.979076454774866,11.9849851084517,16222.589952209,0,4,-4060.59562574569,8131.19125149138,8155.93093683446,148954.543167653,1037,588.06,0.836734518685764,26.906035772243
19,280.158822285012,0.985120548153012,0.985071922493382,9.46528400811214,20259.2737175228,0,4,-3378.5725653346,6767.1451306692,6791.27785678698,82245.0900431771,918,588.06,0.836734518685764,26.906035772243
20,295.175409572636,0.988704746080383,0.988666063703946,9.61047242189231,25559.5658061372,0,4,-3237.97232538272,6485.94465076544,6509.8442603028,80908.3938306305,876,588.06,0.836734518685764,26.906035772243
21,284.4082173185,0.993351674385776,0.99333365724319,8.78804315078951,55133.6966805836,0,4,-3989.0756852523,7988.1513705046,8013.21644945279,85493.2805790933,1107,588.06,0.836734518685764,26.906035772243
22,274.453517262919,0.986855597447559,0.986819618243492,12.910114717252,27428.4999638288,0,4,-4372.64094113706,8755.28188227412,8780.29720956805,182671.483965818,1096,588.06,0.836734518685764,26.906035772243
23,273.92045107663,0.991644924414448,0.991626385045545,11.4372848046593,53488.6019912964,0,4,-5226.48509801974,10462.9701960395,10489.031668382,176857.125966307,1352,588.06,0.836734518685764,26.906035772243
24,262.588588790692,0.98905396010003,0.989030587772841,12.7511213004381,42317.3076485353,0,4,-5584.05901994189,11178.1180398838,11204.3712174433,228440.487657973,1405,588.06,0.836734518685764,26.906035772243
25,277.33138020292,0.976762802994224,0.976715890752624,18.4029596244142,20821.064389258,0,4,-6451.85786133816,12913.7157226763,12940.248379671,503262.019485597,1486,588.06,0.836734518685764,26.906035772243
26,239.954644633471,0.975183727176128,0.975133047245242,17.62387238322,19242.0098079585,0,4,-6314.50542358308,12639.0108471662,12665.4861292485,456272.689458855,1469,588.06,0.836734518685764,26.906035772243
27,249.454230243553,0.992203202319021,0.99218682249196,9.36002482061055,60574.7056199795,0,4,-5232.51063435761,10475.0212687152,10501.3554054528,125107.172309412,1428,588.06,0.836734518685764,26.906035772243
28,264.705968315046,0.985553275711107,0.985519574176996,12.4474751235015,29243.5730808744,0,4,-5081.18556394797,10172.3711278959,10198.1831153827,199252.373117942,1286,588.06,0.836734518685764,26.906035772243
29,281.145316730899,0.986674139821182,0.986640431911792,12.0130367090575,29271.2944136491,0,4,-4644.86450410716,9299.72900821431,9325.13755114484,171155.278454171,1186,588.06,0.836734518685764,26.906035772243
30,280.10748540879,0.992294147342675,0.992271768293331,7.82418818285374,44340.3172362561,0,4,-3602.7725155732,7215.5450311464,7240.26546718755,63238.1121044915,1033,588.06,0.836734518685764,26.906035772243
31,292.094430106977,0.989809083052872,0.989778325758263,8.41223607988751,32181.279128562,0,4,-3539.52458483906,7089.04916967813,7113.57793605968,70341.1215685786,994,588.06,0.836734518685764,26.906035772243
32,302.063370778233,0.993090966842072,0.99307101775692,6.66660132611349,49781.2786518461,0,4,-3456.63496686415,6923.2699337283,6948.01921600331,46176.8725977504,1039,588.06,0.836734518685764,26.906035772243
33,279.534169450427,0.984554068959789,0.984511163595789,10.9930958366851,22947.1091061332,0,4,-4134.76355904736,8279.52711809472,8304.46918400471,130516.008560507,1080,588.06,0.836734518685764,26.906035772243
34,276.468794315105,0.977348146602009,0.97724376018082,16.8491311310609,9362.79005899983,0,4,-2777.31451170988,5564.62902341976,5587.05219959794,184814.486136467,651,588.06,0.836734518685764,26.906035772243
35,268.774545133762,0.988903648189958,0.988877981994561,12.2186083884879,38529.4210102945,0,4,-5100.38699855053,10210.7739971011,10236.6284394936,193634.82506374,1297,588.06,0.836734518685764,26.906035772243
36,271.062198842491,0.988335143528521,0.988310942581485,13.4835997780728,40838.6970165909,0,4,-5827.59557718529,11665.1911543706,11691.5877485477,262893.591462205,1446,588.06,0.836734518685764,26.906035772243
37,274.901103578626,0.982672365263109,0.982638165984023,15.2205348697287,28733.715783683,0,4,-6309.771428756,12629.542857512,12656.1883261932,352130.316215354,1520,588.06,0.836734518685764,26.906035772243
38,272.837328902321,0.986757587490933,0.986730817115241,12.7015234435327,36860.0575067401,0,4,-5891.4600947809,11792.9201895618,11819.4461306388,239411.78751533,1484,588.06,0.836734518685764,26.906035772243
39,263.27334713622,0.964651176312624,0.964561761075641,20.765885950586,10788.4428746008,0,4,-5296.17422029264,10602.3484405853,10627.7569835158,511429.314904916,1186,588.06,0.836734518685764,26.906035772243
40,269.084016567838,0.985218684283767,0.985183265795629,13.0861920307475,27816.5087241096,0,4,-5010.05999057187,10030.1199811437,10055.7984178789,214403.02417573,1252,588.06,0.836734518685764,26.906035772243
41,266.949854129769,0.991215764368896,0.99100494271375,9.1492757087443,4701.67907409761,2.70769647629175e-128,4,-466.575445462637,943.150890925273,957.449952947081,10463.6557493273,125,588.06,0.836734518685764,26.906035772243
