"Age","power_predict","r.squared","adj.r.squared","sigma","statistic","p.value","df","logLik","AIC","BIC","deviance","df.residual","GHI","Wind_speed","Ambient_temp"
1,17.2109267861408,0.937656423624811,0.93729325716049,3.73067721370833,2581.89154490532,8.00606161520431e-310,4,-1417.73144541977,2845.46289083954,2866.72241025537,7167.7455235345,515,354.230203224,1.6205963337175,18.3186445989764
2,21.8786695731044,0.924743396751217,0.924583729276149,4.88962281984848,5791.68297335804,0,4,-4260.58132148882,8531.16264297764,8557.4476565131,33806.4936070215,1414,354.230203224,1.6205963337175,18.3186445989764
3,23.2060827105057,0.898879551286334,0.898681146220185,5.47881148083958,4530.52721251443,0,4,-4780.69175957503,9571.38351915006,9598.05842854442,45896.5667459042,1529,354.230203224,1.6205963337175,18.3186445989764
4,22.6783819733445,0.90067224589698,0.90048256845439,5.44192529343617,4748.44153104344,0,4,-4901.0849829777,9812.16996595539,9838.98001871169,46524.4594628636,1571,354.230203224,1.6205963337175,18.3186445989764
5,23.407254134742,0.867573070605215,0.867287872623747,5.77064323298603,3042.00284357131,0,4,-4428.89288589626,8867.78577179252,8893.99618358881,46387.3503881137,1393,354.230203224,1.6205963337175,18.3186445989764
6,21.3515885973731,0.88373000714144,0.883437871480992,5.42817015637815,3025.06720947475,0,4,-3724.42431950391,7458.84863900781,7484.29068290119,35181.2473084337,1194,354.230203224,1.6205963337175,18.3186445989764
7,19.8792844048632,0.894471771249651,0.894223469534945,4.70889852873341,3602.35841426312,0,4,-3794.57094497281,7599.14188994561,7624.91105895351,28271.4998262323,1275,354.230203224,1.6205963337175,18.3186445989764
8,21.4481404100771,0.89519879806352,0.894895026463704,4.26758042735546,2946.9469779469,0,4,-2979.91113208141,5969.82226416283,5994.55233411832,18849.6711985856,1035,354.230203224,1.6205963337175,18.3186445989764
9,21.2534617589608,0.905603996023981,0.905115740831002,3.33690180145503,1854.77596356497,9.98409709578417e-297,4,-1530.39820157082,3070.79640314165,3092.64590805579,6458.24990688123,580,354.230203224,1.6205963337175,18.3186445989764
10,21.4530343019599,0.915144462283904,0.91485971215734,2.79215635938799,3213.85094126713,0,4,-2194.28147421141,4398.56294842281,4422.56379876432,6969.74659893208,894,354.230203224,1.6205963337175,18.3186445989764
11,20.8814425329029,0.896615954953768,0.896307958791763,3.51793497636665,2911.12703846028,0,4,-2704.25366893719,5418.50733787438,5443.10081396948,12462.4975634295,1007,354.230203224,1.6205963337175,18.3186445989764
12,20.7356293782369,0.933210426080076,0.933016082024053,3.26870780408963,4801.84701902774,0,4,-2692.44606290648,5394.89212581295,5419.60290934145,11015.6686804805,1031,354.230203224,1.6205963337175,18.3186445989764
13,19.1306803101841,0.605747159041777,0.603963209535179,7.85885845308387,339.553982218275,1.59997938980401e-133,4,-2319.54076829321,4649.08153658641,4671.59548681599,40947.9780510579,663,354.230203224,1.6205963337175,18.3186445989764
14,16.9806611125697,0.744974071286944,0.744042186041951,7.59779978568829,799.426834247839,4.99608510573019e-243,4,-2841.60285606364,5693.20571212727,5716.78262905894,47393.5070599755,821,354.230203224,1.6205963337175,18.3186445989764
15,19.7994785376781,0.677141070823124,0.676090553699989,9.40673973396608,644.5788040106,9.01828130406985e-226,4,-3387.49361947271,6784.98723894542,6809.14161011865,81584.7857336153,922,354.230203224,1.6205963337175,18.3186445989764
16,21.8212453533263,0.899680032240041,0.899487725592578,5.39545524271797,4678.36158608245,0,4,-4868.95090254251,9747.90180508502,9774.69277384869,45558.6168372105,1565,354.230203224,1.6205963337175,18.3186445989764
17,23.5304285512312,0.892981466444392,0.890549227045401,5.35047668338226,367.143738735096,7.66981792507685e-64,4,-419.042888324206,848.085776648413,862.649051077093,3778.84329760308,132,354.230203224,1.6205963337175,18.3186445989764
28,17.7825684801909,0.892183005072798,0.891947253626164,5.74018742393323,3784.42218621276,0,4,-4355.00531124987,8720.01062249974,8746.1453025922,45207.0592801009,1372,354.230203224,1.6205963337175,18.3186445989764
29,17.8769149893376,0.912774729823222,0.91242015555421,4.94758724520763,2574.28361163497,0,4,-2237.23080549403,4484.46161098806,4507.50835720389,18065.2212271186,738,354.230203224,1.6205963337175,18.3186445989764
37,17.8384726233718,0.864229212066896,0.860030115532882,6.14272781403369,205.813132674246,6.4382882399544e-42,4,-324.614270369218,659.228540738437,672.304143322643,3660.1111847384,97,354.230203224,1.6205963337175,18.3186445989764
41,19.498891611531,0.871134825332735,0.868249784108841,6.28323437339947,301.948831135573,2.0773442433641e-59,4,-447.41207232343,904.824144646861,919.460413072647,5290.19058160319,134,354.230203224,1.6205963337175,18.3186445989764
43,14.4302920647581,0.798060320311574,0.792062112003997,5.94263991193168,133.049784100271,5.9303385727347e-35,4,-334.075568485011,678.151136970022,691.42093872081,3566.81188141122,101,354.230203224,1.6205963337175,18.3186445989764
49,15.7125878329573,0.897962287554891,0.897678849464766,3.9379760733834,3168.10731810224,0,4,-3021.92859519015,6053.8571903803,6078.7992562903,16748.2679989034,1080,354.230203224,1.6205963337175,18.3186445989764
50,16.4768139121861,0.906846368400593,0.906631893423771,4.54582877513784,4228.21525308268,0,4,-3831.62214431703,7673.24428863406,7699.12173720218,26925.9207064911,1303,354.230203224,1.6205963337175,18.3186445989764
51,18.5413852876173,0.895253625360279,0.895035706411653,5.43869717535914,4108.19541395368,0,4,-4498.64052590549,9007.28105181098,9033.66383382457,42653.5336839042,1442,354.230203224,1.6205963337175,18.3186445989764
52,18.1016995998501,0.906814111900873,0.906631989644002,5.1399417718267,4979.15042059851,0,4,-4701.15105373376,9412.30210746752,9438.99654813671,40553.1671762754,1535,354.230203224,1.6205963337175,18.3186445989764
53,20.7049659034401,0.89005686034276,0.889808681697936,5.14021802019338,3586.35555034268,0,4,-4071.69035276019,8153.38070552039,8179.35664212128,35114.6270812155,1329,354.230203224,1.6205963337175,18.3186445989764
54,15.5423517372309,0.755544995032799,0.755008124597292,6.52040807036726,1407.31346906871,0,4,-4510.60650228654,9031.21300457308,9057.32583466719,58076.4754380149,1366,354.230203224,1.6205963337175,18.3186445989764
55,13.1137153704355,0.868201272375673,0.867865051131734,3.49663746418867,2582.23205114195,0,4,-3149.47017465062,6308.94034930124,6334.30669788854,14378.3329018181,1176,354.230203224,1.6205963337175,18.3186445989764
56,12.4046804591507,0.884669248465457,0.884383776308193,2.79715859595985,3098.96858924912,0,4,-2974.2085632427,5958.4171264854,5983.93373679803,9482.80460767389,1212,354.230203224,1.6205963337175,18.3186445989764
57,12.9246534118796,0.908967188679613,0.908699969076912,2.24082818975082,3401.5737598945,0,4,-2281.65053502442,4573.30107004885,4597.9681851775,5131.77981745355,1022,354.230203224,1.6205963337175,18.3186445989764
58,13.2014430814394,0.918356936794796,0.918090709414779,1.87208302615032,3449.52099493395,0,4,-1888.49066041325,3786.9813208265,3811.12488118471,3224.31926825614,920,354.230203224,1.6205963337175,18.3186445989764
59,17.4552681560151,0.928177089916362,0.927913358300388,2.07799950325335,3519.40015415974,0,4,-1763.42768939832,3536.85537879664,3560.40799434391,3527.87294132079,817,354.230203224,1.6205963337175,18.3186445989764
60,17.3598013754306,0.855872434748056,0.855455881091259,3.536976475751,2054.65111344365,0,4,-2792.85979716244,5595.71959432489,5620.46408043645,12985.5902884365,1038,354.230203224,1.6205963337175,18.3186445989764
61,17.1480897364767,0.935407916270508,0.935236128813781,2.8493230588986,5445.14677666489,0,4,-2789.53107100594,5589.06214201188,5614.22084830569,9157.82805639958,1128,354.230203224,1.6205963337175,18.3186445989764
62,17.9786359776306,0.929627077331597,0.929462140794093,3.62705092950782,5636.27132835048,0,4,-3474.24510902005,6958.49021804011,6984.27889546136,16839.0380099117,1280,354.230203224,1.6205963337175,18.3186445989764
63,18.5419813702936,0.905744884204964,0.90554892762327,4.46681608678064,4622.17128086678,0,4,-4216.89127198287,8443.78254396573,8470.16878259889,28791.3795103555,1443,354.230203224,1.6205963337175,18.3186445989764
64,17.1494930075553,0.92556057015011,0.925392155150449,4.02026039561828,5495.71339854842,0,4,-3735.67631409785,7481.3526281957,7507.31729930178,21431.4665780129,1326,354.230203224,1.6205963337175,18.3186445989764
65,16.3761882897816,0.921027103940888,0.920779281045305,0.84984867042656,3716.4730150305,0,4,-1203.98771266493,2417.97542532986,2442.31009175216,690.464081070256,956,354.230203224,1.6205963337175,18.3186445989764
66,19.4549058902291,0.889458992503213,0.889237171083487,4.59267677828515,4009.79758222591,0,4,-4410.15627032391,8830.31254064781,8856.87530813832,31533.5565847505,1495,354.230203224,1.6205963337175,18.3186445989764
67,18.6651385373013,0.872071821061342,0.871797100562547,4.70744773401295,3174.39661360526,0,4,-4156.28340064354,8322.56680128707,8348.79150901875,30957.6096433437,1397,354.230203224,1.6205963337175,18.3186445989764
68,17.5793007352705,0.885930037593955,0.885646985578059,3.81991658178714,3129.91954779011,0,4,-3344.8664096894,6699.73281937881,6725.23707892353,17641.4410944012,1209,354.230203224,1.6205963337175,18.3186445989764
69,18.3316007009713,0.882731377494113,0.8824172651124,3.42125471394327,2810.24063006502,0,4,-2975.41161589435,5960.82323178871,5985.94647694098,13109.5818758005,1120,354.230203224,1.6205963337175,18.3186445989764
70,17.560181542796,0.890030918098325,0.889698350310316,2.77825205983042,2676.23910128655,0,4,-2428.99343882086,4867.98687764172,4892.50561392964,7656.93503188834,992,354.230203224,1.6205963337175,18.3186445989764
71,17.3392078147716,0.904848436083308,0.904547323539268,2.29475859398801,3005.01740625795,0,4,-2139.58279309024,4289.16558618047,4313.45841135443,4992.08932043835,948,354.230203224,1.6205963337175,18.3186445989764
72,16.9799594972325,0.904601748265527,0.904319782989465,2.65338292767951,3208.20265849003,0,4,-2438.2707046102,4886.5414092204,4911.17429438651,7146.04757531463,1015,354.230203224,1.6205963337175,18.3186445989764
73,17.6316029658548,0.897595028408076,0.897307643080877,3.58956090316568,3123.31543560821,0,4,-2891.84337442227,5793.68674884455,5818.5778175577,13774.0088534856,1069,354.230203224,1.6205963337175,18.3186445989764
74,16.3453018005432,0.960593339562451,0.960500179608698,2.43506487999912,10311.2260243128,0,4,-2937.24174338852,5884.48348677704,5910.22914476982,7524.58749068273,1269,354.230203224,1.6205963337175,18.3186445989764
75,16.4859382900203,0.971248880892554,0.971187446877367,2.15428321937233,15809.62725517,0,4,-3076.4435504649,6162.88710092979,6189.13672861338,6515.87440973399,1404,354.230203224,1.6205963337175,18.3186445989764
76,16.4270802804438,0.967567804858049,0.967504170727621,2.36292068305921,15205.1705324788,0,4,-3491.45445298522,6992.90890597044,7019.5838153648,8537.00966212195,1529,354.230203224,1.6205963337175,18.3186445989764
77,15.0109452556821,0.925366731354071,0.92522366438542,3.46741227436314,6468.06694853282,0,4,-4175.22005667795,8360.4401133559,8387.23108211956,18815.9134328325,1565,354.230203224,1.6205963337175,18.3186445989764
78,14.0839465134866,0.907701971437522,0.907515761561471,3.93482318591876,4874.61777371161,0,4,-4156.1047926631,8322.2095853262,8348.74559690002,23022.9734211081,1487,354.230203224,1.6205963337175,18.3186445989764
79,15.289257952086,0.96840882681564,0.968341034598506,2.05859238587575,14284.955821758,0,4,-2999.62442790862,6009.24885581723,6035.47713115521,5924.44805043751,1398,354.230203224,1.6205963337175,18.3186445989764
80,15.20190779875,0.946395296622366,0.946201544682447,2.48258584318699,4884.57197908441,0,4,-1939.74670532712,3889.49341065423,3913.12457766603,5115.48294909774,830,354.230203224,1.6205963337175,18.3186445989764
81,16.2391757237939,0.972002249236576,0.971926783601095,1.65266709267304,12880.0644563875,0,4,-2144.12083182834,4298.24166365667,4323.33367265202,3039.94638187446,1113,354.230203224,1.6205963337175,18.3186445989764
82,16.1825244934241,0.963148410542805,0.96294813016532,1.27237528895967,4809.00037556655,0,4,-920.854911225645,1851.70982245129,1873.31366392254,893.654259527277,552,354.230203224,1.6205963337175,18.3186445989764
84,17.3094149469546,0.945147535855554,0.944793648990106,2.49992173709727,2670.76183982966,1.22256748232877e-292,4,-1093.19926538118,2196.39853076236,2217.1515446046,2906.06804159931,465,354.230203224,1.6205963337175,18.3186445989764
85,19.463861022571,0.906292884652789,0.906043663601333,3.89212949165528,3636.50213078071,0,4,-3142.57356210109,6295.14712420218,6320.305830496,17087.7019932289,1128,354.230203224,1.6205963337175,18.3186445989764
86,18.9595885379266,0.903200844819991,0.90296889796253,4.19898131170351,3893.99905957084,0,4,-3582.34509671772,7174.69019343543,7200.36863017058,22074.5679581562,1252,354.230203224,1.6205963337175,18.3186445989764
87,20.5194158368614,0.888187496088295,0.887952924401767,5.15873958217505,3786.42243330622,0,4,-4385.50779531589,8781.01559063178,8807.35670573757,38056.0095296805,1430,354.230203224,1.6205963337175,18.3186445989764
88,19.7258350864289,0.900518224761578,0.900319393765099,5.03456286023246,4529.06358016377,0,4,-4566.07151674208,9142.14303348417,9168.72577437008,38045.5816136417,1501,354.230203224,1.6205963337175,18.3186445989764
89,17.6500301270759,0.916712352631002,0.916545666211984,4.03781320028763,5499.62233297261,0,4,-4228.40394665669,8466.80789331338,8493.38398526215,24439.5992251852,1499,354.230203224,1.6205963337175,18.3186445989764
90,18.6460522760717,0.933550118351776,0.933417660115932,3.84163610165181,7047.88277154625,0,4,-4170.13619224135,8350.27238448269,8376.86839677653,22211.0427459594,1505,354.230203224,1.6205963337175,18.3186445989764
91,18.8926537172692,0.882998316723,0.882740792841979,5.04590091074234,3428.80168326044,0,4,-4150.27972600227,8310.55945200454,8336.66132118816,34703.5011094045,1363,354.230203224,1.6205963337175,18.3186445989764
92,19.3685810826226,0.887188540060492,0.886930979649672,4.56071097204764,3444.58427144606,0,4,-3868.19464336551,7746.38928673101,7772.30864030633,27331.3111257103,1314,354.230203224,1.6205963337175,18.3186445989764
93,19.5681373832635,0.923350123934199,0.92300895237901,3.88580592201075,2706.41004471377,0,4,-1880.30441833707,3770.60883667415,3793.20457311385,10177.0546852218,674,354.230203224,1.6205963337175,18.3186445989764
94,20.4931009110276,1,1,3.18627089335271e-11,6.14922091086741e+24,0,2,10921.3122918718,-21836.6245837436,-21824.1032254319,4.85281001438516e-19,478,354.230203224,1.6205963337175,18.3186445989764
95,17.0213848313801,0.902864842048293,0.902382382654493,2.57759609221528,1871.37996202602,2.87457589159528e-305,4,-1436.39720841232,2882.79441682464,2904.84529123447,4012.97697522049,604,354.230203224,1.6205963337175,18.3186445989764
96,17.2223122012369,0.906524724513704,0.906243736711641,2.6518058616003,3226.20668177762,0,4,-2396.96375444857,4803.92750889715,4828.47627530537,7018.01017896245,998,354.230203224,1.6205963337175,18.3186445989764
97,17.5653031988025,0.946149044079128,0.945963777028942,2.47340453285662,5106.94720473371,0,4,-2034.28728107959,4078.57456215918,4102.45139261386,5334.66054531176,872,354.230203224,1.6205963337175,18.3186445989764
