"Age","power_predict","r.squared","adj.r.squared","sigma","statistic","p.value","df","logLik","AIC","BIC","deviance","df.residual","GHI","Wind_speed","Ambient_temp"
1,313.321477942232,0.727729981025345,0.725992087287209,40.9336571710301,418.742507125804,2.48295064410526e-132,4,-2430.03392872386,4870.06785744771,4890.87389405619,787515.216015848,470,529.38,0.586884311802345,21.9212673392182
2,194.837127068299,0.729897069512667,0.728161932914248,47.4206694487523,420.656834843685,2.69996852266986e-132,4,-2483.92791942451,4977.85583884901,4998.63012931909,1050152.18908198,467,529.38,0.586884311802345,21.9212673392182
3,213.150499571286,0.90328232520309,0.902992751326453,32.6154465987362,3119.35018342139,0,4,-4931.14289188019,9872.28578376038,9896.85447051368,1065894.89154868,1002,529.38,0.586884311802345,21.9212673392182
4,194.92411788626,0.919838309409814,0.919655847291627,28.1796833406541,5041.2563361056,0,4,-6287.46458718517,12584.9291743703,12610.8636794724,1046616.62109063,1318,529.38,0.586884311802345,21.9212673392182
5,189.423314559797,0.92283686255101,0.922666524499246,27.5375731871283,5417.67886268182,0,4,-6451.10679740753,12912.2135948151,12938.3008119736,1030554.07643253,1359,529.38,0.586884311802345,21.9212673392182
6,198.025330115884,0.967320807146174,0.967254386022488,16.3920121713679,14563.4514060589,0,4,-6237.28166867415,12484.5633373483,12511.0623241821,396598.341026781,1476,529.38,0.586884311802345,21.9212673392182
7,204.855860005951,0.976180995057594,0.976134137998691,14.6610995423459,20833.1683189179,0,4,-6273.2216746106,12556.4433492212,12583.1051952509,327795.455680625,1525,529.38,0.586884311802345,21.9212673392182
8,194.699391181222,0.985591711949006,0.985560502660809,10.9226140437948,31580.0766017027,0,4,-5289.77300091565,10589.5460018313,10615.7276985451,165235.344106341,1385,529.38,0.586884311802345,21.9212673392182
9,199.9412638536,0.984139898330908,0.984102899648943,11.4392178231526,26599.3231665923,0,4,-4972.21901948466,9954.43803896933,9980.25002645611,168280.435865515,1286,529.38,0.586884311802345,21.9212673392182
10,196.046826367276,0.965283539763017,0.965187194359954,15.5336131763187,10018.9890651374,0,4,-4513.70641352443,9037.41282704886,9062.35950337873,260837.882514732,1081,529.38,0.586884311802345,21.9212673392182
11,202.164923256949,0.986124507548697,0.986081944688417,9.14916005289653,23168.6616232989,0,4,-3565.20971537181,7140.41943074361,7164.86738728538,81865.5728207003,978,529.38,0.586884311802345,21.9212673392182
12,211.760330495041,0.985716140890216,0.985666197326896,8.26211568619057,19736.6001812148,0,4,-3041.38911655515,6092.77823311029,6116.57450946361,58569.2727150927,858,529.38,0.586884311802345,21.9212673392182
15,194.168604737238,0.750115781244175,0.749387255825062,49.0744801819516,1029.63570187745,3.03945873462611e-309,4,-5485.57896222297,10981.1579244459,11005.8590367915,2478145.4386775,1029,529.38,0.586884311802345,21.9212673392182
16,190.358955272062,0.969106559857877,0.969031938021785,17.7074196150467,12986.903172176,0,4,-5346.97793405199,10703.955868104,10729.5943366007,389432.465103788,1242,529.38,0.586884311802345,21.9212673392182
17,185.710087859887,0.977844340503483,0.977796280504576,13.507142323164,20346.3246509535,0,4,-5576.72906331386,11163.4581266277,11189.6326187293,252318.522039943,1383,529.38,0.586884311802345,21.9212673392182
18,186.3606408549,0.935833612779888,0.935702660969235,21.2333995605747,7146.39689295796,0,4,-6593.43080849514,13196.8616169903,13223.340292354,662760.16764155,1470,529.38,0.586884311802345,21.9212673392182
19,183.359206807473,0.865255231129117,0.864982468439095,27.4288203702254,3172.19056264342,0,4,-7027.56909192046,14065.1381838409,14091.6573999673,1114968.1569889,1482,529.38,0.586884311802345,21.9212673392182
20,182.307872488741,0.903341679278443,0.903125763446601,23.8938652436573,4183.76768192147,0,4,-6184.17571473835,12378.3514294767,12404.3796053587,766741.257406802,1343,529.38,0.586884311802345,21.9212673392182
21,189.089606548908,0.966085730636508,0.96600308010191,15.3771953575437,11688.8019579328,0,4,-5125.49954749353,10260.9990949871,10286.5932262324,291079.966725861,1231,529.38,0.586884311802345,21.9212673392182
22,194.000873236471,0.983968059017827,0.983924729447605,10.079036167117,22708.9272747086,0,4,-4152.54373736641,8315.08747473283,8340.16603683526,112761.536764438,1110,529.38,0.586884311802345,21.9212673392182
23,178.0307444134,0.721432400946183,0.72046738616886,41.0098729128861,747.586894936161,9.02227356137692e-240,4,-4463.48908325386,8936.97816650772,8960.82063256596,1456447.17970271,866,529.38,0.586884311802345,21.9212673392182
24,201.970397512109,0.978158994979991,0.97808190907992,9.74196859695771,12689.2076771999,0,4,-3153.85131180953,6317.70262361905,6341.452279588,80670.0593224937,850,529.38,0.586884311802345,21.9212673392182
25,205.961787834643,0.979914315894759,0.979843090064599,9.92775082165648,13757.8503990421,0,4,-3155.12688921271,6320.25377842542,6343.97996017284,83381.9599748582,846,529.38,0.586884311802345,21.9212673392182
26,190.677575388499,0.973818301272377,0.97372904548126,12.7862798004615,10910.4214873518,0,4,-3505.09859638857,7020.19719277713,7044.11947809032,143870.276999406,880,529.38,0.586884311802345,21.9212673392182
27,185.332715458109,0.981102406761492,0.981052413128586,12.9027751543561,19624.5471619182,0,4,-4523.11799753927,9056.23599507854,9081.42113315197,188790.141979507,1134,529.38,0.586884311802345,21.9212673392182
28,187.800582022651,0.975739621465768,0.975682982449735,15.0148635762828,17227.3406178766,0,4,-5318.96201314902,10647.924026298,10673.7321363127,289698.274755482,1285,529.38,0.586884311802345,21.9212673392182
29,183.363158047156,0.983385345812673,0.983349042853779,12.4242905642325,27088.2973664433,0,4,-5421.43828191165,10852.8765638233,10879.0148763169,211940.393541606,1373,529.38,0.586884311802345,21.9212673392182
30,187.402561512693,0.979421451971779,0.979379051117325,13.1964208816704,23099.0970486234,0,4,-5836.36815908519,11682.7363181704,11709.1672767439,253555.883069488,1456,529.38,0.586884311802345,21.9212673392182
31,191.355318531618,0.979729295725369,0.979689392764198,12.5882246510019,24552.796759576,0,4,-6036.19552569786,12082.3910513957,12109.0496262443,241498.221392878,1524,529.38,0.586884311802345,21.9212673392182
32,182.828016377911,0.970192169136663,0.970127696539266,15.0222755137735,15048.1322034929,0,4,-5740.70259862308,11491.4051972462,11517.5940882058,313002.572355452,1387,529.38,0.586884311802345,21.9212673392182
33,193.327225438111,0.981033682877979,0.980991315825585,11.6035156128749,23155.5802782506,0,4,-5211.21926947213,10432.4385389443,10458.4667148263,180823.634658564,1343,529.38,0.586884311802345,21.9212673392182
34,186.790294904811,0.982036882906979,0.981989403302328,11.3994961000282,20683.341618411,0,4,-4386.00273411679,8782.00546823358,8807.19499805082,147491.560364722,1135,529.38,0.586884311802345,21.9212673392182
35,191.74580369284,0.982344513212205,0.982255344087014,10.2010204658696,11016.6440582353,0,4,-2235.36620496836,4480.73240993671,4502.70036370647,61812.126215784,594,529.38,0.586884311802345,21.9212673392182
36,197.834747146409,0.740238840905433,0.738973770325427,33.3106715943534,585.136396818206,8.3377468200958e-180,4,-3051.37965573686,6112.75931147373,6134.90790886392,683514.118713189,616,529.38,0.586884311802345,21.9212673392182
37,192.577841561142,0.943926757108722,0.94370686203856,15.1615214542913,4292.62355183247,0,4,-3179.88551755022,6369.77103510044,6392.99648994797,175851.875598835,765,529.38,0.586884311802345,21.9212673392182
38,183.38674555533,0.890566387273083,0.890112933076701,23.5351820663023,1963.96106680278,0,4,-3330.36712452293,6670.73424904586,6693.68575428684,401027.071503255,724,529.38,0.586884311802345,21.9212673392182
39,147.327092171919,0.683761294432334,0.682840210823884,47.7601176529514,742.344438832572,6.82430857609164e-257,4,-5462.81998906255,10935.6399781251,10960.3459284004,2349459.70337047,1030,529.38,0.586884311802345,21.9212673392182
40,180.253236683264,0.952841902422614,0.95272854161113,20.528389576946,8405.39062792656,0,4,-5557.81244134106,11125.6248826821,11151.2873704404,525925.643721337,1248,529.38,0.586884311802345,21.9212673392182
41,180.01316757344,0.990869847096325,0.990850084860603,9.4641782393146,50139.5621944338,0,4,-5094.36608218569,10198.7321643714,10224.917459502,124144.948267285,1386,529.38,0.586884311802345,21.9212673392182
42,174.585004431991,0.989399647985208,0.989377284373363,9.66195286204883,44241.4961777294,0,4,-5255.85073091267,10521.7014618253,10548.0146048302,132748.439680221,1422,529.38,0.586884311802345,21.9212673392182
43,171.22201705205,0.989710739171855,0.989690022539315,8.77006452932523,47773.7266066864,0,4,-5361.87966793546,10733.7593358709,10760.3053976994,114601.907454307,1490,529.38,0.586884311802345,21.9212673392182
44,173.043593837429,0.98932325806911,0.989300890592997,8.8370850838398,44230.4376723786,0,4,-5164.57531076159,10339.1506215232,10365.4987052712,111830.712219562,1432,529.38,0.586884311802345,21.9212673392182
45,172.275577837071,0.992194252854689,0.992176777301378,7.49601074993881,56776.1280705361,0,4,-4612.36500232801,9234.73000465601,9260.74703226143,75294.8373986856,1340,529.38,0.586884311802345,21.9212673392182
46,174.501789381336,0.993369592676378,0.993353275020946,6.73891014619577,60876.9805719349,0,4,-4066.71806216764,8143.43612433528,8168.98143501371,55358.3372394119,1219,529.38,0.586884311802345,21.9212673392182
47,179.391740424189,0.995587597415025,0.995575203025742,5.05276156592387,80325.6678995425,0,4,-3255.66862107999,6521.33724215997,6546.22364886812,27266.4666041387,1068,529.38,0.586884311802345,21.9212673392182
48,186.087246573481,0.99394093456834,0.993919649795161,5.47929319150265,46697.2763206485,0,4,-2674.88208988873,5359.76417977746,5383.5372002749,25639.346412194,854,529.38,0.586884311802345,21.9212673392182
52,179.552958145895,0.995352535595586,0.995340945908792,6.51994779206492,85882.6086746958,0,4,-3973.61919508168,7957.23839016335,7982.71785626884,51139.1922111365,1203,529.38,0.586884311802345,21.9212673392182
53,176.921056208192,0.987868413639038,0.987840800013026,10.9282055090995,35774.67201283,0,4,-5035.19458635118,10080.3891727024,10106.3236778044,157403.04050553,1318,529.38,0.586884311802345,21.9212673392182
54,173.866147900416,0.989456629171769,0.989433558338447,9.43983068055026,42887.7715579088,0,4,-5035.82737838078,10081.6547567616,10107.7858018121,122170.362893395,1371,529.38,0.586884311802345,21.9212673392182
55,169.911447723784,0.989843485446476,0.989822715478064,8.9571518166036,47657.4381725639,0,4,-5310.35318976222,10630.7063795244,10657.1748681274,117698.24423256,1467,529.38,0.586884311802345,21.9212673392182
56,166.772935961361,0.936113744806036,0.935978868827442,21.095180215068,6940.55201352631,0,4,-6364.87313623699,12739.746272474,12766.0559079375,632354.418823105,1421,529.38,0.586884311802345,21.9212673392182
57,171.457590669713,0.990049403904168,0.99002775648699,8.20137385740165,45735.2207792409,0,4,-4870.63832229566,9751.27664459132,9777.43669624964,92755.0332122935,1379,529.38,0.586884311802345,21.9212673392182
58,172.5573327854,0.994239900963113,0.994222689511807,6.30645838168928,57766.1862046948,0,4,-3284.59290492402,6579.18580984804,6603.7644270912,39930.5029892589,1004,529.38,0.586884311802345,21.9212673392182
