"Age","power_predict","r.squared","adj.r.squared","sigma","statistic","p.value","df","logLik","AIC","BIC","deviance","df.residual","GHI","Wind_speed","Ambient_temp"
1,33.023625251315,0.995207611129634,0.995197994295781,1.7996508526424,103485.994068565,0,4,-3005.78760839596,6021.57521679192,6048.13798428243,4841.92107116771,1495,386.353896552,2.00669288288635,15.2802111718573
2,30.5393943728298,0.993406591382262,0.993393253401242,1.97995218272321,74479.532536811,0,4,-3123.68800044875,6257.3760008975,6283.8985806298,5813.67238782583,1483,386.353896552,2.00669288288635,15.2802111718573
3,29.0263952367773,0.994583715810256,0.994571750528541,1.66402906904615,83122.4654366025,0,4,-2624.17868703784,5258.35737407567,5284.44092150922,3760.29214449235,1358,386.353896552,2.00669288288635,15.2802111718573
4,28.1469051953022,0.992249764753541,0.992230077449782,1.63980946632253,50400.4904328287,0,4,-2265.51614508268,4541.03229016535,4566.4197804332,3175.67957637819,1181,386.353896552,2.00669288288635,15.2802111718573
5,27.6804037118356,0.991199244907955,0.991175608144055,1.51572249249913,41934.6425385303,0,4,-2054.84169537237,4119.68339074474,4144.7932728601,2566.2121911571,1117,386.353896552,2.00669288288635,15.2802111718573
6,29.6535893161429,0.912563742639624,0.912299850514794,4.10145702695706,3458.09388297255,0,4,-2822.61623582344,5655.23247164688,5679.76123802844,16721.0180455116,994,386.353896552,2.00669288288635,15.2802111718573
7,30.2858110957828,0.912222479166812,0.911779903431519,4.1756151196624,2061.16695160005,8.44113070621774e-314,4,-1704.0652209341,3418.13044186819,3440.10674985877,10374.2781683942,595,386.353896552,2.00669288288635,15.2802111718573
8,28.4087220572673,0.706297146601277,0.705391587957704,8.08309059736031,779.957379474373,2.87297944683825e-258,4,-3426.00833175923,6862.01666351847,6886.43909677868,63572.2720577961,973,386.353896552,2.00669288288635,15.2802111718573
9,33.0569476699558,0.994567941923474,0.994552166343387,1.3505228360685,63044.7778437591,0,4,-1781.04539188361,3572.09078376722,3596.81121980837,1884.10102445702,1033,386.353896552,2.00669288288635,15.2802111718573
10,32.730018562531,0.99460434599613,0.994591239144298,1.56832314710711,75884.3053084419,0,4,-2313.62026714567,4637.24053429135,4662.85083369949,3037.65230478366,1235,386.353896552,2.00669288288635,15.2802111718573
11,33.2842618212742,0.995423742127105,0.995413557576943,1.65666677277841,97738.6066415316,0,4,-2598.90182860928,5207.80365721857,5233.85035850158,3699.64638504581,1348,386.353896552,2.00669288288635,15.2802111718573
12,28.7542331129476,0.746680833604642,0.746192742725268,11.5242394860186,1529.7987837051,0,4,-6028.75098975675,12067.5019795135,12094.2673891161,206782.205053337,1557,386.353896552,2.00669288288635,15.2802111718573
13,32.501974835392,0.941707755704805,0.941556478254212,6.32954567121601,6225.03718837766,0,4,-3784.43025552353,7578.86051104706,7604.14138746756,46312.9995550347,1156,386.353896552,2.00669288288635,15.2802111718573
15,31.1863538425206,0.988374683213859,0.988341309098684,2.1284577609993,29615.0078591071,0,4,-2278.87484547076,4567.74969094151,4592.52765398349,4734.19740017427,1045,386.353896552,2.00669288288635,15.2802111718573
17,31.6172056955793,0.986983809809249,0.986950176242864,2.12502089252754,29345.2023056318,0,4,-2529.21555356074,5068.43110712148,5093.73348895148,5242.74371446081,1161,386.353896552,2.00669288288635,15.2802111718573
18,32.5519702823305,0.992261601539421,0.99223786412083,1.32806593150824,41801.5799715791,0,4,-1670.01022568721,3350.02045137441,3374.46840791619,1724.95641782733,978,386.353896552,2.00669288288635,15.2802111718573
19,32.159247641951,0.991341928863891,0.991303899268857,1.2494238575831,26067.6435805754,0,4,-1125.7878260802,2261.57565216039,2284.23732362151,1066.20396353823,683,386.353896552,2.00669288288635,15.2802111718573
20,31.8124141456567,0.990653403926959,0.990604892182635,1.28144331487993,20420.8984388565,0,4,-968.143774692983,1946.28754938597,1968.11990162462,949.132048226767,578,386.353896552,2.00669288288635,15.2802111718573
21,33.271402020623,0.96420671850353,0.964077811127192,3.21660944999006,7479.84130851154,0,4,-2163.53715924607,4337.07431849214,4360.72343884459,8618.69810268656,833,386.353896552,2.00669288288635,15.2802111718573
22,31.6304140622342,0.997380880394212,0.997373303384745,0.980386758058122,131632.523982894,0,4,-1454.49089314561,2918.98178629122,2943.7214716343,996.721048604617,1037,386.353896552,2.00669288288635,15.2802111718573
23,31.0548554986503,0.996159584999994,0.996151205912722,1.40087515164358,118886.40762113,0,4,-2419.57030036768,4849.14060073537,4875.28617012433,2698.37038692708,1375,386.353896552,2.00669288288635,15.2802111718573
24,30.2350795527471,0.994172624419784,0.994160584387594,1.82835607578272,82572.2563434571,0,4,-2942.54725913819,5895.09451827638,5921.51175942016,4853.87038466452,1452,386.353896552,2.00669288288635,15.2802111718573
25,28.8471446310831,0.996220716956972,0.996213173477844,1.53230354537666,132063.826263598,0,4,-2779.48339841291,5568.96679682582,5595.55617781895,3528.97509522635,1503,386.353896552,2.00669288288635,15.2802111718573
26,29.2499139496203,0.992010510932727,0.991993316910344,1.88588405958912,57695.0808158172,0,4,-2868.55980062271,5747.11960124543,5773.3335908594,4957.84280857998,1394,386.353896552,2.00669288288635,15.2802111718573
27,29.3500475239708,0.993149856812235,0.993133521017669,1.70115189388781,60795.9320763432,0,4,-2459.20492770025,4928.4098554005,4954.11212061601,3640.54854972621,1258,386.353896552,2.00669288288635,15.2802111718573
28,29.1678920942563,0.997274764788009,0.997267812657366,1.08336743704664,143448.795200072,0,4,-1766.83161295481,3543.66322590961,3569.02957449691,1380.25356429593,1176,386.353896552,2.00669288288635,15.2802111718573
29,25.8635019928062,0.966362946441258,0.966268105124833,3.03030387321413,10189.2612088024,0,4,-2697.47457883091,5404.94915766183,5429.81687275943,9770.43702411364,1064,386.353896552,2.00669288288635,15.2802111718573
30,29.0694687243564,0.917886943655528,0.917644244966825,4.19206877230289,3782.00207245149,0,4,-2904.31947480365,5818.6389496073,5843.27183477341,17837.0422005928,1015,386.353896552,2.00669288288635,15.2802111718573
31,31.5386948955132,0.990359394670052,0.990322923275362,1.33996419331604,27154.4152085459,0,4,-1362.12536037099,2734.25072074199,2757.65499413594,1423.8347032197,793,386.353896552,2.00669288288635,15.2802111718573
32,31.5476129594053,0.990540233329671,0.990508057252561,1.30686683266561,30784.9906607471,0,4,-1492.29744402894,2994.59488805788,3018.5284728109,1506.36860995952,882,386.353896552,2.00669288288635,15.2802111718573
33,31.6969150729154,0.991432617061397,0.991406549973349,1.51013900793046,38033.8845373622,0,4,-1810.82478432587,3631.64956865173,3656.13809336738,2248.59254574738,986,386.353896552,2.00669288288635,15.2802111718573
34,33.0049370678643,0.994280430011961,0.994264333661151,1.47552767163172,61770.5492201499,0,4,-1932.50724901506,3875.01449803011,3899.89156766739,2320.87591579449,1066,386.353896552,2.00669288288635,15.2802111718573
35,32.014194891562,0.993236779388127,0.993221255545865,1.92989125527122,63981.3754008082,0,4,-2720.16021391434,5450.32042782868,5476.2131552475,4867.89569612423,1307,386.353896552,2.00669288288635,15.2802111718573
36,31.4072768783806,0.995385661431695,0.995375037474899,1.65293896186577,93692.5554729381,0,4,-2509.38884067547,5028.77768135094,5054.65512991906,3560.06599678504,1303,386.353896552,2.00669288288635,15.2802111718573
37,32.0708114019229,0.997999101996854,0.997994936352156,1.05400021272255,239578.54651866,0,4,-2124.35978925347,4258.71957850694,4285.09890150967,1600.83060217205,1441,386.353896552,2.00669288288635,15.2802111718573
38,31.1932986729476,0.998300794985633,0.998297539803613,1.02479677369655,306680.483270888,0,4,-2264.18703271272,4538.37406542544,4565.16821991716,1644.62639727529,1566,386.353896552,2.00669288288635,15.2802111718573
39,31.3093137814926,0.992496635429719,0.992480648147254,1.87023356709984,62080.3840550812,0,4,-2885.53978592847,5781.07957185694,5807.34338394721,4924.86522247387,1408,386.353896552,2.00669288288635,15.2802111718573
40,30.7829320343659,0.996875419357366,0.996868274736994,1.21074755765926,139528.115906797,0,4,-2116.98925238379,4243.97850476757,4269.890265327,1923.27345867175,1312,386.353896552,2.00669288288635,15.2802111718573
41,28.1411081288008,0.995984132363682,0.995974192097255,1.24138787251632,100196.925276113,0,4,-1986.3616466644,3982.7232933288,4008.23990364143,1867.74514623707,1212,386.353896552,2.00669288288635,15.2802111718573
42,31.9729891294551,0.991765630228291,0.991741646627014,1.51021489954658,41351.8228051397,0,4,-1891.44708971865,3792.8941794373,3817.60012971264,2349.17151409687,1030,386.353896552,2.00669288288635,15.2802111718573
43,30.869684810923,0.990718600701946,0.990688269331691,1.33568986021392,32663.166628158,0,4,-1573.12794744502,3156.25589489004,3180.38862100782,1637.77387565865,918,386.353896552,2.00669288288635,15.2802111718573
44,31.1392797189188,0.989412872425218,0.989377621168033,1.17167469025844,28067.4492603821,0,4,-1425.51778614485,2861.03557228969,2885.07524700819,1236.91224339278,901,386.353896552,2.00669288288635,15.2802111718573
45,31.4791144864393,0.994838812520523,0.994822948214746,0.966119273970432,62709.2560178543,0,4,-1354.7770490022,2719.55409800441,2743.99186086273,910.985176700264,976,386.353896552,2.00669288288635,15.2802111718573
46,21.3433090852719,0.788485616216299,0.787789081472774,5.66876690461351,1132.01189681676,1.05416435557446e-306,4,-2883.82340302221,5777.64680604443,5801.74142637081,29274.9104973646,911,386.353896552,2.00669288288635,15.2802111718573
47,14.7822050717277,0.994998258938081,0.994985660094096,0.725653093675353,78975.3615607698,0,4,-1310.41175555425,2630.82351110851,2656.25301843034,627.147743121487,1191,386.353896552,2.00669288288635,15.2802111718573
48,14.7240934181668,0.99598238493952,0.99597311352015,0.722793337059973,107425.017158206,0,4,-1424.97272566902,2859.94545133804,2885.81141005047,679.159270527778,1300,386.353896552,2.00669288288635,15.2802111718573
49,17.2104211259558,0.775713293297436,0.775204706660922,7.67219464094362,1525.23333804989,0,4,-4584.82720610502,9179.65441221003,9205.60779238169,77875.1809150772,1323,386.353896552,2.00669288288635,15.2802111718573
50,27.778119899664,0.892885070117355,0.892674075508262,7.71341804098314,4231.79091616389,0,4,-5284.31859683123,10578.6371936625,10605.2924951886,90613.6536235705,1523,386.353896552,2.00669288288635,15.2802111718573
51,28.6584052992619,0.978154156898154,0.978106871523475,3.31940626843232,20686.1881402404,0,4,-3638.02412357909,7286.04824715818,7312.23354228881,15271.5827532222,1386,386.353896552,2.00669288288635,15.2802111718573
52,28.2585314332394,0.992299670719613,0.992282036377749,1.69896961892316,56270.8650201746,0,4,-2558.93103877641,5127.86207755282,5153.76623354804,3781.3120734913,1310,386.353896552,2.00669288288635,15.2802111718573
53,28.5216007808882,0.993587883272118,0.99357059993862,1.49851619880234,57488.2087051032,0,4,-2034.74979359873,4079.49958719746,4104.5915961928,2499.29803825525,1113,386.353896552,2.00669288288635,15.2802111718573
54,28.6853320506236,0.993439085181414,0.993419901219956,1.25310085425345,51784.8770372038,0,4,-1691.89259340995,3393.7851868199,3418.47175722601,1611.08855645492,1026,386.353896552,2.00669288288635,15.2802111718573
55,27.9926802345371,0.988866839402023,0.988830257275195,1.380643811658,27031.4201263465,0,4,-1594.94053732972,3199.88107465943,3223.98661202072,1740.33990655328,913,386.353896552,2.00669288288635,15.2802111718573
56,26.4789314107788,0.858940247587396,0.85847674347213,3.76015917274316,1853.14481424733,0,4,-2513.69326281042,5037.38652562085,5061.49206298213,12908.7216649848,913,386.353896552,2.00669288288635,15.2802111718573
57,27.1739482815844,0.983613973953161,0.983564218813343,1.64086938493655,19769.0927519143,0,4,-1896.84738623771,3803.69477247541,3828.19338801184,2660.14291036099,988,386.353896552,2.00669288288635,15.2802111718573
58,27.4793433728456,0.991566201375917,0.991543137204657,1.48091816468644,42991.6249839187,0,4,-1992.56885011121,3995.13770022242,4020.15757090603,2405.85111571658,1097,386.353896552,2.00669288288635,15.2802111718573
59,27.586709643353,0.982630176172653,0.982585903044801,2.57641061068231,22194.7312928287,0,4,-2791.45809931511,5592.91619863021,5618.2867827112,7812.79845420245,1177,386.353896552,2.00669288288635,15.2802111718573
60,28.1738460435738,0.996665880931515,0.996658695330074,1.20043923993786,138703.19543278,0,4,-2233.86710378894,4477.73420757787,4503.94103899449,2005.94768134536,1392,386.353896552,2.00669288288635,15.2802111718573
61,28.6142617632604,0.990465773595275,0.990446512531831,2.10097517130332,51423.2132862579,0,4,-3216.23277345509,6442.46554691017,6468.99484707359,6554.93355559301,1485,386.353896552,2.00669288288635,15.2802111718573
62,28.4771470752066,0.994108473805403,0.994095982937146,1.75765419451459,79586.8192141556,0,4,-2811.75868226287,5633.51736452574,5659.80590291154,4371.42779850504,1415,386.353896552,2.00669288288635,15.2802111718573
63,28.0402351393193,0.997383577252463,0.997378095919891,1.1599576969374,181960.055189837,0,4,-2248.67170110391,4507.34340220783,4533.69148595587,1926.75866163595,1432,386.353896552,2.00669288288635,15.2802111718573
64,27.8126506636821,0.998102755130433,0.998098416918078,0.89445500049957,230072.360142883,0,4,-1718.53252363669,3447.06504727338,3472.97680783281,1049.66526926932,1312,386.353896552,2.00669288288635,15.2802111718573
65,26.990108147506,0.99389434162333,0.993878496489135,1.40099661975398,62725.5237702567,0,4,-2035.09851364605,4080.19702729211,4105.47790371261,2268.98700701776,1156,386.353896552,2.00669288288635,15.2802111718573
66,29.0879714738436,0.969433386138001,0.969249986454829,2.95289809903869,5285.90545725683,0,4,-1258.86173764186,2527.72347528372,2548.83635662408,4359.80359165317,500,386.353896552,2.00669288288635,15.2802111718573
67,31.9148730546562,0.990186044428276,0.990156513970186,1.41253782135508,33531.0086091182,0,4,-1764.08681287694,3538.17362575388,3562.71739965045,1989.27730746827,997,386.353896552,2.00669288288635,15.2802111718573
68,30.6431431246014,0.987967934917682,0.987929452833197,1.35528881420001,25673.451637012,0,4,-1621.01757300486,3252.03514600972,3276.27517238261,1722.92568816214,938,386.353896552,2.00669288288635,15.2802111718573
69,30.0538177944562,0.984499119484182,0.984450830136781,1.66225071053165,20387.5010217607,0,4,-1861.5122537999,3733.0245075998,3757.39550007707,2660.84355995045,963,386.353896552,2.00669288288635,15.2802111718573
70,30.9490149650625,0.993425657216081,0.993407984251608,1.44596410584161,56211.602684959,0,4,-2000.23703363656,4010.47406727311,4035.57948709456,2333.34641004669,1116,386.353896552,2.00669288288635,15.2802111718573
71,31.1041092582689,0.995433031520961,0.995421661474955,1.38238652070105,87548.7250450697,0,4,-2104.98131516845,4219.9626303369,4245.45037458998,2302.74595360222,1205,386.353896552,2.00669288288635,15.2802111718573
72,30.0588301061441,0.971784852043056,0.971722566948229,3.86583603839814,15602.2055474342,0,4,-3775.02885165516,7560.05770331032,7586.1449204688,20309.8313667821,1359,386.353896552,2.00669288288635,15.2802111718573
73,30.8591179402281,0.997669512378921,0.99766473025658,1.1900479321043,208624.840842355,0,4,-2333.23575237567,4676.47150475133,4702.92296916356,2070.50498599177,1462,386.353896552,2.00669288288635,15.2802111718573
74,31.2936239236457,0.995277470668559,0.995268050729733,1.78185896764172,105656.468587683,0,4,-3008.86368308697,6027.72736617393,6054.32006391677,4775.23215637011,1504,386.353896552,2.00669288288635,15.2802111718573
75,31.0677065983765,0.967112684337704,0.967046155715326,4.48337427117196,14536.7910797808,0,4,-4339.01793941357,8688.03587882715,8714.55845855945,29809.2563205681,1483,386.353896552,2.00669288288635,15.2802111718573
78,8.97995862069593,1,1,1.34225777424352e-11,5.10785470626823e+24,0,2,20404.4859099768,-40802.9718199537,-40788.6871016473,1.55302741382979e-19,862,386.353896552,2.00669288288635,15.2802111718573
79,28.9668911833902,0.857224178175566,0.856797557194019,5.49178025116808,2009.3343160641,0,4,-3145.16455705563,6300.32911411125,6324.90773135441,30280.2889284282,1004,386.353896552,2.00669288288635,15.2802111718573
80,30.3426281006305,0.987385917847359,0.987339712418229,1.35392713299853,21369.4783584313,0,4,-1415.15823751633,2840.31647503267,2863.88125603605,1501.32420012363,819,386.353896552,2.00669288288635,15.2802111718573
81,29.8115600531318,0.989290066749135,0.989256174555303,1.3951128414392,29189.319276802,0,4,-1665.81775755376,3341.63551510752,3365.92834028148,1845.13016865044,948,386.353896552,2.00669288288635,15.2802111718573
82,29.6334531550101,0.99333668745876,0.993318547769446,1.33246557803437,54760.4024677189,0,4,-1884.79872712375,3779.59745424751,3804.63998015792,1956.56189734442,1102,386.353896552,2.00669288288635,15.2802111718573
83,31.4632513625219,0.994269773398542,0.994255241970136,1.48047242632767,68422.026081313,0,4,-2148.00945789681,4306.01891579362,4331.41483776667,2592.89774985288,1183,386.353896552,2.00669288288635,15.2802111718573
84,31.4237209658081,0.996526343173633,0.99651858947536,1.39042340970492,128522.713686936,0,4,-2355.03817416977,4720.07634833954,4746.1082347969,2598.32463509533,1344,386.353896552,2.00669288288635,15.2802111718573
85,30.7356402618612,0.993600351764459,0.99358681231121,1.97396243318858,73385.5594842146,0,4,-2982.74879404542,5975.49758809085,6001.79668614267,5525.27626107319,1418,386.353896552,2.00669288288635,15.2802111718573
86,23.3564009898417,0.790265446914356,0.78970063213944,9.48131205177341,1399.1585950124,0,4,-4099.1124821601,8208.22496432019,8233.32144758877,100143.339940538,1114,386.353896552,2.00669288288635,15.2802111718573
87,30.5835794410493,0.995767073320502,0.995758248594972,1.5358224576522,112838.305267491,0,4,-2664.66782283332,5339.33564566664,5365.70804346051,3394.2421442361,1439,386.353896552,2.00669288288635,15.2802111718573
88,31.1126782810133,0.997093293923711,0.997086924224494,1.19249127252152,156536.95093982,0,4,-2187.90895737145,4385.8179147429,4411.94168177174,1946.76651056976,1369,386.353896552,2.00669288288635,15.2802111718573
89,30.383027138039,0.991599849391094,0.991580192252383,1.88795568334753,50444.7704215985,0,4,-2639.99788552937,5289.99577105874,5315.79223058273,4569.53088104838,1282,386.353896552,2.00669288288635,15.2802111718573
90,30.3497394761565,0.986588071975448,0.986554570073638,2.22451080626677,29448.7183914055,0,4,-2671.25972570212,5352.51945140424,5377.99062563387,5943.08644096433,1201,386.353896552,2.00669288288635,15.2802111718573
95,28.2968671672002,0.987632990058497,0.987604251847944,2.00994379844327,34366.5444381619,0,4,-2739.57056043673,5489.14112087347,5514.97245074414,5215.47742811464,1291,386.353896552,2.00669288288635,15.2802111718573
96,28.9268308230754,0.945004536454971,0.944871697171046,5.05538914745356,7113.8936354637,0,4,-3785.08091612253,7580.16183224506,7605.8003007418,31741.7436147815,1242,386.353896552,2.00669288288635,15.2802111718573
97,30.4104192754268,0.919647597012761,0.919477957879079,6.87421328723756,5421.1995608174,0,4,-4767.06711616729,9544.13423233457,9570.44386779809,67149.0826204939,1421,386.353896552,2.00669288288635,15.2802111718573
98,30.793981900456,0.99802187641784,0.998017985027187,1.11253729360882,256469.207361247,0,4,-2330.61193631992,4671.22387263984,4697.88571866949,1887.55232524742,1525,386.353896552,2.00669288288635,15.2802111718573
99,30.6251648642723,0.997530490045795,0.997525433028823,1.13931198627291,197256.70207408,0,4,-2274.01165514415,4558.02331028831,4584.48499616918,1901.6165900254,1465,386.353896552,2.00669288288635,15.2802111718573
100,30.4718813849706,0.997878782576736,0.997874120560421,1.03927570974294,214044.463850266,0,4,-1993.26333187557,3996.52666375114,4022.63584287759,1474.3283111762,1365,386.353896552,2.00669288288635,15.2802111718573
101,29.3270127404887,0.991640746301438,0.99161990028224,1.9957003531598,47569.7895537355,0,4,-2544.68650507965,5099.37301015929,5124.85247626478,4791.33233922139,1203,386.353896552,2.00669288288635,15.2802111718573
102,25.4787067358696,0.992881022702364,0.992753136882646,1.57508144480705,7763.80856682678,4.90431396876557e-179,4,-318.301219968553,646.602439937106,662.31075771962,414.307220148504,167,386.353896552,2.00669288288635,15.2802111718573
