\relax 
\@writefile{toc}{\contentsline {section}{\numberline {1}Milestone 4.1.1, Go/No-Go Decision Point}{1}}
\@writefile{toc}{\contentsline {section}{\numberline {2}Introduction}{1}}
\@writefile{toc}{\contentsline {section}{\numberline {3}Methodology}{2}}
\@writefile{toc}{\contentsline {subsection}{\numberline {3.1}The Month-by-Month Method}{2}}
\@writefile{toc}{\contentsline {subsection}{\numberline {3.2}The Responsivity Method}{2}}
\@writefile{toc}{\contentsline {subsection}{\numberline {3.3}Data Source and Cleaning}{3}}
\@writefile{toc}{\contentsline {section}{\numberline {4}Results}{3}}
\@writefile{lot}{\contentsline {table}{\numberline {1}{\ignorespaces Summarized Results from analysis of the BWh climate zone. The multiple values in $R_d$ correspond to each linear segment.\let \reserved@e \relax \let \reserved@f \relax \let \reserved@d =*\def \par }}{4}}
\@writefile{lot}{\contentsline {table}{\numberline {2}{\ignorespaces Summarized Results from analysis of the ET climate zone. The multiple values in $R_d$ correspond to each linear segment.\let \reserved@e \relax \let \reserved@f \relax \let \reserved@d =*\def \par }}{4}}
\@writefile{toc}{\contentsline {subsection}{\numberline {4.1}BWh Site}{4}}
\@writefile{toc}{\contentsline {subsection}{\numberline {4.2}ET Site}{4}}
\@writefile{toc}{\contentsline {subsection}{\numberline {4.3}Model Verification}{5}}
\@writefile{toc}{\contentsline {section}{\numberline {5}Conclusion}{5}}
