"Age","power_predict","r.squared","adj.r.squared","sigma","statistic","p.value","df","logLik","AIC","BIC","deviance","df.residual","GHI","Wind_speed","Ambient_temp"
1,198.216724805229,0.981297978337582,0.981184861271075,8.09561572082603,8675.06565227854,0,4,-1753.12254673082,3516.24509346165,3537.31813395376,32507.3409740456,496,561.67,1.11728396838689,17.0202661140479
2,194.619003991155,0.949373592237418,0.949210806360368,17.5682527350045,5832.03905302678,0,4,-4013.07068837129,8036.14137674259,8060.35479315378,287964.389382206,933,561.67,1.11728396838689,17.0202661140479
3,212.703811135723,0.946550794887258,0.946387508109928,23.7510639119185,5796.86126680862,0,4,-4520.34986914733,9050.69973829466,9075.16802006768,553959.002282973,982,561.67,1.11728396838689,17.0202661140479
4,291.568568801231,0.952777074199697,0.95266699744958,37.9240068811212,8655.57052860644,0,4,-6523.38592258346,13056.7718451669,13082.5877071212,1851002.39342218,1287,561.67,1.11728396838689,17.0202661140479
5,272.829026473243,0.964843841944484,0.964761956483174,29.1382804268711,11782.8467534486,0,4,-6187.95768497828,12385.9153699566,12411.7351033783,1093562.72947065,1288,561.67,1.11728396838689,17.0202661140479
6,275.626119676687,0.965747728541605,0.965678015641757,28.3571806240426,13853.2141204067,0,4,-7038.92149895177,14087.8429979035,14114.3352234111,1185287.16740031,1474,561.67,1.11728396838689,17.0202661140479
7,276.153302501233,0.990520876883381,0.990487183317801,14.0609609390243,29397.9239009255,0,4,-3442.86023502446,6895.72047004891,6919.43487322787,166867.765414279,844,561.67,1.11728396838689,17.0202661140479
9,248.200923357293,0.911578433756294,0.91137087139422,39.0694963478787,4391.82915749159,0,4,-6516.04453996893,13042.0890799379,13067.8699631253,1950771.84635269,1278,561.67,1.11728396838689,17.0202661140479
10,248.031575523098,0.913669003346164,0.913448771211843,37.3204153036374,4148.66343716401,0,4,-5943.4018665043,11896.8037330086,11922.1700815959,1637948.5565607,1176,561.67,1.11728396838689,17.0202661140479
11,267.629669602332,0.947384955084287,0.947226793626625,25.2817651159285,5989.98623992279,0,4,-4656.31596384293,9322.63192768586,9347.18069409409,637889.312082226,998,561.67,1.11728396838689,17.0202661140479
12,311.057738156456,0.970966032737481,0.970868712176824,17.0453130148531,9976.98766003504,0,4,-3823.07314595521,7656.14629191043,7680.15270708278,260035.712718018,895,561.67,1.11728396838689,17.0202661140479
13,317.929434659639,0.97027384733492,0.970155886411646,15.1560329527893,8225.38363047666,0,4,-3142.37099075706,6294.74198151412,6317.90857368052,173657.233158723,756,561.67,1.11728396838689,17.0202661140479
14,301.217489255221,0.885100600739042,0.884687788526128,34.3867825246356,2144.07561852886,0,4,-4156.59167406102,8323.18334812205,8346.84440165438,987346.428351149,835,561.67,1.11728396838689,17.0202661140479
15,313.97283170155,0.913136410000353,0.912880678135781,38.180436523382,3570.67904513327,0,4,-5175.66688549471,10361.3337709894,10385.9862448192,1485442.90204521,1019,561.67,1.11728396838689,17.0202661140479
16,295.827143028805,0.985800891424746,0.985766118097623,18.2847777886413,28349.3405142328,0,4,-5313.43087226084,10636.8617445217,10662.4315250695,409558.046005488,1225,561.67,1.11728396838689,17.0202661140479
17,289.315790559244,0.992394114316838,0.992377398084568,14.9733751064298,59367.0929098771,0,4,-5645.41252529399,11300.825050588,11326.9342297144,306035.678236266,1365,561.67,1.11728396838689,17.0202661140479
18,289.497079906048,0.991864629172744,0.991848105061382,14.4348803129066,60025.2931876179,0,4,-6053.19324145881,12116.3864829176,12142.888846989,307756.241770007,1477,561.67,1.11728396838689,17.0202661140479
19,289.629565319028,0.991374789884899,0.991357921807751,13.6733250901881,58772.246603818,0,4,-6202.88213116224,12415.7642623245,12442.4554530748,286796.362379697,1534,561.67,1.11728396838689,17.0202661140479
20,299.170650761214,0.98946455289658,0.989443565950159,15.0282412128124,47146.6659818214,0,4,-6232.59061094282,12475.1812218856,12501.7805465347,340127.139129411,1506,561.67,1.11728396838689,17.0202661140479
21,293.196864643027,0.989643708698887,0.989621211324591,14.5285076493656,43989.2982914412,0,4,-5669.64315307117,11349.2863061423,11375.4535832354,291498.075168909,1381,561.67,1.11728396838689,17.0202661140479
22,289.179642265591,0.987083736181142,0.987053883491268,15.3787115245917,33065.1522641426,0,4,-5403.800299992,10817.600599984,10843.4588840978,306983.189067278,1298,561.67,1.11728396838689,17.0202661140479
23,300.342356567023,0.980177005121153,0.980120849328295,17.3465580092099,17454.6018360213,0,4,-4539.48581783824,9088.97163567649,9113.8158875682,318656.35617813,1059,561.67,1.11728396838689,17.0202661140479
24,316.730726196908,0.965779123504979,0.965665684135382,18.9696467551555,8513.61504333145,0,4,-3962.85242103774,7935.70484207549,7959.76656754637,325661.985703919,905,561.67,1.11728396838689,17.0202661140479
25,307.025717485324,0.894155252088329,0.893674139597822,29.8519409623587,1858.51598062848,2.68771711337638e-321,4,-3195.27904574379,6400.55809148759,6423.04950223497,588151.330285298,660,561.67,1.11728396838689,17.0202661140479
26,286.637655284137,0.830820354749831,0.83021397609302,47.3350516607618,1370.13456100134,2.42092166462211e-322,4,-4435.27068573005,8880.5413714601,8904.21432975997,1875388.15586349,837,561.67,1.11728396838689,17.0202661140479
27,290.359098385009,0.927967888521199,0.927747382057488,37.5007925322914,4208.34778675254,0,4,-4960.603714459,9931.207428918,9955.66555840326,1378183.25173896,980,561.67,1.11728396838689,17.0202661140479
28,301.275736889362,0.990152227667463,0.990128325307433,15.9264786860833,41424.8729584409,0,4,-5189.77953075664,10389.5590615133,10415.1733948063,313514.766046096,1236,561.67,1.11728396838689,17.0202661140479
29,290.882193553149,0.990484610653376,0.990462819685407,16.8648638165599,45453.906042436,0,4,-5574.83754744476,11159.6750948895,11185.5792508847,372594.957331957,1310,561.67,1.11728396838689,17.0202661140479
30,288.494894149385,0.99074877571123,0.990729753317216,15.5208776041686,52083.2853628321,0,4,-6085.72254048849,12181.445080977,12207.8863029821,351469.659099627,1459,561.67,1.11728396838689,17.0202661140479
31,292.942342843194,0.991505431355279,0.991488990254676,14.1718962182722,60306.5120344387,0,4,-6323.08728477245,12656.1745695449,12682.9175071995,311306.09575329,1550,561.67,1.11728396838689,17.0202661140479
32,286.641912302106,0.990266346150274,0.990247147621971,14.6309019261845,51580.32587242,0,4,-6253.66082547871,12517.3216509574,12543.9703994026,325590.26587509,1521,561.67,1.11728396838689,17.0202661140479
33,297.930433011807,0.987565059947587,0.987538413647475,16.6336800020052,37061.9956911487,0,4,-5937.43394236295,11884.8678847259,11911.1032876488,387351.034572753,1400,561.67,1.11728396838689,17.0202661140479
34,293.183175917599,0.986366584360852,0.98632993539408,15.7790038606983,26913.8988419459,0,4,-4676.92938636832,9363.85877273664,9388.96419255808,277858.290524901,1116,561.67,1.11728396838689,17.0202661140479
