"Age","power_predict","r.squared","adj.r.squared","sigma","statistic","p.value","df","logLik","AIC","BIC","deviance","df.residual","GHI","Wind_speed","Ambient_temp"
1,74.5065763765507,0.894426264532721,0.893799093826975,11.2925091701575,1426.12889335852,4.763926204872e-246,4,-1954.1188701469,3918.23774029379,3939.39998037655,64397.9854958358,505,481.4,1.31901836507795,22.7356464800823
2,74.0063038383572,0.917228891610426,0.917065634986383,9.83056402499156,5618.32573097526,0,4,-5647.26050900694,11304.5210180139,11331.1697664591,146989.423344226,1521,481.4,1.31901836507795,22.7356464800823
3,82.4295934114256,0.849030085306235,0.848715782916171,13.1036745292064,2701.31603242053,0,4,-5766.19334321595,11542.3866864319,11568.7660094346,247428.758367183,1441,481.4,1.31901836507795,22.7356464800823
4,77.7317474585648,0.962004075829595,0.961916257823038,6.73781861465297,10954.5196201106,0,4,-4329.32745649861,8668.65491299723,8694.51319711107,58926.8631897854,1298,481.4,1.31901836507795,22.7356464800823
5,90.718704047869,0.892285756348331,0.891974743132783,10.6410060591532,2868.96412030077,0,4,-3944.34682553965,7898.6936510793,7923.4429333543,117647.019339021,1039,481.4,1.31901836507795,22.7356464800823
6,100.269536412675,0.966054063236267,0.965948422354222,6.30178399620322,9144.69895117373,0,4,-3153.45447524959,6316.90895049919,6341.28511093557,38282.8321995501,964,481.4,1.31901836507795,22.7356464800823
7,107.33818645053,0.985617016635344,0.985565154916481,3.65543244425653,19004.7117265833,0,4,-2267.86305382918,4545.72610765836,4569.36925072378,11117.3390469634,832,481.4,1.31901836507795,22.7356464800823
8,106.678101517247,0.981929916620677,0.98186838398715,3.81356207280386,15957.872438167,0,4,-2438.38492490302,4886.76984980605,4910.69778803109,12812.6082568359,881,481.4,1.31901836507795,22.7356464800823
9,103.723596173891,0.97741118584433,0.977347970879342,6.11426521285938,15461.7057216069,0,4,-3473.0062051443,6956.01241028861,6980.91743899222,40075.9043078915,1072,481.4,1.31901836507795,22.7356464800823
10,102.391431442008,0.9663934403613,0.966310801280222,8.20667258568764,11694.1455271042,0,4,-4311.23329481146,8632.46658962293,8658.01598693829,82166.359412986,1220,481.4,1.31901836507795,22.7356464800823
11,95.0230444959275,0.955061276553005,0.95496539022986,10.216117492253,9960.34935154425,0,4,-5275.49342301791,10560.9868460358,10587.2435709527,146742.893601418,1406,481.4,1.31901836507795,22.7356464800823
12,94.3200955149811,0.948226153396237,0.948121630152757,10.8458011495592,9071.91665533821,0,4,-5664.04496634753,11338.0899326951,11364.6225896898,174800.264227607,1486,481.4,1.31901836507795,22.7356464800823
13,95.8343431826222,0.940209368927864,0.940092361822048,11.1397897036902,8035.48948902197,0,4,-5883.88031784054,11777.7606356811,11804.4485743988,190237.504146863,1533,481.4,1.31901836507795,22.7356464800823
14,95.0103336932041,0.974009469916592,0.973958607822495,7.2805809183551,19150.0072345623,0,4,-5230.17469604631,10470.3493920926,10497.0373308103,81259.5140938623,1533,481.4,1.31901836507795,22.7356464800823
15,84.2368989103672,0.968277602174453,0.968212284951751,7.69326984402635,14824.2310698638,0,4,-5052.01181467928,10114.0236293586,10140.4580114173,86234.5861011086,1457,481.4,1.31901836507795,22.7356464800823
16,83.2549780311629,0.948935648116845,0.948821068419277,9.19743980235762,8281.88298845164,0,4,-4876.37222778322,9762.74445556644,9788.75030998285,113100.705853356,1337,481.4,1.31901836507795,22.7356464800823
17,94.567998234398,0.979560779746391,0.979510312535888,5.84374198568534,19409.8459175438,0,4,-3879.67045005657,7769.34090011314,7794.86983076055,41491.4242802429,1215,481.4,1.31901836507795,22.7356464800823
18,95.8098439747877,0.982137618867398,0.982086339304338,4.5339713562092,19152.6128589725,0,4,-3072.12924645729,6154.25849291458,6179.03645595656,21481.9565905772,1045,481.4,1.31901836507795,22.7356464800823
19,103.493268097698,0.973747220050993,0.973656693223583,4.92657176251254,10756.4491975056,0,4,-2631.86598687957,5273.73197375914,5297.59737563742,21115.8651181318,870,481.4,1.31901836507795,22.7356464800823
20,102.607033368226,0.97828626950671,0.978214528106402,4.83717042939063,13636.2862350562,0,4,-2729.68043755323,5469.36087510646,5493.43907505683,21245.5817287778,908,481.4,1.31901836507795,22.7356464800823
21,97.2374629331813,0.976650376251986,0.976587155249059,6.00820761500745,15448.1949197613,0,4,-3569.81267811511,7149.62535623022,7174.69493360427,39997.2030894971,1108,481.4,1.31901836507795,22.7356464800823
22,96.1409620985515,0.962197294718939,0.962099190812501,8.6407386461972,9807.94067889418,0,4,-4145.49140421288,8300.98280842576,8326.26368484627,86309.69319078,1156,481.4,1.31901836507795,22.7356464800823
23,93.6435181283267,0.943903375726028,0.943766108293058,10.9672688995484,6876.38251331194,0,4,-4689.03693415241,9388.07386830482,9413.64771554666,147464.490202992,1226,481.4,1.31901836507795,22.7356464800823
24,92.1119376225629,0.960585579850524,0.960503976496177,9.10837557949908,11771.3982169029,0,4,-5269.67437008883,10549.3487401777,10575.7556684955,120212.670755265,1449,481.4,1.31901836507795,22.7356464800823
25,95.5001412180014,0.965102024862,0.965029016545811,8.21252394110169,13219.0697614919,0,4,-5066.37033391313,10142.7406678263,10169.0957105177,96716.9179588635,1434,481.4,1.31901836507795,22.7356464800823
26,88.2045551462117,0.96494422825026,0.964867407713189,7.2683680906636,12561.0190328063,0,4,-4669.58884112775,9349.1776822555,9375.30144928434,72323.1401661848,1369,481.4,1.31901836507795,22.7356464800823
27,78.5275680783368,0.966737959074273,0.966631235948308,7.17891751512466,9058.37371547972,0,4,-3181.28755340103,6372.57510680205,6396.79918419809,48186.961004181,935,481.4,1.31901836507795,22.7356464800823
28,92.8572378374815,0.916109432467877,0.915926929420309,12.1642795540476,5019.69388826883,0,4,-5415.81978207868,10841.6395641574,10867.7996158157,204050.212258179,1379,481.4,1.31901836507795,22.7356464800823
29,93.9363997644021,0.986185651902024,0.986151598455603,4.45663325047743,28959.9366748396,0,4,-3555.17525683303,7120.35051366607,7145.88764103662,24171.5427739107,1217,481.4,1.31901836507795,22.7356464800823
30,89.3431885811542,0.986694498629647,0.986656482911446,3.58608133962609,25954.9087935814,0,4,-2839.57870988212,5689.15741976424,5713.95915840975,13502.9783431351,1050,481.4,1.31901836507795,22.7356464800823
31,94.653567297302,0.972344439953382,0.97225837493249,4.98250625835518,11297.7889260488,0,4,-2926.07152872958,5862.14305745916,5886.51921789554,23931.6553444248,964,481.4,1.31901836507795,22.7356464800823
32,105.692568672009,0.984335425010077,0.984286268394,4.18152186093595,20024.4749041493,0,4,-2733.62506496459,5477.25012992917,5501.58479635148,16715.7795702519,956,481.4,1.31901836507795,22.7356464800823
33,100.148942445176,0.981382365363721,0.981328191839076,4.98980581620535,18115.5346970225,0,4,-3130.2533963689,6270.5067927378,6295.2175762663,25670.0051080233,1031,481.4,1.31901836507795,22.7356464800823
34,93.7304735276934,0.982408268961674,0.98236504603529,5.72235939885364,22728.8698648414,0,4,-3873.06340400413,7756.12680800826,7781.68028862315,39982.1298464609,1221,481.4,1.31901836507795,22.7356464800823
35,92.3460505936045,0.986060359040496,0.986029564546477,5.73106001247021,32020.6709165407,0,4,-4308.50783023072,8627.01566046143,8653.09920789498,44603.5763607545,1358,481.4,1.31901836507795,22.7356464800823
36,91.7030228602922,0.981191491034931,0.981152816924654,6.32711311319243,25370.7579563885,0,4,-4772.91120625662,9555.82241251323,9582.26363451833,58407.2137464651,1459,481.4,1.31901836507795,22.7356464800823
37,85.5256201612823,0.983009609912979,0.982975193187617,5.4838136514063,28561.9738535457,0,4,-4632.29518271101,9274.59036542201,9301.1062156782,44536.9462139216,1481,481.4,1.31901836507795,22.7356464800823
38,77.3876011290481,0.986986125484598,0.986959144404054,4.36764829613542,36580.6745174391,0,4,-4195.97711412995,8401.95422825989,8428.35426952431,27603.480821249,1447,481.4,1.31901836507795,22.7356464800823
39,79.9504404350925,0.908276563904813,0.908087313348908,12.0408008667436,4799.333664107,0,4,-5694.75242505661,11399.5048501132,11425.9289546761,210802.207535282,1454,481.4,1.31901836507795,22.7356464800823
40,85.6376602891429,0.983030012405545,0.982993121128165,5.36367029799352,26646.6786254044,0,4,-4286.44155520036,8582.88311040072,8609.0467760816,39701.1635104975,1380,481.4,1.31901836507795,22.7356464800823
41,82.0333328278336,0.97020989819838,0.970138287376742,6.40334560115763,13548.3698692356,0,4,-4099.24723802106,8208.49447604211,8234.15696380041,51171.5379400553,1248,481.4,1.31901836507795,22.7356464800823
42,92.3115965674899,0.992134518702377,0.992113279778981,3.06363068310947,46713.0324926394,0,4,-2828.46766055032,5666.93532110064,5692.01836952011,10427.6604213261,1111,481.4,1.31901836507795,22.7356464800823
43,94.2907523677796,0.979629366065729,0.979567823365022,4.23971159864704,15917.8806714622,0,4,-2852.83945680581,5715.67891361162,5740.20266746143,17849.3283586243,993,481.4,1.31901836507795,22.7356464800823
44,103.649949718446,0.979953621466583,0.979883935330314,3.94760409212663,14062.3899376789,0,4,-2418.70044118698,4847.40088237396,4871.22607725786,13448.6278728349,863,481.4,1.31901836507795,22.7356464800823
45,97.461473399092,0.985194093423079,0.985150674342208,4.44729085471716,22690.3488896074,0,4,-2987.83305079299,5985.66610158598,6010.33808763562,20233.2990532192,1023,481.4,1.31901836507795,22.7356464800823
46,92.2279303896018,0.983370626460367,0.983328668411066,5.35914441000811,23436.9958289915,0,4,-3693.60388415778,7397.20776831555,7422.62890042604,34148.5898519049,1189,481.4,1.31901836507795,22.7356464800823
47,84.5433260539484,0.981374054230562,0.981332937352484,5.83657607436801,23867.9126455906,0,4,-4336.53901063698,8683.07802127396,8709.16523843244,46295.1779494919,1359,481.4,1.31901836507795,22.7356464800823
48,78.9878013513887,0.985487630477731,0.985457892015596,5.18623981823621,33138.4866499704,0,4,-4497.34014540737,9004.68029081474,9031.13857186061,39377.3301741068,1464,481.4,1.31901836507795,22.7356464800823
49,79.6056595425504,0.982500724182783,0.982464643201716,5.53053885877238,27230.4326308074,0,4,-4563.53475832728,9137.06951665456,9163.49704939717,44503.8813995094,1455,481.4,1.31901836507795,22.7356464800823
50,76.2824660149468,0.988691969117345,0.988669155336143,4.03441277800981,43337.4880010444,0,4,-4193.37205716476,8396.74411432953,8423.28012590335,24203.1353710295,1487,481.4,1.31901836507795,22.7356464800823
51,68.3128507689304,0.979656837319296,0.979614689882803,5.1418935185212,23243.5687394183,0,4,-4435.8318637699,8881.6637275398,8908.06721351672,38283.7718480134,1448,481.4,1.31901836507795,22.7356464800823
52,62.0925017941063,0.991884975762261,0.991867879503333,3.04742286519448,58017.6622236428,0,4,-3615.45649433641,7240.91298867283,7267.23313938732,13224.3834338977,1424,481.4,1.31901836507795,22.7356464800823
53,60.4592031892255,0.979725111564075,0.979677592294303,3.97338863976195,20617.4277565932,0,4,-3591.34512616654,7192.69025233307,7218.47892975432,20208.4061217143,1280,481.4,1.31901836507795,22.7356464800823
54,71.3101721250893,0.890693396389719,0.89038432965001,9.2408391847787,2881.88045478284,0,4,-3877.33460061217,7764.66920122435,7789.52285161506,90602.088478117,1061,481.4,1.31901836507795,22.7356464800823
55,97.648760903671,0.987764543903654,0.987724732224382,3.48076403155132,24810.9238785995,0,4,-2466.88793399345,4943.77586798691,4967.93023916014,11170.6922203608,922,481.4,1.31901836507795,22.7356464800823
56,104.606293304944,0.973869522783255,0.973777944007962,4.8732722617719,10634.2274143166,0,4,-2580.32091798065,5170.6418359613,5194.42649790754,20328.9578519762,856,481.4,1.31901836507795,22.7356464800823
57,102.271504847981,0.983233781273435,0.983184852619564,4.34285294214712,20095.2551006155,0,4,-2977.86518008805,5965.73036017609,5990.4266299063,19388.4620840752,1028,481.4,1.31901836507795,22.7356464800823
58,100.957467806505,0.97813079044154,0.97807236868849,6.26067741794482,16742.5785666,0,4,-3664.38318815118,7338.76637630237,7363.90294887256,44017.1997845467,1123,481.4,1.31901836507795,22.7356464800823
59,91.236397168215,0.977114104110972,0.97705403614276,6.49875540609342,16266.8079707888,0,4,-3772.25645502006,7554.51291004011,7579.73743562576,48273.2583496652,1143,481.4,1.31901836507795,22.7356464800823
60,88.0452896927058,0.961877615710184,0.961797806112927,8.95180034010498,12052.1547378743,0,4,-5186.70704048225,10383.4140809645,10409.7656453949,114833.067128606,1433,481.4,1.31901836507795,22.7356464800823
61,81.7555257856771,0.980580336597273,0.980540569368462,5.84791021413567,24658.0002156182,0,4,-4676.79591554714,9363.59183109427,9390.05351697514,50100.1489233477,1465,481.4,1.31901836507795,22.7356464800823
62,84.4021183226418,0.980253119021754,0.980212654101716,5.51704803058665,24224.7635264322,0,4,-4588.11247316901,9186.22494633802,9212.68322738389,44560.9669747153,1464,481.4,1.31901836507795,22.7356464800823
63,79.1871038504451,0.982856302923886,0.982820337125824,4.6597404365561,27327.5265916708,0,4,-4239.62333817751,8489.24667635503,8515.58779146083,31049.8487385888,1430,481.4,1.31901836507795,22.7356464800823
64,71.1897900830755,0.985049047818464,0.98501790000142,4.65846237620653,31624.9786108472,0,4,-4268.80622982511,8547.61245965021,8573.98832124747,31249.8312631657,1440,481.4,1.31901836507795,22.7356464800823
65,65.0335542027951,0.988068437677631,0.988041071709002,3.50468894600888,36105.7359621556,0,4,-3505.02582380923,7020.05164761845,7045.94818746597,16065.9607476261,1308,481.4,1.31901836507795,22.7356464800823
66,80.2325813197222,0.90547250549818,0.9052246187119,10.5168305113863,3652.76632563936,0,4,-4328.15540161054,8666.31080322108,8691.53968610548,126530.660261979,1144,481.4,1.31901836507795,22.7356464800823
67,89.4381608496863,0.987390456133315,0.987354531506914,3.40976288360998,27485.0584419997,0,4,-2794.37562594412,5598.75125188824,5623.56720181759,12242.6865173338,1053,481.4,1.31901836507795,22.7356464800823
68,97.7496229393818,0.978898823395393,0.978825043057614,4.36672969595481,13267.7465686891,0,4,-2491.72075263267,4993.44150526534,5017.23778161866,16360.6256278039,858,481.4,1.31901836507795,22.7356464800823
69,94.256988688269,0.989289030015963,0.989253287068296,3.13088510252191,27677.8803821311,0,4,-2309.9051703569,4629.81034071379,4653.83895348088,8812.39493114906,899,481.4,1.31901836507795,22.7356464800823
70,90.8099007851631,0.980338799112978,0.980283828374244,4.91192564510001,17833.8298101712,0,4,-3240.41741645798,6490.83483291596,6515.74450630174,25888.2855316295,1073,481.4,1.31901836507795,22.7356464800823
71,84.7594224755457,0.978026827515319,0.977975647765743,6.1999681316439,19109.6446468677,0,4,-4188.57652687897,8387.15305375793,8412.97278717965,49510.2110254192,1288,481.4,1.31901836507795,22.7356464800823
72,82.845926751706,0.973455002504744,0.973397998215205,7.37032093391743,17076.8728174636,0,4,-4784.37323745634,9578.74647491267,9604.97118264435,75887.3180445112,1397,481.4,1.31901836507795,22.7356464800823
73,80.4951719858222,0.97851213798623,0.978467402673224,6.18704445593296,21873.3718898999,0,4,-4681.81449744237,9373.62899488473,9400.00831788746,55160.7870226544,1441,481.4,1.31901836507795,22.7356464800823
74,76.7685833140087,0.975675588766876,0.975624807115032,5.51159710441869,19213.1518637917,0,4,-4502.26488874469,9014.52977748938,9040.89524046938,43652.7586957442,1437,481.4,1.31901836507795,22.7356464800823
75,70.6871081199755,0.985530911919193,0.98550027870519,3.93664721612501,32171.9722853378,0,4,-3961.54691381344,7933.09382762688,7959.38940826736,21959.5200780865,1417,481.4,1.31901836507795,22.7356464800823
76,65.8896307716672,0.988839351119588,0.988816051226309,3.65180398601387,42439.6515168196,0,4,-3909.10152170436,7828.20304340872,7854.56850638871,19163.3611702074,1437,481.4,1.31901836507795,22.7356464800823
77,62.8859030428063,0.993695205685627,0.993680865744047,2.42751028363492,69295.6244060851,0,4,-3048.57657623792,6107.15315247583,6133.09143829641,7772.61134766516,1319,481.4,1.31901836507795,22.7356464800823
78,72.9295427460912,0.979336133808042,0.979283375000743,4.41112637109037,18562.5146577888,0,4,-3420.71448253428,6851.42896506856,6876.79107457125,22863.1921375315,1175,481.4,1.31901836507795,22.7356464800823
79,84.4508469239802,0.984919262172708,0.984876256266356,3.83854408416526,22901.9533763697,0,4,-2916.81365994782,5843.62731989564,5868.43853721697,15500.6105617563,1052,481.4,1.31901836507795,22.7356464800823
80,90.6051435072491,0.984449036753611,0.984393365047478,3.17573243739818,17683.112394792,0,4,-2165.7047233895,4341.40944677901,4365.08834685022,8451.46171868421,838,481.4,1.31901836507795,22.7356464800823
81,88.7324403029363,0.983370895572327,0.98331213548601,3.51992513087118,16735.354850731,0,4,-2281.7989457226,4573.59789144521,4597.34168918267,10519.0021149708,849,481.4,1.31901836507795,22.7356464800823
82,84.5873382476294,0.982609450291295,0.982562448805595,4.7472706688607,20905.9231995286,0,4,-3313.82674726453,6637.65349452906,6662.7320566315,25015.6024718018,1110,481.4,1.31901836507795,22.7356464800823
83,81.4200745422621,0.980358945309008,0.980310448877672,5.53174880040477,20215.0739406194,0,4,-3812.78716465926,7635.57432931852,7661.10325996592,37179.2974207973,1215,481.4,1.31901836507795,22.7356464800823
84,78.1029130173519,0.979529806197858,0.97948634506452,6.05474760439125,22538.0640348852,0,4,-4560.4271683559,9130.85433671179,9157.13582291025,51800.5355652217,1413,481.4,1.31901836507795,22.7356464800823
85,74.6737970881385,0.975979441093783,0.975929502301878,6.19764744097812,19543.5132462554,0,4,-4690.77495258512,9391.54990517025,9417.93614380341,55426.8331772422,1443,481.4,1.31901836507795,22.7356464800823
86,77.2511812659961,0.97682872979683,0.976780656622134,5.67705110261523,20319.6218262412,0,4,-4573.28440191284,9156.56880382567,9182.96539800275,46603.0027345851,1446,481.4,1.31901836507795,22.7356464800823
87,75.1911212466193,0.978641845050543,0.978596562743229,4.72061126333704,21612.0136785146,0,4,-4213.67139666862,8437.34279333725,8463.63133172305,31532.1015398555,1415,481.4,1.31901836507795,22.7356464800823
88,65.9038857781028,0.983454368230161,0.983419850222296,4.38615961066803,28491.052325019,0,4,-4176.03731189175,8362.07462378349,8388.44355537272,27664.8136353074,1438,481.4,1.31901836507795,22.7356464800823
89,60.7743321693146,0.991920818450992,0.9919027979717,2.80051843315641,55044.086364597,0,4,-3301.35145460463,6612.70290920927,6638.73850349031,10548.7052000337,1345,481.4,1.31901836507795,22.7356464800823
90,73.0546501846077,0.917345305136464,0.917140714307594,8.87253733814616,4483.80462703308,0,4,-4377.90630928907,8765.81261857813,8791.32922889076,95410.9656059588,1212,481.4,1.31901836507795,22.7356464800823
91,77.841143445757,0.979666492817923,0.979609269064127,4.07014737286879,17119.927090335,0,4,-3018.19723580182,6046.39447160364,6071.27154124092,17659.4622129042,1066,481.4,1.31901836507795,22.7356464800823
92,84.9730145722769,0.981793662430193,0.981737062417023,3.35807377082549,17346.173745131,0,4,-2546.76243306655,5103.52486613311,5127.90618919256,10881.9763695454,965,481.4,1.31901836507795,22.7356464800823
93,80.4244115366778,0.858155417409288,0.857729030888474,9.29004039539158,2012.62323154936,0,4,-3653.17319448358,7316.34638896716,7340.89515537539,86132.2408469113,998,481.4,1.31901836507795,22.7356464800823
94,79.1043528032795,0.853994653700857,0.853591695063417,12.2821324075247,2119.3109524243,0,4,-4282.44506648231,8574.89013296462,8599.86438289379,163974.794029378,1087,481.4,1.31901836507795,22.7356464800823
95,80.0441283345228,0.848982450485686,0.848612913251965,14.7588920252809,2297.42059260205,0,4,-5054.26140963123,10118.5228192625,10144.0966665043,267053.319815841,1226,481.4,1.31901836507795,22.7356464800823
96,82.7461257651508,0.860095418642166,0.859787484860748,15.6336968010043,2793.11810052132,0,4,-5696.15498852813,11402.3099770563,11428.4118462399,333134.204332392,1363,481.4,1.31901836507795,22.7356464800823
97,77.1809992427888,0.95113523265029,0.951038661963828,8.83434019885205,9849.10916032221,0,4,-5473.52167000613,10957.0433400123,10983.6822427044,118473.170325063,1518,481.4,1.31901836507795,22.7356464800823
98,74.8727853485664,0.94084428039655,0.940718327835293,9.54346009893441,7469.83047435489,0,4,-5190.48199959952,10390.963999199,10417.2313511125,128328.381599874,1409,481.4,1.31901836507795,22.7356464800823
99,73.0348036528779,0.943802987824801,0.943669291523036,8.58179508924779,7059.30512187335,0,4,-4512.25260925656,9034.50521851312,9060.21935551893,92869.127968789,1261,481.4,1.31901836507795,22.7356464800823
100,63.8630924873641,0.949966123345038,0.949843691346698,7.3979955479802,7759.13271223953,0,4,-4204.77831943797,8419.55663887594,8445.13048611777,67099.3945448481,1226,481.4,1.31901836507795,22.7356464800823
101,58.0293333427788,0.92679455442224,0.926285003756966,7.40429951614824,1818.84671649501,3.25540029678882e-244,4,-1486.12547830379,2982.25095660758,3002.62768676302,23628.993721003,431,481.4,1.31901836507795,22.7356464800823
102,50.054351032704,0.939934727628891,0.939786662043753,5.588328193087,6348.09720807757,0,4,-3831.47115518597,7672.94231037195,7698.4794377425,38006.1943962733,1217,481.4,1.31901836507795,22.7356464800823
103,74.6362503322688,0.846921541590542,0.846500610907473,11.4198391197623,2012.02139842949,0,4,-4218.44459958417,8446.88919916834,8471.88174737959,142280.283543688,1091,481.4,1.31901836507795,22.7356464800823
104,82.8109760432574,0.781356831995428,0.780612303614028,11.8476001112848,1049.46547574963,2.98557985041697e-290,4,-3441.5869809093,6893.1739618186,6917.10190004364,123662.118617682,881,481.4,1.31901836507795,22.7356464800823
105,83.8631055428408,0.898401996478219,0.898088744668799,9.41438528743089,2867.98661480227,0,4,-3574.96621678489,7159.93243356979,7184.35486683,86237.6227810099,973,481.4,1.31901836507795,22.7356464800823
106,81.6538456885484,0.925754352021214,0.925544222828821,8.7760868105126,4405.64369700105,0,4,-3818.78740455811,7647.57480911622,7672.42376246573,81640.8816879925,1060,481.4,1.31901836507795,22.7356464800823
107,79.8000684483452,0.877164849463789,0.876829539680705,12.1829173746174,2615.98346877242,0,4,-4320.62390198525,8651.2478039705,8676.27674906677,163117.399856674,1099,481.4,1.31901836507795,22.7356464800823
108,77.2230289721055,0.948813332765608,0.94829454897607,8.19800146154266,1828.9186206281,1.20939221216686e-190,4,-1054.83522702034,2119.67045404067,2138.18936641396,19893.3394771828,296,481.4,1.31901836507795,22.7356464800823
109,70.0797791068653,0.961273889489098,0.960313737988828,6.88670705430763,1001.16897095769,3.24945427630369e-85,4,-416.533747121496,843.067494242991,857.209062929503,5738.6348202739,121,481.4,1.31901836507795,22.7356464800823
110,70.1525637849619,0.905374817250631,0.900394544474348,10.7740894151301,181.792214587577,3.80977482094031e-29,4,-229.492452863459,468.984905726918,479.539275047785,6616.61715533745,57,481.4,1.31901836507795,22.7356464800823
111,62.891649157542,0.750947011111744,0.746188036801777,14.6131131148554,157.795979175395,3.5445941304266e-47,4,-658.212844545482,1326.42568909096,1341.83271091589,33526.2627604865,157,481.4,1.31901836507795,22.7356464800823
115,47.8702948880872,0.995134240930637,0.994922686188491,1.29862881634151,4703.90893078105,1.07573809540475e-79,4,-120.601184174494,251.202368348988,262.65466555473,116.364139381646,69,481.4,1.31901836507795,22.7356464800823
116,75.3924948733477,0.879942489473026,0.879358741447774,8.58526783277648,1507.40122691138,1.82617451365249e-283,4,-2214.33397660063,4438.66795320127,4460.82460861094,45477.1102602325,617,481.4,1.31901836507795,22.7356464800823
117,79.2441600768159,0.986476380362287,0.986412388471257,2.44634910579469,15415.646646494,0,4,-1474.02921620655,2958.0584324131,2980.35012382983,3794.25158266585,634,481.4,1.31901836507795,22.7356464800823
119,77.4420277820215,0.941211731910563,0.939374598532769,6.84395197187379,512.326292302357,6.44937151287342e-59,4,-332.189287439782,674.378574879564,687.404425809505,4496.60914495826,96,481.4,1.31901836507795,22.7356464800823
