"Age","power_predict","r.squared","adj.r.squared","sigma","statistic","p.value","df","logLik","AIC","BIC","deviance","df.residual","GHI","Wind_speed","Ambient_temp"
1,61.4022603231403,0.741196490521336,0.740593687316029,12.735406252847,1229.58286219348,0,4,-5118.61220540022,10247.2244108004,10273.0441442222,208901.45728347,1288,546.7,2.90193492091888,18.1324525884139
2,59.2571202845743,0.72065670576671,0.720054239999133,9.20131016567371,1196.17867860746,0,4,-5073.40388804715,10156.8077760943,10183.0110245656,117767.775292018,1391,546.7,2.90193492091888,18.1324525884139
3,47.8869441983946,1,1,1.18305811761969e-10,1.03247948024486e+23,0,2,16466.0071429092,-32926.0142858184,-32912.0829166189,1.07211390640404e-17,766,546.7,2.90193492091888,18.1324525884139
4,53.2207264009043,0.734420612038682,0.733726589247842,11.4927880665876,1058.20820545406,0,4,-4445.47482049872,8900.94964099743,8926.19591520371,151632.635819936,1148,546.7,2.90193492091888,18.1324525884139
5,62.8307175932403,0.662286725436252,0.661394876999905,12.7111637402052,742.600085893836,3.59726294001753e-267,4,-4514.01434273398,9038.02868546796,9063.2226031749,183547.704604028,1136,546.7,2.90193492091888,18.1324525884139
6,66.8407619197536,0.693144330324021,0.692221918491328,11.269798730577,751.4477869393,2.00713838809106e-255,4,-3846.74312956306,7703.48625912612,7728.03502553434,126754.346700859,998,546.7,2.90193492091888,18.1324525884139
7,65.4187116061991,0.742723094089861,0.741824571717649,9.86903418699954,826.605009579355,1.18045381136106e-252,4,-3198.29322670154,6406.58645340307,6430.38852685849,83664.7409385983,859,546.7,2.90193492091888,18.1324525884139
8,62.0790543641231,0.607971460134615,0.606773816937471,11.3526312536808,507.639889396149,4.06945757773179e-199,4,-3792.50657787884,7595.01315575768,7619.48143753069,126562.356127173,982,546.7,2.90193492091888,18.1324525884139
9,65.8550884901365,0.751036413558763,0.750331134277059,12.6848010144836,1064.87803206843,4.04190164206265e-319,4,-4206.77787853844,8423.55575707688,8448.40000896859,170397.52320689,1059,546.7,2.90193492091888,18.1324525884139
10,68.641264660082,0.674486803801431,0.673740213901893,13.8709370635521,903.423424585319,3.93552930851303e-318,4,-5309.93638033655,10629.8727606731,10655.7693005206,251662.986687497,1308,546.7,2.90193492091888,18.1324525884139
11,66.4775453409923,0.733962348556011,0.733399107233264,14.7694482671863,1303.10458220088,0,4,-5840.43764826423,11690.8752965285,11717.170877169,309099.565199919,1417,546.7,2.90193492091888,18.1324525884139
12,64.6243577548323,0.776836205132537,0.776394004746406,13.2756657936065,1756.75153052069,0,4,-6077.39192239858,12164.7838447972,12191.4095895869,266832.35962699,1514,546.7,2.90193492091888,18.1324525884139
13,65.5985951478659,0.722386386175246,0.721871969349135,12.6891153268532,1404.28218811585,0,4,-6424.5631999201,12859.1263998402,12886.0865576778,260681.095752876,1619,546.7,2.90193492091888,18.1324525884139
14,58.5520161558569,0.763156313438948,0.762691914053534,12.7980022629907,1643.31895650314,0,4,-6085.25855505218,12180.5171101044,12207.195280014,250596.958742979,1530,546.7,2.90193492091888,18.1324525884139
15,58.0700308692254,0.719205137460124,0.718630914837343,13.1108335558807,1252.48485330837,0,4,-5870.78444687812,11751.5688937562,11778.0373823593,252168.434229522,1467,546.7,2.90193492091888,18.1324525884139
16,57.9688860027338,0.658399832344746,0.657616944259975,13.1597188511585,840.988444136298,1.14197189078236e-304,4,-5244.87505904867,10499.7501180973,10525.6504674689,226690.264116171,1309,546.7,2.90193492091888,18.1324525884139
17,63.6684004843352,0.689830278291447,0.689018315669173,13.207062709542,849.583785470013,1.0909729325733e-290,4,-4597.64032813145,9205.2806562629,9230.51824236968,199892.775204185,1146,546.7,2.90193492091888,18.1324525884139
18,64.9700122565442,0.646259353783644,0.645218940118302,11.987474502221,621.156156739896,1.38460911233504e-229,4,-3994.46415024212,7998.92830048425,8023.58565951224,146573.535840226,1020,546.7,2.90193492091888,18.1324525884139
19,65.8355125786524,0.684161606979111,0.683115784485664,10.9204346078421,654.185209503728,3.59975340449288e-226,4,-3464.70820627608,6939.41641255216,6963.48363554972,108045.838173884,906,546.7,2.90193492091888,18.1324525884139
20,67.9803915151795,0.776441205814349,0.775659531708805,10.1613197142289,993.305522476991,1.5970813769494e-278,4,-3219.74349858842,6449.48699717684,6473.28327353016,88590.5749312386,858,546.7,2.90193492091888,18.1324525884139
21,67.7631243558559,0.717910683888699,0.717112317899705,13.1089483428379,899.225034364374,1.11689924445454e-290,4,-4245.73279200665,8501.46558401329,8526.3145373628,182155.198254504,1060,546.7,2.90193492091888,18.1324525884139
22,65.2722992301574,0.690947487741401,0.690157072109026,14.4397020762187,874.157164206552,1.82257560705379e-298,4,-4810.65547455258,9631.31094910517,9656.66456964147,244576.360366598,1173,546.7,2.90193492091888,18.1324525884139
23,68.4071196275204,0.680085140733456,0.679416329180982,14.1333630681468,1016.85615061245,0,4,-5851.09620175609,11712.1924035122,11738.5509220466,286644.050569038,1435,546.7,2.90193492091888,18.1324525884139
24,65.8419165914544,0.732478313666732,0.731577567248102,13.1130118392724,813.190370249121,1.57852203488042e-254,4,-3571.32198621904,7152.64397243808,7176.62809102946,153208.411831736,891,546.7,2.90193492091888,18.1324525884139
25,64.3154527567668,0.734152436127636,0.733654283290898,12.9674843408791,1473.749383694,0,4,-6388.11810601316,12786.2362120263,12813.1406072041,269217.195859644,1601,546.7,2.90193492091888,18.1324525884139
26,59.3488350919469,0.783080086068913,0.782652236140055,12.2278912535991,1830.26812265409,0,4,-5980.05088950016,11970.1017790003,11996.7505274455,227421.934579475,1521,546.7,2.90193492091888,18.1324525884139
27,63.2880998202826,0.746753742926353,0.746236913830285,13.2242556893923,1444.87558577224,0,4,-5895.45835261274,11800.9167052255,11827.3953805892,257074.979651485,1470,546.7,2.90193492091888,18.1324525884139
28,60.8517424600267,0.683648233786514,0.682947823972019,13.48915907558,976.068895150508,0,4,-5462.2980418734,10934.5960837468,10960.6686058176,246552.29402734,1355,546.7,2.90193492091888,18.1324525884139
30,60.4818716817085,0.685432501241604,0.684482146260461,11.4080959279392,721.238394959631,8.58719043950955e-249,4,-3839.69799745536,7689.39599491072,7713.91974876053,129233.640132156,993,546.7,2.90193492091888,18.1324525884139
31,65.7077644378963,0.743263442514195,0.742398038387838,9.70110389553104,858.862836306704,3.4258849201985e-262,4,-3297.90883735231,6605.81767470461,6629.79620358048,83759.1609447799,890,546.7,2.90193492091888,18.1324525884139
32,65.8341076325211,0.68276037189214,0.681757506892853,11.4129061822392,680.809852150989,5.20713536159059e-236,4,-3670.55604206864,7351.11208413728,7375.41015865555,123611.451720839,949,546.7,2.90193492091888,18.1324525884139
33,63.4401031087539,0.735677647052843,0.73489408276545,12.1414740126967,938.886137218869,8.67158986030306e-292,4,-3976.21083361249,7962.42166722498,7987.03981036567,149184.3758954,1012,546.7,2.90193492091888,18.1324525884139
34,63.6597618630979,0.782124144926239,0.781573025562647,13.7571780214516,1419.15562506683,0,4,-4806.19074934567,9622.38149869133,9647.79004162186,224462.297277099,1186,546.7,2.90193492091888,18.1324525884139
35,68.1967245881262,0.688028140184157,0.687351900603631,14.744240804063,1017.43251947678,0,4,-5702.3871396719,11414.7742793438,11440.9523750491,300871.409453263,1384,546.7,2.90193492091888,18.1324525884139
36,65.7049010138546,0.747225427340313,0.74667869070154,15.0882412971492,1366.7008470776,0,4,-5746.79738285094,11503.5947657019,11529.7836566615,315757.520286663,1387,546.7,2.90193492091888,18.1324525884139
37,60.8042054873472,0.785283436423091,0.784869989895022,12.7643246889623,1899.35912653977,0,4,-6192.25319965805,12394.5063993161,12421.2750109681,253841.800264262,1558,546.7,2.90193492091888,18.1324525884139
38,64.4586047054399,0.730710748740864,0.730200409035382,12.8960180867547,1431.81245921532,0,4,-6307.68272706165,12625.3654541233,12652.2134577259,263264.428187851,1583,546.7,2.90193492091888,18.1324525884139
39,58.0227036729665,0.788962692720998,0.788531123585458,12.6024664321162,1828.12584994992,0,4,-5812.61178948055,11635.2235789611,11661.6920675641,232992.108973226,1467,546.7,2.90193492091888,18.1324525884139
40,61.0228384050699,0.690688079166169,0.690008272746754,13.4788126591841,1016.00699763989,0,4,-5501.45586271288,11012.9117254258,11039.0209045522,247991.003307385,1365,546.7,2.90193492091888,18.1324525884139
41,60.4474157423067,0.699283082912788,0.698506036615405,13.2617268426144,899.924605867003,2.67769760658268e-302,4,-4662.44771951084,9334.89543902167,9360.19782085167,204189.016062668,1161,546.7,2.90193492091888,18.1324525884139
43,67.2099687050955,0.700192746072329,0.699205455444686,10.7897834044585,709.206313184337,1.01499067975608e-237,4,-3472.74310390038,6955.48620780076,6979.58082812714,106058.097008681,911,546.7,2.90193492091888,18.1324525884139
44,64.6529369548693,0.748109396388856,0.747255529935937,9.1391733007804,876.143328773814,2.23471546051214e-264,4,-3226.40651337208,6462.81302674416,6486.76351292173,73919.1724302021,885,546.7,2.90193492091888,18.1324525884139
45,64.9278560091052,0.828793595359604,0.828230416396971,8.96370204725257,1471.63450759056,0,4,-3306.69923482705,6623.39846965409,6647.49855147746,73277.3344054309,912,546.7,2.90193492091888,18.1324525884139
46,65.2900303796804,0.789097542413562,0.788540581698105,13.1707987096692,1416.79210133499,0,4,-4554.50887331672,9119.01774663343,9144.21166434038,197061.850307108,1136,546.7,2.90193492091888,18.1324525884139
47,65.2092408071428,0.771332031249893,0.770807964094621,13.8150422539586,1471.81906649039,0,4,-5308.68351766327,10627.3670353265,10653.267384698,249829.708754568,1309,546.7,2.90193492091888,18.1324525884139
48,64.6146086966341,0.768833085860921,0.768367336537605,14.6914418457323,1650.74439698027,0,4,-6128.55939547602,12267.118790952,12293.6615049397,321383.47216123,1489,546.7,2.90193492091888,18.1324525884139
49,61.3523870759326,0.766952553250941,0.766507239658426,14.1270386369389,1722.2751924569,0,4,-6399.50130202236,12809.0026040447,12835.8094811896,313329.956419818,1570,546.7,2.90193492091888,18.1324525884139
50,61.8381170876241,0.767824657389399,0.767381292635846,13.0682497745296,1731.81257922788,0,4,-6280.86797683711,12571.7359536742,12598.5460064305,268294.048058272,1571,546.7,2.90193492091888,18.1324525884139
51,57.2587976133035,0.873862823157004,0.873603103506675,11.0099429532866,3364.6388405763,0,4,-5575.71145619839,11161.4229123968,11187.8572944555,176615.855467049,1457,546.7,2.90193492091888,18.1324525884139
52,59.0460671215335,0.727335740145736,0.726745131640636,13.1328688453652,1231.50231306475,0,4,-5545.74186142066,11101.4837228413,11127.6654195551,238874.058091745,1385,546.7,2.90193492091888,18.1324525884139
53,56.8723290009808,0.629883682893742,0.62900732223761,12.1518893964194,718.749385297749,7.86477724416093e-273,4,-4975.77072936004,9961.54145872008,9987.27925507602,187095.882948861,1267,546.7,2.90193492091888,18.1324525884139
54,59.1418941168587,0.746845931715937,0.74611917362517,11.1789308091026,1027.64034030509,4.14172991635178e-311,4,-4018.78103797672,8047.56207595343,8072.34003899541,130592.076266266,1045,546.7,2.90193492091888,18.1324525884139
55,59.0034547144583,0.769150725238325,0.768390519064576,9.82724702592815,1011.76595481402,2.09576851948242e-289,4,-3387.24470894506,6784.48941789012,6808.5840382165,87979.6283229471,911,546.7,2.90193492091888,18.1324525884139
56,58.0168206659241,0.78705627974631,0.786281938945387,8.77255113530053,1016.42103684663,1.65177836553368e-276,4,-2974.57453142932,5959.14906285863,5982.75016363431,63490.0640727066,825,546.7,2.90193492091888,18.1324525884139
57,60.7478691724011,0.669977500475785,0.669058217747305,11.4366065504163,728.804620950272,1.16756121156954e-258,4,-4166.07052095406,8342.14104190812,8367.06925099632,140867.259031981,1077,546.7,2.90193492091888,18.1324525884139
58,56.6159660286569,0.812318523619327,0.811812643629082,11.8490429202746,1605.7534183688,0,4,-4344.45076057212,8698.90152114425,8723.99353013959,156264.997574804,1113,546.7,2.90193492091888,18.1324525884139
59,60.8539084384844,0.797751187615957,0.797270786636423,13.4955411578691,1660.5944234104,0,4,-5092.98124959043,10195.9624991809,10221.6845350825,230029.724134541,1263,546.7,2.90193492091888,18.1324525884139
60,63.2953598536935,0.747206876978932,0.746691323362981,14.5813758094065,1449.32913641063,0,4,-6043.5556199474,12097.1112398948,12123.5933062387,312758.901648356,1471,546.7,2.90193492091888,18.1324525884139
61,59.4365443829995,0.829198221675081,0.828854325477111,13.086971566673,2411.18752277771,0,4,-5959.88758090043,11929.7751618009,11956.3212236293,255190.548932491,1490,546.7,2.90193492091888,18.1324525884139
62,62.788855135119,0.747588925166398,0.747109056202836,13.0767742040841,1557.90222317605,0,4,-6309.82346051088,12629.6469210218,12656.4791467634,269841.193216498,1578,546.7,2.90193492091888,18.1324525884139
63,57.008917563661,0.842567212234424,0.842253184067339,11.7980758101586,2683.0943862586,0,4,-5859.40481932131,11728.8096386426,11755.4023363855,209348.667604662,1504,546.7,2.90193492091888,18.1324525884139
64,57.6237011021398,0.76318740956143,0.762032226193437,14.303827180858,660.663432929583,7.37756380514957e-192,4,-2523.18275952693,5056.36551905385,5078.50604541728,125828.67529221,615,546.7,2.90193492091888,18.1324525884139
67,62.6410926198334,0.671066452537793,0.669836027796663,11.0283646068376,545.394147326112,4.25065671934679e-193,4,-3076.43874545704,6162.87749091409,6186.33790962662,97543.1103728815,802,546.7,2.90193492091888,18.1324525884139
68,62.6700794646785,0.615758752728338,0.614574041791221,10.5774624234305,519.754425688609,1.58910250265419e-201,4,-3688.7737049962,7387.5474099924,7411.96984325262,108861.878113469,973,546.7,2.90193492091888,18.1324525884139
69,62.392478303005,0.689258844887852,0.688298779527052,11.5582588236278,717.929083821721,7.49691881545181e-246,4,-3767.6761813838,7545.3523627676,7569.76455012259,129719.139969984,971,546.7,2.90193492091888,18.1324525884139
70,65.943008167709,0.6841348778551,0.683324967285498,13.8080324109226,844.704222332882,3.65201206803018e-292,4,-4745.87448846102,9501.74897692204,9527.08983692398,223074.258101475,1170,546.7,2.90193492091888,18.1324525884139
71,58.8849557731747,0.825009655873619,0.8245786451738,12.5725705792334,1914.12801635946,0,4,-4825.45399554758,9660.90799109516,9686.44921179382,192528.688721222,1218,546.7,2.90193492091888,18.1324525884139
72,64.2477678073444,0.757808664538526,0.757296992703044,14.0937508685334,1481.04431783837,0,4,-5786.08731064292,11582.1746212858,11608.4807467457,282060.015232886,1420,546.7,2.90193492091888,18.1324525884139
73,66.1369402013655,0.73919715179829,0.738696570515753,13.3940610018472,1476.67756982872,0,4,-6287.54358816402,12585.087176328,12611.8717675398,280403.559999441,1563,546.7,2.90193492091888,18.1324525884139
74,63.8925289531964,0.713820954361931,0.713286373330229,13.4869914620589,1335.29046492466,0,4,-6471.26680689531,12952.5336137906,12979.4535610805,292129.695548425,1606,546.7,2.90193492091888,18.1324525884139
75,59.5446533155091,0.783138403803486,0.782710387495203,13.230131718443,1829.69290807122,0,4,-6096.18502292901,12202.370045858,12229.0155145392,266055.305636775,1520,546.7,2.90193492091888,18.1324525884139
76,62.5681042103034,0.686260414988808,0.685606790853368,14.4839170682053,1049.93126443664,0,4,-5906.8125894369,11823.6251788738,11850.0010404711,302088.749239656,1440,546.7,2.90193492091888,18.1324525884139
77,65.6032491101561,0.673225104908081,0.672474473449218,13.3686247397945,896.878350831934,1.5093596786008e-316,4,-5253.51920550541,10517.0384110108,10542.9273230918,233408.486428079,1306,546.7,2.90193492091888,18.1324525884139
78,61.5703841115346,0.695123595078418,0.69431987872098,12.9362009486791,864.886708656805,6.57575730353572e-293,4,-4541.97816149582,9093.95632299164,9119.15900494272,190438.945692481,1138,546.7,2.90193492091888,18.1324525884139
79,60.8653866002685,0.712086214102191,0.711173168269534,11.0225698129844,779.901937704563,3.53040729308411e-255,4,-3625.93510747576,7261.87021495152,7286.15252487449,114936.20483688,946,546.7,2.90193492091888,18.1324525884139
80,47.6034540717804,0.846607575616799,0.845920743865829,5.32007936249328,1232.62731290697,3.33988588663203e-272,4,-2080.94167403307,4171.88334806614,4194.4494986207,18963.1737635621,670,546.7,2.90193492091888,18.1324525884139
81,67.0265774556192,0.647054215498884,0.645987914035134,11.7354011036866,606.821089060077,5.53952193390273e-224,4,-3867.89987361611,7745.79974723221,7770.32350108202,136755.601590957,993,546.7,2.90193492091888,18.1324525884139
82,66.7554770857672,0.64601741311552,0.645098773184158,13.2998533713356,703.232453828067,4.47265619640014e-260,4,-4645.75873442211,9301.51746884422,9326.79834526472,204480.331252076,1156,546.7,2.90193492091888,18.1324525884139
83,64.1742362917701,0.749826332828951,0.749241359328161,13.4566644771132,1281.81247837166,0,4,-5169.69443802204,10349.3888760441,10375.1892220821,232327.973584036,1283,546.7,2.90193492091888,18.1324525884139
84,65.7916138858107,0.69961303699408,0.698785524699298,14.927247664513,845.441259792112,8.72370117180389e-284,4,-4503.48090022057,9016.96180044114,9041.94520788202,242653.945170265,1089,546.7,2.90193492091888,18.1324525884139
85,64.2412193185033,0.725461957565178,0.724925750451048,14.5925461522378,1352.95101174022,0,4,-6311.14946490078,12632.2989298016,12658.9966182786,327079.531323172,1536,546.7,2.90193492091888,18.1324525884139
86,60.2345151609077,0.763035857116928,0.762589316646671,14.137711822366,1708.77201046905,0,4,-6490.18132418717,12990.3626483743,13017.2389272644,318200.83375105,1592,546.7,2.90193492091888,18.1324525884139
87,58.3342089866326,0.807518222726455,0.807137573199876,12.8657010848984,2121.42184960384,0,4,-6041.69614792811,12093.3922958562,12120.0279123175,251103.343103835,1517,546.7,2.90193492091888,18.1324525884139
88,56.8165102034528,0.780049925330929,0.779589778731203,12.4952719330352,1695.22044886405,0,4,-5669.8845947367,11349.7691894734,11376.1242321648,223893.030855834,1434,546.7,2.90193492091888,18.1324525884139
89,59.0078654922885,0.661890305616742,0.661128797296059,13.9157547240121,869.183287482766,5.3379295007136e-313,4,-5411.41578026859,10832.8315605372,10858.8187373077,257939.441745769,1332,546.7,2.90193492091888,18.1324525884139
90,60.5556831670997,0.641718012016626,0.640819311377871,12.903553943267,714.050913445583,5.90863881557419e-266,4,-4769.72622656951,9549.45245313902,9574.9028373179,199136.038422694,1196,546.7,2.90193492091888,18.1324525884139
91,58.6939093002585,0.65839986138134,0.657417310647058,10.8085724069497,670.092483176006,1.12334093465827e-242,4,-3975.84033408719,7961.68066817437,7986.44908922872,121848.722687754,1043,546.7,2.90193492091888,18.1324525884139
93,58.7588556227367,0.642028781731903,0.63998712079121,10.1285907012438,314.463958699291,6.75055361373195e-117,4,-1977.17179649954,3964.34359299908,3985.70797803181,53961.4718860878,526,546.7,2.90193492091888,18.1324525884139
96,64.5180545264673,0.771527171237436,0.770934248671443,13.6616077416803,1301.22753878588,0,4,-4676.88911364159,9363.77822728318,9389.05910370369,215755.292157194,1156,546.7,2.90193492091888,18.1324525884139
97,65.2695805323574,0.730935635734266,0.73041011939781,13.5403527166063,1390.89041582013,0,4,-6195.90118758441,12401.8023751688,12428.5000636459,281612.008996003,1536,546.7,2.90193492091888,18.1324525884139
98,60.6423905109763,0.757154445910895,0.756693054737832,13.0195194187979,1641.02499162168,0,4,-6306.86708178472,12623.7341635694,12650.5695488689,267652.951830505,1579,546.7,2.90193492091888,18.1324525884139
99,55.3368943979956,0.787253551100471,0.786842049265075,12.7148580916608,1913.12281837972,0,4,-6158.45611762528,12326.9122352506,12353.6583893736,250746.472867455,1551,546.7,2.90193492091888,18.1324525884139
100,49.4951673299789,0.846486630274949,0.846158610254169,11.0859094918453,2580.59440476233,0,4,-5383.05284903635,10776.1056980727,10802.3553257563,172547.934522986,1404,546.7,2.90193492091888,18.1324525884139
101,52.7587033303675,0.730410601160081,0.72980839103609,12.0287269021493,1212.88329780909,0,4,-5259.69722725978,10529.3944545196,10555.4226304016,194319.033800557,1343,546.7,2.90193492091888,18.1324525884139
