"Age","power_predict","r.squared","adj.r.squared","sigma","statistic","p.value","df","logLik","AIC","BIC","deviance","df.residual","GHI","Wind_speed","Ambient_temp"
1,139.61790185701,0.908788691608774,0.908474169855701,18.6162648504895,2889.43032629381,0,4,-3793.75484801427,7597.50969602855,7621.37509790683,301511.825775706,870,593.56,1.58728965962095,20.0116412114429
2,150.936234424953,0.948108015965287,0.947989900675375,15.2465084341259,8026.97107775727,0,4,-5475.42509874804,10960.8501974961,10986.7847025981,306377.033611206,1318,593.56,1.58728965962095,20.0116412114429
3,148.038721268865,0.927766950329318,0.927584236038414,15.4970730549088,5077.69231262372,0,4,-4947.90837902,9905.81675804,9931.22530097053,284828.898097249,1186,593.56,1.58728965962095,20.0116412114429
4,152.40252084491,0.889939049395869,0.889610509244812,19.5853644182133,2708.76800455716,0,4,-4431.26062229021,8872.52124458042,8897.10481968218,385504.431891185,1005,593.56,1.58728965962095,20.0116412114429
5,154.827534926555,0.752252389289789,0.75140102292996,28.7668190180593,883.582467882532,6.25606025594993e-264,4,-4188.44274373842,8386.88548747684,8410.7680224387,722433.58211272,873,593.56,1.58728965962095,20.0116412114429
6,159.782634717114,0.774980366450801,0.774085062869041,22.4587660739353,865.606239312365,1.18294657419361e-243,4,-3432.20431728772,6874.40863457544,6897.56205150365,380314.714867064,754,593.56,1.58728965962095,20.0116412114429
7,165.312968514113,0.861449068365586,0.860908557578976,20.2703902129614,1593.76850509894,0,4,-3420.9159097371,6851.8318194742,6875.08321471713,315973.42520762,769,593.56,1.58728965962095,20.0116412114429
8,158.150437040741,0.838470993867315,0.837945980846299,23.4166151401692,1597.04799748437,0,4,-4236.59596716052,8483.19193432103,8507.35170214886,506115.849046844,923,593.56,1.58728965962095,20.0116412114429
9,170.781518526388,0.94880106283584,0.948649437158157,14.6726009901022,6257.52232297969,0,4,-4172.70011306525,8355.4002261305,8380.02328811075,218083.927672339,1013,593.56,1.58728965962095,20.0116412114429
10,165.93323350785,0.866534968000295,0.866181574270375,22.995792637502,2452.03832053554,0,4,-5176.17850038595,10362.3570007719,10387.5377432407,599137.740737582,1133,593.56,1.58728965962095,20.0116412114429
11,166.570005346885,0.832712017585125,0.832239452663049,26.1670854904502,1762.11136012196,0,4,-4990.54421120614,9991.08842241228,10015.9467654359,727168.77757453,1062,593.56,1.58728965962095,20.0116412114429
12,159.048124185541,0.916781822294156,0.916558317788232,17.7472181280819,4101.84939450097,0,4,-4812.87897962274,9635.75795924548,9660.86784136084,351814.510186148,1117,593.56,1.58728965962095,20.0116412114429
13,150.727055312718,0.954368106741612,0.954254406010902,13.1932866100928,8393.68490228556,0,4,-4828.36182649213,9666.72365298426,9692.20725987673,209571.62513757,1204,593.56,1.58728965962095,20.0116412114429
14,162.008062986008,0.970739450629111,0.970676749451887,10.5145314136325,15481.9972067104,0,4,-5293.45942154315,10596.9188430863,10623.1542460092,154777.519187572,1400,593.56,1.58728965962095,20.0116412114429
15,160.752285483369,0.9579975136521,0.957896949039934,12.4236010471198,9526.18911385061,0,4,-4948.73720043685,9907.4744008737,9933.15681691665,193395.366311431,1253,593.56,1.58728965962095,20.0116412114429
16,159.586039280241,0.96839978901313,0.968310774334293,10.5288100730837,10879.1022073397,0,4,-4031.39081389688,8072.78162779376,8097.65402234888,118061.471256148,1065,593.56,1.58728965962095,20.0116412114429
17,159.60100386319,0.85276387552674,0.852236777229104,19.0008517156064,1617.84600585842,0,4,-3671.99684332696,7353.99368665392,7377.67258672513,302545.122639673,838,593.56,1.58728965962095,20.0116412114429
18,152.543352325733,0.896651253699773,0.896213952939688,14.6134736446069,2050.42235354059,0,4,-2921.9235832904,5853.84716658081,5876.69457368288,151409.510880789,709,593.56,1.58728965962095,20.0116412114429
19,159.387934404346,0.883187133306265,0.882734370257065,17.1149124747027,1950.6608034065,0,4,-3311.41024269112,6632.82048538225,6656.10411800314,226720.257258952,774,593.56,1.58728965962095,20.0116412114429
20,118.337145564036,0.819817667884827,0.81681462901624,25.1378905836502,272.996022948841,1.00660639969587e-66,4,-852.347868578818,1714.69573715764,1730.77041594568,113744.437739203,180,593.56,1.58728965962095,20.0116412114429
21,149.971338803365,0.8316819448049,0.830993057812287,25.8476270292499,1207.28356569822,4.69826368074646e-283,4,-3440.6375067325,6891.27501346501,6914.28795292595,489717.170290672,733,593.56,1.58728965962095,20.0116412114429
23,167.136423808947,0.740857074787872,0.739693259255483,30.1264309748614,636.576033030412,2.35534403430243e-195,4,-3239.95146157825,6489.90292315651,6512.45421485912,606278.031313104,668,593.56,1.58728965962095,20.0116412114429
24,146.907183191035,0.940412061369372,0.940286082640766,16.2169840451014,7464.84800867201,0,4,-5981.70880285781,11973.4176057156,11999.7202187061,373183.620985564,1419,593.56,1.58728965962095,20.0116412114429
25,155.638866363455,0.964468257230709,0.964394386663621,11.4302849406268,13056.1913256028,0,4,-5576.47877857492,11162.9575571498,11189.343795783,188529.990147916,1443,593.56,1.58728965962095,20.0116412114429
26,158.645217901692,0.969364596240356,0.969295545743527,11.0379295699351,14038.488363753,0,4,-5098.06548112378,10206.1309622476,10232.1143951017,162163.568513017,1331,593.56,1.58728965962095,20.0116412114429
27,162.015279191725,0.958375678219545,0.958277197962966,12.0982496222662,9731.65293752995,0,4,-4974.05997872328,9958.11995744657,9983.86168616607,185594.172493939,1268,593.56,1.58728965962095,20.0116412114429
28,161.345228664953,0.959253478326988,0.95913826667287,11.7603809746718,8326.01081610889,0,4,-4134.10997226849,8278.21994453699,8303.07359492771,146743.260870257,1061,593.56,1.58728965962095,20.0116412114429
29,169.109577792805,0.955433612198376,0.955286690040788,11.3134345227459,6502.99197809961,0,4,-3512.26112680963,7034.52225361925,7058.61140647652,116474.358637418,910,593.56,1.58728965962095,20.0116412114429
33,141.777462980031,0.714515754936527,0.713532456733094,35.3783519595473,726.652151343002,1.60528413645165e-236,4,-4359.90422434591,8729.80844869181,8753.6795681236,1090167.80280241,871,593.56,1.58728965962095,20.0116412114429
34,164.703594775688,0.91617501493503,0.91593844395178,19.180804786004,3872.72776376919,0,4,-4663.8256568168,9337.65131363359,9362.5143448901,391081.178389837,1063,593.56,1.58728965962095,20.0116412114429
35,171.540807276618,0.89867657611043,0.898403712311804,19.9192928256892,3293.4987368703,0,4,-4929.07771715168,9868.15543430336,9893.25191757193,442010.944516568,1114,593.56,1.58728965962095,20.0116412114429
36,162.59217788079,0.870240565375021,0.869906133842482,20.2473425039335,2602.14866334281,0,4,-5168.68828134868,10347.3765626974,10372.6918035143,477187.478540933,1164,593.56,1.58728965962095,20.0116412114429
37,158.658625903166,0.937110257944277,0.936975204811731,14.83085405772,6938.82652165119,0,4,-5764.02037631587,11538.0407526317,11564.2654603634,307276.062217703,1397,593.56,1.58728965962095,20.0116412114429
38,159.862087845863,0.918010893257489,0.917823418165852,16.1523739329075,4896.70859868561,0,4,-5526.52027761713,11063.0405552343,11088.9523157937,342299.72897303,1312,593.56,1.58728965962095,20.0116412114429
39,170.670576208373,0.944933226380734,0.944786772195576,13.3474584081699,6452.07390532227,0,4,-4537.61589304456,9085.23178608911,9110.39049238293,200958.440640428,1128,593.56,1.58728965962095,20.0116412114429
40,181.208132959844,0.902150139939647,0.901403194443003,16.5797041159659,1207.78576749318,6.64972064240843e-198,4,-1676.15563749377,3362.31127498754,3382.23095639098,108030.42930918,393,593.56,1.58728965962095,20.0116412114429
