"Age","power_predict","r.squared","adj.r.squared","sigma","statistic","p.value","df","logLik","AIC","BIC","deviance","df.residual","GHI","Wind_speed","Ambient_temp"
2,127.956027676802,0.929148965363615,0.928556895436291,11.6880818947446,1569.32301825196,6.333876329583e-206,4,-1405.52438090632,2821.04876181263,2840.52077598396,49043.441757794,359,537.7,1.7889447693839,24.7597959904495
3,107.904348701528,0.878879506647325,0.878059277572702,17.5161203001765,1071.50494153257,1.35107819124025e-202,4,-1912.07188482007,3834.14376964013,3854.6565626132,135918.810374024,443,537.7,1.7889447693839,24.7597959904495
4,98.944929959793,0.990183386466626,0.99011866154223,5.21416243181946,15298.3320677282,0,4,-1407.26673801208,2824.53347602415,2845.17872707445,12370.3078887558,455,537.7,1.7889447693839,24.7597959904495
5,97.2529926754631,0.992458133262995,0.99239648312618,4.73457433255945,16098.2308319144,0,4,-1101.28020291268,2212.56040582537,2232.1414161384,8226.74323856477,367,537.7,1.7889447693839,24.7597959904495
6,91.368610008371,0.994808327485783,0.99478525338572,3.87407622799342,43113.6349743482,0,4,-1881.02796684376,3772.05593368753,3794.65903932532,10130.714968705,675,537.7,1.7889447693839,24.7597959904495
7,90.2384503980348,0.991681942313092,0.991666247864626,4.47094521203366,63186.7978330035,0,4,-4646.95965821722,9303.91931643445,9330.7893257312,31783.0682315207,1590,537.7,1.7889447693839,24.7597959904495
8,104.222811753439,0.93192347460204,0.931789289597971,13.1950217586803,6945.06424964521,0,4,-6100.13283438694,12210.2656687739,12236.9176948331,264993.288000736,1522,537.7,1.7889447693839,24.7597959904495
9,92.9478708155729,0.984728003080011,0.984694851133006,5.57134099057652,29703.4742168155,0,4,-4345.28910280665,8700.5782056133,8726.74909151205,42897.0594787904,1382,537.7,1.7889447693839,24.7597959904495
10,96.0025826970287,0.928944829162264,0.928774569168244,11.3374261759428,5456.03701273717,0,4,-4829.88889194569,9669.77778389138,9695.45622062652,160928.61483328,1252,537.7,1.7889447693839,24.7597959904495
11,79.593223014416,0.991591113240074,0.99156844777711,2.55963934953825,43748.9900286543,0,4,-2632.78148670654,5275.56297341307,5300.65498240842,7292.10175647124,1113,537.7,1.7889447693839,24.7597959904495
12,88.2887146709007,0.917845461325777,0.917591636798462,8.25146111525226,3616.06291966989,0,4,-3439.09148836095,6888.1829767219,6912.59516407689,66112.098830961,971,537.7,1.7889447693839,24.7597959904495
13,119.035148511578,0.9868793047476,0.986833321002556,3.48503619657949,21461.4817434921,0,4,-2291.97392319482,4593.94784638965,4617.73250833589,10396.5285614977,856,537.7,1.7889447693839,24.7597959904495
14,115.858059154476,0.988259240926098,0.988222164844812,4.18518471140154,26654.9000500509,0,4,-2717.36265693396,5444.72531386793,5469.02863222517,16639.9825151217,950,537.7,1.7889447693839,24.7597959904495
15,113.255731024961,0.990024655652413,0.989999229965886,4.68773044287379,38937.9714323618,0,4,-3498.34725209539,7006.69450419079,7032.06508827177,25864.3592618388,1177,537.7,1.7889447693839,24.7597959904495
16,107.004095783238,0.987995481375331,0.987968745253673,5.68237008027582,36953.5826472818,0,4,-4262.16771817563,8534.33543635126,8560.37843804106,43493.727145251,1347,537.7,1.7889447693839,24.7597959904495
17,107.077595436485,0.988013049623436,0.987988751751051,6.23149193352431,40662.5334914651,0,4,-4818.85190025115,9647.70380050229,9674.21628262093,57470.6077420162,1480,537.7,1.7889447693839,24.7597959904495
18,103.938509375968,0.989361350615175,0.989341176185242,5.9820750750325,49040.362175602,0,4,-5085.41925865776,10180.8385173155,10207.6833693265,56612.2215256603,1582,537.7,1.7889447693839,24.7597959904495
19,98.8131496721617,0.981380506108232,0.981344398492411,7.38753490039467,27179.3216968281,0,4,-5300.4517414881,10610.9034829762,10637.6367587921,84428.5644363377,1547,537.7,1.7889447693839,24.7597959904495
20,95.6878744707332,0.98337368304754,0.983341523827129,6.62254371462212,30578.2811424374,0,4,-5144.14253183495,10298.2850636699,10325.031217793,68023.8902259776,1551,537.7,1.7889447693839,24.7597959904495
21,102.781926949007,0.988563667252586,0.988539573854944,5.1495085075793,41030.4798825203,0,4,-4364.59243932542,8739.18487865083,8765.50502936533,37760.8315263553,1424,537.7,1.7889447693839,24.7597959904495
22,98.9261678047509,0.983894507122508,0.983856848136824,5.33753185522796,26126.4208064548,0,4,-3979.59120501737,7969.18241003473,7994.98275607271,36551.7030100504,1283,537.7,1.7889447693839,24.7597959904495
23,105.619149955174,0.978428787973531,0.978372318832101,5.73425590205702,17326.7870413248,0,4,-3638.20252149686,7286.40504299373,7311.64262910051,37682.417599816,1146,537.7,1.7889447693839,24.7597959904495
24,114.14686685604,0.992329364251142,0.992305141190882,3.20064063906592,40966.308699984,0,4,-2461.50000000862,4933.00000001724,4957.30331837448,9731.89547541832,950,537.7,1.7889447693839,24.7597959904495
25,116.16410479493,0.991317837957358,0.991285681801645,2.99530511254495,30828.2447314294,0,4,-2046.0065615509,4102.01312310181,4125.52292493182,7267.2007009627,810,537.7,1.7889447693839,24.7597959904495
26,109.105448087875,0.99300128402344,0.992980266858346,3.20050067790579,47247.1562908526,0,4,-2587.98853132422,5185.97706264845,5210.53081658826,10232.9613846861,999,537.7,1.7889447693839,24.7597959904495
27,107.607604722317,0.991424160671708,0.99140230211777,4.28710022109082,45356.3471531356,0,4,-3392.83909064809,6795.67818129618,6821.04876537717,21632.3517157817,1177,537.7,1.7889447693839,24.7597959904495
28,104.580591970064,0.990532216042385,0.990510232023908,5.08655302764891,45056.9224666171,0,4,-3945.01535994569,7900.03071989138,7925.86590927594,33427.944040385,1292,537.7,1.7889447693839,24.7597959904495
29,101.531358428316,0.99077488167362,0.990756054901526,5.04744354483838,52625.8498638244,0,4,-4475.74457982255,8961.4891596451,8987.96783500885,37450.728917346,1470,537.7,1.7889447693839,24.7597959904495
30,100.688455697207,0.989844440542373,0.989824746503347,5.56281713800661,50261.119074998,0,4,-4860.44940837002,9730.89881674003,9757.63209255592,47871.8136883624,1547,537.7,1.7889447693839,24.7597959904495
31,102.164812569869,0.970053599637405,0.969995973466085,9.01747039853927,16833.5597770621,0,4,-5653.09146314677,11316.1829262935,11342.9547379456,126769.730153721,1559,537.7,1.7889447693839,24.7597959904495
32,102.224733491983,0.988919344632382,0.988897953405803,5.47570111115756,46230.1374354242,0,4,-4857.80272825211,9725.60545650421,9752.36124763636,46594.0523316697,1554,537.7,1.7889447693839,24.7597959904495
33,100.469061939181,0.987924052404454,0.987899015885597,5.25944261893554,39459.3217224768,0,4,-4465.57340491063,8941.14680982127,8967.54685108569,40026.532949734,1447,537.7,1.7889447693839,24.7597959904495
34,95.8128520814692,0.960673824294165,0.960582791480031,8.55024523788095,10553.0498363078,0,4,-4632.3649648463,9274.72992969261,9300.58052740985,94746.2749417659,1296,537.7,1.7889447693839,24.7597959904495
35,81.9531507406137,0.987593076745382,0.987561693297014,3.40272104040763,31468.5966048307,0,4,-3143.77823250238,6297.55646500476,6322.96500793529,13732.1134278957,1186,537.7,1.7889447693839,24.7597959904495
36,86.0155511486436,0.984993569389926,0.984948459879074,3.40820558342618,21835.6074093385,0,4,-2648.41071038387,5306.82142076774,5331.37018717597,11592.6335682996,998,537.7,1.7889447693839,24.7597959904495
37,111.763959332718,0.951201781631949,0.951055679181745,6.76722063906548,6510.51218036017,0,4,-3349.01118233148,6708.02236466295,6732.59105141625,45886.8657281494,1002,537.7,1.7889447693839,24.7597959904495
38,111.801426632602,0.993305295545999,0.993286204183488,2.952659497871,52029.0416649113,0,4,-2639.73313469695,5289.46626939389,5314.27748671522,9171.54441210693,1052,537.7,1.7889447693839,24.7597959904495
39,105.822524703226,0.99158254648383,0.991561036807043,3.97996184711758,46099.3698920046,0,4,-3296.64487941373,6603.28975882747,6628.64762564853,18596.2730614966,1174,537.7,1.7889447693839,24.7597959904495
40,104.810708897778,0.990548502007138,0.990526623539562,5.01431698563254,45275.0403364888,0,4,-3938.60339311915,7887.2067862383,7913.05738395555,32585.8137827943,1296,537.7,1.7889447693839,24.7597959904495
41,102.601519619976,0.989365094728046,0.989342705453789,5.52034719311307,44189.2436254372,0,4,-4467.02219932731,8944.04439865463,8970.36804954427,43425.7822138286,1425,537.7,1.7889447693839,24.7597959904495
42,100.665513322537,0.979904694080979,0.979864476657525,8.04627827514658,24365.1783215208,0,4,-5264.73206599085,10539.4641319817,10566.0402239305,97049.1485275626,1499,537.7,1.7889447693839,24.7597959904495
43,95.9430675061325,0.977164899008995,0.977122243154093,7.78355586610883,22908.1072515894,0,4,-5586.22994028099,11182.459880562,11209.3798278519,97297.4895248645,1606,537.7,1.7889447693839,24.7597959904495
44,87.7825796956027,0.992145289583367,0.992130184371028,4.07469522780147,65682.3133149367,0,4,-4414.31817477975,8838.63634955949,8865.41135916502,25900.9002711701,1560,537.7,1.7889447693839,24.7597959904495
45,100.476935181905,0.970233672936872,0.970172383313544,8.22690722013732,15830.3089535931,0,4,-5149.99268423729,10309.9853684746,10336.4197505333,98612.6775095452,1457,537.7,1.7889447693839,24.7597959904495
46,84.2169544309297,0.960571619686306,0.960483082904165,7.86442784896097,10849.4074039285,0,4,-4662.92335856499,9335.84671712999,9361.84884159471,82630.5651230613,1336,537.7,1.7889447693839,24.7597959904495
47,94.9765314627525,0.91233678306386,0.912111234478261,11.5963307717264,4044.96787528495,0,4,-4525.4604775263,9060.92095505259,9086.24475019155,156797.718670259,1166,537.7,1.7889447693839,24.7597959904495
48,90.6493681132914,0.980931773740702,0.980876874816731,4.03111038429608,17867.9599304528,0,4,-2940.37366538246,5890.74733076492,5915.51097398804,16932.3446694557,1042,537.7,1.7889447693839,24.7597959904495
49,100.541323576515,0.979927885198319,0.979861640595013,4.07966283766023,14792.569300681,0,4,-2577.17758578523,5164.35517157046,5188.43885097344,15129.0768219082,909,537.7,1.7889447693839,24.7597959904495
50,112.318155960551,0.992450255640013,0.992428115627227,3.13125477880474,44826.0922537815,0,4,-2627.49849355851,5264.99698711702,5289.66897316667,10030.2658890527,1023,537.7,1.7889447693839,24.7597959904495
51,106.505807499553,0.99163070889191,0.991609194004743,3.81258844731904,46090.4443132679,0,4,-3226.73266596558,6463.46533193117,6488.79339874916,16963.3143902919,1167,537.7,1.7889447693839,24.7597959904495
52,106.503133139502,0.991727372751103,0.991708074242746,4.41811141958706,51388.8096645465,0,4,-3744.99649877825,7499.9929975565,7525.80498504328,25102.3451514289,1286,537.7,1.7889447693839,24.7597959904495
53,100.716506671409,0.984986195052566,0.984954431008249,6.31054430588611,31009.4704945369,0,4,-4635.36736567088,9280.73473134177,9307.03382939358,56468.9706610301,1418,537.7,1.7889447693839,24.7597959904495
54,100.664349669816,0.990474227040284,0.990455500094754,5.21290683319656,52890.324556179,0,4,-4695.21391628685,9400.42783257369,9427.09294764562,41468.1308163223,1526,537.7,1.7889447693839,24.7597959904495
55,98.6472396493658,0.968677357233078,0.968618108854579,9.02088411687713,16349.4323686092,0,4,-5751.38207903956,11512.7641580791,11539.6216045552,129062.8914967,1586,537.7,1.7889447693839,24.7597959904495
56,86.3398368404804,0.990353308036621,0.990334839577215,5.18521197721513,53624.0346979302,0,4,-4812.71853200181,9635.43706400362,9662.2344021949,42131.0252306428,1567,537.7,1.7889447693839,24.7597959904495
57,91.7664980198764,0.961787589662117,0.961709922161431,9.10689459003782,12383.3982187888,0,4,-5367.39334694726,10744.7866938945,10771.2856807283,122412.840913313,1476,537.7,1.7889447693839,24.7597959904495
58,92.0579896970086,0.982360842645176,0.982321817960763,5.70002322923971,25172.8068378615,0,4,-4294.792998389,8599.585996778,8625.66219667165,44056.7990876108,1356,537.7,1.7889447693839,24.7597959904495
59,88.5740874341448,0.860496809467152,0.860157110139556,14.4134160900524,2533.1130784279,0,4,-5049.64985876067,10109.2997175213,10134.8978957114,255943.766090299,1232,537.7,1.7889447693839,24.7597959904495
60,105.984640598239,0.990565145774344,0.990461084882149,3.32150932312718,9519.09141736575,4.81240478700033e-275,4,-720.928126270408,1451.85625254082,1469.9582568694,3000.81937794484,272,537.7,1.7889447693839,24.7597959904495
61,105.319329339026,0.9857453305371,0.985701152842483,3.60318063888083,22313.1908329726,0,4,-2623.13021886645,5256.2604377329,5280.6572167552,12567.4575734807,968,537.7,1.7889447693839,24.7597959904495
62,92.6422729510241,0.981682896991025,0.981628489754365,3.68222317286904,18043.2412533635,0,4,-2758.5656440253,5527.13128805059,5551.73957897135,13694.3551697618,1010,537.7,1.7889447693839,24.7597959904495
63,86.4945906520987,0.978955626517166,0.978884047015524,4.80457387352206,13676.4800544344,0,4,-2645.81257421628,5301.62514843256,5325.55873318558,20360.0263536074,882,537.7,1.7889447693839,24.7597959904495
64,104.411328038667,0.98397373499446,0.983933568916752,6.00693168047179,24497.6306161837,0,4,-3855.43165347085,7720.8633069417,7746.3178560521,43191.6241719852,1197,537.7,1.7889447693839,24.7597959904495
65,99.7763697136693,0.986101948224579,0.986071909207774,5.90773047463714,32827.3709690335,0,4,-4445.7159057056,8901.4318114112,8927.62429561567,48442.9757530074,1388,537.7,1.7889447693839,24.7597959904495
66,96.2244586044397,0.989479790599057,0.989458972242723,5.19664428662321,47529.1984971865,0,4,-4659.76382768747,9329.52765537494,9356.15998344414,40939.7495520075,1516,537.7,1.7889447693839,24.7597959904495
67,87.1307489466396,0.993584439024873,0.993572477133683,3.88281565892278,83062.4876291225,0,4,-4474.87757877285,8959.75515754571,8986.68441293633,24257.6982228521,1609,537.7,1.7889447693839,24.7597959904495
68,89.5059441591013,0.951420200968479,0.951328193773343,10.7411907274107,10340.7151969773,0,4,-6021.32035843735,12052.6407168747,12079.4918700837,182751.1143363,1584,537.7,1.7889447693839,24.7597959904495
69,85.8825485616776,0.986929802221336,0.986903468713387,5.05861946522905,37478.0984035409,0,4,-4536.76531049089,9083.53062098178,9110.07333496947,38102.9604011575,1489,537.7,1.7889447693839,24.7597959904495
70,90.6718094712582,0.89078971198849,0.890543742871347,13.0891827477151,3621.55103996435,0,4,-5329.60516960317,10669.2103392063,10695.1975159768,228207.171064107,1332,537.7,1.7889447693839,24.7597959904495
71,104.708801274656,0.965170637573875,0.964756002306897,8.06410779117368,2327.75818759729,2.40674063265807e-183,4,-895.612782827853,1801.22556565571,1818.9514528781,16387.5182858524,252,537.7,1.7889447693839,24.7597959904495
