"Age","power_predict","r.squared","adj.r.squared","sigma","statistic","p.value","df","logLik","AIC","BIC","deviance","df.residual","GHI","Wind_speed","Ambient_temp"
1,31.0494772224893,0.987778200602491,0.987750444812791,1.74898055007886,35588.1857915236,0,4,-2618.80935641641,5247.61871283282,5273.56455152492,4040.85044617603,1321,551.7,1.75837345817668,18.6945844026805
2,30.7171596970872,0.986480026323146,0.986452378115218,1.85192729282098,35679.7094729453,0,4,-2991.72559381713,5993.45118763427,6019.91967623727,5031.27410181234,1467,551.7,1.75837345817668,18.6945844026805
3,30.2117398866052,0.987512122448966,0.98748736129057,1.7533353821233,39881.4993489845,0,4,-3002.35281174449,6014.70562348898,6041.32807338572,4651.24184781688,1513,551.7,1.75837345817668,18.6945844026805
4,29.821344759317,0.987374480940125,0.987349043359749,1.67168679680942,38815.5817633469,0,4,-2883.62547583734,5777.25095167467,5803.79366566237,4161.06521572749,1489,551.7,1.75837345817668,18.6945844026805
5,30.182186841145,0.991032411049281,0.991012702062576,1.3987164739581,50283.2756391301,0,4,-2399.89873554405,4809.79747108809,4835.90665021453,2670.49661222224,1365,551.7,1.75837345817668,18.6945844026805
6,30.3258869016302,0.992256280225936,0.992237739795511,1.16917410319954,53518.5137289047,0,4,-1978.06863658472,3966.13727316944,3991.81968921239,1712.81100874134,1253,551.7,1.75837345817668,18.6945844026805
7,32.3045464460104,0.988488051132316,0.988456937756998,1.27399984156725,31770.5180176433,0,4,-1848.46176283694,3706.92352567388,3732.00208777632,1801.61391190784,1110,551.7,1.75837345817668,18.6945844026805
8,33.6628443234222,0.980376627909074,0.980315685759723,1.38597313829489,16087.0044518342,0,4,-1690.97668637043,3391.95337274086,3416.33985309835,1855.61020771245,966,551.7,1.75837345817668,18.6945844026805
9,33.8096932146452,0.987622374852102,0.987577743992194,0.976015350627882,22128.6880172514,0,4,-1163.9322713554,2337.8645427108,2361.50768577622,792.568162598175,832,551.7,1.75837345817668,18.6945844026805
10,33.6646008315029,0.980643028529161,0.980581707605811,1.28334519949988,15991.9807947254,0,4,-1584.652397908,3179.304795816,3203.59236612873,1559.68523132218,947,551.7,1.75837345817668,18.6945844026805
11,32.9538054914477,0.990135376698698,0.990105693780038,1.1822146842357,33357.0761030589,0,4,-1585.91038502749,3181.82077005497,3206.36454395155,1393.43866494366,997,551.7,1.75837345817668,18.6945844026805
12,31.5606539217845,0.987958514787775,0.987929335098246,1.48039842709119,33857.7459438736,0,4,-2247.56901442462,4505.13802884924,4530.76042016171,2713.17542463238,1238,551.7,1.75837345817668,18.6945844026805
13,30.5265982200768,0.986831753782892,0.986802404051353,1.74457808515229,33623.1952403312,0,4,-2664.85625189654,5339.71250379309,5365.75180315025,4096.62192773063,1346,551.7,1.75837345817668,18.6945844026805
14,29.8862177601815,0.988609642107307,0.98858594510753,1.68989139878756,41718.7682584635,0,4,-2808.44687599366,5626.89375198732,5653.27653400092,4117.96689904187,1442,551.7,1.75837345817668,18.6945844026805
15,29.2447777783259,0.988086156690805,0.988062642526379,1.71546108793701,42020.8916969413,0,4,-2982.93491157434,5975.86982314867,6002.51529182991,4473.06625122356,1520,551.7,1.75837345817668,18.6945844026805
16,29.446776264394,0.990171626733337,0.990151306182131,1.55369209003346,48727.5968399029,0,4,-2703.67541555787,5417.35083111574,5443.76463701377,3502.65466952782,1451,551.7,1.75837345817668,18.6945844026805
17,29.5212536345727,0.989804673904977,0.989782590166143,1.45081235682045,44820.520716437,0,4,-2485.78248109981,4981.56496219963,5007.7466589134,2915.22624516351,1385,551.7,1.75837345817668,18.6945844026805
18,30.6242962769596,0.981430242913729,0.981385532423152,1.77977436871786,21950.7822493203,0,4,-2492.27820606538,4994.55641213076,5020.21090628224,3946.82561721716,1246,551.7,1.75837345817668,18.6945844026805
19,32.8407747991347,0.986302065839388,0.98626642507401,1.51161274986785,27673.4255102216,0,4,-2117.7543538144,4245.5087076288,4270.77663626477,2634.57399071417,1153,551.7,1.75837345817668,18.6945844026805
20,33.450604762007,0.979260362948353,0.97919795681881,1.47757675166785,15691.7336503723,0,4,-1809.14728440468,3628.29456880935,3652.83834270593,2176.68335789811,997,551.7,1.75837345817668,18.6945844026805
21,34.5241927148475,0.985240276155581,0.9851910770761,1.07975313057475,20025.5835381664,0,4,-1350.08211485652,2710.16422971303,2734.19837651499,1049.28014068737,900,551.7,1.75837345817668,18.6945844026805
22,34.7534761214339,0.986741489449075,0.986693276683436,1.07671324903092,20466.3946644876,0,4,-1235.56917402283,2481.13834804566,2504.73944882134,956.431922026944,825,551.7,1.75837345817668,18.6945844026805
23,33.308996403027,0.98499362165258,0.984947542701667,1.44372549115265,21376.2163011617,0,4,-1750.22422033577,3510.44844067154,3534.89130296937,2036.40339804647,977,551.7,1.75837345817668,18.6945844026805
24,31.6972880861378,0.988271071552737,0.988242087380297,1.47168916448718,34096.9221601538,0,4,-2196.91223624347,4403.82447248694,4429.34929972829,2629.36496219893,1214,551.7,1.75837345817668,18.6945844026805
25,30.6436718731787,0.98796791479124,0.987941392928179,1.65910473721515,37251.0751794426,0,4,-2625.91782545286,5261.83565090572,5287.93019944381,3746.32742803671,1361,551.7,1.75837345817668,18.6945844026805
26,27.4371067136607,0.969049204532612,0.968985780771408,2.65018591416017,15278.9614829185,0,4,-3511.75557432286,7033.51114864572,7059.9694296916,10282.3825957534,1464,551.7,1.75837345817668,18.6945844026805
27,26.6474839071206,0.98604819260356,0.986020381691806,1.80081411979194,35455.4428612831,0,4,-3026.8280179484,6063.65603589681,6090.25204819064,4880.61189853326,1505,551.7,1.75837345817668,18.6945844026805
28,26.4530267271802,0.986785855967421,0.986758478597187,1.69224188379911,36043.8510916273,0,4,-2822.1267007663,5654.2534015326,5680.65688750952,4146.61239507519,1448,551.7,1.75837345817668,18.6945844026805
29,26.1695690090324,0.991020605469203,0.991001336382227,1.35013388933666,51430.5948541099,0,4,-2408.23464332386,4826.46928664771,4852.69756198569,2548.3604037512,1398,551.7,1.75837345817668,18.6945844026805
30,25.264867198908,0.989208164268966,0.989183317371658,1.31447334993156,39812.1404046183,0,4,-2209.93056721397,4429.86113442794,4455.73858299606,2251.37576454744,1303,551.7,1.75837345817668,18.6945844026805
31,27.1521024904268,0.980463240151119,0.980413821702935,1.58552413740581,19840.024852532,0,4,-2235.02238170044,4480.04476340088,4505.45330633141,2981.46973329159,1186,551.7,1.75837345817668,18.6945844026805
32,28.2353377183243,0.979888653166885,0.979827024933484,1.46962610816893,15899.9958151447,0,4,-1771.27538180155,3552.55076360309,3577.00380920383,2114.44507895772,979,551.7,1.75837345817668,18.6945844026805
33,29.1415839542207,0.985434939244168,0.985386442926446,1.03198970930669,20319.7889145653,0,4,-1310.63220893767,2631.26441787535,2655.30409259385,959.567486863535,901,551.7,1.75837345817668,18.6945844026805
34,28.9129273051433,0.982785189198106,0.982728685442739,1.18124370860499,17393.2720543992,0,4,-1453.49051159892,2916.98102319784,2941.09201015094,1275.33774299464,914,551.7,1.75837345817668,18.6945844026805
35,28.8854482137125,0.979940619294241,0.979878579972471,1.54541602794242,15795.4760195648,0,4,-1804.01753929373,3618.03507858747,3642.44213510568,2316.6613784387,970,551.7,1.75837345817668,18.6945844026805
36,29.4677898218105,0.986970127129136,0.986932863431698,1.49420305357762,26486.1029630248,0,4,-1915.01588580395,3840.03177160789,3864.82876416856,2342.04226082138,1049,551.7,1.75837345817668,18.6945844026805
37,28.5601285794507,0.98663450393469,0.986599485167707,1.68720530285941,28174.4501285248,0,4,-2229.36832891736,4468.73665783471,4493.96989422396,3259.42768542647,1145,551.7,1.75837345817668,18.6945844026805
38,28.0338029102868,0.984240615582825,0.984207203460386,1.86931905112708,29457.590351306,0,4,-2899.16077369167,5808.32154738335,5834.61008576915,4944.51050659292,1415,551.7,1.75837345817668,18.6945844026805
39,28.0438334222239,0.985091061023743,0.985059563265343,1.85691644943753,31274.9576810135,0,4,-2899.90387674875,5809.8077534975,5836.11387895736,4896.35695427217,1420,551.7,1.75837345817668,18.6945844026805
40,27.588867466834,0.987060175064325,0.987034719671009,1.65872194463195,38776.0724341574,0,4,-2941.30086044679,5892.60172089358,5919.26356692323,4195.82169664551,1525,551.7,1.75837345817668,18.6945844026805
41,27.711298403203,0.989232191871876,0.989209265381894,1.52217407930931,43148.0000931958,0,4,-2596.61460594873,5203.22921189746,5229.49656381088,3264.67262415911,1409,551.7,1.75837345817668,18.6945844026805
42,27.7424298931749,0.988728415183636,0.9887025233349,1.40679380955945,38186.8604775405,0,4,-2303.92673865485,4617.85347730971,4643.74238939069,2584.66388233492,1306,551.7,1.75837345817668,18.6945844026805
43,28.7481456936095,0.987843654321379,0.987812133978219,1.35805318929242,31339.8762606722,0,4,-2000.71078306785,4011.4215661357,4036.70675104419,2133.86489394404,1157,551.7,1.75837345817668,18.6945844026805
44,30.1055089352711,0.983938965420917,0.983894060384815,1.36121506303935,21911.5504815532,0,4,-1858.31589178077,3726.63178356154,3751.54145694732,1988.16861853791,1073,551.7,1.75837345817668,18.6945844026805
45,30.5347262634813,0.985601098355141,0.985553472440108,1.12315426575997,20694.6385739837,0,4,-1396.45308355589,2802.90616711179,2826.97888159809,1144.15828275819,907,551.7,1.75837345817668,18.6945844026805
46,31.0365083086778,0.99020165980068,0.990168482576529,0.801767750129341,29845.8260187189,0,4,-1064.21747839283,2138.43495678567,2162.3910640993,569.548731280654,886,551.7,1.75837345817668,18.6945844026805
47,30.4197536363297,0.99020525534545,0.990171977617292,0.958047442982989,29755.7949460805,0,4,-1218.57892813521,2447.15785627042,2471.09708118197,810.465879354513,883,551.7,1.75837345817668,18.6945844026805
48,29.352697733564,0.989236319616723,0.989206253470401,1.33996401615006,32901.9991129623,0,4,-1843.08091427653,3696.16182855306,3721.0761423104,1928.37082835569,1074,551.7,1.75837345817668,18.6945844026805
49,28.1766661082339,0.976427178479862,0.976371756485693,2.18622173347988,17618.0448413997,0,4,-2815.421958069,5640.84391613799,5666.61699292256,6098.72553709115,1276,551.7,1.75837345817668,18.6945844026805
50,27.5017327169399,0.986585753069365,0.986557191862274,1.74553616691824,34542.8591273886,0,4,-2790.08558859924,5590.17117719849,5616.43852911191,4293.07718261767,1409,551.7,1.75837345817668,18.6945844026805
51,27.0516498712278,0.987379120096215,0.987353502613325,1.78637680648603,38543.174766142,0,4,-2960.70494951813,5931.40989903627,5957.91563806555,4716.50801604232,1478,551.7,1.75837345817668,18.6945844026805
52,26.5004145155664,0.98882563031859,0.988803251741124,1.6145728382589,44186.259462477,0,4,-2848.80678775322,5707.61357550644,5734.18633966806,3905.05448416501,1498,551.7,1.75837345817668,18.6945844026805
53,26.1235776864587,0.988189403629992,0.988164239007045,1.64344909585199,39268.9930500117,0,4,-2703.01593323017,5416.03186646033,5442.2956785506,3802.90230236466,1408,551.7,1.75837345817668,18.6945844026805
54,25.9192362840736,0.988253266487632,0.988226427035586,1.48137739453126,36820.9181310442,0,4,-2384.28355945408,4778.56711890815,4804.48267741687,2881.35090734205,1313,551.7,1.75837345817668,18.6945844026805
55,26.839505891625,0.985952819784018,0.985918106818081,1.40957796834003,28403.0129134866,0,4,-2144.39148402104,4298.78296804208,4324.30779528343,2412.10879927913,1214,551.7,1.75837345817668,18.6945844026805
56,28.2888687498271,0.989156429651656,0.989124568034569,1.12909971002744,31045.3931755836,0,4,-1576.86419725982,3163.72839451964,3188.39063397751,1301.63834444292,1021,551.7,1.75837345817668,18.6945844026805
57,28.6863769185181,0.986929402394411,0.986887239176329,1.09804819212138,23407.3547342202,0,4,-1410.6452686618,2831.2905373236,2855.48791951475,1121.31014396556,930,551.7,1.75837345817668,18.6945844026805
58,30.005818588312,0.987597478868795,0.987551937175534,0.901159190484171,21685.5678427532,0,4,-1077.49942333406,2164.99884666812,2188.55146221538,663.475803347369,817,551.7,1.75837345817668,18.6945844026805
59,28.9167045412724,0.98212240967394,0.982068615520501,1.27324418546386,18257.0474093774,0,4,-1660.16315326024,3330.32630652048,3354.87008041706,1616.28730355009,997,551.7,1.75837345817668,18.6945844026805
60,28.784530045513,0.98481733012956,0.984775116960319,1.48510944425129,23329.6231444049,0,4,-1963.02074122622,3936.04148245244,3960.97893368745,2379.78851625533,1079,551.7,1.75837345817668,18.6945844026805
61,28.1744656063979,0.986617747816313,0.986584347852461,1.6259894205884,29539.485496591,0,4,-2295.49305161278,4600.98610322557,4626.461425112,3177.89759823021,1202,551.7,1.75837345817668,18.6945844026805
62,27.4744814917593,0.986185727898589,0.986156041067425,1.72890901903485,33219.6360893982,0,4,-2750.99790253543,5511.99580507085,5538.21694264887,4172.82044895566,1396,551.7,1.75837345817668,18.6945844026805
63,27.82945508163,0.988657585035907,0.988634358247585,1.63449354170611,42565.4021259378,0,4,-2804.18614841844,5618.37229683689,5644.83398271776,3913.84878699271,1465,551.7,1.75837345817668,18.6945844026805
64,26.8895499792082,0.986167670614649,0.986140459474875,1.73897757600745,36241.3217082597,0,4,-3013.54603027395,6037.0920605479,6063.75390657754,4611.66559003155,1525,551.7,1.75837345817668,18.6945844026805
65,26.4704449628505,0.987652188742285,0.987625916803439,1.650475818747,37593.4259943309,0,4,-2712.88021232358,5435.76042464715,5462.03131387944,3840.9393038587,1410,551.7,1.75837345817668,18.6945844026805
66,26.0291328402654,0.982814325248289,0.982775763524837,1.81587593492619,25486.7842324346,0,4,-2700.7912186924,5411.5824373848,5437.58829180121,4408.63103456591,1337,551.7,1.75837345817668,18.6945844026805
67,26.2990967108632,0.960132309754526,0.960035777816885,2.43598302691421,9946.26579786956,0,4,-2868.44289692945,5746.8857938589,5772.51220931645,7352.24248788607,1239,551.7,1.75837345817668,18.6945844026805
68,27.9568453897723,0.988212290619162,0.988180603228354,1.15775881322361,31186.2941504086,0,4,-1751.27198540271,3512.54397080542,3537.64939062687,1495.8925040702,1116,551.7,1.75837345817668,18.6945844026805
69,28.5548760678803,0.985259117524812,0.985213148036844,1.10169317312237,21432.8930137949,0,4,-1462.24587517283,2934.49175034565,2958.85756951672,1167.60618949166,962,551.7,1.75837345817668,18.6945844026805
70,28.6203366882824,0.988120884980879,0.988082190795149,0.862229690339985,25536.6760234954,0,4,-1173.39774330873,2356.79548661745,2380.94445530501,684.708275830388,921,551.7,1.75837345817668,18.6945844026805
71,28.4705480510903,0.989014021877263,0.98897925612371,0.954163942544756,28447.9385833115,0,4,-1304.1576445456,2618.3152890912,2642.60811426515,863.08653013142,948,551.7,1.75837345817668,18.6945844026805
72,27.6832305727105,0.989532344751755,0.989503508235919,1.17380149897179,34315.2532851234,0,4,-1724.04680358669,3458.09360717339,3483.07701461427,1500.43504533839,1089,551.7,1.75837345817668,18.6945844026805
73,27.252856518999,0.988092588152043,0.988062160353454,1.43947215833692,32473.3511447195,0,4,-2098.62389366505,4207.2477873301,4232.60565415116,2432.62203109226,1174,551.7,1.75837345817668,18.6945844026805
74,26.8304480651984,0.987696430385168,0.987668905620929,1.59423759938257,35883.9197243967,0,4,-2533.77146672281,5077.54293344562,5103.5636799058,3408.27691472533,1341,551.7,1.75837345817668,18.6945844026805
75,26.1194419707823,0.986280569175613,0.98625237856433,1.71162887889872,34986.1363159163,0,4,-2862.14345499462,5734.28690998925,5760.73154846185,4277.32319185692,1460,551.7,1.75837345817668,18.6945844026805
76,25.7348018141021,0.981721531109465,0.98168547890258,1.9890747989238,27230.5530213324,0,4,-3210.57478391912,6431.14956783824,6457.79831628344,6017.71262324063,1521,551.7,1.75837345817668,18.6945844026805
77,25.4453460026134,0.988362846557947,0.988338967310118,1.53093428191188,41390.032618746,0,4,-2702.49858392064,5414.99716784128,5441.44863225351,3426.57679182932,1462,551.7,1.75837345817668,18.6945844026805
78,25.1299578270451,0.988696759865985,0.988672026298953,1.38156483140746,39973.8848243227,0,4,-2393.46065817032,4796.92131634065,4823.05236139115,2616.85701661661,1371,551.7,1.75837345817668,18.6945844026805
79,25.4602865720425,0.990504819388696,0.990481791464821,1.1803862944296,43013.2053912757,0,4,-1964.70910511073,3939.41821022146,3965.03657414748,1723.52670164355,1237,551.7,1.75837345817668,18.6945844026805
80,26.1102429095891,0.984860252425726,0.984818041233604,1.25453967355758,23331.7327212413,0,4,-1775.36011121291,3560.72022242581,3585.6438040264,1693.48389676224,1076,551.7,1.75837345817668,18.6945844026805
81,27.8798104959745,0.986641680111774,0.986600493102869,1.05427805242902,23955.1670864164,0,4,-1435.93937064254,2881.87874128509,2906.3011745453,1081.49165211402,973,551.7,1.75837345817668,18.6945844026805
82,28.9546994758745,0.987792380295505,0.98774536763939,0.910061321214828,21011.2012791175,0,4,-1035.23124487274,2080.46248974548,2103.77815322543,645.176842921226,779,551.7,1.75837345817668,18.6945844026805
83,28.6664217484961,0.986819389406437,0.986777143859662,1.04477970729589,23359.1340332264,0,4,-1372.9756471546,2755.95129430921,2780.18069368553,1021.70450002353,936,551.7,1.75837345817668,18.6945844026805
84,27.827917583072,0.98825673767643,0.98822450548341,1.1567906972825,30660.549130723,0,4,-1714.34945082149,3438.69890164298,3463.70057394436,1462.61403603002,1093,551.7,1.75837345817668,18.6945844026805
85,27.519077622384,0.986695458984766,0.986662769694802,1.3900183249012,30184.0590627635,0,4,-2139.60967053038,4289.21934106075,4314.77282167565,2359.15630208815,1221,551.7,1.75837345817668,18.6945844026805
86,26.6276824957818,0.984314712969313,0.984279908338327,1.70573201158585,28281.142052228,0,4,-2646.17403518917,5302.34807037835,5328.40954272085,3933.67333211144,1352,551.7,1.75837345817668,18.6945844026805
87,25.0785433028293,0.984998672377329,0.984967484586014,1.69927996054157,31582.8287556024,0,4,-2818.40735691396,5646.81471382792,5673.20095246108,4166.73809054223,1443,551.7,1.75837345817668,18.6945844026805
88,25.1719148770659,0.983630105831837,0.98359712417804,1.85028757305398,29823.5531750738,0,4,-3035.17676646281,6080.35353292562,6106.89624691332,5097.686949364,1489,551.7,1.75837345817668,18.6945844026805
89,24.8660768704895,0.986654126829497,0.986627037777053,1.53947473330833,36422.6149617811,0,4,-2740.26017328461,5490.52034656922,5517.0260855985,3502.83406774323,1478,551.7,1.75837345817668,18.6945844026805
90,24.5518337582736,0.989789465045883,0.989766741303403,1.33508255188524,43557.5022881594,0,4,-2307.12063957157,4624.24127914314,4650.28798042615,2402.73642662964,1348,551.7,1.75837345817668,18.6945844026805
91,24.7594647894913,0.982806735746912,0.982765537829373,1.57657632931665,23855.7382131813,0,4,-2351.98465963073,4713.96931926146,4739.6477559966,3111.96233854628,1252,551.7,1.75837345817668,18.6945844026805
92,25.5662901150084,0.985257117824657,0.985218791441185,1.30906454365426,25707.0202973653,0,4,-1952.99157390513,3915.98314781025,3941.25539610092,1977.55207628845,1154,551.7,1.75837345817668,18.6945844026805
93,25.1277539963284,0.98459246059273,0.984545534076768,1.0752530443732,20981.5802521157,0,4,-1473.08406164198,2956.16812328396,2980.65159494207,1138.82657279234,985,551.7,1.75837345817668,18.6945844026805
94,26.5305908830682,0.988214542750427,0.988176889532378,0.826169477697295,26245.1549677549,0,4,-1155.9838901186,2321.9677802372,2346.21311165036,640.920089520025,939,551.7,1.75837345817668,18.6945844026805
95,25.4234146031796,0.981824629058691,0.981766374664648,0.98926082143313,16854.0870640543,0,4,-1321.64852961893,2653.29705923785,2677.52645861417,916.004206561907,936,551.7,1.75837345817668,18.6945844026805
96,25.9678762007288,0.98786055422472,0.987822815015056,1.07644474514228,26175.9735568832,0,4,-1444.32743261509,2898.65486523018,2923.03618828964,1118.17762421737,965,551.7,1.75837345817668,18.6945844026805
97,25.8028362094957,0.987175558548156,0.987141661346081,1.33500343915605,29122.6265918209,0,4,-1943.26314487099,3896.52628974198,3921.71581955922,2022.83579720388,1135,551.7,1.75837345817668,18.6945844026805
98,25.6204395306623,0.985992816447564,0.985960241602093,1.54783930968187,30268.5339622551,0,4,-2399.40015866729,4808.80031733457,4834.62778470988,3090.59042188942,1290,551.7,1.75837345817668,18.6945844026805
99,25.2169090627069,0.984915756608389,0.984884374687325,1.64881180458386,31384.8140331465,0,4,-2772.86174760944,5555.72349521888,5582.10627723247,3920.19288912038,1442,551.7,1.75837345817668,18.6945844026805
100,24.2130691413294,0.98630617926566,0.986278718395204,1.51972147724555,35916.7849695721,0,4,-2754.19574751063,5518.39149502126,5544.95759695671,3455.09183912849,1496,551.7,1.75837345817668,18.6945844026805
101,24.3517598428768,0.985241705844056,0.98521098073478,1.61418706454683,32066.3369158084,0,4,-2740.27487316386,5490.54974632773,5516.92906933046,3754.66942614378,1441,551.7,1.75837345817668,18.6945844026805
102,24.5131325293703,0.987489665709001,0.987462350568627,1.40794149675645,36151.7331491385,0,4,-2424.7477476137,4859.49549522739,4885.63743748526,2723.67918088881,1374,551.7,1.75837345817668,18.6945844026805
103,23.8228651406441,0.987652242068946,0.98762316571589,1.25086498707054,33967.5419462542,0,4,-2097.46182451555,4204.92364903111,4230.68890720579,1993.38093702981,1274,551.7,1.75837345817668,18.6945844026805
104,25.3243127329665,0.990876502120229,0.990730914388105,1.06117547692491,6806.04394109411,1.96763947629096e-191,4,-281.815500058487,573.631000116973,589.918476977112,211.705557851442,188,551.7,1.75837345817668,18.6945844026805
