"Age","power_predict","r.squared","adj.r.squared","sigma","statistic","p.value","df","logLik","AIC","BIC","deviance","df.residual","GHI","Wind_speed","Ambient_temp"
1,119.609828755572,0.967997922367819,0.967889563188478,6.97539657215571,8933.23415930812,0,4,-2989.57715891792,5989.15431783584,6013.11042514947,43109.3554022137,886,513.1,1.25410894073049,20.6506756239611
2,120.997452175421,0.989063358386176,0.989027617727308,4.11697950022636,27673.3387042341,0,4,-2610.99739855646,5231.99479711291,5256.12752323069,15559.6595484508,918,513.1,1.25410894073049,20.6506756239611
3,119.446685833629,0.992913367528416,0.992891382112269,3.75525741945123,45162.3640353874,0,4,-2660.57047331442,5331.14094662884,5355.53257897029,13636.5936628942,967,513.1,1.25410894073049,20.6506756239611
4,116.034372310658,0.973659885201805,0.973591998307995,8.57331759719023,14342.3837880988,0,4,-4164.94555174833,8339.89110349667,8365.20634431361,85556.0656603474,1164,513.1,1.25410894073049,20.6506756239611
5,112.79013286169,0.993754378833685,0.993740248469055,4.84218210286943,70327.5821168067,0,4,-3983.08130648031,7976.16261296062,8002.1272840667,31090.3606880048,1326,513.1,1.25410894073049,20.6506756239611
6,108.612992690325,0.98960744307323,0.989585896652511,6.66543237028089,45929.0875260428,0,4,-4809.32947847259,9628.65895694518,9655.0589982096,64287.2996239946,1447,513.1,1.25410894073049,20.6506756239611
7,107.61682809899,0.995874388510117,0.995866213586425,4.26624503879358,121820.634177635,0,4,-4354.16035428326,8718.32070856653,8744.94645335631,27556.0819507807,1514,513.1,1.25410894073049,20.6506756239611
8,104.298679667294,0.995715146317595,0.995706820824689,4.1761781247278,119598.341807823,0,4,-4407.22004924568,8824.44009849135,8851.1636937621,26928.0759982785,1544,513.1,1.25410894073049,20.6506756239611
9,105.059712842799,0.987540620083286,0.987514877562797,7.24206497333647,38362.2349840307,0,4,-4946.71544576125,9903.43089152249,9929.84813266628,76153.7773732952,1452,513.1,1.25410894073049,20.6506756239611
10,112.081830008903,0.994607891908703,0.994596032433429,4.4608066998843,83866.0960050798,0,4,-3984.71590948979,7979.43181897958,8005.53734447049,27141.9583083313,1364,513.1,1.25410894073049,20.6506756239611
11,107.203116081953,0.98824200530479,0.988213350565484,5.68757605891085,34487.9077332733,0,4,-3897.1667767518,7804.3335535036,7829.92768474891,39821.0298752778,1231,513.1,1.25410894073049,20.6506756239611
12,118.918929925434,0.99434727634742,0.994331353182201,3.64844241058429,62446.5841244885,0,4,-2898.44860394935,5806.89720789869,5831.76960245382,14176.3556048679,1065,513.1,1.25410894073049,20.6506756239611
13,119.505077721881,0.990567384791701,0.990537999697594,3.82833811592485,33709.8591956097,0,4,-2668.23999410363,5346.47998820726,5370.85098068452,14113.8943388388,963,513.1,1.25410894073049,20.6506756239611
14,120.162930252904,0.987935532189064,0.987890793742299,3.94774958131676,22082.472763987,0,4,-2267.95953746925,4545.91907493851,4569.42273048625,12608.0439462404,809,513.1,1.25410894073049,20.6506756239611
15,119.443876336891,0.993048635529663,0.993026283875417,3.47594706186235,44428.4178980388,0,4,-2494.91848256099,4999.83696512198,5024.05038153317,11272.7000424193,933,513.1,1.25410894073049,20.6506756239611
16,115.262998307859,0.992501198227869,0.992480857897565,4.41909170476309,48794.7434179678,0,4,-3222.40509749951,6454.81019499902,6479.87077147055,21598.3788735872,1106,513.1,1.25410894073049,20.6506756239611
17,112.861286707452,0.994184104496547,0.994170836293878,4.52253727541085,74929.8250307735,0,4,-3860.04441158728,7730.08882317455,7756.01196893814,26896.146580837,1315,513.1,1.25410894073049,20.6506756239611
18,105.519551283201,0.945775923624566,0.945663035193527,14.7081548334969,8377.97031037693,0,4,-5933.10442803377,11876.2088560675,11902.5881790703,311731.268611416,1441,513.1,1.25410894073049,20.6506756239611
19,104.442745935297,0.993858485669728,0.993846332277254,5.1258787430421,81776.2190913659,0,4,-4638.92293228918,9287.84586457836,9314.47819264756,39832.3434587702,1516,513.1,1.25410894073049,20.6506756239611
20,104.039526013178,0.995236583244238,0.995227333891315,4.46668094086289,107600.671251542,0,4,-4514.23725725348,9038.47451450697,9065.20133870905,30824.6636794378,1545,513.1,1.25410894073049,20.6506756239611
21,103.664283961532,0.996244596173001,0.996236989007922,3.95781163024844,130961.34840188,0,4,-4148.02253538953,8306.04507077907,8332.56092103525,23198.7881656846,1481,513.1,1.25410894073049,20.6506756239611
22,106.88210241935,0.99039820588262,0.990377762034251,5.83482095501873,48444.8029548525,0,4,-4495.26829060911,9000.53658121823,9026.80393313165,47969.5960281701,1409,513.1,1.25410894073049,20.6506756239611
23,106.492837136453,0.993317153189794,0.993300958892192,4.49273318834793,61337.4644356088,0,4,-3626.37529633039,7262.75059266078,7288.37298397324,24988.5985590835,1238,513.1,1.25410894073049,20.6506756239611
24,107.098237701317,0.992022757566362,0.992000286460915,4.11322396261633,44146.5934958985,0,4,-3026.62897363062,6063.25794726123,6088.13034181636,18018.3211054728,1065,513.1,1.25410894073049,20.6506756239611
25,120.589045661928,0.993418530357649,0.993397898791372,3.39186470818395,48150.4175214729,0,4,-2535.3417746364,5080.68354927281,5105.02342131766,11010.042112083,957,513.1,1.25410894073049,20.6506756239611
26,121.326552868093,0.985929119369493,0.98588142146905,4.09806572388268,20670.2833924554,0,4,-2513.37975602819,5036.75951205638,5060.70999823395,14862.8162693769,885,513.1,1.25410894073049,20.6506756239611
27,119.793618246782,0.989197103793196,0.989164334643933,4.4036088558121,30186.8411619491,0,4,-2879.04935288099,5768.09870576198,5792.60235908221,19178.4614744819,989,513.1,1.25410894073049,20.6506756239611
28,120.641579504034,0.992596253676419,0.992574042437449,3.82911566039735,44688.9187489243,0,4,-2770.61470663695,5551.2294132739,5575.78814977516,14662.1267407003,1000,513.1,1.25410894073049,20.6506756239611
29,114.722155407193,0.993518915611184,0.993502268990322,4.35787035395952,59682.9184653291,0,4,-3386.15718704605,6782.31437409211,6807.64670894279,22181.5277376017,1168,513.1,1.25410894073049,20.6506756239611
30,111.934590012896,0.991500285360435,0.99148222647664,5.95983388298513,54903.741372371,0,4,-4534.83446675624,9079.66893351247,9105.94688988374,50153.703316842,1412,513.1,1.25410894073049,20.6506756239611
31,110.368612860705,0.993733815341211,0.993721224213296,5.04013590890745,78923.3357081345,0,4,-4543.44557994322,9096.89115988643,9123.44725180853,37926.6341805257,1493,513.1,1.25410894073049,20.6506756239611
32,106.016491595314,0.994888817221198,0.994878814906562,4.33015992564679,99465.8590000904,0,4,-4431.53999763143,8873.07999526287,8899.76793398056,28744.1868769115,1533,513.1,1.25410894073049,20.6506756239611
33,105.074940011413,0.994788148090909,0.994777497167389,4.54860429488661,93399.2386883979,0,4,-4316.49048259636,8642.98096519272,8669.45285168917,30372.6279141846,1468,513.1,1.25410894073049,20.6506756239611
34,103.013024408285,0.995434200069508,0.99542445103051,3.93553218996193,102105.879392372,0,4,-3927.67652919969,7865.35305839938,7891.60623595888,21761.2211336083,1405,513.1,1.25410894073049,20.6506756239611
35,97.3718568807632,0.978390031838961,0.978339501905615,6.91607348831179,19362.58306807,0,4,-4313.03340294601,8636.06680589203,8661.86715193001,61368.5490120206,1283,513.1,1.25410894073049,20.6506756239611
36,93.6196451843708,0.838069136154619,0.837555069920189,18.1716884005103,1630.27462226581,0,4,-4096.54013685885,8203.08027371771,8227.35731771076,312048.695062353,945,513.1,1.25410894073049,20.6506756239611
37,102.343738055055,0.715431208299608,0.71454653848085,20.155228113006,808.698559768047,9.27600948477972e-263,4,-4283.30363860668,8576.60727721336,8600.98860027281,392015.05757725,965,513.1,1.25410894073049,20.6506756239611
38,111.774581239283,0.986577133699079,0.986530954113181,3.56873233308004,21363.9233553409,0,4,-2355.44192383781,4720.88384767562,4744.76067813031,11105.6616056291,872,513.1,1.25410894073049,20.6506756239611
39,114.619745341487,0.991853317005454,0.991819883285914,2.60183448683546,29666.2570200406,0,4,-1743.73368444776,3497.46736889551,3520.46672139158,4948.53571142393,731,513.1,1.25410894073049,20.6506756239611
40,115.948997336965,0.985034436143734,0.984980343744253,5.48147832944401,18210.2189143817,0,4,-2600.33653563208,5210.67307126416,5234.30423827595,24938.6818812163,830,513.1,1.25410894073049,20.6506756239611
41,112.225831464545,0.993254909837806,0.993233698862453,4.61779443539745,46827.4038942867,0,4,-2822.99960171546,5655.99920343092,5680.32344232078,20343.1202769986,954,513.1,1.25410894073049,20.6506756239611
42,109.95401478005,0.992020815899547,0.992002938713363,5.65630721205842,55490.8812633354,0,4,-4230.74324545027,8471.48649090054,8497.49979688315,42839.7133001495,1339,513.1,1.25410894073049,20.6506756239611
43,102.772361239637,0.989981383835349,0.989961062098707,6.5324809505331,48715.392845659,0,4,-4885.55797046073,9781.11594092145,9807.62505263214,63113.821598866,1479,513.1,1.25410894073049,20.6506756239611
44,101.259883403703,0.986710114424338,0.986681139383112,7.28784000402907,34053.795013713,0,4,-4697.09821645278,9404.19643290556,9430.34562679631,73082.9540078731,1376,513.1,1.25410894073049,20.6506756239611
45,99.8650650553343,0.995255226116725,0.995245503219423,4.46464433965634,102362.00128672,0,4,-4277.40530517303,8564.81061034607,8591.26889139194,29181.9838525716,1464,513.1,1.25410894073049,20.6506756239611
46,99.3192743666554,0.993627794510555,0.993613485665893,4.94668151016762,69441.5110364815,0,4,-4041.6553561635,8093.310712327,8119.31283679173,32691.4630386137,1336,513.1,1.25410894073049,20.6506756239611
47,106.153251336149,0.982663924123416,0.982620620020477,7.24341953009238,22692.1667331933,0,4,-4093.83015948984,8197.66031897968,8223.1314932093,63013.0189131974,1201,513.1,1.25410894073049,20.6506756239611
48,101.082643476234,0.989503370694013,0.989474975844673,4.74655198984008,34847.9880575792,0,4,-3310.68172821906,6631.36345643812,6656.43752819449,24985.4991736106,1109,513.1,1.25410894073049,20.6506756239611
49,113.042802374387,0.973441104207448,0.973350665288745,6.33879008687751,10763.5199332755,0,4,-2888.07487074858,5786.14974149715,5810.07767972219,35398.8088534025,881,513.1,1.25410894073049,20.6506756239611
50,124.158568694245,0.989796244178267,0.989756019122465,3.33452570866942,24606.4604373526,0,4,-2004.79552736161,4019.59105472322,4042.79043389235,8461.60595505254,761,513.1,1.25410894073049,20.6506756239611
51,122.361256118157,0.989409477370456,0.989374370665607,3.94547035302703,28182.9206590909,0,4,-2535.47518420924,5080.95036841849,5105.01209388938,14087.8963574868,905,513.1,1.25410894073049,20.6506756239611
52,120.125053083192,0.992144303757673,0.992121944090949,4.23953062080893,44372.0524106728,0,4,-3027.46398683999,6064.92797367998,6089.74865174207,18944.1953585544,1054,513.1,1.25410894073049,20.6506756239611
53,117.964423185042,0.989303262468867,0.989274763168163,5.19811884999468,34713.2469221817,0,4,-3463.97237891027,6937.94475782054,6963.09462237907,30425.0149655824,1126,513.1,1.25410894073049,20.6506756239611
54,114.06974846881,0.990684236415847,0.990663611109019,5.82183187589651,48032.4605427237,0,4,-4320.36925836532,8650.73851673064,8676.8110388014,45925.9992600823,1355,513.1,1.25410894073049,20.6506756239611
55,110.677138661069,0.99149857223101,0.991479874076092,5.9818742605517,53026.5460215245,0,4,-4386.09301413831,8782.18602827661,8808.29155376752,48807.7660285855,1364,513.1,1.25410894073049,20.6506756239611
56,110.758693702422,0.989915924874282,0.989894113608689,6.63481512707763,45385.5334833479,0,4,-4603.97276704675,9217.9455340935,9244.13442505312,61056.8104456808,1387,513.1,1.25410894073049,20.6506756239611
57,107.995338790833,0.986755182794127,0.98671063744478,7.65827671011003,22151.6992740395,0,4,-3093.42958747567,6196.85917495134,6220.84887701621,52315.0883344035,892,513.1,1.25410894073049,20.6506756239611
58,103.589465865501,0.985677618531752,0.985642855469936,7.9449234990396,28354.165802342,0,4,-4327.42168060724,8664.84336121448,8690.45769450747,78018.5564253112,1236,513.1,1.25410894073049,20.6506756239611
59,95.9369686422653,0.993598641321327,0.993576793680786,4.43914690369469,45478.5329991095,0,4,-2566.99632061314,5143.99264122629,5167.90926722931,17321.5961794397,879,513.1,1.25410894073049,20.6506756239611
60,112.962947523262,0.971628822426387,0.971473221818122,8.49458581692217,6244.37676215853,0,4,-1958.6532147481,3927.3064294962,3948.86510354197,39470.4195459773,547,513.1,1.25410894073049,20.6506756239611
61,116.972787799307,0.991146329065602,0.991121104931886,4.12581701413555,39293.5725847254,0,4,-2995.86235159496,6001.72470318992,6026.54065311927,17924.5514339393,1053,513.1,1.25410894073049,20.6506756239611
62,119.2520595497,0.988015046306967,0.987977748733234,3.98298457077978,26490.0621516691,0,4,-2709.33478114165,5428.6695622833,5453.04572271968,15293.0561117913,964,513.1,1.25410894073049,20.6506756239611
63,117.646479013097,0.989226950895739,0.989192930740673,3.78380498795826,29077.6731903212,0,4,-2621.17968471797,5252.35936943594,5276.66268779318,13601.3211775529,950,513.1,1.25410894073049,20.6506756239611
64,112.699593665327,0.926042524410616,0.925822194294659,12.2564570979261,4202.97752030242,0,4,-3966.1623802658,7942.3247605316,7966.91823662671,151272.285777456,1007,513.1,1.25410894073049,20.6506756239611
65,97.3440983149036,0.639086838651976,0.636557073502341,34.2707073628936,252.626943945375,2.54655463067493e-94,4,-2137.78583139966,4285.57166279933,4305.91379074055,502678.031989523,428,513.1,1.25410894073049,20.6506756239611
66,94.726287894205,0.859408438454855,0.85686762710163,20.9996913391311,338.241734225509,1.82847346961566e-70,4,-756.761961217223,1523.52392243445,1539.2029146197,73203.8480322371,166,513.1,1.25410894073049,20.6506756239611
