"Age","power_predict","r.squared","adj.r.squared","sigma","statistic","p.value","df","logLik","AIC","BIC","deviance","df.residual","GHI","Wind_speed","Ambient_temp"
1,298.626292827498,0.982303387552237,0.982256653540491,13.3550113232105,21019.0255630986,0,4,-4570.3429424961,9150.68588499219,9175.87980269913,202612.787975339,1136,609.3,0.884471853257432,30.7669270646358
2,282.333216938052,0.981389767299863,0.981345031163565,15.7153748619552,21937.2938412392,0,4,-5223.3165255759,10456.6330511518,10482.2955389101,308222.312800614,1248,609.3,0.884471853257432,30.7669270646358
3,271.879281929559,0.985377060155377,0.985344516520708,14.9548694985888,30278.6418965292,0,4,-5573.6119101867,11157.2238203734,11183.2705216564,301477.668078318,1348,609.3,0.884471853257432,30.7669270646358
4,265.783039949288,0.982366550528634,0.98233133058961,17.0092798057875,27892.3410360899,0,4,-6402.55992372495,12815.1198474499,12841.7059094917,434552.030466379,1502,609.3,0.884471853257432,30.7669270646358
5,260.973698664318,0.981328058203623,0.981292424726913,17.1767245852858,27539.4979325869,0,4,-6715.68765302591,13441.3753060518,13468.1885324039,463802.671676613,1572,609.3,0.884471853257432,30.7669270646358
6,256.813756897115,0.972502318077952,0.972448082018935,18.9920028720915,17930.9178374847,0,4,-6651.50606895855,13313.0121379171,13339.6608863623,548618.879275262,1521,609.3,0.884471853257432,30.7669270646358
7,258.408126798018,0.975037803101804,0.974988077609975,17.2816205038911,19608.4094342062,0,4,-6443.55627403528,12897.1125480706,12923.7118727196,449773.537304209,1506,609.3,0.884471853257432,30.7669270646358
8,258.677807112206,0.980995718180574,0.980954224115466,14.089090625498,23641.8320458413,0,4,-5598.65666990628,11207.3133398126,11233.4552820704,272742.400173903,1374,609.3,0.884471853257432,30.7669270646358
9,268.280414073186,0.984560317676532,0.984523351158598,12.9396496290706,26633.8398291511,0,4,-4999.89488593562,10009.7897718712,10035.4721879142,209795.469251452,1253,609.3,0.884471853257432,30.7669270646358
10,271.166005290372,0.9569174892087,0.956810051525929,20.528202518239,8906.72122225003,0,4,-5357.96769389541,10725.9353877908,10751.4148538963,506952.739651691,1203,609.3,0.884471853257432,30.7669270646358
11,297.712979032546,0.992328115392338,0.992307455020864,8.10139675402254,48030.5069345059,0,4,-3923.26648462776,7856.53296925551,7881.62945252409,73114.7491138209,1114,609.3,0.884471853257432,30.7669270646358
12,300.301457163038,0.99100579864796,0.990980415201059,8.61049522136071,39041.4194927892,0,4,-3809.23527335341,7628.47054670683,7653.33357796334,78811.4875183714,1063,609.3,0.884471853257432,30.7669270646358
13,287.352508716178,0.991318353841377,0.991295426958916,8.56541531435115,43238.2534136972,0,4,-4064.00159800405,8138.0031960081,8163.19711371505,83344.1616803168,1136,609.3,0.884471853257432,30.7669270646358
14,268.839534520261,0.989646622313852,0.989621634274384,10.8917245067153,39604.8126780856,0,4,-4745.25322813091,9500.50645626181,9526.14893599021,147456.670773616,1243,609.3,0.884471853257432,30.7669270646358
15,269.260954661169,0.979499318223586,0.979452866527718,16.8033190755312,21086.4059948814,0,4,-5629.40085424172,11268.8017084834,11294.7588551336,373833.428307244,1324,609.3,0.884471853257432,30.7669270646358
16,257.118475148686,0.981823912014305,0.981786943699758,16.1566393229999,26558.5251597381,0,4,-6211.6750319191,12433.3500638382,12459.8456711517,385029.56646492,1475,609.3,0.884471853257432,30.7669270646358
17,247.69141812865,0.979843098768835,0.979804110565293,16.257769163428,25131.7837128781,0,4,-6540.67458702393,13091.3491740479,13118.0953281709,409952.655223702,1551,609.3,0.884471853257432,30.7669270646358
18,251.193515922674,0.972338901958081,0.972285605044706,18.5005332890055,18243.8126408246,0,4,-6767.64559368314,13545.2911873663,13572.0565969689,532913.972689127,1557,609.3,0.884471853257432,30.7669270646358
19,259.666979745295,0.975226801860917,0.975176313006014,16.8968754406368,19315.684693862,0,4,-6265.19255030422,12540.3851006084,12566.8705556342,420262.476294213,1472,609.3,0.884471853257432,30.7669270646358
20,261.429270863477,0.975745417489717,0.975692188705861,16.071939776987,18331.1612028081,0,4,-5750.73146682626,11511.4629336525,11537.5794120503,353106.008282696,1367,609.3,0.884471853257432,30.7669270646358
21,266.025364184574,0.983767577590679,0.983728650918234,12.6792416222617,25272.3265518118,0,4,-4966.42216863671,9942.84433727341,9968.51879153124,201114.723312733,1251,609.3,0.884471853257432,30.7669270646358
22,271.086828705503,0.989751158767526,0.989725769400311,9.73069214938753,38982.8998251255,0,4,-4486.47832897952,8982.95665795904,9008.46915473791,114665.19371415,1211,609.3,0.884471853257432,30.7669270646358
23,265.455634913955,0.989249877670403,0.989220691817925,8.47752268740809,33894.8426604185,0,4,-3941.99608054079,7893.99216108158,7919.04823101833,79414.5719616483,1105,609.3,0.884471853257432,30.7669270646358
24,228.733524750682,0.721355138867354,0.720535595158141,37.5161739408844,880.191173158392,2.05034668398071e-282,4,-5162.75581811243,10335.5116362249,10360.1689952528,1435612.57330595,1020,609.3,0.884471853257432,30.7669270646358
25,220.021050723052,0.652640550603881,0.650309279131424,53.8774989889517,279.95047265602,3.16085919619961e-102,4,-2435.93988896736,4881.87977793473,4902.43711463224,1297544.84909511,447,609.3,0.884471853257432,30.7669270646358
26,243.508701627556,0.988111874358338,0.988082301906493,10.3671371171262,33413.2549962298,0,4,-4544.66781386733,9099.33562773467,9124.82750592762,129617.903598386,1206,609.3,0.884471853257432,30.7669270646358
27,229.290413634545,0.963946643712975,0.963859976991132,18.4333253508537,11122.454192397,0,4,-5423.0363957542,10856.0727915084,10881.7352792667,424054.779396052,1248,609.3,0.884471853257432,30.7669270646358
28,207.380572376862,0.950594355301998,0.950492207173746,22.0599807508295,9306.03792322665,0,4,-6563.98109213074,13137.9621842615,13164.3759901595,706118.63130483,1451,609.3,0.884471853257432,30.7669270646358
29,214.267643220564,0.924482680450056,0.924332347365352,28.4447056109965,6149.56236856736,0,4,-7200.78412738032,14411.5682547606,14438.170889572,1219315.62488546,1507,609.3,0.884471853257432,30.7669270646358
30,206.749697899677,0.937618873484068,0.937497666632029,23.7177711817199,7735.69198203809,0,4,-7095.82995111689,14201.6599022338,14228.3834975045,868550.442215085,1544,609.3,0.884471853257432,30.7669270646358
31,242.813753439544,0.960471260417165,0.960383483793369,21.1762849322128,10942.2215036259,0,4,-6057.31375660009,12124.6275132002,12150.6852968668,605835.743809383,1351,609.3,0.884471853257432,30.7669270646358
32,208.908718368391,0.980548338784127,0.980490389445848,12.7971203679675,16920.7857741541,0,4,-4009.80448640551,8029.60897281101,8054.20244890612,164912.653740234,1007,609.3,0.884471853257432,30.7669270646358
33,252.905203794035,0.966058072749484,0.965979382037156,18.5005769048972,12276.6466864745,0,4,-5627.08601459904,11264.1720291981,11290.0149286844,442899.121483336,1294,609.3,0.884471853257432,30.7669270646358
34,252.25472477623,0.984292601007518,0.984253753359557,11.9127092293047,25337.2508415432,0,4,-4740.09119928045,9490.18239856091,9515.70311902584,172140.03375372,1213,609.3,0.884471853257432,30.7669270646358
35,253.081372415399,0.985306311742201,0.985265796057667,10.700128937207,24319.1327769938,0,4,-4135.79653071499,8281.59306142998,8306.5718922115,124568.122088866,1088,609.3,0.884471853257432,30.7669270646358
36,266.82281857495,0.981568299331593,0.981514614766539,11.016031760752,18283.9946333054,0,4,-3946.10816534091,7902.21633068182,7926.92228095717,124993.544426514,1030,609.3,0.884471853257432,30.7669270646358
37,253.447761220263,0.986157392075801,0.986118066485107,9.36702534375921,25076.7343777646,0,4,-3873.49837675026,7756.99675350051,7781.82687443604,92654.6689629025,1056,609.3,0.884471853257432,30.7669270646358
38,246.419470733609,0.988328035179041,0.988297692116249,9.7920844924712,32571.7954686502,0,4,-4283.19046170603,8576.38092341206,8601.65317170272,110651.19618868,1154,609.3,0.884471853257432,30.7669270646358
39,246.471478434264,0.98007495448272,0.980027172598985,14.8177926385938,20511.4339972196,0,4,-5162.0296384652,10334.0592769304,10359.7337311882,274678.290329135,1251,609.3,0.884471853257432,30.7669270646358
40,243.278428855479,0.981679576790413,0.981640262577517,15.506334195765,24970.0936245266,0,4,-5830.57949977817,11671.1589995563,11697.3872748943,336144.067466669,1398,609.3,0.884471853257432,30.7669270646358
41,248.224107048433,0.979527037668467,0.979486577268602,16.4876208576161,24209.5243977878,0,4,-6423.19400387557,12856.3880077511,12883.0269104432,412655.611864548,1518,609.3,0.884471853257432,30.7669270646358
42,254.89729873747,0.97503078878607,0.974983258561678,17.1507527490611,20513.9109116049,0,4,-6730.34680879803,13470.6936175961,13497.5195182262,463577.752098459,1576,609.3,0.884471853257432,30.7669270646358
43,258.573371901994,0.975430320135307,0.975381376549919,16.7696852072876,19929.6866464908,0,4,-6398.14946620601,12806.298932412,12832.8982570611,423520.846978988,1506,609.3,0.884471853257432,30.7669270646358
44,260.201134554227,0.974826966950161,0.974774486686679,16.547973482051,18575.1157156147,0,4,-6094.96396761674,12199.9279352335,12226.3003330274,394049.178535871,1439,609.3,0.884471853257432,30.7669270646358
45,260.851126017906,0.973774059259841,0.973710762540436,15.8558063802616,15384.273757198,0,4,-5213.54223700654,10437.0844740131,10462.7269537415,312498.398788654,1243,609.3,0.884471853257432,30.7669270646358
46,257.293142280791,0.980840602353532,0.980548834876682,13.9064154367866,3361.72013736317,7.26566190872789e-169,4,-812.288882102976,1634.57776420595,1651.09428874625,38097.5128891977,197,609.3,0.884471853257432,30.7669270646358
