"Age","power_predict","r.squared","adj.r.squared","sigma","statistic","p.value","df","logLik","AIC","BIC","deviance","df.residual","GHI","Wind_speed","Ambient_temp"
2,124.731327221924,0.980511492934851,0.980431403179788,7.87117091429603,12242.6581548745,0,4,-2553.88922958485,5117.77845916971,5140.77100431278,45227.3920403037,730,603.7,1.07959469585703,24.0236188745462
3,129.016323660509,0.991001891938801,0.990981316996588,6.18804690407513,48165.4763194159,0,4,-4263.88734249494,8537.77468498987,8563.6864455493,50239.0049269883,1312,603.7,1.07959469585703,24.0236188745462
4,121.374074599771,0.994360661107581,0.994348312190298,4.65434034783395,80522.0926131755,0,4,-4060.55609208426,8131.11218416852,8157.23959153244,29678.1511806608,1370,603.7,1.07959469585703,24.0236188745462
5,121.772630156074,0.975343323939246,0.975292274920487,9.44653645042409,19106.0151133873,0,4,-5322.64170889591,10655.2834177918,10681.6903461097,129304.486767418,1449,603.7,1.07959469585703,24.0236188745462
6,103.839848495981,0.86772289000901,0.867429375711692,19.38322630299,2956.32239362776,0,4,-5941.81503625799,11893.630072516,11919.6915448585,507959.192506271,1352,603.7,1.07959469585703,24.0236188745462
7,120.338598957863,0.987251935914818,0.987224262837932,6.50106316778486,35675.5390810056,0,4,-4559.19041418626,9128.38082837253,9154.55171427128,58408.6024345329,1382,603.7,1.07959469585703,24.0236188745462
8,114.534849437399,0.995205998355236,0.99519500293862,3.54092919612253,90510.9859018968,0,4,-3518.52290143077,7047.04580286153,7072.94234270905,16399.9388801144,1308,603.7,1.07959469585703,24.0236188745462
9,104.652465099726,0.973847685145173,0.973782030798257,7.03629393340632,14832.9506101531,0,4,-4038.65079813079,8087.30159626158,8112.74781203672,59163.7716191623,1195,603.7,1.07959469585703,24.0236188745462
10,83.2382767822443,0.955877227953127,0.955752704607745,5.66209173304938,7676.28933373098,0,4,-3361.96120179318,6733.92240358636,6758.78543484287,34079.0176094545,1063,603.7,1.07959469585703,24.0236188745462
11,54.9455871358738,0.837017557243329,0.836522169879327,6.71888670692711,1689.62234014488,0,4,-3291.94220913329,6593.88441826657,6618.37799093822,44556.5738789751,987,603.7,1.07959469585703,24.0236188745462
12,39.68405088814,0.887386771892791,0.887040978971275,4.13011495841285,2566.23752736487,0,4,-2781.33205444681,5572.66410889362,5597.10697119145,16665.5190296024,977,603.7,1.07959469585703,24.0236188745462
13,36.142849315415,0.872702867125126,0.872341227543095,4.40959360375361,2413.1840387167,0,4,-3074.88054587244,6159.76109174487,6184.5912126804,20533.4086322796,1056,603.7,1.07959469585703,24.0236188745462
15,101.87257064605,0.942046674706648,0.9419115853703,12.069949695379,6973.50879183309,0,4,-5045.36459934185,10100.7291986837,10126.5450606379,187494.903430237,1287,603.7,1.07959469585703,24.0236188745462
16,102.123433188794,0.993059937972766,0.993044894485712,4.29183051082425,66012.6162542872,0,4,-3989.40190488719,7988.80380977437,8014.98190547971,25493.0158409604,1384,603.7,1.07959469585703,24.0236188745462
17,96.1313670642989,0.991452228256472,0.991434258168714,4.47569256951145,55172.3642984577,0,4,-4173.08228021268,8356.16456042537,8382.49520432315,28585.4128148651,1427,603.7,1.07959469585703,24.0236188745462
18,94.6468197165688,0.855197773295278,0.854661468751927,19.6478063437867,1594.6122103535,0,4,-3577.07511211268,7164.15022422535,7187.66002605536,312689.398239587,810,603.7,1.07959469585703,24.0236188745462
19,122.984242584211,0.992223354258816,0.992206690017942,4.7603369456036,59542.0674582911,0,4,-4180.87395368562,8371.74790737125,8397.98331029418,31725.13096995,1400,603.7,1.07959469585703,24.0236188745462
20,124.341546997299,0.967728983497729,0.96765580658956,9.95664949816968,13224.5131383594,0,4,-4930.69371490051,9871.38742980101,9897.34080997267,131155.4319905,1323,603.7,1.07959469585703,24.0236188745462
21,117.478382396867,0.95827323905345,0.958170294741904,10.6002787891393,9308.65654123534,0,4,-4609.37569263089,9228.75138526178,9254.28441595042,136636.947055492,1216,603.7,1.07959469585703,24.0236188745462
22,100.894945063662,0.946060822750967,0.945915041190834,8.24695448359602,6489.57811873431,0,4,-3929.06011896698,7868.12023793397,7893.1988000364,75493.6066625,1110,603.7,1.07959469585703,24.0236188745462
23,112.172841771418,0.928861738465194,0.928624874109362,9.35252440198637,3921.49226169319,0,4,-3305.39483781519,6620.78967563038,6644.82935034888,78810.2111334652,901,603.7,1.07959469585703,24.0236188745462
24,127.412244408059,0.97290465273954,0.972823366697759,6.32641862664408,11968.9018116565,0,4,-3274.72352811533,6559.44705623065,6584.00579273191,40023.5726395492,1000,603.7,1.07959469585703,24.0236188745462
25,125.853804325357,0.973940555243373,0.973868033597483,7.21229509116902,13429.65321988,0,4,-3671.0895602653,7352.1791205306,7377.11195282764,56074.5421197046,1078,603.7,1.07959469585703,24.0236188745462
26,115.384939753626,0.985516006641605,0.985474385971035,5.93220574405287,23678.5230305624,0,4,-3350.89887685381,6711.79775370762,6736.57094803203,36739.4718493239,1044,603.7,1.07959469585703,24.0236188745462
27,107.49004768941,0.991670363840384,0.991651185859971,4.71431476196625,51708.8005335567,0,4,-3879.18846744212,7768.37693488424,7794.25438345236,28958.8670683854,1303,603.7,1.07959469585703,24.0236188745462
28,105.532906280394,0.994808814152871,0.994797504379783,3.87623060927351,87960.1037494497,0,4,-3828.6172762735,7667.23455254699,7693.38736831404,20689.6504648422,1377,603.7,1.07959469585703,24.0236188745462
29,120.07684584133,0.964429136475098,0.964341523510751,11.2931210018063,11007.8359254555,0,4,-4694.30440557608,9398.60881115215,9424.15003185081,155337.120829031,1218,603.7,1.07959469585703,24.0236188745462
30,120.401200874196,0.995002469402001,0.99499149385896,4.00881947043011,90656.3315988663,0,4,-3844.18348324299,7698.36696648597,7724.47979658009,21952.4854245184,1366,603.7,1.07959469585703,24.0236188745462
31,116.620198192419,0.99333289774278,0.993318792448865,4.33484740497746,70422.7011304558,0,4,-4101.35584946942,8212.71169893883,8239.01079699065,26645.4990706556,1418,603.7,1.07959469585703,24.0236188745462
32,107.677578175125,0.993816461004762,0.99380262758419,3.87027507323189,71841.7007495545,0,4,-3726.69225623351,7463.38451246703,7489.40525892721,20086.8780800659,1341,603.7,1.07959469585703,24.0236188745462
33,103.474768384642,0.987830901531836,0.987797622319982,4.70116725702063,29683.1218794454,0,4,-3264.38740748758,6538.77481497517,6563.79468565878,24244.7680155957,1097,603.7,1.07959469585703,24.0236188745462
34,94.6723770014372,0.981555952612549,0.981502543208917,4.75615942936055,18377.9612927845,0,4,-3095.51033848788,6201.02067697576,6225.75555693643,23435.4104081251,1036,603.7,1.07959469585703,24.0236188745462
35,102.508158544627,0.732179794437751,0.731274996445986,18.2575387464182,809.219075530882,1.86828385069473e-253,4,-3854.57231830478,7719.14463660957,7743.11196727247,296003.896316342,888,603.7,1.07959469585703,24.0236188745462
36,132.417895077721,0.962580077170034,0.962403290133042,7.86794906080092,5444.8566679342,0,4,-2222.82299208411,4455.64598416821,4477.9455064401,39309.4352388324,635,603.7,1.07959469585703,24.0236188745462
37,116.211474404913,0.957241313579065,0.957115675910835,8.67377032644111,7619.06303312533,0,4,-3666.71923975222,7343.43847950445,7368.10071896231,76814.2118010431,1021,603.7,1.07959469585703,24.0236188745462
38,132.392649909203,0.990402392984006,0.990378012949249,5.28993769051659,40623.5020932796,0,4,-3653.41944218326,7316.83888436653,7342.22637463438,33048.4435488361,1181,603.7,1.07959469585703,24.0236188745462
39,117.914326606001,0.975427966047396,0.975370599431165,8.60459317539051,17003.4077329348,0,4,-4601.31839812545,9212.6367962509,9238.4449062656,95140.1454724603,1285,603.7,1.07959469585703,24.0236188745462
40,105.38564131796,0.994048922537159,0.994035824054115,4.13765890578101,75890.3851097056,0,4,-3879.00395290549,7768.00790581098,7794.1097749946,23334.8615236626,1363,603.7,1.07959469585703,24.0236188745462
41,101.032568656214,0.982847895348557,0.982811140838589,6.92412881154735,26740.8787716362,0,4,-4706.94403223876,9423.88806447752,9450.12346740045,67120.9837184601,1400,603.7,1.07959469585703,24.0236188745462
42,95.7117330211526,0.992219394741791,0.99220325240723,4.33434126584458,61466.9080867384,0,4,-4181.98408969927,8373.96817939854,8400.36477357562,27165.2995459295,1446,603.7,1.07959469585703,24.0236188745462
43,88.0098498613292,0.995201918108429,0.99519176701839,3.07018289453904,98038.9213695783,0,4,-3610.83798138255,7231.67596276511,7257.97506081692,13366.1006223948,1418,603.7,1.07959469585703,24.0236188745462
44,85.6373462542089,0.98438272451011,0.984347682007141,5.0529772098956,28091.1076865277,0,4,-4073.18356740659,8156.36713481317,8182.37298922958,34137.0577001394,1337,603.7,1.07959469585703,24.0236188745462
45,76.2590955531855,0.988574107816567,0.988546553414196,3.70168320201806,35877.1747063797,0,4,-3402.19904676236,6814.39809352471,6840.04458126936,17045.8584089598,1244,603.7,1.07959469585703,24.0236188745462
46,66.5011506209223,0.930363312506871,0.930177118155285,6.78501109877203,4996.73220257503,0,4,-3751.69136368363,7513.38272736725,7538.51486141075,51652.8134349358,1122,603.7,1.07959469585703,24.0236188745462
47,54.3020406363629,0.853165085654481,0.852734905241359,6.94268309053538,1983.27273774141,0,4,-3448.60849597683,6907.21699195366,6931.89384418373,49357.6688595004,1024,603.7,1.07959469585703,24.0236188745462
48,109.043516174784,0.877476487766923,0.877081250630688,11.9514579520888,2220.1266210055,0,4,-3640.40125421613,7290.80250843227,7314.99989062341,132838.732877907,930,603.7,1.07959469585703,24.0236188745462
49,120.90481916288,0.948494298527477,0.948332160957259,9.41160756905762,5849.93531883648,0,4,-3501.46017778,7012.92035556,7037.23937251726,84415.1742533474,953,603.7,1.07959469585703,24.0236188745462
50,131.332513650558,0.985796284530836,0.985758136682664,6.23436560131439,25841.465031021,0,4,-3640.14264088167,7290.28528176333,7315.39516387869,43414.7902416018,1117,603.7,1.07959469585703,24.0236188745462
51,124.102226654361,0.992443131312209,0.992425350444709,4.82104124609467,55815.2256223742,0,4,-3824.67337160159,7659.34674320319,7685.11591221108,29634.1093380962,1275,603.7,1.07959469585703,24.0236188745462
52,117.115956688432,0.964446080532708,0.964367710394279,11.409995384091,12306.2954827671,0,4,-5257.9266831619,10525.8533663238,10551.9479148619,177185.860739034,1361,603.7,1.07959469585703,24.0236188745462
53,113.959841846299,0.982894476623493,0.98285841438166,7.84822139190318,27255.5012290399,0,4,-4962.8519302899,9935.7038605798,9962.02050866718,87649.0859402328,1423,603.7,1.07959469585703,24.0236188745462
54,107.571122271092,0.97624750498288,0.9761855419524,8.64783962712774,15755.3221240001,0,4,-4124.98679723561,8259.97359447122,8285.22854170656,86002.899748999,1150,603.7,1.07959469585703,24.0236188745462
55,104.060649093949,0.990326169915038,0.990305688976255,5.28320996648213,48353.5535372227,0,4,-4379.61145222193,8769.22290444386,8795.51848508435,39551.7397982594,1417,603.7,1.07959469585703,24.0236188745462
56,114.13850718487,0.986181102445628,0.986150686676983,6.49098356148357,32423.3496761616,0,4,-4494.54207611442,8999.08415222885,9025.18602141247,57427.0985325982,1363,603.7,1.07959469585703,24.0236188745462
57,117.323804845232,0.991793989599213,0.991774544076937,5.14645124109153,51003.7208301311,0,4,-3880.69917607917,7771.39835215835,7797.13221305561,33531.2258371966,1266,603.7,1.07959469585703,24.0236188745462
58,106.263129551362,0.947174145121287,0.947029548803188,10.6438392528177,6550.47208377022,0,4,-4160.30811726909,8330.61623453817,8355.6315618321,124167.280187647,1096,603.7,1.07959469585703,24.0236188745462
59,116.984766604285,0.987444994485045,0.987409859208417,4.94389147723488,28104.0905113392,0,4,-3244.38651501757,6498.77303003515,6523.67805873875,26201.8914702604,1072,603.7,1.07959469585703,24.0236188745462
60,111.304942014053,0.967677439046798,0.967573730295077,6.73399003589202,9330.72111064815,0,4,-3121.20961345318,6252.41922690635,6276.6433043024,42399.0913862659,935,603.7,1.07959469585703,24.0236188745462
61,117.68212398342,0.982474497386831,0.982424040085641,5.39652234459825,19471.4040232967,0,4,-3245.50532555907,6501.01065111813,6525.77429434126,30345.5964592096,1042,603.7,1.07959469585703,24.0236188745462
62,106.735719846502,0.977709726004647,0.977650912616796,7.24516590893716,16623.9314165904,0,4,-3876.56698878619,7763.13397757239,7788.3322793217,59683.8918276048,1137,603.7,1.07959469585703,24.0236188745462
63,117.781255021698,0.987118454540728,0.987087061659837,6.21063785637523,31444.0225458358,0,4,-4005.82139488336,8021.64278976672,8047.23692101204,47482.1597997237,1231,603.7,1.07959469585703,24.0236188745462
64,116.402271553285,0.988824607616755,0.988799323923581,6.42088827219053,39109.1839622465,0,4,-4358.39533841909,8726.79067683817,8752.75534794425,54668.0710264429,1326,603.7,1.07959469585703,24.0236188745462
65,109.632376532687,0.977674471103796,0.977627070830131,8.90515185411738,20625.9246099292,0,4,-5107.08773982689,10224.1754796538,10250.4569658522,112053.34384693,1413,603.7,1.07959469585703,24.0236188745462
66,98.9382713246508,0.993952477380313,0.993939816830516,4.20531921873629,78507.8447081344,0,4,-4101.04712751618,8212.09425503236,8238.44581946276,25342.1890452005,1433,603.7,1.07959469585703,24.0236188745462
67,112.528706736362,0.95811520012501,0.958017109258793,11.6344590313342,9767.62910827876,0,4,-4974.6860172906,9959.3720345812,9985.16460456785,173396.975935247,1281,603.7,1.07959469585703,24.0236188745462
68,105.8128105022,0.948693388243843,0.948524985798254,12.2429947983103,5633.48937674246,0,4,-3600.12890224758,7210.25780449516,7234.36879144826,137000.302371149,914,603.7,1.07959469585703,24.0236188745462
69,99.6253847520221,0.938307723415609,0.938108287176651,12.0779877175312,4704.80053332965,0,4,-3642.41685500878,7294.83371001756,7319.02037409099,135374.586618886,928,603.7,1.07959469585703,24.0236188745462
70,112.953436574593,0.962225971976072,0.962130179850905,9.49971564140772,10044.9381439775,0,4,-4354.52449604064,8719.04899208128,8744.44491405433,106759.358567579,1183,603.7,1.07959469585703,24.0236188745462
71,115.582812860318,0.979133618622645,0.979075386860662,6.66133907465731,16814.425414487,0,4,-3575.16080920862,7160.32161841724,7185.24056824353,47701.446137623,1075,603.7,1.07959469585703,24.0236188745462
72,118.730527663431,0.985220496390827,0.985179631403889,4.96232403801495,24109.1597041321,0,4,-3287.66137024363,6585.32274048726,6610.28781610192,26717.7559462132,1085,603.7,1.07959469585703,24.0236188745462
73,111.673733982064,0.973492214534688,0.973414479093441,6.09801306600325,12523.1451563818,0,4,-3312.02396061639,6634.04792123278,6658.71990728243,38041.0359102687,1023,603.7,1.07959469585703,24.0236188745462
74,89.5959085879561,0.870232856125861,0.869712399666473,14.19065575615,1672.05698080629,0,4,-3059.77938328259,6129.55876656519,6152.67244818494,150628.283670585,748,603.7,1.07959469585703,24.0236188745462
75,104.937244905876,0.970746833922931,0.970674781789736,8.9973954938449,13472.839607664,0,4,-4416.59435536105,8843.18871072209,8868.72993142075,98600.9070693005,1218,603.7,1.07959469585703,24.0236188745462
76,114.13599754141,0.98077140503603,0.980728097389715,8.29690439277347,22646.6106677043,0,4,-4720.51787431839,9451.03574863679,9477.02292540727,91693.0451737611,1332,603.7,1.07959469585703,24.0236188745462
77,116.219904659606,0.995171737721199,0.995161339453549,4.41936745183968,95705.5320387334,0,4,-4056.19147797167,8122.38295594334,8148.59336773962,27206.4164834113,1393,603.7,1.07959469585703,24.0236188745462
78,110.995920819517,0.993912680838086,0.993900025288893,4.5282442047556,78535.7210238304,0,4,-4236.65497909619,8483.30995819238,8509.69619682554,29588.7086189136,1443,603.7,1.07959469585703,24.0236188745462
79,107.440643260476,0.994785794025461,0.994758254205173,3.67042791790421,36121.7242385883,0,4,-1553.40213658841,3116.80427317682,3138.54996813372,7652.11934510141,568,603.7,1.07959469585703,24.0236188745462
80,109.470870935596,0.990425969566994,0.990387155930103,4.27528133578109,25517.4739836788,0,4,-2134.60520587563,4279.21041175126,4302.27061692543,13525.7425700578,740,603.7,1.07959469585703,24.0236188745462
81,106.037119446996,0.99437158493011,0.994358646044891,3.87367601506096,76851.4109342355,0,4,-3628.04042349135,7266.0808469827,7291.96594081225,19582.0024599044,1305,603.7,1.07959469585703,24.0236188745462
82,109.060461434155,0.973116007788603,0.973048853769757,7.84099286609931,14490.8082123639,0,4,-4189.35299389602,8388.70598779205,8414.17716202167,73838.8841205905,1201,603.7,1.07959469585703,24.0236188745462
83,114.168053577391,0.980876743922674,0.980824684241883,6.27844355261467,18841.3899012452,0,4,-3599.19944359508,7208.39888719015,7233.44141310056,43439.5764945923,1102,603.7,1.07959469585703,24.0236188745462
84,91.7970465423833,0.917595743483008,0.917283999763524,9.04767097495126,2943.42976660831,0,4,-2884.28735217229,5778.57470434457,5801.97897773853,64915.2576062836,793,603.7,1.07959469585703,24.0236188745462
85,114.833418971858,0.981167428313865,0.981110987040081,5.38953849522701,17383.8640151534,0,4,-3116.91129282125,6243.8225856425,6268.38629974497,29076.1723167253,1001,603.7,1.07959469585703,24.0236188745462
86,109.463699699474,0.979324475731737,0.979266615122778,6.21061673826662,16925.5819000108,0,4,-3489.83011532251,6989.66023064502,7014.56525934863,41348.9270090515,1072,603.7,1.07959469585703,24.0236188745462
87,110.990069677951,0.983671728415192,0.983588983795674,6.42711937534175,11888.0446142586,0,4,-1952.55438259167,3915.10876518335,3937.05996851867,24454.2551712168,592,603.7,1.07959469585703,24.0236188745462
89,97.7124006749414,0.96851281013192,0.968383055228617,9.64820225947706,7464.17118337179,0,4,-2695.93433570135,5401.86867140271,5424.84757397251,67767.9233793586,728,603.7,1.07959469585703,24.0236188745462
90,93.4764265512981,0.99463065265957,0.994619356697424,3.73523280388255,88051.8755052902,0,4,-3911.5478102614,7833.09562052279,7859.42276913906,19895.5008054596,1426,603.7,1.07959469585703,24.0236188745462
91,89.120255103438,0.991115783844909,0.991097210570717,4.46327586163095,53362.4698374936,0,4,-4192.42539355993,8394.85078711986,8421.20930565429,28586.3930834201,1435,603.7,1.07959469585703,24.0236188745462
92,75.0130471124251,0.972287579805693,0.972227983203125,6.91788419538964,16314.4799854951,0,4,-4688.91199240893,9387.82398481787,9414.04154969119,66760.6848284465,1395,603.7,1.07959469585703,24.0236188745462
93,65.7621590888992,0.977901587100954,0.977851249030568,5.30619430347835,19426.6800379969,0,4,-4076.99847760426,8163.99695520852,8189.92767673113,37081.0542479124,1317,603.7,1.07959469585703,24.0236188745462
94,71.8573370497402,0.928651157232613,0.928475132127101,9.04339716844274,5275.67448139478,0,4,-4415.5842987097,8841.1685974194,8866.70162810803,99448.1673329769,1216,603.7,1.07959469585703,24.0236188745462
95,82.8988212591328,0.969329410159943,0.969247109829424,6.01264376108031,11777.9528228858,0,4,-3602.7614807628,7215.52296152561,7240.63730195602,40417.8074273816,1118,603.7,1.07959469585703,24.0236188745462
96,73.2309428320491,0.936749422317827,0.936558908529628,6.01666092381756,4916.96391726669,0,4,-3211.46696412607,6432.93392825214,6457.47270464705,36055.4078375044,996,603.7,1.07959469585703,24.0236188745462
97,73.3937237463079,0.942604791573065,0.942433632899823,4.97934628229976,5507.19851773948,0,4,-3052.47554759666,6114.95109519333,6139.5396232425,24942.6527354468,1006,603.7,1.07959469585703,24.0236188745462
98,72.7597346426205,0.943265741786174,0.943054309767986,5.44543788256538,4461.3192924578,0,4,-2516.99185406375,5043.98370812749,5067.46270271279,23870.4989549669,805,603.7,1.07959469585703,24.0236188745462
100,116.879631926879,0.97781394836605,0.977762828431409,8.14750680541004,19127.8403472869,0,4,-4590.74248421863,9191.48496843727,9217.35858998645,86429.1910217523,1302,603.7,1.07959469585703,24.0236188745462
101,113.553681400355,0.987873637806676,0.987847634170808,6.56165336522017,37989.8273766023,0,4,-4628.15128546131,9266.30257092262,9292.53441132313,60234.357544542,1399,603.7,1.07959469585703,24.0236188745462
102,114.02559639209,0.991889757465109,0.991872931235783,5.33038702681165,58949.0216897183,0,4,-4481.92268969737,8973.84537939475,9000.24197357182,41085.2353872004,1446,603.7,1.07959469585703,24.0236188745462
103,108.374229712354,0.995558315628425,0.995549226233394,3.60566596240275,109529.656515845,0,4,-3969.12145316428,7948.24290632856,7974.70799472742,19059.212429542,1466,603.7,1.07959469585703,24.0236188745462
104,91.9770109518579,0.919763274763508,0.919590474924521,14.3808896422173,5322.70909598747,0,4,-5704.51686530061,11419.0337306012,11445.2441423975,288086.311753974,1393,603.7,1.07959469585703,24.0236188745462
105,103.441614420334,0.833173554329057,0.832798944046862,21.797505989901,2224.10754303547,0,4,-6028.98069268319,12067.9613853664,12093.9635098311,634775.373219375,1336,603.7,1.07959469585703,24.0236188745462
106,126.89291353605,0.962537169248035,0.962359057532891,10.4091044217018,5404.12048960152,0,4,-2386.62198149552,4783.24396299104,4805.5120879855,68368.5060178539,631,603.7,1.07959469585703,24.0236188745462
