"Age","power_predict","r.squared","adj.r.squared","sigma","statistic","p.value","df","logLik","AIC","BIC","deviance","df.residual","GHI","Wind_speed","Ambient_temp"
1,128.345807731075,0.7116074794332,0.709581302473714,35.0175820690513,351.206974347305,7.09623568902713e-115,4,-2142.12464000502,4294.24928001004,4314.57982046055,523600.660042091,427,336.5,1.06150264696986,14.3955472321582
2,149.720307966897,0.741395617570692,0.740640935520801,43.0213276726639,982.394662332034,2.74326507335099e-301,4,-5344.41093689489,10698.8218737898,10723.51814352,1902658.00449084,1028,336.5,1.06150264696986,14.3955472321582
3,136.678252224193,0.81220201930114,0.811746198959638,43.4356219669067,1781.84680531073,0,4,-6433.86760841247,12877.7352168249,12903.3495501179,2331903.42398591,1236,336.5,1.06150264696986,14.3955472321582
4,138.007813491699,0.794466996332325,0.794042633626886,44.4825263678625,1872.14141617429,0,4,-7594.84621454377,15199.6924290875,15226.1131031185,2875044.0559542,1453,336.5,1.06150264696986,14.3955472321582
5,141.695129748572,0.751139174334672,0.750678605255711,48.5525334225267,1630.89362409862,0,4,-8613.07301040377,17236.1460208075,17263.1123362814,3821261.92132958,1621,336.5,1.06150264696986,14.3955472321582
8,142.85914973847,0.755376709521346,0.754802925415454,45.1886506327547,1316.48245701568,0,4,-6707.8103845882,13425.6207691764,13451.4055509995,2611736.09274571,1279,336.5,1.06150264696986,14.3955472321582
9,150.086263721369,0.720078855980486,0.719323673037987,40.2094273606041,953.515784662648,8.05338287387646e-307,4,-5704.1490614611,11418.2981229222,11443.3856536369,1797879.43011848,1112,336.5,1.06150264696986,14.3955472321582
10,140.255121357534,0.81806026053407,0.817334437105349,21.814427345991,1127.07888470369,1.07094748987819e-277,4,-3401.13631751504,6812.27263503007,6835.41284191097,357853.668806006,752,336.5,1.06150264696986,14.3955472321582
11,122.140601854768,0.714703830130415,0.713012350862414,22.936802898291,422.531829772202,2.35469815965723e-137,4,-2319.34956188338,4648.69912376676,4669.87117739535,266205.045160696,506,336.5,1.06150264696986,14.3955472321582
13,126.947607571086,0.685620175230145,0.684313887869605,31.0416718796105,524.861677408368,6.77814651143038e-181,4,-3522.19382877414,7054.38765754828,7077.3254076224,695708.653804772,722,336.5,1.06150264696986,14.3955472321582
14,149.191866283348,0.798579601844869,0.797909689212424,33.9460765044633,1192.06529802291,3.03277648499296e-313,4,-4476.99847511977,8963.99695023953,8988.04214676975,1039407.17126228,902,336.5,1.06150264696986,14.3955472321582
15,145.507068985421,0.819948965574511,0.819488084087074,38.9539494060829,1779.08852476122,0,4,-5973.62737881372,11957.2547576274,11982.6041282697,1778404.72431671,1172,336.5,1.06150264696986,14.3955472321582
16,151.687726963933,0.763964116005461,0.763471690656377,46.6097989409459,1551.43133355276,0,4,-7583.99775469885,15177.9955093977,15204.3644409869,3124016.68781955,1438,336.5,1.06150264696986,14.3955472321582
17,140.459295286853,0.802931176436263,0.802549013236075,43.3725968698707,2101.01646637029,0,4,-8045.77405080098,16101.548101602,16128.2813774178,2910188.80033858,1547,336.5,1.06150264696986,14.3955472321582
18,149.094230550884,0.714995761521335,0.714472817964493,49.500281183231,1367.25226301607,0,4,-8718.98032712754,17447.9606542551,17474.9698621488,4006204.26385295,1635,336.5,1.06150264696986,14.3955472321582
19,130.715453145516,0.788121404819802,0.787683337427975,43.6255404697788,1799.08712568937,0,4,-7556.11304115514,15122.2260823103,15148.6398882083,2761525.47063773,1451,336.5,1.06150264696986,14.3955472321582
20,140.27596535731,0.740499454003838,0.739909680035665,45.3957902911722,1255.56483324898,0,4,-6928.2868443867,13866.5736887734,13892.5157524559,2720226.66453131,1320,336.5,1.06150264696986,14.3955472321582
21,142.693071388471,0.754172133798465,0.753511306201149,39.4634773483142,1141.25399251127,0,4,-5703.62827172987,11417.2565434597,11442.3619632812,1738020.50557373,1116,336.5,1.06150264696986,14.3955472321582
22,144.083885371637,0.678713588153486,0.677563398134942,36.6099288221956,590.088226476601,4.65517920392532e-206,4,-4224.21048387777,8458.42096775554,8482.09986782676,1123160.4124509,838,336.5,1.06150264696986,14.3955472321582
23,155.479657574489,0.794350221033856,0.793256339230845,20.0015688790836,726.175551002905,3.39255303163359e-193,4,-2505.57049716605,5021.14099433209,5042.8516014257,225635.395300344,564,336.5,1.06150264696986,14.3955472321582
24,154.455973173117,0.698106123277009,0.696361071966471,21.8856925293219,400.049052461371,1.60200279045468e-134,4,-2353.98788416644,4717.97576833288,4739.27367565321,248592.45595628,519,336.5,1.06150264696986,14.3955472321582
26,158.493614540282,0.775481051691882,0.774766023194085,36.0287267521345,1084.54565668588,5.94829381814282e-305,4,-4731.07510209105,9472.1502041821,9496.41141702736,1222781.14059993,942,336.5,1.06150264696986,14.3955472321582
27,167.927450308116,0.76452681257975,0.763926626035773,44.4122810994188,1273.81531667468,0,4,-6153.90544750452,12317.810895009,12343.18147909,2321574.48855812,1177,336.5,1.06150264696986,14.3955472321582
28,169.076537449209,0.742359569065889,0.741835909653421,47.7226807700458,1417.63816593609,0,4,-7818.82834519714,15647.6566903943,15674.1556772281,3361522.48758243,1476,336.5,1.06150264696986,14.3955472321582
29,144.008688190544,0.775447997388866,0.775015056509796,48.5877816288771,1791.11752868903,0,4,-8269.60200758215,16549.2040151643,16575.9662206655,3673362.04674563,1556,336.5,1.06150264696986,14.3955472321582
30,135.687975809468,0.817918162351356,0.817562996218101,41.6999298113297,2302.91710207769,0,4,-7938.43076482194,15886.8615296439,15913.5657074145,2674403.81696299,1538,336.5,1.06150264696986,14.3955472321582
31,151.485864838612,0.689442707465216,0.688674001295576,53.6682110157467,896.88717834488,3.99263501863589e-307,4,-6566.53611642498,13143.07223285,13168.5888431626,3490895.57084043,1212,336.5,1.06150264696986,14.3955472321582
32,132.900224194982,0.68784048208692,0.687079117409083,51.0608580939335,903.431039171975,2.55657519244604e-310,4,-6602.3113815753,13214.6227631506,13240.2128441729,3206869.81202524,1230,336.5,1.06150264696986,14.3955472321582
33,149.177297887622,0.721688366956835,0.720665162423588,42.9921763542296,705.321705980628,4.53271238461507e-226,4,-4245.55958944623,8501.11917889246,8524.66570059375,1508235.01778132,816,336.5,1.06150264696986,14.3955472321582
34,151.081725340026,0.752929746608093,0.752002073566572,34.9883584097318,811.63266895538,5.29602263252358e-242,4,-3992.08000184305,7994.16000368611,8017.60177725584,978123.994142072,799,336.5,1.06150264696986,14.3955472321582
35,133.658026882837,0.731800494324948,0.730304958047949,17.7562734385968,489.3231314948,2.85510072068373e-153,4,-2326.24974496898,4662.49948993796,4683.97581994516,169623.462577306,538,336.5,1.06150264696986,14.3955472321582
36,132.818752862426,0.720994131113419,0.719306595616122,20.8459649127259,427.246794078049,4.91753736422443e-137,4,-2226.04142375298,4462.08284750596,4483.15588799807,215538.90955873,496,336.5,1.06150264696986,14.3955472321582
37,143.911656597966,0.755691113221274,0.754593917621968,24.4765679405047,688.747852889221,6.69747991699133e-204,4,-3100.38603774011,6210.77207548022,6233.32336718284,400200.388601624,668,336.5,1.06150264696986,14.3955472321582
38,155.73641383984,0.735727644919313,0.734888685061914,37.5199262760341,876.952143098074,1.74971915213346e-272,4,-4784.57212025844,9579.14424051688,9603.42128450993,1330318.90003229,945,336.5,1.06150264696986,14.3955472321582
39,152.484190131431,0.830942848856457,0.830471499922042,33.7415673981757,1762.90384508371,0,4,-5330.67887671612,10671.3577534322,10696.2813350328,1225018.86664254,1076,336.5,1.06150264696986,14.3955472321582
40,145.443856915462,0.771211599328678,0.770715312125487,47.911800284345,1553.96229112714,0,4,-7332.86970952673,14675.7394190535,14701.913911155,3174732.65877147,1383,336.5,1.06150264696986,14.3955472321582
41,143.745829599134,0.769356945266846,0.768910827172585,48.5847402058533,1724.55893442424,0,4,-8242.99310564214,16495.9862112843,16522.7323654074,3661099.79732977,1551,336.5,1.06150264696986,14.3955472321582
42,129.929867265488,0.7849281584989,0.784529631306495,43.9014249180843,1969.57239921963,0,4,-8439.0343911726,16888.0687823452,16915.0289401828,3120355.54282803,1619,336.5,1.06150264696986,14.3955472321582
43,125.546449334944,0.822542071238653,0.822186918612713,39.3312353099996,2316.02418555015,0,4,-7649.70649851376,15309.4129970275,15335.9890889763,2318872.16044482,1499,336.5,1.06150264696986,14.3955472321582
44,142.787884874845,0.743497062190684,0.742952855109052,44.7292813047674,1366.20247564723,0,4,-7399.34301406039,14808.6860281208,14834.9710416562,2829001.968942,1414,336.5,1.06150264696986,14.3955472321582
45,138.231476736596,0.809807257158222,0.80931067036229,36.1855466752264,1630.74665656207,0,4,-5771.7573732458,11553.5147464916,11578.7653590929,1504493.46262455,1149,336.5,1.06150264696986,14.3955472321582
46,140.284221674578,0.775669303605406,0.774909718854634,32.3642760343967,1021.17545516455,5.81701338661687e-287,4,-4355.42993509809,8720.85987019618,8744.81597750981,928037.477822332,886,336.5,1.06150264696986,14.3955472321582
47,141.316252390543,0.741172340022094,0.739893125887112,22.5787197920755,579.396615276505,1.19680125897126e-177,4,-2769.45667123926,5548.91334247852,5570.98882727438,309447.742581579,607,336.5,1.06150264696986,14.3955472321582
48,128.614392403627,0.67908982688736,0.676803056057579,23.9004903429492,296.964530963652,1.67890105553297e-103,4,-1949.94646981962,3909.89293963924,3930.15338548386,240489.277664664,421,336.5,1.06150264696986,14.3955472321582
50,126.858086807176,0.718669178142818,0.717545353288529,30.7993546893747,639.485036658191,2.81698947649819e-206,4,-3657.05104804683,7324.10209609367,7347.23568483991,712398.787210712,751,336.5,1.06150264696986,14.3955472321582
51,160.304191888947,0.729837086644615,0.728945459867865,39.9915976613722,818.545500960081,9.7110035377678e-258,4,-4661.24162489744,9332.48324979489,9356.56692919786,1453789.04610974,909,336.5,1.06150264696986,14.3955472321582
52,146.39550170877,0.683985870821498,0.683257167987112,52.0880634524861,938.634843376601,0,4,-7008.29295183689,14026.5859036738,14052.4556952726,3529829.42685351,1301,336.5,1.06150264696986,14.3955472321582
53,127.17829362702,0.731769982934408,0.731097727252539,53.4092163877891,1088.52926449104,0,4,-6479.69981085664,12969.3996217133,12994.8541708237,3414495.64100374,1197,336.5,1.06150264696986,14.3955472321582
54,143.910228658806,0.772764355320441,0.772334527493178,47.8988735783863,1797.84626845043,0,4,-8405.96600881505,16821.9320176301,16848.7894641062,3638763.11486408,1586,336.5,1.06150264696986,14.3955472321582
55,134.049904374799,0.786155108702797,0.785741215364803,43.8016555917001,1899.41474417518,0,4,-8076.63759276043,16163.2751855209,16190.0181231755,2973806.80048957,1550,336.5,1.06150264696986,14.3955472321582
56,137.657398956874,0.72977701430346,0.729222900183782,45.4746748502846,1317.01573446081,0,4,-7679.34732409329,15368.6946481866,15395.1495220773,3025405.07515732,1463,336.5,1.06150264696986,14.3955472321582
57,143.256832850172,0.729161009210812,0.728502567580045,43.1665360687582,1107.40417242521,0,4,-6415.79383809958,12841.5876761992,12867.1939384654,2299373.69784044,1234,336.5,1.06150264696986,14.3955472321582
58,136.769434315143,0.812927519874188,0.812327287317634,29.0299458765946,1354.35425985904,0,4,-4493.23892159912,8996.47784319824,9020.70192059428,787959.803354139,935,336.5,1.06150264696986,14.3955472321582
59,140.973842621004,0.717492450832835,0.716238719105762,26.4681213496162,572.285470120302,4.93986268614251e-185,4,-3190.5122048723,6391.02440974461,6413.63487373546,473579.538697936,676,336.5,1.06150264696986,14.3955472321582
60,134.570529658908,0.661591384948098,0.659330302887617,18.5871669883445,292.599457804521,3.15624651393898e-105,4,-1964.64981546052,3939.29963092104,3959.87909154845,155121.76671702,449,336.5,1.06150264696986,14.3955472321582
62,144.928656651053,0.817497088183807,0.816734541198502,23.3436588521694,1072.06126827377,1.20973623579375e-264,4,-3297.00298298309,6604.00596596619,6626.91609166065,391257.161379443,718,336.5,1.06150264696986,14.3955472321582
63,147.095649602762,0.753886553995655,0.753221981234167,42.0663193748622,1134.39279742344,0,4,-5749.37372578361,11508.7474515672,11533.8304999867,1965998.07580593,1111,336.5,1.06150264696986,14.3955472321582
64,152.444166515934,0.800481075483434,0.800039987219948,44.4277549993722,1814.78661245294,0,4,-7092.62182925142,14195.2436585028,14221.3235335161,2678481.08718372,1357,336.5,1.06150264696986,14.3955472321582
65,136.018641099351,0.839803463086439,0.839456717335544,38.987862936684,2421.95747436966,0,4,-7062.23972133483,14134.4794426697,14160.6647378003,2106794.09052834,1386,336.5,1.06150264696986,14.3955472321582
66,126.887898889514,0.814636752389654,0.814266025894434,41.8082326848422,2197.40634373787,0,4,-7746.65317421857,15503.3063484371,15529.8857659597,2621892.48034486,1500,336.5,1.06150264696986,14.3955472321582
67,153.078471580898,0.689969222388759,0.689368387548427,47.7103511513025,1148.35088792065,0,4,-8198.90030694804,16407.8006138961,16434.5371123998,3523677.73560595,1548,336.5,1.06150264696986,14.3955472321582
68,122.465509386526,0.802814404484927,0.802386670004418,41.7131995911673,1876.89896668574,0,4,-7140.7088890186,14291.4177780372,14317.5922701388,2406407.58084333,1383,336.5,1.06150264696986,14.3955472321582
69,138.804940987043,0.759315196346207,0.758731009929572,43.3486832788634,1299.78235495346,0,4,-6431.3831958466,12872.7663916932,12898.3807249862,2322577.91072586,1236,336.5,1.06150264696986,14.3955472321582
70,143.446262861536,0.7721760541491,0.771492582311548,37.3111493983886,1129.78474272477,1.39919390902241e-320,4,-5056.37965490364,10122.7593098073,10147.3180463085,1392121.86942888,1000,336.5,1.06150264696986,14.3955472321582
71,141.580100165933,0.743340385263966,0.742159436116408,28.4073647194419,629.443178650657,4.96527475835904e-192,4,-3124.21892714312,6258.43785428624,6280.86865823096,526149.897437813,652,336.5,1.06150264696986,14.3955472321582
72,206.152986363126,0.61524845184109,0.602131921790218,15.7465130490849,46.9063425658214,3.3365991378812e-18,4,-382.106507105313,774.213014210627,786.821957095872,21819.83524204,88,336.5,1.06150264696986,14.3955472321582
73,161.833397178766,0.633660544228828,0.626834343189613,23.2281259975158,92.8277002960572,6.34550136328445e-35,4,-751.085255352704,1512.17051070541,1527.70023807491,86866.8798143919,161,336.5,1.06150264696986,14.3955472321582
74,165.622804578573,0.783798556802636,0.782791407222524,26.4568959335993,778.23450685003,1.19850913122001e-213,4,-3040.00088357344,6090.00176714688,6112.37122062864,450778.968532199,644,336.5,1.06150264696986,14.3955472321582
75,144.057778129222,0.685056638488611,0.684180985027505,46.0338066988192,782.337612898568,4.2974584755403e-270,4,-5681.92099624182,11373.8419924836,11398.7794437186,2286521.1565598,1079,336.5,1.06150264696986,14.3955472321582
76,149.120673819977,0.764601335638387,0.764080157783712,45.2173095903387,1467.06412941308,0,4,-7106.13579545945,14222.2715909189,14248.3441129896,2770439.89232746,1355,336.5,1.06150264696986,14.3955472321582
77,146.897324178475,0.767602315946281,0.767143937871225,47.6674906302063,1674.60521721381,0,4,-8054.85931736163,16119.7186347233,16146.3673831685,3456000.47739381,1521,336.5,1.06150264696986,14.3955472321582
78,127.319709655345,0.748640252508538,0.748144147743752,49.3297269623484,1509.03661010352,0,4,-8101.8146609218,16213.6293218436,16240.2747905248,3698801.38251337,1520,336.5,1.06150264696986,14.3955472321582
79,132.88380401843,0.798255693807879,0.797859858020713,44.8966804252322,2016.63346187976,0,4,-8005.31995404033,16020.6399080807,16047.314817475,3082023.5152911,1529,336.5,1.06150264696986,14.3955472321582
80,127.609571339937,0.791191355320492,0.790772060853264,41.8620573651254,1886.95872986657,0,4,-7717.66828480625,15445.3365696125,15471.8960004329,2618133.17918053,1494,336.5,1.06150264696986,14.3955472321582
81,138.154985899809,0.759570387478414,0.759023127358866,42.7019546177956,1387.95128741566,0,4,-6836.94519555902,13683.890391118,13709.8248962201,2403316.23134161,1318,336.5,1.06150264696986,14.3955472321582
82,134.19478215789,0.742219972192372,0.740129863858797,39.1646955832257,355.110766398755,1.59847238507578e-108,4,-1900.42035793142,3810.84071586284,3830.46199484992,567533.150646894,370,336.5,1.06150264696986,14.3955472321582
87,152.079927479669,0.785030991880554,0.78061382048084,43.153891751984,177.722556098065,1.57768141295885e-48,4,-775.529520256898,1561.0590405138,1576.11221698428,271889.722507926,146,336.5,1.06150264696986,14.3955472321582
88,143.304855542779,0.779185495330378,0.778658072150434,43.6015082952418,1477.34404736259,0,4,-6542.47496754202,13094.949935084,13120.6442700838,2387770.95617877,1256,336.5,1.06150264696986,14.3955472321582
89,145.606722087351,0.772663337863168,0.772198436713603,47.4050290963833,1661.9948963079,0,4,-7761.44522005256,15532.8904401051,15559.3589287081,3296696.36158366,1467,336.5,1.06150264696986,14.3955472321582
90,132.602930146281,0.812445375959581,0.811950073255249,42.0433877727219,1640.30070672671,0,4,-5877.70683594003,11765.4136718801,11790.607589587,2008046.37334287,1136,336.5,1.06150264696986,14.3955472321582
91,133.147217471853,0.761928829448298,0.761489583746173,45.7143117243382,1734.63013015804,0,4,-8541.39795871814,17092.7959174363,17119.7775939053,3398012.02999512,1626,336.5,1.06150264696986,14.3955472321582
92,139.354119280648,0.760396029976349,0.759936431568376,45.725185673202,1654.47925141589,0,4,-8216.80709640957,16443.6141928191,16470.4019738237,3269999.63398352,1564,336.5,1.06150264696986,14.3955472321582
93,137.770156427004,0.752969941854894,0.752422607900362,44.1069773543326,1375.70478794751,0,4,-7067.14280257543,14144.2856051509,14170.3544466914,2634106.06110841,1354,336.5,1.06150264696986,14.3955472321582
94,133.816406593271,0.77111499894858,0.770522544243529,36.2040070728802,1301.5594143725,0,4,-5822.42655042451,11654.853100849,11680.1468916116,1519136.21850633,1159,336.5,1.06150264696986,14.3955472321582
95,138.053362686014,0.783485776718408,0.78209489305707,28.709610264038,563.300726363266,1.04869195436114e-154,4,-2247.56774208533,4505.13548417066,4525.90977464074,384920.883946551,467,336.5,1.06150264696986,14.3955472321582
99,151.878973872733,0.754808245574387,0.753948928678035,37.0727140859941,878.381710844052,1.03788298184363e-260,4,-4325.3603304134,8660.72066082681,8684.50532277305,1176474.5270248,856,336.5,1.06150264696986,14.3955472321582
100,112.051781037106,0.802736558663325,0.802196603988133,34.9089677559076,1486.67396643697,0,4,-5466.84686847529,10943.6937369506,10968.7090642445,1335625.08864217,1096,336.5,1.06150264696986,14.3955472321582
101,129.570566219738,0.802568133484603,0.802142021542483,40.6826460747837,1883.46782653515,0,4,-7141.8848918665,14293.769783733,14319.9694466896,2300557.9913881,1390,336.5,1.06150264696986,14.3955472321582
102,128.377273375482,0.810811647657473,0.810406822367153,44.0921455018533,2002.86806937893,0,4,-7316.53674136694,14643.0734827339,14669.3160030957,2725652.44752916,1402,336.5,1.06150264696986,14.3955472321582
103,123.402424422984,0.788391278083608,0.787997220873335,44.2630274317684,2000.70258209003,0,4,-8410.67506962925,16831.3501392585,16858.2855904368,3156296.32745246,1611,336.5,1.06150264696986,14.3955472321582
104,141.902577437507,0.694314584761001,0.693618790947862,48.4988289329503,997.874042065465,0,4,-7005.22912892487,14020.4582578497,14046.3927629518,3100115.78556947,1318,336.5,1.06150264696986,14.3955472321582
105,127.786056768467,0.780884282415272,0.780416086437527,43.1356781608677,1667.85773379782,0,4,-7296.06804800511,14602.1360960102,14628.3857236938,2612404.16947874,1404,336.5,1.06150264696986,14.3955472321582
106,123.815098419387,0.761064003283777,0.760418230319679,35.965882354788,1178.53184570359,0,4,-5569.67777197983,11149.3555439597,11174.4341060621,1435834.60984988,1110,336.5,1.06150264696986,14.3955472321582
107,132.651832423455,0.796379402521344,0.795643424458168,27.5673339348844,1082.0694832735,2.97559096461202e-286,4,-3947.46061172386,7904.92122344772,7928.55239045951,630765.057230265,830,336.5,1.06150264696986,14.3955472321582
108,121.41602302196,0.816982568005418,0.815857460841516,17.3732320548766,726.137557575108,1.7835319907689e-179,4,-2100.73545586539,4211.47091173077,4232.46330531324,147292.645711904,488,336.5,1.06150264696986,14.3955472321582
109,143.569014833294,0.814140625193759,0.813096471402713,15.4996565444404,779.71332592486,1.24196245640341e-194,4,-2235.94147036888,4481.88294073776,4503.32223353857,128287.814499657,534,336.5,1.06150264696986,14.3955472321582
110,134.936840520182,0.756653143061081,0.755387908102993,20.800037790079,598.033699767939,1.4089891069286e-176,4,-2585.70511220165,5181.41022440331,5203.23397818757,249634.187083649,577,336.5,1.06150264696986,14.3955472321582
111,131.349981583633,0.783267168850539,0.782588464786396,32.4485319756656,1154.062882827,1.77001092698339e-317,4,-4710.44300422774,9430.88600845549,9455.23108070881,1008685.12382601,958,336.5,1.06150264696986,14.3955472321582
112,147.281764663078,0.751445239949912,0.750839008827839,41.9397718807493,1239.5359007302,0,4,-6359.4803809286,12728.9607618572,12754.5508428795,2163501.69245342,1230,336.5,1.06150264696986,14.3955472321582
113,139.427777193688,0.755380170864898,0.754841755980521,48.4524697704946,1402.97044673925,0,4,-7242.44343150556,14494.8868630111,14520.9887321947,3199835.81001112,1363,336.5,1.06150264696986,14.3955472321582
114,124.347580648804,0.795880377976195,0.795440780800264,41.2040301380532,1810.47654887966,0,4,-7175.0491525586,14360.0983051172,14386.3087169135,2364996.53476731,1393,336.5,1.06150264696986,14.3955472321582
115,136.274370633021,0.766811190453263,0.766390525132373,46.1871083683835,1822.85335247215,0,4,-8752.48023089906,17514.9604617981,17542.0543662119,3547593.05279676,1663,336.5,1.06150264696986,14.3955472321582
116,109.407799410889,0.773815650705985,0.773357787650734,42.9003074284656,1690.05916033498,0,4,-7692.23414593231,15394.4682918646,15420.987507991,2727526.71139107,1482,336.5,1.06150264696986,14.3955472321582
117,115.38859542765,0.816505336490019,0.816019472420707,37.708877560838,1680.52216260206,0,4,-5738.52082152606,11487.0416430521,11512.2223855209,1611080.05333574,1133,336.5,1.06150264696986,14.3955472321582
118,118.611034851419,0.785923828283185,0.785151919010167,35.2097984823485,1018.15570269164,6.70888087939707e-278,4,-4161.49502038192,8332.99004076383,8356.63318382926,1031455.28442744,832,336.5,1.06150264696986,14.3955472321582
