"Age","power_predict","r.squared","adj.r.squared","sigma","statistic","p.value","df","logLik","AIC","BIC","deviance","df.residual","GHI","Wind_speed","Ambient_temp"
1,144.126490615097,0.631571403922214,0.629572695444396,56.4331051521682,315.989755850588,1.86747153065063e-119,4,-3034.75371519678,6079.50743039355,6101.12025659319,1761136.53248497,553,517,1.35143273188966,18.8791684880637
2,204.562084245987,0.992764057751519,0.99274807260664,8.37501630140161,62105.4150761327,0,4,-4825.18595849025,9660.37191698049,9686.45546441404,95251.3395501925,1358,517,1.35143273188966,18.8791684880637
3,191.288184053713,0.807167894128974,0.806760789049725,45.9046959092317,1982.70160524068,0,4,-7472.84316992951,14955.686339859,14981.9959753225,2994389.61236354,1421,517,1.35143273188966,18.8791684880637
4,131.732771827864,0.758509896630298,0.757678128191597,47.0561133047572,911.924354588796,3.67386486472785e-268,4,-4609.48982211499,9228.97964422998,9252.85076366177,1928635.96323398,871,517,1.35143273188966,18.8791684880637
5,211.250142940918,0.984510575268558,0.98447460911206,13.2690510817097,27373.2494976595,0,4,-5187.66414732402,10385.328294648,10411.1634840326,227479.489858855,1292,517,1.35143273188966,18.8791684880637
6,208.905859338357,0.965644418455481,0.965546724858672,17.55416363719,9884.41873363344,0,4,-4534.9954648329,9079.9909296658,9104.81633139381,325096.837356312,1055,517,1.35143273188966,18.8791684880637
7,197.926328488697,0.879667805818381,0.879200193664826,26.1940041186545,1881.19106642071,0,4,-3633.14282384091,7276.28564768182,7299.55641028273,529689.157564965,772,517,1.35143273188966,18.8791684880637
8,206.844357518795,0.951599719554923,0.951416616350213,14.7967869776442,5197.06752845075,0,4,-3276.33379398136,6562.66758796272,6586.07186135668,173623.309555391,793,517,1.35143273188966,18.8791684880637
9,155.627773656675,0.705760569217199,0.704284451671466,28.7715044621687,478.119490725708,2.27523118798961e-158,4,-2874.54437519083,5759.08875038166,5781.0900376082,495024.082471924,598,517,1.35143273188966,18.8791684880637
11,207.511087303984,0.958932374179538,0.958815594200901,17.1379577680748,8211.4450214564,0,4,-4509.58432559895,9029.16865119789,9053.9940529259,309863.624265633,1055,517,1.35143273188966,18.8791684880637
12,191.36917759363,0.768103689045413,0.767410771781604,47.9942640836013,1108.50707460171,5.29028201269202e-318,4,-5330.33622024014,10670.6724404803,10695.2510577234,2312663.18246617,1004,517,1.35143273188966,18.8791684880637
13,203.443444390747,0.978580201122481,0.978529483366655,17.2826338425998,19294.6273976377,0,4,-5423.4391841033,10856.8783682066,10882.6161645625,378439.511024855,1267,517,1.35143273188966,18.8791684880637
14,208.062977581718,0.99147757736638,0.991460041517339,10.2709476739373,56540.0383570724,0,4,-5477.95020477251,10965.900409545,10992.3382127466,153807.869804065,1458,517,1.35143273188966,18.8791684880637
15,195.723712036067,0.923131619019329,0.922978494754427,29.4580601513595,6028.64359617815,0,4,-7248.87555006733,14507.7511001347,14534.3504247837,1306872.62566896,1506,517,1.35143273188966,18.8791684880637
16,169.381677750983,0.763295571596169,0.76273243655635,46.5182188666409,1355.43966832856,0,4,-6650.35678566113,13310.7135713223,13336.4277083281,2728734.24970766,1261,517,1.35143273188966,18.8791684880637
17,110.023311812266,0.98534630567911,0.985313572184722,6.06744108023817,30102.0811896455,0,4,-4337.8632975357,8685.72659507139,8711.75477095344,49440.9888150831,1343,517,1.35143273188966,18.8791684880637
18,107.759614668706,0.990501298481933,0.990476323806601,4.72221088718657,39660.2272222257,0,4,-3400.03839638631,6810.07679277261,6835.29259235256,25443.4735315553,1141,517,1.35143273188966,18.8791684880637
19,105.652408844504,0.981270589902962,0.981209911468523,6.09363496644146,16171.6530586985,0,4,-2998.34616623638,6006.69233247275,6030.86825540349,34384.5904585244,926,517,1.35143273188966,18.8791684880637
20,104.856867104445,0.965765426867973,0.965640178429685,6.16956953199523,7710.79815500784,0,4,-2666.57483290484,5343.14966580968,5366.72051845923,31212.1423323016,820,517,1.35143273188966,18.8791684880637
21,104.919275558296,0.943257948213493,0.943007246953759,6.55631460200296,3762.47789585725,0,4,-2251.4619043333,4512.92380866661,4535.55628296446,29186.9923279369,679,517,1.35143273188966,18.8791684880637
22,103.349406477939,0.910715540408747,0.910138270195873,8.50880620598649,1577.62434315448,6.24720253956421e-243,4,-1664.09021038396,3338.18042076791,3358.9227622475,33593.4993356799,464,517,1.35143273188966,18.8791684880637
24,118.803925002566,0.803722728433851,0.803138569887523,22.117405235898,1375.86402439246,0,4,-4567.48307676784,9144.96615353569,9169.56457278493,493093.051283881,1008,517,1.35143273188966,18.8791684880637
25,100.901888644204,0.985338753950633,0.985304121085949,6.7622365601871,28450.974614837,0,4,-4240.78914278894,8491.57828557787,8517.32786975853,58074.3609858325,1270,517,1.35143273188966,18.8791684880637
26,99.6832324216873,0.994825804365201,0.99481467706276,4.1368985934749,89404.0410684537,0,4,-3969.59712205286,7949.19424410573,7975.41180897906,23873.932311909,1395,517,1.35143273188966,18.8791684880637
27,103.583067906594,0.99051440606146,0.990495572982826,5.36188026197582,52594.3965574231,0,4,-4691.85101658503,9393.70203317006,9420.31788675978,43440.8872750303,1511,517,1.35143273188966,18.8791684880637
28,107.524698061675,0.985173324372336,0.985140278289957,6.64217144732807,29812.1064111191,0,4,-4469.70661355435,8949.41322710871,8975.45252646587,59383.4223070525,1346,517,1.35143273188966,18.8791684880637
29,106.318225435104,0.992152780711511,0.992136260249851,4.57619623716044,60055.9960812211,0,4,-4198.98092754613,8407.96185509226,8434.28550598191,29841.7401014269,1425,517,1.35143273188966,18.8791684880637
30,103.194012678688,0.987056737057295,0.987026729492512,5.47459799950988,32893.5968054324,0,4,-4046.53339313099,8103.06678626198,8128.9096857483,38782.7628935715,1294,517,1.35143273188966,18.8791684880637
31,98.5772178821317,0.979080232827566,0.979017410703925,6.40453903414583,15584.959184498,0,4,-3283.7693340932,6577.5386681864,6602.09242212621,40977.1021196577,999,517,1.35143273188966,18.8791684880637
32,73.794638264113,0.837004012854871,0.836489829930123,12.1367690141182,1627.83315541841,0,4,-3736.99092310496,7483.98184620992,7508.29040291233,140083.405159059,951,517,1.35143273188966,18.8791684880637
33,95.8539193944446,0.961299705438729,0.961079817401449,5.31439516381856,4371.76900267133,0,4,-1641.53076127815,3293.06152255631,3314.44474000301,14912.1962654111,528,517,1.35143273188966,18.8791684880637
34,98.155318170661,0.873496072744586,0.872928790559584,10.4175954790165,1539.79112307525,8.70270849152454e-300,4,-2530.11264158466,5070.22528316931,5092.78400981754,72604.0917326002,669,517,1.35143273188966,18.8791684880637
35,86.215000979614,0.822621949149156,0.821878745025479,15.5199515539318,1106.85869862985,2.47592793348559e-268,4,-2993.96117081169,5997.92234162339,6020.81859768344,172462.129705254,716,517,1.35143273188966,18.8791684880637
36,100.636878558332,0.975771062276224,0.975706279020278,7.72636659549067,15062.0873870665,0,4,-3897.98441805867,7805.96883611734,7831.10097016084,66979.7431415997,1122,517,1.35143273188966,18.8791684880637
37,99.3924975827906,0.991499393053145,0.9914797005274,5.13375536738186,50349.0210378021,0,4,-3966.15089290953,7942.30178581907,7968.14853590242,34130.300202898,1295,517,1.35143273188966,18.8791684880637
38,101.424795417192,0.993605614674695,0.993592591486659,4.59355610225783,76295.1139141698,0,4,-4345.68415863206,8701.36831726411,8727.85715867677,31081.4160399413,1473,517,1.35143273188966,18.8791684880637
39,105.143687811673,0.993456880476532,0.993444092620786,4.29389434466244,77687.5263683253,0,4,-4424.36550937619,8858.73101875238,8885.42545942157,28301.6064671954,1535,517,1.35143273188966,18.8791684880637
40,107.224547817714,0.991401379645262,0.99138398526828,4.82418348420299,56995.5095646574,0,4,-4447.96380623262,8905.92761246523,8932.45019219753,34513.482746968,1483,517,1.35143273188966,18.8791684880637
41,101.886147813778,0.993478469571121,0.993465294762174,4.13841246561622,75407.4289464382,0,4,-4225.64172781133,8461.28345562266,8487.81275578608,25432.7897373181,1485,517,1.35143273188966,18.8791684880637
42,101.599953520661,0.990800049465468,0.990775646413652,4.6304582074846,40601.4811977978,0,4,-3348.0560675507,6706.1121351014,6731.28407475098,24249.9329719367,1131,517,1.35143273188966,18.8791684880637
43,98.1621776691561,0.988100373404114,0.988068327731055,4.60028464828152,30834.1276398471,0,4,-3290.56982082396,6591.13964164792,6616.2361249165,23575.1573935691,1114,517,1.35143273188966,18.8791684880637
44,95.9146484378489,0.971436505912684,0.971339789792749,5.71583032346299,10044.2046948408,0,4,-2812.33400853144,5634.66801706288,5658.62412437651,28946.2546299444,886,517,1.35143273188966,18.8791684880637
45,92.9086943879171,0.963885586074451,0.96375691239063,5.34556388273211,7490.930215544,0,4,-2616.53916858481,5243.07833716963,5266.78093396766,24060.1948149195,842,517,1.35143273188966,18.8791684880637
46,90.732327450917,0.937512603254879,0.937272881783989,6.80328715503345,3910.84119322858,0,4,-2620.36161852619,5250.72323705238,5274.05802101452,36194.6480010253,782,517,1.35143273188966,18.8791684880637
47,100.611664426581,0.684884701538934,0.683909112379611,19.3907851756673,702.021639943983,2.0985496187701e-242,4,-4263.37148780831,8536.74297561662,8561.14489602755,364346.470687283,969,517,1.35143273188966,18.8791684880637
48,92.2912429870751,0.716217106643285,0.715289711566956,23.7938581934135,772.28909762844,1.70646222815612e-250,4,-4228.46912081996,8466.93824163991,8491.07096775769,519723.577334553,918,517,1.35143273188966,18.8791684880637
49,96.0988170144433,0.988830129187865,0.988800760552951,5.19728362679202,33669.5979264025,0,4,-3509.796964446,7029.59392889199,7054.80972847194,30820.4148480426,1141,517,1.35143273188966,18.8791684880637
50,95.9634953617888,0.994635506288097,0.994624399675857,3.97460586288825,89553.4556171083,0,4,-4064.74681186592,8139.49362373183,8165.90055204968,22890.5655679279,1449,517,1.35143273188966,18.8791684880637
51,98.9419764365795,0.991954758211583,0.991938505197869,4.9165331951986,61032.0507733723,0,4,-4482.18361515216,8974.36723030431,9000.89653046773,35895.8635093422,1485,517,1.35143273188966,18.8791684880637
52,99.5615630351219,0.992230778805175,0.992215692938777,4.79247409630376,65772.2104018661,0,4,-4623.28868023295,9256.5773604659,9283.30418466799,35485.2633039822,1545,517,1.35143273188966,18.8791684880637
53,98.4641685958273,0.994942310290846,0.994931939088435,3.64538880970934,95933.1686771992,0,4,-3977.09036028466,7964.18072056931,7990.63559446003,19441.6015566948,1463,517,1.35143273188966,18.8791684880637
54,96.7528191168926,0.992853749421943,0.992836002110905,4.15368532167763,55943.897488682,0,4,-3443.63330966584,6897.26661933168,6922.76675516483,20841.7469158364,1208,517,1.35143273188966,18.8791684880637
55,93.609138189062,0.989894121907897,0.989865787670255,4.45446369774909,34936.3245426138,0,4,-3126.39201626773,6262.78403253546,6287.6797589108,21231.204112984,1070,517,1.35143273188966,18.8791684880637
56,91.6571536940719,0.974655656504999,0.974577271937488,5.79984080266889,12434.279954109,0,4,-3092.16889044329,6194.33778088658,6218.7448374048,32629.0087362138,970,517,1.35143273188966,18.8791684880637
57,88.0766008263672,0.851854939138406,0.851238524183365,10.574518105207,1381.95047373782,2.13488015689719e-298,4,-2736.59908607305,5483.1981721461,5506.12903042037,80622.5323064493,721,517,1.35143273188966,18.8791684880637
58,88.6697271797799,0.964076390727402,0.963939103048653,5.13395789145737,7022.30818900752,0,4,-2408.24427451837,4826.48854903674,4849.84238064097,20690.6560505371,785,517,1.35143273188966,18.8791684880637
59,93.6068639424906,0.9735501152601,0.973461257864558,5.37050164690516,10956.3206226479,0,4,-2778.56981635444,5567.13963270889,5591.13491201918,25756.1631298941,893,517,1.35143273188966,18.8791684880637
60,95.3141013955453,0.881410418457815,0.881062648423967,15.2817356948545,2534.46338865103,0,4,-4255.52411448828,8521.04822897657,8545.72021502621,238902.66910188,1023,517,1.35143273188966,18.8791684880637
61,92.5756759323231,0.989460889424533,0.989435391576366,5.10418934497236,38805.6624608162,0,4,-3790.95299651133,7591.90599302267,7617.53642938916,32305.4085979684,1240,517,1.35143273188966,18.8791684880637
62,90.4906260938464,0.988564954147591,0.988540415422586,5.69969516394293,40285.9135484568,0,4,-4427.40756119495,8864.81512238989,8891.04339772786,45416.1618967005,1398,517,1.35143273188966,18.8791684880637
63,93.1457190541153,0.993134653142844,0.993120802409441,4.45159266347709,71702.6762546434,0,4,-4340.08820910789,8690.17641821578,8716.71242978961,29467.3990581447,1487,517,1.35143273188966,18.8791684880637
64,94.9332756673064,0.98985263097404,0.989832811893912,4.95663714573941,49944.4285274509,0,4,-4648.28311384122,9306.56622768245,9333.26391615949,37736.8347563885,1536,517,1.35143273188966,18.8791684880637
65,94.3264422001903,0.992565049468228,0.992549927534943,4.27153143859952,65637.4440201667,0,4,-4244.07458100632,8498.14916201263,8524.64476932619,26912.8217256425,1475,517,1.35143273188966,18.8791684880637
66,92.113998187924,0.994021639865623,0.994006414839814,3.74495162115631,65288.6669834686,0,4,-3235.90503628726,6481.81007257452,6507.18488856435,16521.0525955759,1178,517,1.35143273188966,18.8791684880637
67,90.8209298747648,0.987233889324994,0.987200086737152,4.69570050545272,29205.8671347491,0,4,-3369.86757056484,6749.73514112967,6774.91588359843,24982.2004674178,1133,517,1.35143273188966,18.8791684880637
68,86.2733432961577,0.983660528866884,0.983612091699493,4.88718831063283,20307.9697236083,0,4,-3051.64062728976,6113.28125457952,6137.89939772021,24171.2248985892,1012,517,1.35143273188966,18.8791684880637
69,86.9794440220047,0.952859567717785,0.952679642403731,5.75444336910609,5295.86163418039,0,4,-2501.43449060473,5012.86898120946,5036.22914593677,26027.3041317638,786,517,1.35143273188966,18.8791684880637
70,86.3746904378118,0.955495708936308,0.955308453854693,5.44479062845628,5102.64234593014,0,4,-2230.44404933206,4470.88809866412,4493.76347786712,21137.4161762482,713,517,1.35143273188966,18.8791684880637
71,79.5486488517066,0.63456976613532,0.633094273939365,18.2612408192088,430.073278513617,6.62689732402022e-162,4,-3227.81298716971,6465.62597433941,6488.70630026507,247770.376779053,743,517,1.35143273188966,18.8791684880637
72,88.5697306732436,0.792948446548178,0.792258274703338,16.4397961138264,1148.91450944755,3.66853835794276e-307,4,-3811.64930503739,7633.29861007478,7657.33275687674,243240.206637765,900,517,1.35143273188966,18.8791684880637
73,88.205353470076,0.990220312129383,0.990195984547615,4.62270009648707,40703.6063668268,0,4,-3567.39686681288,7144.79373362576,7170.28561181871,25771.4435555663,1206,517,1.35143273188966,18.8791684880637
74,87.1031611980708,0.993177851135283,0.993162416409345,4.1926404554196,64346.9702738592,0,4,-3791.51508754039,7593.03017508078,7618.99484618686,23308.7382686464,1326,517,1.35143273188966,18.8791684880637
75,88.3155043578091,0.992957745757449,0.99294344192351,4.08372214509313,69418.9928381251,0,4,-4183.22538802245,8376.45077604489,8402.95314011623,24631.6137466446,1477,517,1.35143273188966,18.8791684880637
76,91.3365017905652,0.992352414089617,0.992335606208495,4.14395486257992,59040.899141487,0,4,-3886.76361314854,7783.52722629708,7809.63640542352,23440.2739977312,1365,517,1.35143273188966,18.8791684880637
77,89.2420435619792,0.990015100619468,0.989936479364503,4.90663507986039,12592.2067901669,0,4,-1156.65740217242,2323.31480434484,2343.08102101627,9172.60083443522,381,517,1.35143273188966,18.8791684880637
88,96.7223272956986,0.922342278418538,0.92065406707981,17.5818801127689,546.342899884673,2.39704420378173e-76,4,-606.555936508904,1223.11187301781,1237.89100830581,42658.9061453696,138,517,1.35143273188966,18.8791684880637
89,105.966204419913,0.986863856352714,0.986837980823533,6.81289561826586,38138.8859516536,0,4,-5094.75042739755,10199.5008547951,10226.1561563212,70690.877632303,1523,517,1.35143273188966,18.8791684880637
90,107.861597129869,0.984267322463524,0.984232566916684,7.17775504952805,28319.7190646984,0,4,-4615.07518002151,9240.15036004303,9266.23390747657,69964.3875342925,1358,517,1.35143273188966,18.8791684880637
91,105.235315424758,0.986365515915906,0.986330223894981,6.55918838021737,27948.6833017319,0,4,-3835.67023986554,7681.34047973107,7706.63427049367,49863.60160812,1159,517,1.35143273188966,18.8791684880637
92,114.663085979121,0.983853707478588,0.983806679442118,5.93341618441246,20920.5780492967,0,4,-3306.3191015481,6622.6382030962,6647.34415337154,36261.5904459711,1030,517,1.35143273188966,18.8791684880637
93,113.009858740614,0.976636179234448,0.976550597473402,6.04068747162847,11411.7326787625,0,4,-2645.96170695634,5301.92341391267,5325.48819491606,29885.2323013792,819,517,1.35143273188966,18.8791684880637
94,114.712899542415,0.959007102156287,0.958844000440729,6.18401639611339,5879.81002451253,0,4,-2454.60182818068,4919.20365636136,4942.35707328957,28834.512325699,754,517,1.35143273188966,18.8791684880637
97,117.621623479247,0.985672575765614,0.985634504664902,7.23699907418269,25890.3093776519,0,4,-3848.09492881307,7706.18985762614,7731.35297893128,59130.4216720851,1129,517,1.35143273188966,18.8791684880637
98,111.292086572783,0.990313323741076,0.990289107050429,5.67157521387894,40893.8338505425,0,4,-3795.90080550727,7601.80161101454,7627.26863414388,38600.1184880231,1200,517,1.35143273188966,18.8791684880637
99,105.190229895778,0.983812290457753,0.983778091071396,7.81662832311672,28766.9574006973,0,4,-4946.67035743932,9903.34071487864,9929.6468403385,86761.5432452858,1420,517,1.35143273188966,18.8791684880637
100,103.74495995391,0.983157949273887,0.983124947214985,7.6986245915354,29790.8064525758,0,4,-5309.06702980779,10628.1340596156,10654.8154879157,90740.5643407336,1531,517,1.35143273188966,18.8791684880637
101,101.074808679164,0.988758526677331,0.988736684436419,6.47017976673255,45268.1815324931,0,4,-5084.94588699134,10179.8917739827,10206.6153692534,64636.8212741617,1544,517,1.35143273188966,18.8791684880637
102,103.986708146489,0.983201818580551,0.983164790994763,7.78094152255831,26553.2250520649,0,4,-4735.38774333089,9480.77548666178,9506.87003519987,82399.0923803393,1361,517,1.35143273188966,18.8791684880637
103,108.465301320908,0.991711318138445,0.991690986130608,4.8242075408856,48775.8673953076,0,4,-3669.89854543029,7349.79709086057,7375.35872808413,28462.8525801883,1223,517,1.35143273188966,18.8791684880637
104,112.270624907384,0.986219767571778,0.986182287338519,5.50174265645828,26313.0637623563,0,4,-3456.26816593103,6922.53633186206,6947.58337652561,33386.8970004555,1103,517,1.35143273188966,18.8791684880637
105,106.665121663818,0.80649356427068,0.805729723077012,17.6264821815507,1055.8393170673,1.73967993938635e-270,4,-3274.28725001507,6558.57450003014,6581.76733897597,236126.584313358,760,517,1.35143273188966,18.8791684880637
106,111.621482542343,0.971538175264503,0.971431041670768,5.32853075976026,9068.47368222418,0,4,-2474.6982664759,4959.3965329518,4982.82583768714,22629.4123259959,797,517,1.35143273188966,18.8791684880637
107,110.416166282204,0.963794476535747,0.963653048709715,6.50705869776041,6814.74433691746,0,4,-2539.28453011213,5088.56906022425,5111.81398297437,32518.5123042043,768,517,1.35143273188966,18.8791684880637
108,123.094835823057,0.909144670321009,0.90885624070298,12.8322210920231,3152.05032179128,0,4,-3766.37779856579,7542.75559713158,7567.03264112463,155609.273756062,945,517,1.35143273188966,18.8791684880637
109,111.281145880617,0.987483352505784,0.987450586412867,5.9182568607566,30137.3543380134,0,4,-3674.5240766297,7359.04815325939,7384.28573936618,40139.5258532969,1146,517,1.35143273188966,18.8791684880637
110,106.485231973687,0.980486245367954,0.98044245983026,8.65993241261167,22392.924628049,0,4,-4795.61956126603,9601.23912253206,9627.24497694847,100267.55209577,1337,517,1.35143273188966,18.8791684880637
111,107.12124014391,0.986183073085652,0.986153144724105,7.2903598844412,32951.455478986,0,4,-4728.22473161565,9466.44946323131,9492.63115994508,73611.8459338673,1385,517,1.35143273188966,18.8791684880637
112,104.373921304373,0.986481321783905,0.986454900914427,7.00628151229076,37337.2012838611,0,4,-5177.87993446882,10365.7598689376,10392.4543096068,75350.0502662322,1535,517,1.35143273188966,18.8791684880637
113,99.3862715742599,0.991127570886052,0.99111000171949,5.68764585782214,56412.8962733104,0,4,-4793.83727007018,9597.67454014037,9624.30357765335,49009.2128370621,1515,517,1.35143273188966,18.8791684880637
114,102.016229371249,0.986222431671989,0.986194024314612,6.49693465939713,34717.1480462529,0,4,-4798.499736062,9606.99947212399,9633.4270048666,61415.7827541322,1455,517,1.35143273188966,18.8791684880637
115,101.124336603562,0.991307309807562,0.991287478575184,5.18968438196438,49987.1763339356,0,4,-4041.53841870742,8093.07683741484,8118.99998317842,35416.6635394926,1315,517,1.35143273188966,18.8791684880637
116,108.518194010874,0.984512258537539,0.984471285676527,6.11864230628544,24028.3991458138,0,4,-3674.05370538663,7358.10741077326,7383.29254884669,42454.4466843496,1134,517,1.35143273188966,18.8791684880637
117,109.693230122476,0.8802609810223,0.879673064398841,14.1152032046784,1497.25479072891,4.66552225993343e-281,4,-2498.70092716464,5007.40185432928,5029.50996566832,121735.005482221,611,517,1.35143273188966,18.8791684880637
118,110.825061442009,0.97925378491961,0.979175595666795,4.70183499036065,12524.1481361872,0,4,-2371.50809463559,4753.01618927118,4776.43924790952,17597.3728121575,796,517,1.35143273188966,18.8791684880637
119,118.452869593586,0.850037103800843,0.849439642062998,11.9502572033134,1422.74734925539,1.15743888706825e-309,4,-2950.06103761896,5910.12207523792,5933.26889150511,107534.911360683,753,517,1.35143273188966,18.8791684880637
120,111.098016080892,0.81202049092294,0.811374513228517,17.5047130070325,1257.04106803315,2.99886167313769e-316,4,-3752.79084845823,7515.58169691647,7539.46423187833,267500.275321334,873,517,1.35143273188966,18.8791684880637
121,113.778769450969,0.861638780198157,0.861230635007001,18.5581396481711,2111.10849489116,0,4,-4428.97988051748,8867.95976103496,8892.60245012578,350259.424503437,1017,517,1.35143273188966,18.8791684880637
122,107.828770197899,0.98201869985837,0.981976556186163,8.07079534156747,23301.687974322,0,4,-4501.22956495177,9012.45912990354,9038.24780732479,83376.303930198,1280,517,1.35143273188966,18.8791684880637
123,107.032545179977,0.987582302228467,0.987556645828112,7.25327459653578,38492.6290744756,0,4,-4948.96737156858,9907.93474313716,9934.35198428094,76389.7089252348,1452,517,1.35143273188966,18.8791684880637
124,105.79360929634,0.988927442733883,0.988902634913272,6.52681343928515,39863.5357065088,0,4,-4422.99046294488,8855.98092588975,8881.99423187237,57040.4542257814,1339,517,1.35143273188966,18.8791684880637
125,101.3239219748,0.987878116873758,0.987842253314213,6.75867563428496,27545.4564299906,0,4,-3387.69733123755,6785.39466247509,6810.02263846065,46319.2120780899,1014,517,1.35143273188966,18.8791684880637
126,99.421030751203,0.990867006536154,0.990831789337707,5.74068853546508,28135.8838930808,0,4,-2474.21170118075,4958.4234023615,4981.73267606422,25639.3827820293,778,517,1.35143273188966,18.8791684880637
127,100.026882603321,0.990631453140569,0.990610664944875,5.30785425232929,47653.5562644474,0,4,-4185.49615957817,8380.99231915633,8407.05379149883,38090.3242648876,1352,517,1.35143273188966,18.8791684880637
128,102.727873779335,0.986417760748749,0.986383605914086,5.99699978667117,28880.7652112024,0,4,-3840.60346750584,7691.20693501169,7716.64480353948,42905.0596845115,1193,517,1.35143273188966,18.8791684880637
129,108.598811000095,0.978955894528284,0.978889439458374,5.90299691313411,14731.0941940782,0,4,-3045.45216140172,6100.90432280344,6125.20764116068,33103.1039286473,950,517,1.35143273188966,18.8791684880637
130,109.972269698563,0.974074124523567,0.973959238812446,5.56840700803979,8478.63598540018,0,4,-2133.64248560003,4277.28497120006,4299.9027827308,20991.8450230654,677,517,1.35143273188966,18.8791684880637
131,99.1468361398928,0.87681820575158,0.875996993789923,10.8994160997547,1067.71241371509,3.74823704751976e-204,4,-1726.6632168196,3463.32643363921,3483.91691962941,53458.7720920162,450,517,1.35143273188966,18.8791684880637
134,111.002017166565,0.983382590700607,0.983320585442027,8.15375812466009,15859.6643772496,0,4,-2840.06835190764,5690.13670381527,5713.60951410788,53452.9523305902,804,517,1.35143273188966,18.8791684880637
135,107.231108125174,0.986648892663849,0.986619868517466,7.47080475851944,33994.0709933808,0,4,-4745.03580616324,9500.07161232648,9526.23527800737,77021.834761085,1380,517,1.35143273188966,18.8791684880637
136,102.851866479614,0.987154527860856,0.98712800589498,6.92394353109061,37220.2623473056,0,4,-4884.66453938359,9779.32907876719,9805.74975279816,69658.264313576,1453,517,1.35143273188966,18.8791684880637
137,97.9308264479592,0.988855232139893,0.988831486185646,6.40179365491145,41643.1035719988,0,4,-4623.02680273113,9256.05360546226,9282.31741755252,57704.0104960908,1408,517,1.35143273188966,18.8791684880637
138,100.241860549707,0.99077028442256,0.990751726013222,5.45342406120262,53386.5950673362,0,4,-4658.30991164557,9326.61982329115,9353.17257408382,44371.8323150251,1492,517,1.35143273188966,18.8791684880637
139,97.3401509818304,0.989085506856038,0.989061728003873,5.68400776641611,41595.1745682384,0,4,-4357.25494458116,8724.50988916232,8750.66270492937,44488.0392855104,1377,517,1.35143273188966,18.8791684880637
140,100.870697766786,0.984075503575232,0.984004728035567,6.30824145306861,13904.1752026804,0,4,-2212.0742158847,4434.14843176941,4456.7515374072,26860.8894053938,675,517,1.35143273188966,18.8791684880637
