"Age","power_predict","r.squared","adj.r.squared","sigma","statistic","p.value","df","logLik","AIC","BIC","deviance","df.residual","GHI","Wind_speed","Ambient_temp"
1,60.008175718591,0.973581651145526,0.973508537633936,3.4781014369979,13316.0291439262,0,4,-2897.97883856444,5805.95767712888,5830.91815926596,13113.3535329548,1084,646.6,1.59093386705824,21.2543920320796
2,58.7335429743252,0.946785624612059,0.946609028233559,5.9390285587115,5361.2969453567,0,4,-2904.0351544305,5818.070308861,5842.12653075401,31885.9424399565,904,646.6,1.59093386705824,21.2543920320796
3,55.6724013240329,0.981627899144145,0.981588892560587,3.62059020302264,25165.6979310312,0,4,-3831.79777612721,7673.59555225443,7699.87703845288,18522.5555399499,1413,646.6,1.59093386705824,21.2543920320796
4,56.5979568800693,0.988807511415989,0.988783476007434,2.93080679345143,41139.6173746245,0,4,-3492.39413996451,6994.78827992902,7021.01298766071,11999.7109593758,1397,646.6,1.59093386705824,21.2543920320796
5,56.0686073253614,0.985414055645362,0.985383477145667,3.28753941271467,32225.7162864731,0,4,-3742.02402154129,7494.04804308259,7520.39264372356,15466.126923308,1431,646.6,1.59093386705824,21.2543920320796
6,54.591244661703,0.989327925272449,0.989305814620389,2.67857061129742,44744.4029508867,0,4,-3488.92733937478,6987.85467874956,7014.25816472648,10389.0242725346,1448,646.6,1.59093386705824,21.2543920320796
7,55.6231689248597,0.990506195188475,0.990484437041466,2.40337673381793,45523.4627648186,0,4,-3012.39975000544,6034.79950001088,6060.6998493824,7561.07161957647,1309,646.6,1.59093386705824,21.2543920320796
8,55.2792887000685,0.98693541671198,0.986903237935409,2.67063458290452,30670.3834597238,0,4,-2932.32990044491,5874.65980088982,5900.20102158847,8687.12809384403,1218,646.6,1.59093386705824,21.2543920320796
9,53.5466377450378,0.978558584819898,0.978500478003692,2.73619494525723,16840.6849438578,0,4,-2692.73442616366,5395.46885232732,5420.53393127552,8287.84639574548,1107,646.6,1.59093386705824,21.2543920320796
10,55.1088748336279,0.971186522928831,0.97110332713363,2.86540992351632,11673.5048999312,0,4,-2575.92705594776,5161.85411189552,5186.60339417053,8530.78641694746,1039,646.6,1.59093386705824,21.2543920320796
11,53.3911096624914,0.957662243508499,0.957526834905648,3.20453372495231,7072.3884845063,0,4,-2431.65757351294,4873.31514702587,4897.55517339875,9632.35613790662,938,646.6,1.59093386705824,21.2543920320796
12,54.9918684811117,0.969961486733158,0.96987287754948,2.9235365341073,10946.5119355793,0,4,-2542.05501419926,5094.11002839853,5118.75271748935,8692.36598598656,1017,646.6,1.59093386705824,21.2543920320796
13,56.1423831455145,0.97765194783527,0.977590887583454,3.09206851293964,16011.2662289393,0,4,-2805.64862306852,5621.29724613704,5646.32165608561,10497.8546822066,1098,646.6,1.59093386705824,21.2543920320796
14,55.1998756060723,0.971854787801776,0.971762910068811,3.90902101139252,10577.6966457571,0,4,-2565.98978575225,5141.97957150449,5166.11771767701,14042.7292008401,919,646.6,1.59093386705824,21.2543920320796
15,53.9493278570481,0.966963754596244,0.966879262920019,4.77332685773241,11444.4853955511,0,4,-3507.78946601,7025.57893202001,7050.93255255631,26726.3936180493,1173,646.6,1.59093386705824,21.2543920320796
16,53.3336283672863,0.985548003546514,0.985517916114619,3.10666507700249,32756.1357510096,0,4,-3686.34290913929,7382.68581827859,7409.06514128132,13907.6211448609,1441,646.6,1.59093386705824,21.2543920320796
17,51.3933975545106,0.992795168533161,0.992779573659856,2.18911102736828,63661.6373295326,0,4,-3059.38047552572,6128.76095105145,6154.94624618207,6641.99902694153,1386,646.6,1.59093386705824,21.2543920320796
18,52.4729802849994,0.971259490740928,0.971200313302508,4.35304314603721,16412.6653109881,0,4,-4220.01508382732,8450.03016765463,8476.46454971338,27608.6706077481,1457,646.6,1.59093386705824,21.2543920320796
19,54.9019116955868,0.989580629012435,0.989557862724771,2.61816437680592,43466.929857716,0,4,-3277.20139406626,6564.40278813251,6590.54110062615,9411.61939855843,1373,646.6,1.59093386705824,21.2543920320796
20,52.3623232761089,0.984798008131789,0.984761020317025,2.74249447625574,26624.9307887444,0,4,-3001.19331606642,6012.38663213284,6037.9888539948,9273.73324917759,1233,646.6,1.59093386705824,21.2543920320796
21,53.1003829562774,0.976059909013897,0.975996519540853,3.02886193140338,15397.823363254,0,4,-2871.33814670125,5752.67629340251,5777.85703587126,10394.1472112388,1133,646.6,1.59093386705824,21.2543920320796
22,55.237090907127,0.973588041232524,0.973511632480063,2.87992468488573,12741.8392510061,0,4,-2576.24363331171,5162.48726662343,5187.2269519665,8600.84293966689,1037,646.6,1.59093386705824,21.2543920320796
23,52.3930507152101,0.956306542332284,0.956169572245551,3.25029257939895,6981.86418030726,0,4,-2494.36971756066,4998.73943512132,5023.07930716617,10110.1325720729,957,646.6,1.59093386705824,21.2543920320796
24,53.3038657057052,0.964586061740186,0.964469440648222,3.09714369216556,8271.1115587546,0,4,-2330.71384538613,4671.42769077226,4695.52231109864,8738.58443447794,911,646.6,1.59093386705824,21.2543920320796
25,54.7728286135485,0.97205206763782,0.971973267076648,3.12391318212084,12335.5982899858,0,4,-2729.96691772966,5469.93383545932,5494.80155055692,10383.3989178717,1064,646.6,1.59093386705824,21.2543920320796
26,55.509820444191,0.985589874538859,0.985553879221304,2.71660341736692,27381.0579122105,0,4,-2912.07334506234,5834.14669012468,5859.6178643543,8863.30088682682,1201,646.6,1.59093386705824,21.2543920320796
28,54.5688670538391,0.90009189401538,0.8998833175937,7.99759420927688,4315.40577197746,0,4,-5038.7294986855,10087.458997371,10113.824460351,91912.6943768044,1437,646.6,1.59093386705824,21.2543920320796
29,54.4637809469633,0.983983261169744,0.983949636105719,3.29798599518785,29263.3869918501,0,4,-3741.35218553459,7492.70437106917,7519.04199820831,15542.8209113465,1429,646.6,1.59093386705824,21.2543920320796
30,53.7029328529365,0.986831538083533,0.98680404651377,2.87439700562787,35895.7872028242,0,4,-3564.15728597831,7138.31457195662,7164.68003493662,11872.7212557481,1437,646.6,1.59093386705824,21.2543920320796
31,49.1523284065155,0.985573811468515,0.985542267324495,2.76551875479739,31244.2718644083,0,4,-3350.16255648023,6710.32511296047,6736.45979305294,10493.1849448628,1372,646.6,1.59093386705824,21.2543920320796
32,42.3192187431486,0.939982622776118,0.939841626588435,4.72395150736852,6666.72367686349,0,4,-3804.59618798476,7619.19237596952,7644.969357479,28497.1716867488,1277,646.6,1.59093386705824,21.2543920320796
33,53.5854341707088,0.983885014297458,0.983842828471012,2.71513555807265,23322.6440531276,0,4,-2778.44399050307,5566.88798100614,5592.12556711293,8448.26741912219,1146,646.6,1.59093386705824,21.2543920320796
34,54.1404566526405,0.966076744954401,0.965979728972383,3.18819010247579,9957.91337530319,0,4,-2713.04288659414,5436.08577318829,5460.88276574896,10662.6193798713,1049,646.6,1.59093386705824,21.2543920320796
35,51.0976006598118,0.960745949741765,0.960624294627328,2.9288567364779,7897.29189923885,0,4,-2421.7271419518,4853.45428390361,4877.85106292591,8303.69932576201,968,646.6,1.59093386705824,21.2543920320796
36,52.3002377331202,0.959645287950944,0.959516221707717,3.14740023216076,7435.29263698507,0,4,-2414.71117512366,4839.42235024732,4863.6623766202,9291.94827167847,938,646.6,1.59093386705824,21.2543920320796
37,52.653023169908,0.97424071784031,0.974169428314038,2.91469360895699,13665.9726720638,0,4,-2705.7054385944,5421.41087718879,5446.37135932587,9209.05569615866,1084,646.6,1.59093386705824,21.2543920320796
38,56.3947060476488,0.976163162478451,0.976103915989168,3.4046448792295,16476.3039007219,0,4,-3199.97656870731,6409.95313741461,6435.44914613238,13991.069351672,1207,646.6,1.59093386705824,21.2543920320796
39,54.9313807541926,0.97776867015152,0.977717913690679,3.67514423870381,19263.9253002516,0,4,-3583.65670323528,7177.31340647055,7203.23276004586,17747.784320315,1314,646.6,1.59093386705824,21.2543920320796
40,54.9203488095349,0.985343873048484,0.985311011777292,2.96608776094136,29984.9591118728,0,4,-3361.29374790101,6732.58749580202,6758.59707738968,11771.291298301,1338,646.6,1.59093386705824,21.2543920320796
41,53.403741844397,0.986647154128262,0.986619101931053,3.00817916972086,35171.8315238773,0,4,-3607.02885624113,7224.05771248226,7250.39184921987,12922.1746576795,1428,646.6,1.59093386705824,21.2543920320796
42,51.6856565488532,0.983108323055554,0.983073990378838,3.00487599682951,28634.7706349178,0,4,-3726.37604781253,7462.75209562505,7489.25108245884,13327.2169203315,1476,646.6,1.59093386705824,21.2543920320796
43,48.7010449623689,0.985421713951526,0.985390272644448,2.81188869851789,31341.6268448577,0,4,-3419.64604815802,6849.29209631605,6875.49534478732,10998.244811518,1391,646.6,1.59093386705824,21.2543920320796
44,52.6585952491698,0.966161448786631,0.966084948670851,3.98456033274048,12629.5423076835,0,4,-3726.6144809263,7463.22896185259,7489.19739094457,21068.4088270453,1327,646.6,1.59093386705824,21.2543920320796
45,53.7757536097128,0.977261402716755,0.977205579646501,3.10067009148376,17506.407266377,0,4,-3124.97934237621,6259.95868475242,6285.5162453349,11748.4974298232,1222,646.6,1.59093386705824,21.2543920320796
46,54.4159217273063,0.977875122061814,0.977814726580636,2.49964867193221,16191.1968079323,0,4,-2573.59922728112,5157.19845456224,5182.2273996585,6866.81958791859,1099,646.6,1.59093386705824,21.2543920320796
47,51.7928169961008,0.955140239055224,0.955005794217228,3.12561989561,7104.32808942278,0,4,-2569.36002844084,5148.72005688169,5173.28377098416,9779.26923156491,1001,646.6,1.59093386705824,21.2543920320796
48,52.3535480728398,0.96162193611513,0.961506106948475,2.9590533324193,8302.07074685412,0,4,-2496.79629564036,5003.59259128071,5028.12135766227,8703.46064435717,994,646.6,1.59093386705824,21.2543920320796
49,53.7382565761747,0.971803052739239,0.971723699229125,3.02141858315384,12246.5036686396,0,4,-2699.38778503127,5408.77557006254,5433.65263969982,9731.48229143273,1066,646.6,1.59093386705824,21.2543920320796
50,53.1090545166436,0.978446232447985,0.978391573696796,3.10869231902454,17900.9986721595,0,4,-3028.5746272659,6067.1492545318,6092.54517650485,11432.4740663504,1183,646.6,1.59093386705824,21.2543920320796
51,53.9325035422518,0.984870724316513,0.98483475931885,2.96838619811593,27384.1453724051,0,4,-3171.80435868241,6353.60871736481,6379.32680537833,11119.8815759104,1262,646.6,1.59093386705824,21.2543920320796
52,52.6134072368716,0.983718847586539,0.983683708408668,3.2056013565489,27994.9306498884,0,4,-3599.86762705371,7209.73525410741,7235.93491706402,14283.4732793804,1390,646.6,1.59093386705824,21.2543920320796
53,52.3839569325224,0.987863329416126,0.987837116304713,2.82740066096344,37685.84789039,0,4,-3422.40390848846,6854.80781697692,6881.00389184582,11103.9361571893,1389,646.6,1.59093386705824,21.2543920320796
54,49.6224903491667,0.98890721156667,0.988884665248716,2.46812287666946,43861.1401465933,0,4,-3435.14400284147,6880.28800568294,6906.78699251673,8991.24666868456,1476,646.6,1.59093386705824,21.2543920320796
55,51.3255042318349,0.975918429173485,0.975867300573005,3.56989765920078,19087.5247903104,0,4,-3811.81790103264,7633.63580206529,7659.91728826374,18007.5112168973,1413,646.6,1.59093386705824,21.2543920320796
56,50.8826459533344,0.983935560043075,0.983900408095686,2.79169341614313,27990.9260544036,0,4,-3360.67907839761,6731.35815679522,6757.48920184573,10684.9599698693,1371,646.6,1.59093386705824,21.2543920320796
57,51.3906422217924,0.980622668753214,0.980576348439477,2.98074412766819,21170.466899553,0,4,-3159.4862069951,6328.9724139902,6354.66277916043,11150.4686210587,1255,646.6,1.59093386705824,21.2543920320796
58,52.4776187962031,0.985732919816054,0.98568762749801,2.2085552468322,21763.7993015177,0,4,-2096.49774152201,4202.99548304402,4227.27252703707,4609.44188300298,945,646.6,1.59093386705824,21.2543920320796
59,50.9971565979054,0.963999546245041,0.963889340774363,2.86555697292684,8747.29303645708,0,4,-2430.14997396827,4870.29994793653,4894.75807742179,8047.18842978787,980,646.6,1.59093386705824,21.2543920320796
60,51.61314333967,0.952494127138259,0.952345205906718,3.18256906860963,6395.95924153219,0,4,-2474.1346489335,4958.269297867,4982.60916991185,9693.20980378254,957,646.6,1.59093386705824,21.2543920320796
61,52.9273287551271,0.97146072250937,0.971375699835615,2.86835250809521,11425.9018165185,0,4,-2497.87183216669,5005.74366433337,5030.33714042848,8285.03823347095,1007,646.6,1.59093386705824,21.2543920320796
62,52.0263635210426,0.982182824886813,0.982135855180891,2.75703298688574,20910.9851893024,0,4,-2776.58941457561,5563.17882915123,5588.38151110231,8650.2007537032,1138,646.6,1.59093386705824,21.2543920320796
63,51.5813620098939,0.97870145395623,0.978652454233736,3.3203972445123,19973.6121789121,0,4,-3423.67896855246,6857.35793710493,6883.23920976501,14376.6493712198,1304,646.6,1.59093386705824,21.2543920320796
64,50.2656074857335,0.980724121708626,0.98068278673016,3.20474582514581,23726.252150152,0,4,-3622.74769806806,7255.49539613612,7281.72723653664,14368.2837295015,1399,646.6,1.59093386705824,21.2543920320796
65,50.5731428552511,0.983184841174166,0.983149906633669,3.09573491783626,28143.6316948784,0,4,-3688.89690814053,7387.79381628106,7414.18350914579,13838.6818401014,1444,646.6,1.59093386705824,21.2543920320796
66,48.876698726151,0.987930979923745,0.987906349270528,2.54346308219237,40109.8164643073,0,4,-3465.53084439296,6941.06168878592,6967.54036414967,9509.73054219898,1470,646.6,1.59093386705824,21.2543920320796
67,45.9061165009871,0.984376581380364,0.984343574157929,2.59166044840658,29823.0662484105,0,4,-3374.6391055968,6759.2782111936,6785.58433665346,9537.71950936569,1420,646.6,1.59093386705824,21.2543920320796
68,40.278446417867,0.989249143561359,0.989224654138948,1.84051709555817,40394.9561136864,0,4,-2678.28627707098,5366.57255414195,5392.50327566457,4461.34168679814,1317,646.6,1.59093386705824,21.2543920320796
69,38.4035815735241,0.972870101543195,0.972800478193862,2.38213344337303,13973.3309423026,0,4,-2680.57136547942,5371.14273095883,5396.4793302021,6633.56033844038,1169,646.6,1.59093386705824,21.2543920320796
70,42.1613425331854,0.9071724608001,0.906922251799562,4.1640355251815,3625.65878464224,0,4,-3176.33414203666,6362.66828407332,6387.76029306867,19298.5205345856,1113,646.6,1.59093386705824,21.2543920320796
71,51.7539646481486,0.964600570441367,0.964495631420937,2.74752925754503,9192.01043122087,0,4,-2466.51089128748,4943.02178257497,4967.63992571566,7639.50402531876,1012,646.6,1.59093386705824,21.2543920320796
72,50.2516856581411,0.948967454651271,0.948796967306008,3.16734455455985,5566.20465400104,0,4,-2317.78809752118,4645.57619504236,4669.59926764267,9008.80023151533,898,646.6,1.59093386705824,21.2543920320796
73,48.6235002256197,0.959653596703488,0.95953458076456,3.0301899738117,8063.23594427076,0,4,-2578.63876121404,5167.27752242808,5191.9202115189,9338.14614910457,1017,646.6,1.59093386705824,21.2543920320796
74,52.1671562108992,0.973727040736462,0.973657657921505,3.05520570067594,14034.1241753678,0,4,-2888.79190286724,5787.58380573448,5812.77772344142,10603.744208231,1136,646.6,1.59093386705824,21.2543920320796
75,50.3152294972652,0.978458671786382,0.97840613196147,3.11269445752344,18623.1810524479,0,4,-3150.16000187315,6310.32000374629,6335.91008476862,11917.3061466535,1230,646.6,1.59093386705824,21.2543920320796
76,49.4666509746801,0.977710002182759,0.977661859638878,3.31541372771539,20308.6485123154,0,4,-3644.20381162821,7298.40762325642,7324.60369812532,15267.8438102479,1389,646.6,1.59093386705824,21.2543920320796
77,48.823851563825,0.986380412857,0.986350697394142,2.75632819906424,33194.179662913,0,4,-3352.88064685115,6715.7612937023,6741.90686309126,10446.3495688155,1375,646.6,1.59093386705824,21.2543920320796
78,47.0762247578791,0.981582088027426,0.981543367820055,3.10290358283273,25350.6412978288,0,4,-3648.87436608084,7307.74873216167,7334.07937605946,13739.1711894963,1427,646.6,1.59093386705824,21.2543920320796
79,44.9093734262119,0.991515927129816,0.991498385972951,1.90323807946954,56525.1160332611,0,4,-2998.92779256786,6007.85558513572,6034.26939103374,5255.97933654437,1451,646.6,1.59093386705824,21.2543920320796
80,43.0069851266758,0.989041064633041,0.989016400862522,1.96839387833037,40100.9676886047,0,4,-2800.55818022488,5611.11636044976,5637.10727833527,5164.80775551122,1333,646.6,1.59093386705824,21.2543920320796
81,39.3771313285957,0.985501715927859,0.985466892187093,1.90049673721237,28299.7085969893,0,4,-2580.49724463571,5170.99448927142,5196.6609690459,4511.24792234543,1249,646.6,1.59093386705824,21.2543920320796
82,42.1498374816055,0.9169950752034,0.916771743567176,4.71355122033792,4105.97929924945,0,4,-3320.73278424527,6651.46556849053,6676.56652203209,24772.5850940252,1115,646.6,1.59093386705824,21.2543920320796
83,49.3215531634791,0.968761705232492,0.968671071882103,2.52354405018264,10688.7994438193,0,4,-2431.69385934587,4873.38771869175,4898.11297401038,6584.7959087014,1034,646.6,1.59093386705824,21.2543920320796
84,50.2711911109419,0.948281462290404,0.948111335521622,2.95310657954889,5573.96974668898,0,4,-2289.64096461455,4589.2819292291,4613.38201105247,7953.40468479956,912,646.6,1.59093386705824,21.2543920320796
85,49.3974023284547,0.946987301700762,0.946816292996571,3.25733206917481,5537.65556075185,0,4,-2426.25281226459,4862.50562452917,4886.70300672032,9867.4973542534,930,646.6,1.59093386705824,21.2543920320796
86,51.0553682768585,0.968000121104096,0.96791261004057,3.08883739127739,11061.4599126615,0,4,-2801.94972641142,5613.89945282283,5638.91932350644,10466.3853234394,1097,646.6,1.59093386705824,21.2543920320796
87,49.3240519606356,0.968082346229048,0.968005866227999,3.57005401067207,12657.9802949241,0,4,-3378.54499645833,6767.08999291666,6792.7684296518,15957.0976201729,1252,646.6,1.59093386705824,21.2543920320796
88,49.2489302748754,0.975533456763593,0.975479406962629,3.47428196225907,18048.7890679174,0,4,-3626.80956147688,7263.61912295376,7289.7026703873,16391.9225381525,1358,646.6,1.59093386705824,21.2543920320796
89,49.1349789257918,0.979173631406507,0.979130243138604,3.23647802058846,22567.7050209308,0,4,-3742.90182891016,7495.80365782032,7522.17951941758,15083.6975679631,1440,646.6,1.59093386705824,21.2543920320796
90,48.8377882244547,0.975472733982146,0.97542062222715,3.64092010636624,18718.8616861489,0,4,-3837.02091229918,7684.04182459837,7710.31978096963,18717.89449997,1412,646.6,1.59093386705824,21.2543920320796
91,49.9908900555801,0.978794273591703,0.978748240900513,3.27402304908649,21263.0252171648,0,4,-3608.4689687365,7226.93793747301,7253.10882337176,14813.9716116623,1382,646.6,1.59093386705824,21.2543920320796
92,48.8749990286129,0.979038590794454,0.978993317772411,3.08131600011142,21625.2095979259,0,4,-3542.2004921869,7094.4009843738,7120.5970592427,13187.8720183417,1389,646.6,1.59093386705824,21.2543920320796
93,47.9759508232097,0.982208850410836,0.982166923114082,2.73266553435133,23426.4769364978,0,4,-3093.72075983285,6197.44151966569,6223.20286394586,9506.07775451004,1273,646.6,1.59093386705824,21.2543920320796
94,50.829882529136,0.980078677311831,0.980022560909892,2.67951549406808,17465.1018856457,0,4,-2568.48641667864,5146.97283335728,5171.8452279124,7646.49049634271,1065,646.6,1.59093386705824,21.2543920320796
95,49.0901408062845,0.967273780602428,0.967180543510127,2.92919035707172,10374.3451960307,0,4,-2633.79967712977,5277.59935425954,5302.41530418889,9034.90442380396,1053,646.6,1.59093386705824,21.2543920320796
96,48.2476909959961,0.956934629012094,0.956784400973764,3.07389930524442,6369.88034757292,0,4,-2194.18435966321,4398.36871932641,4422.17658317043,8126.01696735263,860,646.6,1.59093386705824,21.2543920320796
97,47.4375799657419,0.952185676767094,0.952039901391384,3.16503110771687,6531.86913173057,0,4,-2538.24414086241,5086.48828172483,5110.96669521357,9857.14316221043,984,646.6,1.59093386705824,21.2543920320796
98,47.6693828333009,0.965058468878918,0.964962913187612,3.17417621922737,10099.4347451614,0,4,-2831.95568549944,5673.91137099888,5698.9312416825,11052.7079537673,1097,646.6,1.59093386705824,21.2543920320796
99,49.151827635032,0.976189392264891,0.976129666660204,3.07270129882965,16344.5710995338,0,4,-3047.79139101982,6105.58278203965,6131.03316621853,11292.025953108,1196,646.6,1.59093386705824,21.2543920320796
100,48.2901764231933,0.977286079732873,0.977235227672574,3.29127274608296,19218.2199497187,0,4,-3506.12312335131,7022.24624670261,7048.26327430803,14515.5182274053,1340,646.6,1.59093386705824,21.2543920320796
101,47.0230773613278,0.97618462227435,0.976134308096057,3.41115185246369,19401.7800822957,0,4,-3765.88488679146,7541.76977358292,7568.07589904278,16523.0588840044,1420,646.6,1.59093386705824,21.2543920320796
102,47.753472749005,0.97593311208168,0.975882444949221,3.47027075474989,19261.6606605764,0,4,-3803.66877099143,7617.33754198285,7643.6611928725,17160.9602335632,1425,646.6,1.59093386705824,21.2543920320796
103,45.7898742354346,0.982371436447378,0.982335188544254,2.81257326603572,27101.4693756963,0,4,-3586.79236774106,7183.58473548213,7210.02595748723,11541.5192617787,1459,646.6,1.59093386705824,21.2543920320796
104,44.7791284600837,0.983656099957209,0.98362015296298,2.6355552318792,27364.0709342905,0,4,-3264.82540334229,6539.65080668457,6565.75633217549,9474.55048270986,1364,646.6,1.59093386705824,21.2543920320796
105,45.6160152908621,0.974661812192662,0.974602425814988,3.01653573762378,16412.2118636715,0,4,-3237.5899958975,6485.179991795,6510.96866921625,11647.3444561426,1280,646.6,1.59093386705824,21.2543920320796
106,47.8782074954405,0.979059360136556,0.979004493831237,2.61336212201844,17844.4557992924,0,4,-2732.12944367047,5474.25888734093,5499.49212373018,7819.96251001684,1145,646.6,1.59093386705824,21.2543920320796
107,48.2489435084152,0.974182923365807,0.974106990787471,2.64866690169834,12829.5778270143,0,4,-2448.42295398834,4906.84590797669,4931.50326700468,7155.74508327531,1020,646.6,1.59093386705824,21.2543920320796
108,48.879448676276,0.961393002977634,0.961273968043341,2.74067002259646,8076.56179832987,0,4,-2369.3126101078,4748.62522021561,4773.04765347582,7308.46782409439,973,646.6,1.59093386705824,21.2543920320796
109,48.5799088031288,0.957334582996837,0.957205684456042,2.64559516845432,7427.03972513533,0,4,-2382.65506306304,4775.31012612607,4799.83387997588,6950.17957878137,993,646.6,1.59093386705824,21.2543920320796
110,47.9043429450887,0.965735582438948,0.965638516100249,2.99406388837925,9949.23261116381,0,4,-2672.04730531691,5354.09461063382,5378.93886252553,9493.31926319078,1059,646.6,1.59093386705824,21.2543920320796
111,46.9763321753818,0.979036430559735,0.978983669898392,2.82937935968129,18556.181928727,0,4,-2938.95576031985,5887.91152063971,5913.34521031226,9542.4219727007,1192,646.6,1.59093386705824,21.2543920320796
112,46.9547816343159,0.975575761729586,0.975520294118071,3.37624210201622,17588.2057129276,0,4,-3490.3018866084,6990.60377321681,7016.54961190891,15058.0931762149,1321,646.6,1.59093386705824,21.2543920320796
113,46.6962397652472,0.978806167754953,0.978758398035392,3.17040928033223,20490.0965875151,0,4,-3432.68396081855,6875.3679216371,6901.35135449128,13378.539851411,1331,646.6,1.59093386705824,21.2543920320796
114,45.5991929568131,0.979505650734851,0.979462504736398,3.08149425994361,22702.1203786275,0,4,-3633.87786392547,7277.75572785094,7304.07937874059,13531.2397955432,1425,646.6,1.59093386705824,21.2543920320796
115,44.7595208212815,0.977201416228605,0.977153284102416,3.16110297320331,20302.4776507258,0,4,-3660.04703514741,7330.09407029483,7356.40370575834,14199.4448222238,1421,646.6,1.59093386705824,21.2543920320796
116,45.0768094900331,0.977079057898496,0.977030393477898,2.95223122328477,20077.8935801247,0,4,-3542.62233817344,7095.24467634689,7121.52616254534,12315.2405735771,1413,646.6,1.59093386705824,21.2543920320796
117,42.8466361198293,0.981495184813256,0.981453064596594,2.44236646528495,23302.2349503666,0,4,-3054.33665431513,6118.67330863027,6144.60781373233,7862.07290708653,1318,646.6,1.59093386705824,21.2543920320796
118,41.8225001330527,0.984062527906734,0.984022849552975,1.96002752996006,24800.9918425452,0,4,-2527.10022033082,5064.20044066165,5089.68818491472,4629.25804143259,1205,646.6,1.59093386705824,21.2543920320796
119,44.1668693299558,0.967426824666271,0.967335069242796,2.64991982783767,10543.5383329333,0,4,-2556.61345434165,5123.2269086833,5148.09930323842,7478.5099750751,1065,646.6,1.59093386705824,21.2543920320796
120,46.7506961810302,0.962874703361098,0.962743208803936,2.54803468394864,7322.54417322077,0,4,-2001.47129633921,4012.94259267841,4036.67465332128,5499.13119576264,847,646.6,1.59093386705824,21.2543920320796
123,42.65887754649,0.790470116325721,0.787476832273231,7.37386214042734,264.08122398816,3.07056313633199e-48,3,-487.097901813121,982.195803626242,994.047182147281,7612.33800124387,140,646.6,1.59093386705824,21.2543920320796
