"Age","power_predict","r.squared","adj.r.squared","sigma","statistic","p.value","df","logLik","AIC","BIC","deviance","df.residual","GHI","Wind_speed","Ambient_temp"
1,12.5683874576751,0.99437259135886,0.994360867590857,0.614709637099501,84816.8089949695,0,4,-1344.28647496034,2698.57294992068,2724.94881151794,544.129830637921,1440,488.288861985,1.84631296380986,17.1170401506808
2,12.1753236822041,0.98941323417611,0.989391390780325,0.69659051109719,45295.760966198,0,4,-1539.65873537927,3089.31747075854,3115.74157532138,705.536546579036,1454,488.288861985,1.84631296380986,17.1170401506808
3,11.6809182374884,0.991583066609784,0.991564540710906,0.591907199919211,53524.1541121627,0,4,-1220.82384310215,2451.6476862043,2477.74955538792,477.532683709981,1363,488.288861985,1.84631296380986,17.1170401506808
4,11.0313076355132,0.975147698367836,0.975089812572109,0.975615346266296,16846.0619072304,0,4,-1799.37003009277,3608.74006018555,3634.55979360726,1225.95099138495,1288,488.288861985,1.84631296380986,17.1170401506808
5,13.1463623529093,0.995144281343974,0.995131378637182,0.474079837076261,77126.7841230959,0,4,-760.005801856357,1530.01160371271,1555.17472501785,253.744660180225,1129,488.288861985,1.84631296380986,17.1170401506808
6,13.3159896298861,0.994430352106811,0.994414909460157,0.414169819774531,64395.072579919,0,4,-581.677147273961,1173.35429454792,1198.30557705039,185.602644060257,1082,488.288861985,1.84631296380986,17.1170401506808
7,13.1343726135057,0.990517135409324,0.99048813582342,0.49675503372362,34156.251012729,0,4,-706.486992941834,1422.97398588367,1447.43719408953,242.07701782269,981,488.288861985,1.84631296380986,17.1170401506808
8,13.0564117812948,0.993947214373567,0.993930322878795,0.431426455043865,58843.058463605,0,4,-621.960738162682,1253.92147632536,1278.84042615166,200.088445070095,1075,488.288861985,1.84631296380986,17.1170401506808
9,12.8235790422638,0.990961318454158,0.990937942553609,0.613514281625828,42392.4338808632,0,4,-1080.96678743106,2171.93357486211,2197.23166300357,436.623737560273,1160,488.288861985,1.84631296380986,17.1170401506808
10,13.118927538444,0.997187567761189,0.997180746987772,0.398010467253923,146198.606351953,0,4,-615.594764313577,1241.18952862715,1266.80789255318,195.956054738039,1237,488.288861985,1.84631296380986,17.1170401506808
11,13.0151940004442,0.997834912532811,0.997830111895412,0.375120174659171,207854.672096279,0,4,-592.946142105156,1195.89228421031,1221.95744250949,190.387591775351,1353,488.288861985,1.84631296380986,17.1170401506808
12,12.7627728539274,0.99724264958481,0.997236724046669,0.40417577494421,168295.710156052,0,4,-716.243511082476,1442.48702216495,1468.70815974297,228.047847644247,1396,488.288861985,1.84631296380986,17.1170401506808
13,12.5238073164382,0.996768408687472,0.996761906491672,0.42287882128116,153297.199802803,0,4,-832.609351615833,1675.21870323167,1701.76811066079,266.630307754821,1491,488.288861985,1.84631296380986,17.1170401506808
14,12.1657654611175,0.997580517930912,0.997575669269451,0.358831998804472,205743.487338672,0,4,-589.447712841414,1188.89542568283,1215.464859841,192.754323838921,1497,488.288861985,1.84631296380986,17.1170401506808
15,11.110135756334,0.991800467037332,0.991782667761726,0.630583706331118,55721.3950146576,0,4,-1325.54832785304,2661.09665570608,2687.26754160483,549.532690373981,1382,488.288861985,1.84631296380986,17.1170401506808
16,11.083261937728,0.993619299588649,0.993604586213373,0.463831272456644,67531.7037016434,0,4,-847.165783485895,1704.33156697179,1730.20135857057,279.896423550684,1301,488.288861985,1.84631296380986,17.1170401506808
17,11.0927614612868,0.994117529236064,0.994102871916885,0.407428613844854,67823.9667895062,0,4,-627.423862310794,1264.84772462159,1290.33133151406,199.861682756965,1204,488.288861985,1.84631296380986,17.1170401506808
18,10.7347595239983,0.990343733892595,0.990318097787885,0.430660217487834,38630.8195062563,0,4,-651.750497695923,1313.50099539185,1338.66852781328,209.579091907136,1130,488.288861985,1.84631296380986,17.1170401506808
19,11.8748817273942,0.953612037969543,0.953479121172894,0.990572361785552,7174.50361438286,0,4,-1479.34513277406,2968.69026554812,2993.4777524025,1027.35158331828,1047,488.288861985,1.84631296380986,17.1170401506808
20,12.7858220185093,0.993723774173112,0.993706452482698,0.404959625204373,57368.7527249612,0,4,-559.829277079955,1129.65855415991,1154.63280408908,178.259627975639,1087,488.288861985,1.84631296380986,17.1170401506808
21,13.1322187736632,0.993311862132741,0.993294027098429,0.520234103826582,55694.418340759,0,4,-862.20323198201,1734.40646396402,1759.55190178477,304.473963132278,1125,488.288861985,1.84631296380986,17.1170401506808
22,12.8750529485962,0.98848849215988,0.988458950223592,0.758872967082621,33460.5180422893,0,4,-1338.75628422557,2687.51256845114,2712.84916769441,673.213282617304,1169,488.288861985,1.84631296380986,17.1170401506808
23,12.2139303417994,0.995539541756884,0.995529600170904,0.507883009289006,100138.90577819,0,4,-998.933442285932,2007.86688457186,2033.90618392903,347.194173413518,1346,488.288861985,1.84631296380986,17.1170401506808
24,12.5729741243138,0.989012357159766,0.988988912687134,0.793036852381509,42185.3104857881,0,4,-1671.74181285231,3353.48362570462,3379.74035062148,884.24387362465,1406,488.288861985,1.84631296380986,17.1170401506808
25,11.894546315894,0.994345041485671,0.994333500754009,0.57073175106337,86159.6188713643,0,4,-1262.84046294324,2535.68092588647,2562.15960125022,478.830055557634,1470,488.288861985,1.84631296380986,17.1170401506808
26,11.7295704398,0.996873425160003,0.99686719692327,0.397223346433237,160057.086441203,0,4,-746.477109215819,1502.95421843164,1529.55354308068,237.626298749139,1506,488.288861985,1.84631296380986,17.1170401506808
27,11.087311913096,0.996039693144275,0.996031194631709,0.414334500143937,117201.649749513,0,4,-752.072477688624,1514.14495537725,1540.37323071522,239.998963057318,1398,488.288861985,1.84631296380986,17.1170401506808
28,10.8414812522373,0.983087723001614,0.983044505939437,0.758267619536255,22747.6758829107,0,4,-1343.53132983384,2697.06265966769,2722.42052648874,675.014525050848,1174,488.288861985,1.84631296380986,17.1170401506808
29,12.5239775284593,0.992713793141913,0.992695787688392,0.552431906358867,55134.0621325987,0,4,-1003.47207085651,2016.94414171302,2042.46896895437,370.489747552236,1214,488.288861985,1.84631296380986,17.1170401506808
30,11.6535427625378,0.993788133098049,0.993770781514524,0.392039094316048,57273.627600969,0,4,-518.179595574854,1046.35919114971,1071.27350490705,165.068055681086,1074,488.288861985,1.84631296380986,17.1170401506808
31,11.6292974671754,0.981032697177252,0.980975220502031,0.617570965123884,17068.361964476,0,4,-929.351340989259,1868.70268197852,1893.2113680118,377.579957994405,990,488.288861985,1.84631296380986,17.1170401506808
32,12.8446123139623,0.995108087443422,0.995093741658798,0.368998449028733,69365.8878595282,0,4,-431.36513386507,872.730267730141,897.402253779783,139.291532059479,1023,488.288861985,1.84631296380986,17.1170401506808
33,12.7862644933952,0.996010792507966,0.995999701106228,0.397844388575988,89800.26293963,0,4,-536.511765576605,1083.02353115321,1107.96098238822,170.784289965593,1079,488.288861985,1.84631296380986,17.1170401506808
34,12.7076447831796,0.988730384785542,0.9887026271126,0.737310539662601,35620.0747393703,0,4,-1359.53984949883,2729.07969899766,2754.62091969632,662.137481251223,1218,488.288861985,1.84631296380986,17.1170401506808
35,11.8339015032707,0.993412333139197,0.99339773712695,0.586896176732237,68060.5302550924,0,4,-1201.22740121531,2412.45480243062,2438.52364397122,466.38140354399,1354,488.288861985,1.84631296380986,17.1170401506808
36,11.3396051439842,0.996109268673233,0.996101252056488,0.44275144944185,124255.568202154,0,4,-880.117289983428,1770.23457996686,1796.66553854037,285.417999751043,1456,488.288861985,1.84631296380986,17.1170401506808
37,11.6865215830326,0.995949025231618,0.995940928679782,0.476032743824462,123009.034643592,0,4,-1016.38553040504,2042.77106081009,2069.353801696,340.137366962761,1501,488.288861985,1.84631296380986,17.1170401506808
38,11.4082480281615,0.990484360396453,0.99046537973235,0.675218258817989,52183.8622205675,0,4,-1545.53595553436,3101.07191106871,3127.66460881155,685.70322434996,1504,488.288861985,1.84631296380986,17.1170401506808
39,11.2661217845401,0.99368282170304,0.993669275216341,0.510421838448778,73353.5450066076,0,4,-1045.22548702685,2100.4509740537,2126.68281445421,364.482103978437,1399,488.288861985,1.84631296380986,17.1170401506808
40,10.5077324916893,0.98555338293164,0.985514478217811,0.698472596803718,25332.4927995401,0,4,-1183.16495996268,2376.32991992536,2401.42640319393,543.480460893102,1114,488.288861985,1.84631296380986,17.1170401506808
41,11.191647055839,0.95311985112672,0.953005694920048,1.20673261326447,8349.26000883772,0,4,-1984.06943881115,3978.13887762231,4003.73705581239,1794.04283509663,1232,488.288861985,1.84631296380986,17.1170401506808
42,13.1252963856603,0.988276742769795,0.988246026811987,0.632660766927072,32174.700490688,0,4,-1102.3206554012,2214.6413108024,2239.87454719164,458.297294680019,1145,488.288861985,1.84631296380986,17.1170401506808
43,13.3737331961751,0.992315298181381,0.992293404444006,0.455084107994124,45324.16193661,0,4,-665.666648958055,1341.33329791611,1366.14924784546,218.077927252295,1053,488.288861985,1.84631296380986,17.1170401506808
44,13.1243409715394,0.992879658098891,0.992858715916829,0.44734467220882,47410.5160176415,0,4,-627.257017153504,1264.51403430701,1289.171393335,204.119600868689,1020,488.288861985,1.84631296380986,17.1170401506808
45,13.1528078321653,0.995819555435831,0.995808195532125,0.401433731376083,87660.9151910303,0,4,-558.8944804621,1127.7889609242,1152.84052026074,177.908540917923,1104,488.288861985,1.84631296380986,17.1170401506808
46,13.0294920481362,0.986774720364062,0.98674179435667,0.800216324826492,29969.4617876,0,4,-1444.03969397175,2898.07938794351,2923.56713219658,771.617130655176,1205,488.288861985,1.84631296380986,17.1170401506808
47,12.5881932813588,0.991695848206091,0.991674090603137,0.66894405245984,45579.2786699307,0,4,-1166.39586150908,2342.79172301816,2368.0249594074,512.371636392995,1145,488.288861985,1.84631296380986,17.1170401506808
48,11.5517332965653,0.995328355672189,0.995318423047821,0.490287658820935,100207.993253595,0,4,-997.235545435912,2004.47109087182,2030.74551492221,339.178985621272,1411,488.288861985,1.84631296380986,17.1170401506808
49,11.4143554310019,0.998410507807261,0.998407168537948,0.271479602699997,298990.711553812,0,4,-162.777817530878,335.555635061755,361.889771799358,105.245277446108,1428,488.288861985,1.84631296380986,17.1170401506808
50,10.8754510571619,0.994222246589264,0.994210820577246,0.501630978260763,87013.9332053286,0,4,-1106.87937433341,2223.75874866682,2250.39436512812,381.72822937824,1517,488.288861985,1.84631296380986,17.1170401506808
51,13.5369443964084,0.994697904321603,0.994686896510506,0.551754942800017,90362.915529241,0,4,-1192.38947082723,2394.77894165446,2421.17208636606,439.906431926642,1445,488.288861985,1.84631296380986,17.1170401506808
52,13.1438872859009,0.987745932772247,0.987718518751603,0.756348435463722,36030.6846488663,0,4,-1530.87390691096,3071.74781382192,3097.7685602821,767.136423765911,1341,488.288861985,1.84631296380986,17.1170401506808
53,12.6244551257634,0.996738245258722,0.996730366624081,0.350072390899174,126511.545553986,0,4,-458.173513040983,926.347026081967,951.985494578704,152.207943156371,1242,488.288861985,1.84631296380986,17.1170401506808
54,13.0686982145226,0.996283726051757,0.996273989089448,0.363783974807537,102319.768152789,0,4,-466.493757502546,942.987515005092,968.220751394335,151.527903474152,1145,488.288861985,1.84631296380986,17.1170401506808
55,12.5000928756437,0.984875475287011,0.98483193059014,0.628256407325625,22617.5756422876,0,4,-996.017850360085,2002.03570072017,2026.79934394329,411.283770106221,1042,488.288861985,1.84631296380986,17.1170401506808
56,13.8071439803744,0.906654958567365,0.90637878980573,1.45782543658676,3282.97434220893,0,4,-1826.2064118036,3662.41282360719,3687.04079959274,2155.0085736092,1014,488.288861985,1.84631296380986,17.1170401506808
57,17.590915610826,0.994504729271636,0.994486906771976,0.394577649944765,55800.5189097122,0,4,-452.275944670736,914.551889341472,938.722433035541,144.014657698239,925,488.288861985,1.84631296380986,17.1170401506808
58,17.0161029748228,0.995358197462984,0.99534605674144,0.433345190890481,81985.0940366182,0,4,-668.704787617292,1347.40957523458,1372.65150727819,215.39289847469,1147,488.288861985,1.84631296380986,17.1170401506808
59,16.0734873492282,0.995124743500899,0.9951134407424,0.482300420393816,88042.6440692603,0,4,-893.292999907426,1796.58599981485,1822.42889930117,301.002121992595,1294,488.288861985,1.84631296380986,17.1170401506808
60,13.2160413399123,0.989231937574509,0.989209107760179,0.828130649774268,43330.7044590877,0,4,-1743.86976537382,3497.73953074764,3524.02806913344,970.407527930204,1415,488.288861985,1.84631296380986,17.1170401506808
61,11.715839519155,0.990959069928121,0.990940116196314,0.690382329790225,52283.0585567684,0,4,-1502.49253463775,3014.98506927551,3041.32966991648,682.054326401095,1431,488.288861985,1.84631296380986,17.1170401506808
62,11.5325094850797,0.996083366298439,0.996075285211022,0.432506386956462,123261.055705455,0,4,-844.774998893234,1699.54999778647,1725.97410234931,271.987820498325,1454,488.288861985,1.84631296380986,17.1170401506808
63,10.7926737000643,0.989989274725483,0.989967480693681,0.598858120766867,45424.7880202508,0,4,-1250.37650647009,2510.75301294018,2536.90944796181,494.193585258008,1378,488.288861985,1.84631296380986,17.1170401506808
64,10.4249125207678,0.993181382604657,0.99316649479375,0.45704161694763,66711.0422625545,0,4,-874.34681117178,1758.69362234356,1784.83556460143,287.010792440771,1374,488.288861985,1.84631296380986,17.1170401506808
65,10.2813626278638,0.994633740603146,0.994620799463121,0.365750286675719,76858.2782285681,0,4,-513.588117256922,1037.17623451384,1062.82272225849,166.413950620993,1244,488.288861985,1.84631296380986,17.1170401506808
66,12.4079470453956,0.995829038599632,0.995817704465392,0.343139944665676,87861.059124728,0,4,-385.044736271437,780.089472542873,805.141031879409,129.99050387418,1104,488.288861985,1.84631296380986,17.1170401506808
67,12.7168960189036,0.992993099321549,0.992970569094287,0.297840054408871,44073.8163791516,0,4,-192.64797374614,395.295947492281,419.509363903473,82.7652152435904,933,488.288861985,1.84631296380986,17.1170401506808
68,12.7985133171821,1,1,2.92454084704158e-11,5.91862240155865e+21,0,2,10962.4548875729,-21918.9097751458,-21906.3884168341,4.08830492135501e-19,478,488.288861985,1.84631296380986,17.1170401506808
69,12.7985133171813,1,1,2.93521537046026e-11,1.05174337230499e+22,0,2,19728.4683526481,-39450.9367052962,-39436.6519869898,7.42655175159007e-19,862,488.288861985,1.84631296380986,17.1170401506808
70,12.392670566583,0.994537184910656,0.994520024234983,0.408052004489607,57954.430457314,0,4,-499.148006660314,1008.29601332063,1032.62546869505,159.013648641427,955,488.288861985,1.84631296380986,17.1170401506808
71,11.5623922170637,0.993353007780847,0.993337093194528,0.523643042132844,62417.771212016,0,4,-968.392626859336,1946.78525371867,1972.46766976162,343.575150574397,1253,488.288861985,1.84631296380986,17.1170401506808
72,10.7144401363433,0.992682197144981,0.992666538508344,0.567852680259197,63395.186960278,0,4,-1197.37880427021,2404.75760854041,2431.00012890226,452.08424640153,1402,488.288861985,1.84631296380986,17.1170401506808
73,10.8997223901755,0.994258344432525,0.9940731297368,0.364385939551294,5368.13960976794,4.8268284489521e-104,4,-37.6690858254321,85.3381716508642,98.2117265433811,12.3482715036692,93,488.288861985,1.84631296380986,17.1170401506808
98,9.21006721216083,0.995391399385628,0.995379662711737,0.399983846913549,84810.3482012534,0,4,-592.078576089484,1194.15715217897,1219.5319681688,188.464777638694,1178,488.288861985,1.84631296380986,17.1170401506808
99,8.86697880105375,0.996516491413424,0.996509095429164,0.293535657730794,134737.508403019,0,4,-271.736600768143,553.473201536285,579.754687734739,121.748576673903,1413,488.288861985,1.84631296380986,17.1170401506808
100,8.98705947281218,0.998291467086861,0.998276822519035,0.215263133568279,68168.0387490128,0,4,43.4136637570362,-76.8273275140725,-57.4808429484036,16.2183758357722,350,488.288861985,1.84631296380986,17.1170401506808
