"Age","power_predict","r.squared","adj.r.squared","sigma","statistic","p.value","df","logLik","AIC","BIC","deviance","df.residual","GHI","Wind_speed","Ambient_temp"
1,131.033449015134,0.944157802261773,0.943997642994837,15.5805324061852,5895.11815536202,0,4,-4371.20496352308,8752.40992704617,8777.19265426192,253919.627602955,1046,425.9,1.61866621306877,21.4960210778258
2,139.825940612376,0.948019188601469,0.947862776932266,13.3784648315455,6061.05154066123,0,4,-4014.59342342808,8039.18684685617,8063.73062075274,178446.371285154,997,425.9,1.61866621306877,21.4960210778258
3,147.518946891402,0.952039585453952,0.951876084040727,12.2210024865964,5822.8217522675,0,4,-3465.12701721151,6940.25403442303,6964.17631973621,131430.553564107,880,425.9,1.61866621306877,21.4960210778258
4,138.367123640652,0.960438379337162,0.960321448438652,13.4680289848334,8213.72615423834,0,4,-4093.61913745312,8197.23827490625,8221.87116007236,184108.621807359,1015,425.9,1.61866621306877,21.4960210778258
5,135.002043840673,0.943652409556952,0.943505925353027,18.0183716117486,6442.00797269448,0,4,-4989.35915916697,9988.71831833394,10013.9905666246,374659.619732082,1154,425.9,1.61866621306877,21.4960210778258
6,121.184792572563,0.948566156199816,0.948452782554408,18.8492704361816,8366.72537770641,0,4,-5943.13545764354,11896.2709152871,11922.3654638252,483556.48952376,1361,425.9,1.61866621306877,21.4960210778258
7,112.955518634538,0.979072932303831,0.979029212803073,11.9553414777642,22394.4216042857,0,4,-5614.16526118068,11238.3305223614,11264.6925143242,205247.752624526,1436,425.9,1.61866621306877,21.4960210778258
8,106.112621801441,0.969053329388163,0.96899393078814,14.6620700537244,16314.413622838,0,4,-6429.28264125873,12868.5652825175,12895.3498737292,336007.954180881,1563,425.9,1.61866621306877,21.4960210778258
9,105.770545398468,0.983680361337352,0.983648815644061,9.54299810296167,31182.714935345,0,4,-5715.90256787639,11441.8051357528,11468.5545042765,141338.797454938,1552,425.9,1.61866621306877,21.4960210778258
10,96.7016170669537,0.984253834971696,0.984222509709703,9.29969708312717,31420.4502169118,0,4,-5515.16493584579,11040.3298716916,11066.9358144753,130418.423683589,1508,425.9,1.61866621306877,21.4960210778258
11,94.3092532266866,0.983192827423513,0.983156965746607,8.73356109556281,27416.2535680623,0,4,-5054.41470354135,10118.8294070827,10145.0861319996,107242.775710359,1406,425.9,1.61866621306877,21.4960210778258
12,104.549096052532,0.942398793925843,0.942260551031265,15.4127649702512,6816.97816587797,0,4,-5207.28158359839,10424.5631671968,10450.2336358027,296941.655035255,1250,425.9,1.61866621306877,21.4960210778258
13,123.892413383339,0.959654997385085,0.95952471212368,12.6126545675237,7365.79861021952,0,4,-3686.7410497243,7383.48209944859,7407.67412545283,147784.442317659,929,425.9,1.61866621306877,21.4960210778258
14,131.497386061079,0.951311001987019,0.951159793918656,12.4682746670477,6291.40370804414,0,4,-3821.85801180512,7653.71602361024,7678.10250396772,150172.305485063,966,425.9,1.61866621306877,21.4960210778258
15,142.112842956847,0.948426282299652,0.948253794949483,12.3020163926595,5498.52659556632,0,4,-3537.7557938803,7085.51158776059,7109.52911404863,135751.627770762,897,425.9,1.61866621306877,21.4960210778258
16,134.471021753785,0.957472366520887,0.957349217003091,12.967398938795,7774.87710590832,0,4,-4138.62818963081,8287.25637926163,8311.9912592223,174206.958906424,1036,425.9,1.61866621306877,21.4960210778258
17,134.917510696875,0.96124679225017,0.961139935978801,13.7775086804635,8995.69842682063,0,4,-4411.8341091351,8833.6682182702,8858.64704905172,206523.88303899,1088,425.9,1.61866621306877,21.4960210778258
18,124.699613004253,0.951310480279442,0.951198977562524,18.0120195496822,8531.72466626923,0,4,-5661.30780647943,11332.6156129589,11358.5197689541,425007.031218155,1310,425.9,1.61866621306877,21.4960210778258
19,112.674679822148,0.928277730686153,0.928126524215358,22.3716318340137,6139.14024845919,0,4,-6457.64411737818,12925.2882347564,12951.6048828437,712197.143234398,1423,425.9,1.61866621306877,21.4960210778258
20,96.3056640571685,0.971741382837001,0.971686547228018,13.9387727803932,17720.9919037027,0,4,-6281.09740808031,12572.1948161606,12598.9248672102,300371.391719824,1546,425.9,1.61866621306877,21.4960210778258
21,93.3143479658837,0.978599616923983,0.978557211937703,11.8228548332471,23077.4657126474,0,4,-5901.45843757903,11812.9168751581,11839.5426199478,211626.763161762,1514,425.9,1.61866621306877,21.4960210778258
22,92.3878469779486,0.97362173215528,0.973569942362392,12.5024742287525,18799.49074608,0,4,-6041.53071189838,12093.0614237968,12119.7330705483,238844.524892468,1528,425.9,1.61866621306877,21.4960210778258
23,89.6356225914563,0.982050426183141,0.98201295316891,9.52958400127567,26206.8703659088,0,4,-5291.27958033335,10592.5591606667,10618.9246236467,130498.2396681,1437,425.9,1.61866621306877,21.4960210778258
24,97.0811684644584,0.969495637270192,0.969425188395528,11.8016605467643,13761.6908983248,0,4,-5062.99087300219,10135.9817460044,10161.84386889,180923.669967708,1299,425.9,1.61866621306877,21.4960210778258
25,108.841470720929,0.962547168759076,0.962444087572174,12.6618500215245,9337.75791384383,0,4,-4327.53641986835,8665.0728397367,8690.06081965161,174751.466104663,1090,425.9,1.61866621306877,21.4960210778258
26,115.167636219678,0.949110599650908,0.948962521861338,12.9279353127426,6409.5405692052,0,4,-4115.56667269081,8241.13334538162,8265.84412891012,172312.588305422,1031,425.9,1.61866621306877,21.4960210778258
27,122.226949991876,0.959934181137373,0.959805213909274,9.92328447015222,7443.24116513988,0,4,-3474.13357005326,6958.26714010652,6982.47521748891,91775.5075976258,932,425.9,1.61866621306877,21.4960210778258
28,118.94558132694,0.971914142192282,0.971797441952084,8.26360697950192,8328.29598757472,0,4,-2561.35505640943,5132.71011281885,5155.64786289297,49303.3586250278,722,425.9,1.61866621306877,21.4960210778258
29,117.978020481823,0.972013560984612,0.971934577619564,10.695542617505,12306.5605066623,0,4,-4040.6091477277,8091.2182954554,8116.08132671191,121601.493691486,1063,425.9,1.61866621306877,21.4960210778258
30,115.377290907163,0.950949393097208,0.950828080796541,16.5133253719166,7838.85383323189,0,4,-5137.51693495223,10285.0338699045,10310.5545903694,330772.866699446,1213,425.9,1.61866621306877,21.4960210778258
31,111.561211162749,0.932092538015975,0.931948767807116,21.923439854556,6483.21057205436,0,4,-6401.72644781233,12813.4528956247,12839.7484762651,681062.933734824,1417,425.9,1.61866621306877,21.4960210778258
32,108.878662194994,0.905768559806408,0.905582331663733,25.4432304365762,4863.75768342773,0,4,-7083.49827795861,14176.9965559172,14203.6354586093,982689.406123956,1518,425.9,1.61866621306877,21.4960210778258
33,100.316290536336,0.968085757942091,0.968025843845612,14.7231842878609,16157.8963020586,0,4,-6579.59333807403,13169.1866761481,13196.0817167862,346401.904607755,1598,425.9,1.61866621306877,21.4960210778258
34,111.159662181479,0.98401136891037,0.98397922018834,9.60871773715745,30608.1021817742,0,4,-5505.68486000034,11021.3697200007,11047.9224707934,137752.565176127,1492,425.9,1.61866621306877,21.4960210778258
35,105.870046862435,0.97618085883668,0.976130179812928,11.0761178418737,19262.0296637633,0,4,-5404.75107167349,10819.502143347,10845.7730325793,172979.344890373,1410,425.9,1.61866621306877,21.4960210778258
36,101.759731215294,0.974364646769003,0.974304983417806,10.2831521449509,16331.0412040223,0,4,-4846.02977005038,9702.05954010075,9727.88314199461,136303.008048672,1289,425.9,1.61866621306877,21.4960210778258
37,116.650931032569,0.936015230212475,0.935839929473331,14.6071466963003,5339.48250751017,0,4,-4504.39028811962,9018.78057623924,9043.79135601126,233638.764394924,1095,425.9,1.61866621306877,21.4960210778258
38,130.613557491126,0.946567430552107,0.946409501775413,13.3114367448801,5993.63491803947,0,4,-4081.70184882197,8173.40369764394,8198.03658281006,179852.263436139,1015,425.9,1.61866621306877,21.4960210778258
39,139.84738338264,0.963678301646676,0.963548581295415,8.23447665396887,7428.89062720217,0,4,-2975.00972745212,5960.01945490424,5983.71021737722,56957.548842397,840,425.9,1.61866621306877,21.4960210778258
40,139.346623523197,0.950447450984632,0.950293081673058,12.1945399514937,6156.97149447238,0,4,-3788.56510614534,7587.13021229068,7611.50120476794,143204.652857319,963,425.9,1.61866621306877,21.4960210778258
41,135.389044492147,0.948127975184258,0.947984417920008,15.3809023784562,6604.52802675143,0,4,-4515.44321701896,9040.88643403792,9065.846916175,256444.219245551,1084,425.9,1.61866621306877,21.4960210778258
42,128.061126246986,0.959211472781395,0.959107948600638,13.8928707024676,9265.57897642079,0,4,-4801.66943011156,9613.33886022312,9638.7305681209,228140.014212181,1182,425.9,1.61866621306877,21.4960210778258
43,125.853026909037,0.973871668519588,0.973815838751467,13.1637060683547,17443.5914979435,0,4,-5624.93121981221,11259.8624396244,11286.112067308,243289.553065468,1404,425.9,1.61866621306877,21.4960210778258
44,117.895228911945,0.979606681597908,0.979565758550947,11.8737010721902,23937.774783441,0,4,-5834.00080292613,11678.0016058523,11704.5643733428,210772.241841836,1495,425.9,1.61866621306877,21.4960210778258
45,116.032527047516,0.973548588084324,0.973497882502377,13.1548534372504,19200.0279003259,0,4,-6267.2967280291,12544.5934560582,12571.3844248219,270823.514415418,1565,425.9,1.61866621306877,21.4960210778258
46,114.357685175874,0.980722036472441,0.980684868162297,11.0018721724947,26385.9732308615,0,4,-5952.52365437805,11915.0473087561,11941.8095142573,188340.093662664,1556,425.9,1.61866621306877,21.4960210778258
47,112.569322996737,0.980393182254347,0.980352532321218,10.5226847689311,24117.9531379514,0,4,-5471.85398560171,10953.7079712034,10980.1080124678,160221.816697889,1447,425.9,1.61866621306877,21.4960210778258
48,109.006298775886,0.975730619520145,0.97567575279713,10.4058353569556,17783.6503789615,0,4,-5004.29430841837,10018.5886168367,10044.5570459287,143689.430374742,1327,425.9,1.61866621306877,21.4960210778258
49,125.89846388611,0.945655989944592,0.945515928063006,14.7135031703165,6751.70131398846,0,4,-4795.79505951368,9601.59011902736,9626.9053598443,251991.072331951,1164,425.9,1.61866621306877,21.4960210778258
50,136.70688194812,0.948781075091199,0.948632182867627,12.8512518730422,6372.2674853586,0,4,-4113.38156228214,8236.76312456427,8261.47873667837,170439.624294911,1032,425.9,1.61866621306877,21.4960210778258
51,145.850053248271,0.945254760733373,0.945083859882384,12.2517514293631,5531.01260330974,0,4,-3785.24201705025,7580.48403410049,7604.84467460719,144251.301976511,961,425.9,1.61866621306877,21.4960210778258
52,133.139541493918,0.925521779393056,0.925292380356278,13.5849610373878,4034.54954474205,0,4,-3937.2839648754,7884.5679297508,7908.99547810097,179752.836061274,974,425.9,1.61866621306877,21.4960210778258
53,121.964761021291,0.957926575702602,0.957807724221536,12.9009118838056,8059.86233499163,0,4,-4236.66438001154,8483.32876002309,8508.18710304672,176752.406134607,1062,425.9,1.61866621306877,21.4960210778258
54,121.044791891109,0.970010028605485,0.96993480292473,12.3647286216182,12894.6660085216,0,4,-4718.54044320366,9447.08088640732,9472.5312705862,182852.270607971,1196,425.9,1.61866621306877,21.4960210778258
55,113.090862571156,0.975800819541997,0.975747673464857,12.5713913701755,18360.7308769219,0,4,-5409.99334261903,10829.9866852381,10856.0995153322,215882.477421581,1366,425.9,1.61866621306877,21.4960210778258
56,120.045248438679,0.907002168087436,0.906810023806625,25.3013426998942,4720.42240476158,0,4,-6768.10022177168,13546.2004435434,13572.6176846871,929509.332390196,1452,425.9,1.61866621306877,21.4960210778258
57,110.815904144493,0.879684543824298,0.879445348086374,28.2573645108414,3677.676498167,0,4,-7200.32012720284,14410.6402544057,14437.2495029746,1204904.28148973,1509,425.9,1.61866621306877,21.4960210778258
58,109.110333888563,0.915515045136451,0.915329635579325,22.818613708005,4937.79856513242,0,4,-6231.26931557904,12472.5386311581,12498.6551095559,711782.042835895,1367,425.9,1.61866621306877,21.4960210778258
59,110.456559978009,0.939395885280919,0.939204503866016,17.3963556839628,4908.50109850098,0,4,-4076.53590280342,8163.07180560684,8187.37512396408,287501.531528797,950,425.9,1.61866621306877,21.4960210778258
60,130.377987241488,0.862184297836438,0.861845406765544,25.9280534747583,2544.13400613351,0,4,-5719.29593613381,11448.5918722676,11474.141269583,820162.027527711,1220,425.9,1.61866621306877,21.4960210778258
61,146.0168856202,0.868776225896999,0.868417364162898,24.3192281973435,2420.92188534102,0,4,-5073.83300391188,10157.6660078238,10182.6858785074,648793.071545571,1097,425.9,1.61866621306877,21.4960210778258
62,171.681952610168,0.810380608039029,0.80977479528516,26.3453406916426,1337.6750536592,0,4,-4420.88260667882,8851.76521335763,8876.0105447708,651738.280613036,939,425.9,1.61866621306877,21.4960210778258
63,200.245306277572,0.770695146034388,0.769849002661822,26.2182500631495,910.832810397644,2.03690489030436e-259,4,-3825.96220559087,7661.92441118173,7685.45260665603,558853.465371932,813,425.9,1.61866621306877,21.4960210778258
64,234.177684563773,0.82212503857334,0.82147427651934,24.6853890498329,1263.32663916107,7.30975538342531e-307,4,-3809.11878372685,7628.23756745371,7651.80842010325,499682.114684122,820,425.9,1.61866621306877,21.4960210778258
65,205.342401365367,0.873424424621773,0.87302344603029,23.2373633995072,2178.23206319024,0,4,-4339.02548947269,8688.05097894539,8712.33854925811,511356.379699436,947,425.9,1.61866621306877,21.4960210778258
66,168.012027770841,0.852334061497272,0.851936397389993,27.7800454455706,2143.35175314295,0,4,-5300.95718782468,10611.9143756494,10637.0108589179,859708.250403174,1114,425.9,1.61866621306877,21.4960210778258
67,143.087865441743,0.858989081744144,0.858663671932784,29.3397031415392,2639.71475892201,0,4,-6254.43269137082,12518.8653827416,12544.7313414541,1119063.63456374,1300,425.9,1.61866621306877,21.4960210778258
68,116.092320435198,0.883754677213954,0.883510121836424,26.4578847201805,3613.72007493327,0,4,-6711.12182456154,13432.2436491231,13458.5707977394,998228.040673431,1426,425.9,1.61866621306877,21.4960210778258
69,116.208646449074,0.90185701861702,0.901661514670042,25.5419270757776,4612.98624686227,0,4,-7033.47969595351,14076.959391907,14103.5587165561,982499.398348976,1506,425.9,1.61866621306877,21.4960210778258
70,114.392888620559,0.895653246773753,0.895444692303614,25.048613562981,4294.57707704139,0,4,-6980.83164116108,13971.6632823222,13998.2460232081,941776.995182762,1501,425.9,1.61866621306877,21.4960210778258
71,113.419769295312,0.932916103420702,0.932773371725852,18.9035504099861,6536.15235497573,0,4,-6160.61680787133,12331.2336157427,12357.5045049749,503855.347525069,1410,425.9,1.61866621306877,21.4960210778258
72,103.924979303305,0.913183284639446,0.912978849673918,19.7266230389793,4466.86447342546,0,4,-5622.35687847107,11254.7137569421,11280.4790151168,495763.922409015,1274,425.9,1.61866621306877,21.4960210778258
73,134.545376308898,0.841295046379897,0.840883538289266,26.6744907106688,2044.41921200004,0,4,-5457.76882887708,10925.5376577542,10950.8228426626,823238.422057304,1157,425.9,1.61866621306877,21.4960210778258
74,169.743506577307,0.855523723801872,0.855069395889299,22.7118711035636,1883.05340730065,0,4,-4349.06538643966,8708.13077287931,8732.45501176917,492100.950929743,954,425.9,1.61866621306877,21.4960210778258
75,200.703261911296,0.660219103940041,0.659071195507406,31.8542504775573,575.149624456127,1.37703532764373e-207,4,-4351.05305074238,8712.10610148477,8736.07343214767,901047.626856419,888,425.9,1.61866621306877,21.4960210778258
76,198.049577896792,0.852066846133606,0.851561954823482,18.7589575503366,1687.62430457356,0,4,-3839.58400463642,7689.16800927283,7713.08463527585,309318.771281915,879,425.9,1.61866621306877,21.4960210778258
77,184.34801509426,0.841302948580112,0.840791572474569,22.0642432740253,1645.17453878357,0,4,-4217.55429251254,8445.10858502508,8469.31131767152,453239.503898748,931,425.9,1.61866621306877,21.4960210778258
78,156.850970825928,0.870819312156927,0.870463442493448,24.9557051651414,2447.01755030882,0,4,-5065.18913695773,10140.3782739155,10165.3616813563,678215.282895225,1089,425.9,1.61866621306877,21.4960210778258
79,150.202961232367,0.895255848841998,0.895001409608416,24.6822017486662,3518.54482596061,0,4,-5728.39770943482,11466.7954188696,11492.4057182778,752375.687704901,1235,425.9,1.61866621306877,21.4960210778258
80,123.442065834296,0.872668125215823,0.872397590071097,28.4052676088491,3225.71075229797,0,4,-6745.96377655632,13501.9275531126,13528.2055094839,1139285.22983763,1412,425.9,1.61866621306877,21.4960210778258
81,108.430324268003,0.893323998556251,0.893111919030518,25.0507708531697,4212.21235509785,0,4,-7018.08001156951,14046.160023139,14072.769271708,946959.550590068,1509,425.9,1.61866621306877,21.4960210778258
82,99.0918471319796,0.92250559273308,0.92235274380356,20.6646088084121,6035.40761212227,0,4,-6780.22297498051,13570.445949961,13597.0946984062,649506.633008351,1521,425.9,1.61866621306877,21.4960210778258
83,97.2682052277123,0.920336023349391,0.92016947845047,19.3664443600906,5526.05351056239,0,4,-6304.38655318563,12618.7731063713,12645.1316249057,538209.904863817,1435,425.9,1.61866621306877,21.4960210778258
84,103.946716550646,0.912523737657951,0.912320776492425,18.7427676355907,4496.05093314011,0,4,-5639.61810078917,11289.2362015783,11315.0752474999,454219.700863777,1293,425.9,1.61866621306877,21.4960210778258
85,109.504537238394,0.877192799582315,0.876636271483745,20.6761064294249,1576.18780046675,6.57033834806953e-301,4,-2960.30688365269,5930.61376730537,5953.12021565807,283005.911627559,662,425.9,1.61866621306877,21.4960210778258
