"Age","power_predict","r.squared","adj.r.squared","sigma","statistic","p.value","df","logLik","AIC","BIC","deviance","df.residual","GHI","Wind_speed","Ambient_temp"
1,170.84717399439,0.928692271073284,0.928491026306793,16.6934231367384,4614.73998686016,0,4,-4515.62446719786,9041.24893439571,9066.11196565222,296226.609711589,1063,538.1,1.42839242982148,18.8160605915389
2,173.567638380128,0.927774770800065,0.927552539325604,14.6966118140374,4174.81264995826,0,4,-4018.31374887328,8046.62749774656,8071.06015595921,210590.638842191,975,538.1,1.42839242982148,18.8160605915389
3,176.839536190333,0.939652083276328,0.939443025828093,12.9303485406442,4494.70751323164,0,4,-3459.30403114205,6928.6080622841,6952.45052834234,144789.928989279,866,538.1,1.42839242982148,18.8160605915389
4,168.672555246137,0.946646416901766,0.946485713338217,14.9969994792083,5890.63736980374,0,4,-4124.78466887905,8259.5693377581,8284.10811415301,224010.353405856,996,538.1,1.42839242982148,18.8160605915389
5,156.83502625735,0.925096716731367,0.924903832740118,20.1746493972935,4796.13010254326,0,4,-5168.91068696239,10347.8213739248,10373.1408937321,474174.197223828,1165,538.1,1.42839242982148,18.8160605915389
6,148.590658959219,0.950473984718273,0.950364494632905,18.7508299676685,8680.91372400115,0,4,-5918.58733919678,11847.1746783936,11873.2545534068,477112.548414493,1357,538.1,1.42839242982148,18.8160605915389
7,143.229948568201,0.956449771052257,0.956361672140023,17.6642330412367,10856.5446132901,0,4,-6377.94165436129,12765.8833087226,12792.4058884549,462733.266210782,1483,538.1,1.42839242982148,18.8160605915389
8,137.572513150704,0.934850461906038,0.934723133818558,22.236579191875,7342.06003096115,0,4,-6955.31957247999,13920.63914496,13947.3335856292,759004.47213027,1535,538.1,1.42839242982148,18.8160605915389
9,142.2362909146,0.968162251350102,0.968098618274852,14.1277619136738,15214.7644531094,0,4,-6118.95322634972,12247.9064526994,12274.4891935854,299590.078690869,1501,538.1,1.42839242982148,18.8160605915389
10,140.240736951327,0.970650584329274,0.970589903249321,13.9887678056392,15995.9345660452,0,4,-5901.21341176806,11812.4268235361,11838.8406294341,283939.841468848,1451,538.1,1.42839242982148,18.8160605915389
11,139.437973778294,0.955645189792953,0.955548556219517,15.6153678870244,9889.37028627552,0,4,-5752.8921272704,11515.7842545408,11541.9370703079,335767.286518276,1377,538.1,1.42839242982148,18.8160605915389
12,144.915490781481,0.959294746779365,0.959197675428282,14.0619341775139,9882.36731106298,0,4,-5124.75821354526,10259.5164270905,10285.218692306,248754.394958418,1258,538.1,1.42839242982148,18.8160605915389
13,163.31018209402,0.947648678855286,0.94749938801552,14.7869831104733,6347.66795028265,0,4,-4340.9924151513,8691.98483030261,8716.79604762394,230024.922723912,1052,538.1,1.42839242982148,18.8160605915389
14,169.402735452947,0.938649232684008,0.938464441216189,13.085284780954,5079.5052594209,0,4,-3988.42282217583,7986.84564435166,8011.38442074657,170539.779087472,996,538.1,1.42839242982148,18.8160605915389
15,174.245997400816,0.935208832767748,0.93500249147083,13.2966096424087,4532.3396079041,0,4,-3788.09520996582,7586.19041993165,7610.45163277691,166545.437959607,942,538.1,1.42839242982148,18.8160605915389
16,165.390954812527,0.938423480892552,0.938239853101973,14.977009479889,5110.4654580565,0,4,-4164.70543486596,8339.41086973193,8363.9993977811,225656.677838448,1006,538.1,1.42839242982148,18.8160605915389
17,158.47590127437,0.930948372665615,0.930754043508014,18.7310855488821,4790.57483784734,0,4,-4651.55786848456,9313.11573696912,9337.99280660639,374009.901184948,1066,538.1,1.42839242982148,18.8160605915389
18,151.286755592572,0.93809602127325,0.937955223747715,20.6558143890983,6662.73088046669,0,4,-5881.29248012951,11772.584960259,11798.5232460796,562768.059193408,1319,538.1,1.42839242982148,18.8160605915389
19,143.088746291249,0.886702618555549,0.886465924861723,28.8376526052276,3746.20296901288,0,4,-6882.09066304089,13774.1813260818,13800.5433180446,1194192.25837178,1436,538.1,1.42839242982148,18.8160605915389
20,136.522844137721,0.908851364501125,0.908665346877658,25.7935236593667,4885.83472663229,0,4,-6880.19462908664,13770.3892581733,13796.867933537,977999.618266474,1470,538.1,1.42839242982148,18.8160605915389
21,133.962450323236,0.927131021604489,0.926988327782566,22.5501832525833,6497.34521865063,0,4,-6963.26852185677,13936.5370437135,13963.2217282821,779038.491558836,1532,538.1,1.42839242982148,18.8160605915389
22,140.111398299577,0.945411125284022,0.945298026786682,20.124177317697,8359.18378689092,0,4,-6417.08665278582,12844.1733055716,12870.5767915486,586414.678410033,1448,538.1,1.42839242982148,18.8160605915389
23,139.216280052718,0.973912561893281,0.9738570173125,12.8060188355535,17533.8898629298,0,4,-5605.98760458031,11221.9752091606,11248.242561074,231067.712848922,1409,538.1,1.42839242982148,18.8160605915389
24,145.310501144559,0.961024299408837,0.960932807153928,14.6133375093096,10503.8869177117,0,4,-5255.31628108032,10520.6325621606,10546.413445348,272916.431179751,1278,538.1,1.42839242982148,18.8160605915389
25,155.634197780541,0.948415176152131,0.948272676638739,15.0557250476844,6655.56782319524,0,4,-4500.45589202856,9010.91178405711,9035.88144893323,246168.894388658,1086,538.1,1.42839242982148,18.8160605915389
26,162.738239387905,0.933111456515057,0.932911191414803,14.6943219143536,4659.38126678128,0,4,-4129.03409945415,8268.06819890831,8292.63688566161,216354.942715697,1002,538.1,1.42839242982148,18.8160605915389
27,163.009057507096,0.955240685388028,0.955063537704868,9.99776350750648,5392.34083304796,0,4,-2833.62529558847,5677.25059117694,5700.43032395538,75766.0985652375,758,538.1,1.42839242982148,18.8160605915389
28,146.065175902984,0.929810963550194,0.929592078821141,12.1829667481651,4247.94807555145,0,4,-3783.72795935552,7577.45591871105,7601.82173788211,142784.540992994,962,538.1,1.42839242982148,18.8160605915389
29,152.57206070847,0.964372069035981,0.964274279655476,12.1735547741195,9861.7259262201,0,4,-4296.26667114891,8602.53334229781,8627.53501459919,161977.611371468,1093,538.1,1.42839242982148,18.8160605915389
30,143.286220809508,0.934984065731431,0.934821390332928,20.2251581810384,5747.54433880345,0,4,-5322.31324566213,10654.6264913243,10680.0893599041,490459.371114182,1199,538.1,1.42839242982148,18.8160605915389
31,135.027060932711,0.89549101000386,0.895270216363023,28.6947320714868,4055.78261497711,0,4,-6798.52575849146,13607.0515169829,13633.3576424428,1169210.46108927,1420,538.1,1.42839242982148,18.8160605915389
32,135.739294523693,0.881487574866726,0.881247021906374,29.9952679627612,3664.42206147838,0,4,-7141.20494083309,14292.4098816662,14318.9156206955,1329780.3960333,1478,538.1,1.42839242982148,18.8160605915389
33,133.481648283658,0.94410555044739,0.943997297801387,20.403518999171,8721.31615541131,0,4,-6885.00253232975,13780.0050646595,13806.7447837752,644854.257114227,1549,538.1,1.42839242982148,18.8160605915389
34,141.351921548223,0.980622030182725,0.980582510189896,11.7919732968843,24813.3149826127,0,4,-5730.37474932622,11470.7494986524,11497.2315649963,204543.482958849,1471,538.1,1.42839242982148,18.8160605915389
35,138.155891247151,0.966177912943596,0.966104915633402,14.8680547487793,13235.8015710457,0,4,-5738.70305938919,11487.4061187784,11513.605781735,307272.082297652,1390,538.1,1.42839242982148,18.8160605915389
36,136.767639176456,0.956989497302639,0.956890242296414,15.1277792221798,9641.725225792,0,4,-5390.6514629186,10791.3029258372,10817.1688845496,297504.615453518,1300,538.1,1.42839242982148,18.8160605915389
37,147.407469268422,0.950082468287226,0.949950178008836,14.4241335610233,7181.80111074369,0,4,-4641.7841631903,9293.5683263806,9318.74466937701,235518.972012423,1132,538.1,1.42839242982148,18.8160605915389
38,160.782519426784,0.939559036806532,0.939379509193086,14.4842761576919,5233.50708435406,0,4,-4147.28626682355,8304.5725336471,8329.18082456786,211892.198370405,1010,538.1,1.42839242982148,18.8160605915389
39,167.769595720054,0.957483423516741,0.957333717261519,9.29315143711663,6395.7476064854,0,4,-3120.86842889177,6251.73685778354,6275.49820966425,73580.9894154719,852,538.1,1.42839242982148,18.8160605915389
40,162.669148796696,0.930638723518705,0.930429172834471,14.6038428406151,4441.11517422494,0,4,-4085.91854304095,8181.83708608191,8206.36083993172,211779.320133391,993,538.1,1.42839242982148,18.8160605915389
41,152.921760344721,0.944118961705757,0.943965442369784,16.555050177895,6149.83745025186,0,4,-4629.28653121859,9268.57306243718,9293.57017477472,299284.097540741,1092,538.1,1.42839242982148,18.8160605915389
42,145.258707255718,0.960483607414278,0.960384898690084,14.5033310519756,9730.4834527612,0,4,-4930.44351831772,9870.88703663543,9896.35821086506,252626.280535443,1201,538.1,1.42839242982148,18.8160605915389
43,138.958555193549,0.95622685122233,0.956133848781584,17.656569071755,10281.7393130185,0,4,-6072.70291852564,12155.4058370513,12181.6837934225,440197.257116546,1412,538.1,1.42839242982148,18.8160605915389
44,135.295101125967,0.950389908624709,0.950289821016016,19.1348325720052,9495.58013263959,0,4,-6514.33662563027,13038.6732512605,13065.2092628344,544452.882709741,1487,538.1,1.42839242982148,18.8160605915389
45,137.312803359654,0.963128093689331,0.963056311911958,16.575892860429,13417.4456099458,0,4,-6528.539267221,13067.078534442,13093.7924303887,423405.505369569,1541,538.1,1.42839242982148,18.8160605915389
46,138.205605035869,0.970404529330866,0.970344740501232,14.3625328052621,16230.5322793787,0,4,-6078.42032344984,12166.8406468997,12193.3699470631,306329.28764461,1485,538.1,1.42839242982148,18.8160605915389
47,144.326791143463,0.975109326893592,0.975056141694647,13.2254906303234,18334.223547724,0,4,-5631.52428311754,11273.0485662351,11299.2981939187,245578.697787531,1404,538.1,1.42839242982148,18.8160605915389
48,140.269444535199,0.964055394604549,0.963971931898522,14.0385854680363,11550.7325427169,0,4,-5260.72654407139,10531.4530881428,10557.2882775273,254629.791470821,1292,538.1,1.42839242982148,18.8160605915389
49,149.741620302041,0.944208305649358,0.944067060853534,16.0833746935022,6684.90686781241,0,4,-4987.90222990292,9985.80445980583,10011.2087992893,306529.805714931,1185,538.1,1.42839242982148,18.8160605915389
50,156.497960810041,0.938770188068489,0.938588855950231,14.1869974497438,5177.07616880642,0,4,-4138.47195719235,8286.94391438471,8311.56697636495,203887.418295343,1013,538.1,1.42839242982148,18.8160605915389
51,161.833499365483,0.921320261475618,0.921079895675645,14.1773186759921,3832.99230414824,0,4,-4011.58972944456,8033.17945888911,8057.64774066213,197378.430273502,982,538.1,1.42839242982148,18.8160605915389
52,156.331076256875,0.935512159044824,0.935310844244756,12.580541982878,4647.01134108353,0,4,-3810.79756455501,7631.59512911002,7655.95576961671,152097.50515622,961,538.1,1.42839242982148,18.8160605915389
53,151.222139983278,0.946807035229905,0.946662095271403,14.5980424838726,6532.40862642658,0,4,-4528.30407534441,9066.60815068882,9091.64615375858,234626.231641404,1101,538.1,1.42839242982148,18.8160605915389
54,145.588029180235,0.946431064681432,0.946297476314054,16.4875167169771,7084.6817223508,0,4,-5093.39795131353,10196.7959026271,10222.2753687325,327021.363613598,1203,538.1,1.42839242982148,18.8160605915389
55,143.634249294937,0.953892396819871,0.953788238077747,17.6408493418284,9158.06371476944,0,4,-5711.15242500165,11432.3048500033,11458.2770342588,413273.022985443,1328,538.1,1.42839242982148,18.8160605915389
56,142.573852653811,0.963702073190213,0.963629670410672,16.8884942411875,13310.2911145445,0,4,-6400.31857536873,12810.6371507375,12837.2298484803,428972.741552876,1504,538.1,1.42839242982148,18.8160605915389
57,142.354876699928,0.957633709186107,0.957551709913564,18.0272372253811,11678.563473642,0,4,-6697.01531708755,13404.0306341751,13430.7735718297,503720.987069257,1550,538.1,1.42839242982148,18.8160605915389
58,141.852666447867,0.968488442324821,0.968424351021075,15.2549077705365,15111.0741351295,0,4,-6126.73636292351,12263.472725847,12289.9683331606,343250.511354173,1475,538.1,1.42839242982148,18.8160605915389
59,145.658727168888,0.973765098677123,0.973711228243195,13.3631980872491,18076.058195128,0,4,-5874.76133356096,11759.5226671219,11785.9707197292,260898.167216944,1461,538.1,1.42839242982148,18.8160605915389
60,143.952891851961,0.956202315253704,0.956103967159214,16.2013456688436,9722.63184366155,0,4,-5631.40101185303,11272.8020237061,11298.8041481708,350678.091579091,1336,538.1,1.42839242982148,18.8160605915389
61,153.931502480656,0.949699351411829,0.949572007997681,15.4392936321081,7457.78144689546,0,4,-4939.30742370809,9888.61484741617,9914.01918689963,282470.568612269,1185,538.1,1.42839242982148,18.8160605915389
62,165.811378465625,0.937379367896448,0.937201636679503,15.737448294853,5274.14026646524,0,4,-4427.65174803803,8865.30349607605,8890.13833176912,261784.313726661,1057,538.1,1.42839242982148,18.8160605915389
63,173.710955421912,0.938983164142223,0.938775388310698,12.9591324933702,4519.21264013921,0,4,-3520.94973347463,7051.89946694925,7075.82740517429,147954.360298016,881,538.1,1.42839242982148,18.8160605915389
64,184.404880665273,0.936701469127535,0.936439544172201,14.0409990269227,3576.22078404812,0,4,-2958.4052348676,5926.81046973521,5949.76883839525,142933.498913682,725,538.1,1.42839242982148,18.8160605915389
67,145.877429391626,0.977978400684701,0.976946138216796,12.4417302462921,947.412534207358,5.9778245984715e-53,4,-265.858402333561,541.716804667123,552.814343193003,9906.98569737591,64,538.1,1.42839242982148,18.8160605915389
68,145.619980244801,0.956730903985168,0.956642839339276,16.90322729196,10863.9612899912,0,4,-6274.24019191241,12558.4803838248,12584.9726093324,421149.942910515,1474,538.1,1.42839242982148,18.8160605915389
69,143.170968871306,0.954785123665055,0.954693718928528,18.5986598582259,10445.6854201608,0,4,-6458.93506131493,12927.8701226299,12954.3960637068,513330.660406622,1484,538.1,1.42839242982148,18.8160605915389
70,146.852130201984,0.968192544974549,0.968129767102788,15.2928203027687,15422.513025995,0,4,-6316.99208380432,12643.9841676086,12670.6296362899,355482.936275416,1520,538.1,1.42839242982148,18.8160605915389
71,146.993881400867,0.972939867846588,0.972883453394566,13.4370850059232,17246.2876615419,0,4,-5794.46610941305,11598.9322188261,11625.30461662,259819.00972377,1439,538.1,1.42839242982148,18.8160605915389
72,146.454526430215,0.967751623406322,0.967679800741303,14.0180979221078,13474.1814877785,0,4,-5482.09476567286,10974.1895313457,11000.2325330355,264695.022419571,1347,538.1,1.42839242982148,18.8160605915389
73,155.215441471484,0.925821032972622,0.925642431928415,20.4707997946239,5183.73807433458,0,4,-5545.41929773737,11100.8385954747,11126.4930896262,522140.840712541,1246,538.1,1.42839242982148,18.8160605915389
74,166.328627459416,0.945014245722916,0.944861507516591,14.4949737092309,6187.1503434488,0,4,-4434.52698312579,8879.05396625158,8903.99603216158,226912.603857798,1080,538.1,1.42839242982148,18.8160605915389
75,179.300075067142,0.923734977205953,0.9235034032501,15.3273167677247,3988.94156212816,0,4,-4113.3825347442,8236.76506948841,8261.26368502483,232107.519626598,988,538.1,1.42839242982148,18.8160605915389
76,175.253372164411,0.920701973575782,0.920458479124121,14.0276815944363,3781.20309229125,0,4,-3980.82762659639,7971.65525319278,7996.09811549061,192250.006343845,977,538.1,1.42839242982148,18.8160605915389
77,166.481111227192,0.946467953781753,0.946307678194273,13.2757782650193,5905.25337429291,0,4,-4026.90501661642,8063.81003323284,8088.37871998614,176598.781119042,1002,538.1,1.42839242982148,18.8160605915389
78,158.803704145117,0.947877923483372,0.947743818655285,16.3106893349215,7068.18641060237,0,4,-4924.5848531809,9859.1697063618,9884.49350150076,310200.991952657,1166,538.1,1.42839242982148,18.8160605915389
79,154.561184094812,0.961205963904996,0.9611169186806,15.743158062432,10794.5818591569,0,4,-5471.87344498926,10953.7468899785,10979.6396173973,323936.062692785,1307,538.1,1.42839242982148,18.8160605915389
80,141.023598083306,0.960629161193491,0.960549301479887,16.539131543283,12028.9582550142,0,4,-6263.17951920477,12536.3590384095,12562.8681501202,404569.907992699,1479,538.1,1.42839242982148,18.8160605915389
81,138.818743293046,0.963351801223234,0.96328031578999,15.5657403018055,13476.1972824039,0,4,-6418.90220606519,12847.8044121304,12874.508589901,372645.513018322,1538,538.1,1.42839242982148,18.8160605915389
82,137.880689290862,0.968237568236006,0.968175125709602,14.5145722736527,15506.0601164156,0,4,-6261.95762446966,12533.9152489393,12560.5803640113,321486.705446097,1526,538.1,1.42839242982148,18.8160605915389
83,140.08220837167,0.977476674279256,0.977430361752071,11.5894125120989,21106.0966374063,0,4,-5658.38888249371,11326.7777649874,11353.2189869925,195964.829785992,1459,538.1,1.42839242982148,18.8160605915389
84,142.921362044557,0.975972439901853,0.975919593362047,11.5840108769405,18468.0481162514,0,4,-5290.19304339518,10590.3860867904,10616.4916122813,183034.216108011,1364,538.1,1.42839242982148,18.8160605915389
85,151.223612328497,0.965928974116107,0.965776871321982,12.7269858260924,6350.50118359644,0,4,-2676.75434238983,5363.50868477967,5386.08965015988,108847.985042199,672,538.1,1.42839242982148,18.8160605915389
