\relax 
\@writefile{toc}{\contentsline {section}{\numberline {1}Introduction}{1}}
\@writefile{toc}{\contentsline {section}{\numberline {2}Data Sources}{2}}
\@writefile{toc}{\contentsline {section}{\numberline {3}Methodology}{2}}
\@writefile{toc}{\contentsline {subsection}{\numberline {3.1}Data Cleaning}{3}}
\@writefile{toc}{\contentsline {subsection}{\numberline {3.2}$\beta $ Pseudo-month Predictive Model}{3}}
\newlabel{beta}{{1}{3}}
\@writefile{toc}{\contentsline {subsection}{\numberline {3.3}$\xi $ Piecewise Regression Model}{3}}
\newlabel{xi}{{2}{4}}
\@writefile{toc}{\contentsline {subsection}{\numberline {3.4}$\gamma $ Cross-sectional Model}{4}}
\@writefile{toc}{\contentsline {subsection}{\numberline {3.5}Seasonal Decomposition}{4}}
\providecommand*\caption@xref[2]{\@setref\relax\@undefined{#1}}
\newlabel{app:trend}{{1a}{5}}
\newlabel{sub@app:trend}{{a}{5}}
\newlabel{app:decompose}{{1b}{5}}
\newlabel{sub@app:decompose}{{b}{5}}
\@writefile{lof}{\contentsline {figure}{\numberline {1}{\ignorespaces (a) Results of the dpa1yun system with seasonality shown. (b) The dpa1yun system after decomposition. The seasonality have been significantly reduced and the trend is strongly linear.\relax }}{5}}
\@writefile{toc}{\contentsline {section}{\numberline {4}Results}{5}}
\@writefile{lof}{\contentsline {figure}{\numberline {2}{\ignorespaces A histogram of the system change rate distribution. The distribution shows strong normality with a few outliers on both sides.\relax }}{6}}
\newlabel{fig:hist}{{2}{6}}
\@writefile{toc}{\contentsline {section}{\numberline {5}Discussion}{6}}
\newlabel{app:brand}{{3a}{7}}
\newlabel{sub@app:brand}{{a}{7}}
\newlabel{app:cz}{{3b}{7}}
\newlabel{sub@app:cz}{{b}{7}}
\@writefile{lof}{\contentsline {figure}{\numberline {3}{\ignorespaces (a) Change rate distribution based on the module brand. Different brands show different performance, both in distribution and in the magnitude of the change rate. (b) Change rate distribution based on the climate zone of the system. There is less difference when compared to the module brand, however there is still a significant difference between some of the climates. \relax }}{7}}
