"Age","power_predict","r.squared","adj.r.squared","sigma","statistic","p.value","df","logLik","AIC","BIC","deviance","df.residual","GHI","Wind_speed","Ambient_temp"
1,37.4527108283391,0.896842390557345,0.8965792333904,6.54314101671054,3408.01050933536,0,4,-3888.87651866026,7787.75303732052,7813.11938590782,50347.7285727224,1176,506.9,1.09961782521261,22.1133672693379
2,35.7274214782693,0.989851237214455,0.989826957877647,2.15952578638872,40769.2864538072,0,4,-2751.54141541698,5513.08283083397,5538.76922302027,5848.0937340856,1254,506.9,1.09961782521261,22.1133672693379
3,37.690496632616,0.988221680433292,0.988195794016662,2.3302251526496,38175.2984413902,0,4,-3098.64986559561,6207.29973119122,6233.40891031767,7411.88074268574,1365,506.9,1.09961782521261,22.1133672693379
4,40.8176046839854,0.975438297527802,0.975386075623184,3.27665742673865,18678.7192971072,0,4,-3685.1509054723,7380.30181094461,7406.57623499499,15149.1787718964,1411,506.9,1.09961782521261,22.1133672693379
5,42.8242689749695,0.98212623579751,0.982088527434213,2.82542396269833,26045.3159443137,0,4,-3502.5304572701,7015.06091454021,7041.37405754508,11351.8552491037,1422,506.9,1.09961782521261,22.1133672693379
6,41.5928284095521,0.990809081853564,0.990788489803945,1.89872559694915,48116.0982128986,0,4,-2764.74013091792,5539.48026183584,5565.49356781845,4827.30775707077,1339,506.9,1.09961782521261,22.1133672693379
7,37.3323394306201,0.984814390716625,0.984777442762165,2.41988029738969,26654.0977731905,0,4,-2846.38298380166,5702.76596760332,5728.36818946529,7220.22686600572,1233,506.9,1.09961782521261,22.1133672693379
8,35.1677003208226,0.984425518594152,0.984382495164854,2.28823088042461,22881.1495191923,0,4,-2446.91840816194,4903.83681632388,4928.80648119999,5686.29661047188,1086,506.9,1.09961782521261,22.1133672693379
9,34.0584249477551,0.965900422507789,0.965798021374178,2.50527153094572,9432.51689169931,0,4,-2342.34366575594,4694.68733151188,4719.24108545169,6270.10905832336,999,506.9,1.09961782521261,22.1133672693379
10,30.8494395271684,0.961517950003023,0.9613872069113,2.36701622810965,7354.25434212714,0,4,-2020.85993118313,4051.71986236627,4075.65908727782,4947.24222271071,883,506.9,1.09961782521261,22.1133672693379
11,34.2071738467767,0.703794980136381,0.702651331411039,7.22916455106899,615.394364144305,9.66451172932851e-205,4,-2651.10029030071,5312.20058060142,5335.50345635062,40606.6572226981,777,506.9,1.09961782521261,22.1133672693379
12,34.5008290680987,0.758055212439267,0.757287133748598,7.88939462168087,986.949933188492,1.36752336882581e-290,4,-3304.74635615475,6619.49271230949,6643.76975630254,58819.2073842937,945,506.9,1.09961782521261,22.1133672693379
13,33.5859532143508,0.982142542574162,0.982098340946871,2.58933925615367,22219.6014661001,0,4,-2880.33167899931,5770.66335799862,5796.17996831125,8126.06947355162,1212,506.9,1.09961782521261,22.1133672693379
14,33.9314468719444,0.989684282098621,0.989660801708861,2.11829029093564,42149.3975270369,0,4,-2866.13919939738,5742.27839879476,5768.21290389682,5914.06865129398,1318,506.9,1.09961782521261,22.1133672693379
15,36.3814839966752,0.984582150541631,0.984550030021926,2.6853479334418,30652.7465802601,0,4,-3473.34254530293,6956.68509060586,6983.06095220312,10383.9746740418,1440,506.9,1.09961782521261,22.1133672693379
16,38.9265036571999,0.978985296135993,0.978941085679056,2.99495820516856,22143.7497814881,0,4,-3595.68959559276,7201.37919118552,7227.70633980179,12790.8986519074,1426,506.9,1.09961782521261,22.1133672693379
17,39.9700379305197,0.975224892641211,0.975173061872678,3.27586948989826,18815.5591792875,0,4,-3744.73764809048,7499.47529618096,7525.83033887237,15388.7141918896,1434,506.9,1.09961782521261,22.1133672693379
18,38.3934772364687,0.988222441974097,0.988196113602951,2.27520016129873,37534.5074140862,0,4,-3014.39185845191,6038.78371690383,6064.80817945485,6946.91100867277,1342,506.9,1.09961782521261,22.1133672693379
19,36.9216241311462,0.981846827265363,0.981801967695179,2.57956918829289,21887.1207019705,0,4,-2880.46792988048,5770.93585976097,5796.46068700232,8078.17111738869,1214,506.9,1.09961782521261,22.1133672693379
20,35.9563102282639,0.986021179931933,0.985983636100058,2.10300913138752,26263.2003898509,0,4,-2421.94343565006,4853.88687130012,4878.99675341549,4940.09715328313,1117,506.9,1.09961782521261,22.1133672693379
21,33.9061402425705,0.974021592804771,0.973940325628978,2.30831025010456,11985.4244139512,0,4,-2169.99832240644,4349.99664481289,4374.34691187188,5109.83606609751,959,506.9,1.09961782521261,22.1133672693379
22,32.9600183571098,0.958719279164232,0.958584227732926,2.53137502095753,7098.91979592773,0,4,-2160.22842631838,4330.45685263677,4354.58415281804,5876.00715849934,917,506.9,1.09961782521261,22.1133672693379
23,32.6520374943214,0.961544145116402,0.961413786286288,2.20205938310326,7376.1335866265,0,4,-1961.20222514221,3932.40445028443,3956.354936462,4291.42299114112,885,506.9,1.09961782521261,22.1133672693379
24,33.0483720085505,0.973556083274586,0.973480815959429,2.46607374083232,12934.6460842198,0,4,-2454.21286898879,4918.42573797758,4943.24641603967,6409.92175876472,1054,506.9,1.09961782521261,22.1133672693379
25,32.4294763765472,0.982784100621393,0.982739345250392,2.48880053708711,21959.0203058925,0,4,-2696.992781067,5403.98556213399,5429.25781042466,7148.02384286947,1154,506.9,1.09961782521261,22.1133672693379
26,33.399764506925,0.98907597674647,0.989050131265586,2.26421717266446,38268.8169431007,0,4,-2842.40205281329,5694.80410562657,5720.54583434607,6500.6294855256,1268,506.9,1.09961782521261,22.1133672693379
27,34.6892218139072,0.987524194890283,0.987497725713954,2.47619943991083,37308.4595688685,0,4,-3295.78792324991,6601.57584649983,6627.86086003529,8670.03102402762,1414,506.9,1.09961782521261,22.1133672693379
28,37.4948310744957,0.977096683430088,0.977049654032614,3.23540102538706,20776.2960171267,0,4,-3796.8761920811,7603.75238416221,7630.20043676946,15293.4847206056,1461,506.9,1.09961782521261,22.1133672693379
29,41.8221149772785,0.980698591645775,0.980658822260429,2.84433693699154,24659.6366308448,0,4,-3595.82928139375,7201.6585627875,7228.08952136102,11779.4078018117,1456,506.9,1.09961782521261,22.1133672693379
30,40.2976620349978,0.986471745531044,0.98644326499532,2.41500513655117,34636.6990806173,0,4,-3285.61168021583,6581.22336043165,6607.5470113213,8310.95597863513,1425,506.9,1.09961782521261,22.1133672693379
31,36.6146068091285,0.985031469271122,0.98499790754303,2.40567171646807,29349.8435652967,0,4,-3080.25926382141,6170.51852764282,6196.52810923048,7743.34907312048,1338,506.9,1.09961782521261,22.1133672693379
32,35.7654812345211,0.98485785565373,0.984818694935593,2.16542526253355,25149.126535696,0,4,-2548.96692660653,5107.93385321305,5133.23194135451,5439.31721843744,1160,506.9,1.09961782521261,22.1133672693379
33,32.5809186473792,0.968092210201554,0.96800463163852,2.63236857733092,11053.9860060737,0,4,-2616.34070830999,5242.68141661997,5267.68308892135,7573.79520932272,1093,506.9,1.09961782521261,22.1133672693379
34,31.5643146007225,0.966635324646484,0.966519742630248,2.24421421852039,8363.19832551738,0,4,-1935.74114998111,3881.48229996222,3905.32476602046,4361.60679915548,866,506.9,1.09961782521261,22.1133672693379
35,31.9439535371186,0.953006197135099,0.952854441044039,2.47869217613864,6279.8546699424,0,4,-2168.77844281583,4347.55688563166,4371.7489116359,5707.69694586327,929,506.9,1.09961782521261,22.1133672693379
36,31.9734188157263,0.971302879336123,0.971215388114587,2.55435999731638,11101.7181184759,0,4,-2326.4552928293,4662.9105856586,4687.38899914734,6420.35891595588,984,506.9,1.09961782521261,22.1133672693379
37,30.7251782045695,0.977641914744069,0.977584092109786,2.81124374415805,16907.5990202435,0,4,-2852.78283516771,5715.56567033543,5740.86375847689,9167.58601131859,1160,506.9,1.09961782521261,22.1133672693379
38,30.9633896889079,0.988518499981834,0.988491653138455,2.19118485957287,36820.6602932253,0,4,-2833.74818427518,5677.49636855035,5703.29671458833,6160.05646695784,1283,506.9,1.09961782521261,22.1133672693379
39,33.6684775589813,0.989933485987674,0.989911442526333,2.14775961031572,44908.2596730264,0,4,-2997.93893103965,6005.8778620793,6032.00526944321,6319.63374087383,1370,506.9,1.09961782521261,22.1133672693379
40,36.3203522750756,0.976315469536275,0.976265431795859,3.25641105410079,19511.5818862564,0,4,-3699.77663287484,7409.55326574968,7435.85939120954,15057.9823936432,1420,506.9,1.09961782521261,22.1133672693379
41,40.0896786635304,0.973744410570949,0.973690608133594,3.33879237775455,18098.5185513617,0,4,-3850.83331038433,7711.66662076866,7738.12490181453,16319.9905691247,1464,506.9,1.09961782521261,22.1133672693379
42,38.6394173143443,0.983448294884252,0.983413498026966,2.57031358468923,28262.5608053846,0,4,-3379.40217811573,6768.80435623146,6795.13500012925,9427.49251503142,1427,506.9,1.09961782521261,22.1133672693379
43,36.2707051596952,0.990715744682982,0.990694286465763,1.91870930731516,46169.5272512019,0,4,-2693.90673865642,5397.81347731284,5423.67176142668,4778.51613695921,1298,506.9,1.09961782521261,22.1133672693379
44,30.6754478103373,0.895663057545275,0.895401342806676,5.99877620622993,3422.28742003816,0,4,-3850.58947844137,7711.17895688274,7736.62934106162,43038.4379030267,1196,506.9,1.09961782521261,22.1133672693379
45,21.0166518857914,0.968794840689149,0.96870113150203,1.85565026237004,10338.3122879078,0,4,-2041.28123605941,4092.56247211883,4117.11622605864,3439.99445833776,999,506.9,1.09961782521261,22.1133672693379
46,29.214138477838,0.941220410701937,0.941036341006849,3.04785380828002,5113.39148061591,0,4,-2435.10374129465,4880.2074825893,4904.55255484262,8899.25749750784,958,506.9,1.09961782521261,22.1133672693379
47,29.5274269746192,0.960885840895487,0.960753250525641,2.27009881516707,7247.02587384682,0,4,-1988.25481137385,3986.50962274771,4010.46010892527,4560.71353810131,885,506.9,1.09961782521261,22.1133672693379
48,30.6141578104953,0.974155764059957,0.974076406119507,2.38018484663717,12275.4668093701,0,4,-2240.6763789306,4491.35275786121,4515.79562015903,5534.97846636551,977,506.9,1.09961782521261,22.1133672693379
49,27.9372116587317,0.978676017110807,0.978619454821976,2.5758396146732,17302.6240157866,0,4,-2682.4009461394,5374.8018922788,5399.97383192837,7504.12813390785,1131,506.9,1.09961782521261,22.1133672693379
50,29.8832021822788,0.983686435221939,0.983647990057498,2.51429942105408,25586.7402184144,0,4,-2987.36796718871,5984.73593437742,6010.49727865758,8047.52610970149,1273,506.9,1.09961782521261,22.1133672693379
51,31.2679326175374,0.985290895991123,0.985258377706653,2.61631205689049,30299.5964280141,0,4,-3238.13553604389,6486.27107208779,6512.35094710105,9288.78547314443,1357,506.9,1.09961782521261,22.1133672693379
52,34.4404795007705,0.975558785379661,0.975508077465511,3.32281178744174,19238.787509427,0,4,-3796.63456464968,7603.26912929937,7629.66572347644,15965.3990407055,1446,506.9,1.09961782521261,22.1133672693379
53,36.7357977025407,0.971591678670459,0.971533583943814,3.44008831241819,16724.2662936161,0,4,-3902.6721559166,7815.34431183319,7841.8128004362,17360.7825451456,1467,506.9,1.09961782521261,22.1133672693379
54,37.1293835856756,0.982918665249925,0.982883686407433,2.61167944742881,28100.3771204079,0,4,-3492.64840074757,6995.29680149513,7021.758487376,9992.57387041878,1465,506.9,1.09961782521261,22.1133672693379
55,36.9761134813277,0.984350543802676,0.984316767997934,2.38416483746843,29143.6592350449,0,4,-3187.17279307032,6384.34558614065,6410.54524909725,7901.09634138703,1390,506.9,1.09961782521261,22.1133672693379
56,33.3900079615503,0.981176359171538,0.98113074453302,2.55992837151914,21510.1202387604,0,4,-2927.77269425171,5865.54538850342,5891.16777981589,8112.90278492806,1238,506.9,1.09961782521261,22.1133672693379
57,30.3879301957927,0.97023313916121,0.970151808940339,2.78688303452046,11929.5524931625,0,4,-2691.13262989795,5392.26525979589,5417.28966974446,8527.85531881155,1098,506.9,1.09961782521261,22.1133672693379
58,28.9168804880499,0.966918134193072,0.966818689706679,2.29825611575999,9723.1950132088,0,4,-2253.58733365767,4517.17466731535,4541.72343372357,5271.41721128092,998,506.9,1.09961782521261,22.1133672693379
59,28.7625570455671,0.952706888978422,0.95254693482615,2.46163292070472,5956.12477356581,0,4,-2064.90473277269,4139.80946554538,4163.77118768273,5374.89769639568,887,506.9,1.09961782521261,22.1133672693379
60,31.348876274904,0.902037818348302,0.901727156038625,4.15370037668879,2903.59593117094,0,4,-2698.78699844841,5407.57399689683,5431.8563068198,16321.5525710622,946,506.9,1.09961782521261,22.1133672693379
61,28.550340657382,0.977082189209971,0.977019170481859,2.55076145184029,15504.6320115337,0,4,-2577.08318783126,5164.16637566251,5189.15892387377,7098.46492675609,1091,506.9,1.09961782521261,22.1133672693379
62,28.5475372671085,0.981966416544466,0.981775247815255,2.60775462687459,5136.64771743411,2.29438156188941e-246,4,-680.307793122221,1370.61558624444,1388.91299732324,1924.50872689799,283,506.9,1.09961782521261,22.1133672693379
63,31.2560682335889,0.975081762872068,0.974844446327993,3.28647233686445,4108.78123423921,3.96423804693424e-252,4,-830.1796528141,1670.3593056282,1689.18526114213,3402.28363260722,315,506.9,1.09961782521261,22.1133672693379
64,33.3994203601318,0.963543502693027,0.963428012205254,4.01099948854768,8343.05509721188,0,4,-2668.38380391828,5346.76760783656,5371.05517814928,15235.4467015819,947,506.9,1.09961782521261,22.1133672693379
65,37.7190860136255,0.942943020673724,0.942796845662641,4.58130564860319,6450.78124970907,0,4,-3453.5806040107,6917.1612080214,6942.50632515429,24577.3712531764,1171,506.9,1.09961782521261,22.1133672693379
66,37.2124522921561,0.973542784147659,0.97347511863397,3.27165148742268,14387.5769365223,0,4,-3063.17934403697,6136.35868807394,6161.71230861024,12555.4441528969,1173,506.9,1.09961782521261,22.1133672693379
67,35.1688175763736,0.977175398538017,0.977117517046567,2.87197540737171,16882.3465679628,0,4,-2934.5617662447,5879.12353248939,5904.51945446244,9757.67116206816,1183,506.9,1.09961782521261,22.1133672693379
68,33.4413370308754,0.975464542622849,0.975393630896325,2.85137753973532,13756.0399449416,0,4,-2568.34002119745,5146.68004239491,5171.42452850647,8439.30732132309,1038,506.9,1.09961782521261,22.1133672693379
69,29.7817933168881,0.971152310960244,0.971072840742503,2.74268293826079,12220.3303145959,0,4,-2651.66386933194,5313.32773866387,5338.31114610475,8191.79526311145,1089,506.9,1.09961782521261,22.1133672693379
70,28.6723220949063,0.959556857383737,0.959419139531468,2.61238764847619,6967.55606899126,0,4,-2103.5902491803,4217.1804983606,4241.10843658564,6012.44548802756,881,506.9,1.09961782521261,22.1133672693379
71,29.6679704876661,0.947551540259678,0.947357526228579,2.57806247432208,4883.93305831632,0,4,-1926.26606282625,3862.5321256525,3886.0480662187,5390.23536454272,811,506.9,1.09961782521261,22.1133672693379
72,29.9667771966951,0.754665923966176,0.753742458184367,6.49035065301114,817.210489909166,1.29016263918326e-242,4,-2632.68831840752,5275.37663681504,5298.80594155038,33573.3473244366,797,506.9,1.09961782521261,22.1133672693379
73,29.4685534570644,0.944423809409927,0.944258894897791,3.68295390035717,5726.74773841008,0,4,-2761.489507251,5532.97901450201,5557.59223395939,13713.3550759098,1011,506.9,1.09961782521261,22.1133672693379
74,30.6899420975009,0.917133915967333,0.916909549313815,5.63160959198179,4087.65697391635,0,4,-3497.8316132462,7005.66322649241,7030.73280386646,35140.2494689234,1108,506.9,1.09961782521261,22.1133672693379
75,29.408425960259,0.9410516602368,0.940908465889197,4.87737168296153,6571.84921046176,0,4,-3719.38904244858,7448.77808489717,7474.38838430531,29379.1118491874,1235,506.9,1.09961782521261,22.1133672693379
76,32.1502902394801,0.95717094047355,0.957080710713312,4.301928300242,10608.1512124774,0,4,-4107.78390298338,8225.56780596677,8251.88795668126,26353.3800310024,1424,506.9,1.09961782521261,22.1133672693379
77,34.3921255346201,0.947942847774117,0.947834994558179,4.48259186761666,8789.19408692023,0,4,-4236.58845363587,8483.17690727175,8509.58039324867,29095.5760251501,1448,506.9,1.09961782521261,22.1133672693379
78,33.4159011443046,0.940929108756927,0.940805787480845,4.89662750778628,7629.90084642443,0,4,-4331.78344644435,8673.5668928887,8699.9323558687,34454.8928851634,1437,506.9,1.09961782521261,22.1133672693379
79,33.7033284989764,0.966630399416398,0.966558482173761,3.41916805587546,13440.8712566253,0,4,-3695.07390064013,7400.14780128026,7426.35463269687,16273.4685904923,1392,506.9,1.09961782521261,22.1133672693379
80,32.5930747468062,0.983052617370065,0.983011549399233,2.40941741575296,23937.2093984283,0,4,-2852.51457843698,5715.02915687397,5740.65154818643,7186.95184676706,1238,506.9,1.09961782521261,22.1133672693379
81,33.9208414011276,0.990182455395939,0.990155209666233,1.62661152319476,36342.6660280648,0,4,-2065.39606138262,4140.79212276525,4165.73879909512,2860.18011622858,1081,506.9,1.09961782521261,22.1133672693379
82,32.6266454259896,0.980893652601525,0.980828812056055,1.77620684757376,15127.7822463154,0,4,-1768.15123355104,3546.30246710207,3570.24732581703,2788.94111658524,884,506.9,1.09961782521261,22.1133672693379
83,31.5792486988433,0.973328657053755,0.973230117609373,1.7934163429875,9877.55373648985,0,4,-1632.49278088961,3274.98556177923,3298.50763355405,2611.66984958727,812,506.9,1.09961782521261,22.1133672693379
84,32.5566889780674,0.976421043317848,0.976343903873959,1.77955079595716,12657.8698793775,0,4,-1835.66648731356,3681.33297462711,3705.46027480839,2903.95654945425,917,506.9,1.09961782521261,22.1133672693379
85,31.4388886451178,0.87592501772183,0.875480835207707,5.3978387071095,1971.99347086545,0,4,-2612.35232911759,5234.70465823518,5258.3835583064,24416.5233492784,838,506.9,1.09961782521261,22.1133672693379
86,33.3230954970398,0.991554119389621,0.991532683144417,1.64935586102665,46255.960871553,0,4,-2274.31412187678,4558.62824375356,4584.01995165135,3215.48296195008,1182,506.9,1.09961782521261,22.1133672693379
87,32.8762005848594,0.970387216470278,0.97032086968119,3.36135431981404,14625.986122396,0,4,-3531.809409596,7073.61881919199,7099.63212517461,15128.9631340022,1339,506.9,1.09961782521261,22.1133672693379
88,34.7449364017675,0.951694863870472,0.951590156205452,4.37921539219589,9089.06586430667,0,4,-4017.37876560142,8044.75753120285,8070.93562690818,26541.6979925236,1384,506.9,1.09961782521261,22.1133672693379
89,39.1455051466502,0.952887743875805,0.95278771785431,4.22247653600696,9526.39852743139,0,4,-4049.7107820834,8109.4215641668,8135.70305036525,25192.8123412437,1413,506.9,1.09961782521261,22.1133672693379
90,39.3342287360877,0.969903191164982,0.969839873895343,3.44187317478329,15318.1461660704,0,4,-3794.58196660697,7599.16393321393,7625.4910818302,16893.0960965435,1426,506.9,1.09961782521261,22.1133672693379
91,38.1115955596652,0.979922018990684,0.979877168698035,2.63671856437765,21848.7318835137,0,4,-3215.27111083659,6440.54222167318,6466.57039755524,9336.91846992641,1343,506.9,1.09961782521261,22.1133672693379
92,36.2803789544153,0.987119089012093,0.987089814214393,2.0458254093524,33719.0746503156,0,4,-2824.3925532463,5658.78510649261,5684.72717017509,5524.73011932855,1320,506.9,1.09961782521261,22.1133672693379
93,34.3180084600193,0.985027894501548,0.984988390265404,2.05714377380377,24934.7409457324,0,4,-2440.02976454121,4890.05952908241,4915.25783083172,4811.60265543527,1137,506.9,1.09961782521261,22.1133672693379
94,32.9832509757808,0.98278475236596,0.982734853097455,1.80497617764643,19695.3739367549,0,4,-2085.85201830741,4181.70403661483,4206.43410657033,3371.96686693662,1035,506.9,1.09961782521261,22.1133672693379
95,32.7331411112126,0.882768636275175,0.882350947330787,3.85338414854044,2113.45942509722,0,4,-2339.63044650757,4689.26089301515,4712.96348981318,12502.4954316196,842,506.9,1.09961782521261,22.1133672693379
96,31.5582034457438,0.848621311594249,0.848050071260643,4.56515890190596,1485.57666829364,0,4,-2344.9710694254,4699.94213885081,4723.35894357964,16568.3372607227,795,506.9,1.09961782521261,22.1133672693379
97,33.7036020779344,0.981760456772719,0.981706172417875,1.970798933402,18085.5139498358,0,4,-2120.54211120063,4251.08422240125,4275.68264165049,3915.12082338566,1008,506.9,1.09961782521261,22.1133672693379
98,34.2240751011061,0.990293218261845,0.990268265095423,1.69734896971814,39686.0743648585,0,4,-2279.11176334552,4568.22352669104,4593.55159350903,3362.11944367877,1167,506.9,1.09961782521261,22.1133672693379
99,34.5838605368461,0.989536405127263,0.989511191645642,2.01241889009089,39246.3214719627,0,4,-2643.72346417754,5297.44692835508,5323.0974209057,5042.03808754736,1245,506.9,1.09961782521261,22.1133672693379
100,35.4124575847797,0.98590041192915,0.985869401104947,2.31949453230274,31792.1383025262,0,4,-3090.07080962715,6190.1416192543,6216.24714474521,7338.39486366144,1364,506.9,1.09961782521261,22.1133672693379
101,37.6337984403044,0.98028629033672,0.980246967777551,2.72950444881273,24929.3614418431,0,4,-3651.96971963783,7313.93943927566,7340.5321370185,11205.0925822771,1504,506.9,1.09961782521261,22.1133672693379
102,38.4495443150503,0.98092248433881,0.9808829044308,2.77847964492479,24783.3442177776,0,4,-3537.21874673581,7084.43749347162,7110.83408764869,11163.0464524799,1446,506.9,1.09961782521261,22.1133672693379
103,38.5064626952567,0.984597830328806,0.984565082980108,2.38047215186286,30066.4899437785,0,4,-3233.02306665911,6476.04613331821,6502.3205573686,7995.63985643619,1411,506.9,1.09961782521261,22.1133672693379
104,37.4353871405922,0.986155511586758,0.986120253976198,2.21823376331092,27970.004090534,0,4,-2616.89468404617,5243.78936809234,5269.16418408217,5796.42089179977,1178,506.9,1.09961782521261,22.1133672693379
105,36.3254694031795,0.98816325755917,0.988133591538015,1.78420954813268,33309.59862792,0,4,-2397.49140026503,4804.98280053006,4830.43734964046,3810.53424284243,1197,506.9,1.09961782521261,22.1133672693379
106,34.9209234124546,0.986320172447726,0.986280172951959,1.71492324057556,24658.3151496711,0,4,-2015.05216721432,4040.10433442865,4064.79090483477,3017.42672581389,1026,506.9,1.09961782521261,22.1133672693379
107,34.5868133683802,0.978791748423475,0.978726020371068,1.61261562758252,14891.5373662494,0,4,-1841.68159259241,3693.36318518482,3717.75996420712,2517.31222912901,968,506.9,1.09961782521261,22.1133672693379
108,34.6443861288075,0.982142139165449,0.982082079095378,1.46253346169125,16352.6638913096,0,4,-1609.99692910178,3229.99385820355,3253.98356026843,1907.99168089739,892,506.9,1.09961782521261,22.1133672693379
109,33.6794639092451,0.986651280953382,0.986610292051499,1.55200267316611,24071.1811154561,0,4,-1821.1693799053,3652.3387598106,3676.78162210842,2353.31191467191,977,506.9,1.09961782521261,22.1133672693379
110,34.0228551313463,0.98429920776262,0.984257524243406,2.09436776088393,23613.6301904505,0,4,-2445.38421493576,4900.76842987152,4925.93596229296,4956.60523914788,1130,506.9,1.09961782521261,22.1133672693379
111,33.8070249547646,0.988064816847663,0.988037039074616,2.05453503207286,35570.3394649977,0,4,-2763.70850529049,5537.41701058098,5563.24061247484,5441.01620124086,1289,506.9,1.09961782521261,22.1133672693379
112,34.3531107841688,0.98888074994811,0.988855725379351,1.93825009916079,39516.3952463615,0,4,-2779.92510854666,5569.85021709333,5595.84113497884,5007.83232471344,1333,506.9,1.09961782521261,22.1133672693379
113,35.5617092008681,0.984895292263235,0.984864549981545,2.41986317658308,32037.1565849076,0,4,-3401.3132987767,6812.62659755339,6839.11882306093,8631.35750744617,1474,506.9,1.09961782521261,22.1133672693379
114,36.2577987917774,0.98430447098033,0.984272890439043,2.47266923925474,31168.068401145,0,4,-3472.73128183325,6955.4625636665,6982.01197109562,9116.1129116341,1491,506.9,1.09961782521261,22.1133672693379
115,37.2134104488947,0.986276225433059,0.986246942841522,2.25943955338387,33681.3162247483,0,4,-3148.01517375884,6306.03034751767,6332.28707243453,7177.72433612605,1406,506.9,1.09961782521261,22.1133672693379
116,36.1439616834643,0.989471575983621,0.989446976862087,1.81410011090618,40223.858182587,0,4,-2592.70904380656,5195.41808761313,5221.22231714645,4225.59162870853,1284,506.9,1.09961782521261,22.1133672693379
117,35.0853404510938,0.992274181294245,0.992254079424239,1.52327021962512,49362.2822644491,0,4,-2126.64284077095,4263.28568154191,4288.55361017788,2675.36604278226,1153,506.9,1.09961782521261,22.1133672693379
118,34.1219904161517,0.990890227621665,0.990865016074492,1.34293143227142,39303.0312991623,0,4,-1862.60352694724,3735.20705389449,3760.16753603156,1954.95587765229,1084,506.9,1.09961782521261,22.1133672693379
119,33.6335956719292,0.985561445809513,0.985515511914952,1.27305109875473,21456.0828168132,0,4,-1570.35194200083,3150.70388400165,3174.97037946758,1528.28153133832,943,506.9,1.09961782521261,22.1133672693379
120,33.495732137421,0.987108286202185,0.987063052118684,1.14060822225093,21822.2236375817,0,4,-1329.87498493262,2669.74996986524,2693.52881447516,1112.34398474979,855,506.9,1.09961782521261,22.1133672693379
121,33.982717549737,0.971351648364253,0.971240176178899,2.16061525396211,8713.84772163003,0,4,-1694.72677533899,3399.45355067798,3422.71786582475,3599.22713052905,771,506.9,1.09961782521261,22.1133672693379
122,33.7886409130529,0.995690937819499,0.995678288908989,1.09141119288568,78717.525672319,0,4,-1543.57281732995,3097.14563465991,3121.81274978856,1217.38431657918,1022,506.9,1.09961782521261,22.1133672693379
123,33.4178826408961,0.993159855252659,0.993143035224591,1.55142120372114,59046.2662299256,0,4,-2272.32330327417,4554.64660654833,4580.19600386369,2936.42745665378,1220,506.9,1.09961782521261,22.1133672693379
124,34.0858168281101,0.991846925999316,0.991828494030965,1.72277970822296,53811.2320453498,0,4,-2610.58711285512,5231.17422571025,5257.14265480222,3938.49608790696,1327,506.9,1.09961782521261,22.1133672693379
125,34.2413851855091,0.982278129120844,0.982241463181094,2.65373098258526,26789.9346319481,0,4,-3480.18926072622,6970.37852145244,6996.7888897429,10211.3177855027,1450,506.9,1.09961782521261,22.1133672693379
126,31.751903184176,0.973667342515528,0.973612823555932,3.15134839480132,17859.2429082523,0,4,-3727.51253550382,7465.02507100764,7491.43199932549,14390.0142261491,1449,506.9,1.09961782521261,22.1133672693379
127,30.4334880888841,0.966593934533296,0.966522857798261,3.29232839649457,13599.3012910621,0,4,-3689.29162948933,7388.58325897866,7414.85414821094,15283.5910412139,1410,506.9,1.09961782521261,22.1133672693379
128,29.6051933544799,0.951922671854737,0.951814226753657,3.9524670726738,8777.92230703465,0,4,-3724.23050450294,7458.46100900587,7484.44069513825,20777.2546275589,1330,506.9,1.09961782521261,22.1133672693379
129,31.4203511905718,0.922127852662369,0.921933496221426,4.62696318077433,4744.51913294268,0,4,-3556.70885436233,7123.41770872466,7148.8930306111,25733.3635080421,1202,506.9,1.09961782521261,22.1133672693379
130,35.7097970367624,0.89832344088752,0.898018715935135,4.23925974621361,2947.98123309701,0,4,-2875.63984435241,5761.27968870482,5785.84340280728,17989.294519063,1001,506.9,1.09961782521261,22.1133672693379
131,34.8153584615015,0.788218777650659,0.787508102407876,5.41732040058251,1109.11247529036,9.9567333897871e-301,4,-2789.46430454591,5588.92860909181,5612.92945943332,26236.5401283753,894,506.9,1.09961782521261,22.1133672693379
132,34.1358949380996,0.674655335746645,0.673355689950693,5.63151532454768,519.107081212368,1.38059808399755e-182,4,-2374.21908684866,4758.43817369731,4781.57176244356,23817.1876028121,751,506.9,1.09961782521261,22.1133672693379
135,35.2547877199189,0.621631360452316,0.620589022602323,11.2247267511565,596.381835751357,3.10850543885715e-229,4,-4191.90031404964,8393.80062809929,8418.78403554017,137208.000304921,1089,506.9,1.09961782521261,22.1133672693379
136,34.0475061571948,0.653198027383176,0.652361015381688,10.9580463333285,780.392666080528,3.2948376560974e-285,4,-4752.82342851297,9515.64685702593,9541.28933675433,149257.922848115,1243,506.9,1.09961782521261,22.1133672693379
137,29.4542402239717,0.7470913156213,0.746526366959248,9.31382836139105,1322.40567294639,0,4,-4915.13802021919,9840.27604043838,9866.30421632043,116501.756515142,1343,506.9,1.09961782521261,22.1133672693379
138,19.481771415824,0.806727433437289,0.806319971947698,8.15673773910782,1979.88633047719,0,4,-5017.87329774119,10045.7465954824,10072.0632435698,94675.5632849456,1423,506.9,1.09961782521261,22.1133672693379
139,20.1900266694986,0.830546142285779,0.830165347099904,7.66653166395612,2181.08361947404,0,4,-4625.31702457247,9260.63404914493,9286.63244087339,78465.5698521799,1335,506.9,1.09961782521261,22.1133672693379
140,23.5221739072476,0.810682036937687,0.810233061531215,7.42707679665058,1805.62682332233,0,4,-4343.14279057643,8696.28558115287,8722.01550349144,69779.259225332,1265,506.9,1.09961782521261,22.1133672693379
141,25.8914910479065,0.792712640828686,0.791949619874682,7.38584620156169,1038.91333084368,6.47200195473372e-278,4,-2797.74989769742,5605.49979539484,5629.04021581411,44458.8401521954,815,506.9,1.09961782521261,22.1133672693379
