"Age","power_predict","r.squared","adj.r.squared","sigma","statistic","p.value","df","logLik","AIC","BIC","deviance","df.residual","GHI","Wind_speed","Ambient_temp"
1,116.696804035886,0.956284635625074,0.956155427651552,7.9287623410303,7401.12710971836,0,4,-3553.73082213026,7117.46164426052,7142.09452942663,63808.2513444484,1015,507.67,0.446653280008887,24.2440992612342
2,128.849061188817,0.94379030704135,0.943586155614139,8.27912213640617,4622.99147224563,0,4,-2930.11580844367,5870.23161688733,5893.83874539129,56617.2311267123,826,507.67,0.446653280008887,24.2440992612342
3,137.316251560081,0.941953532324818,0.941725302438808,8.80970458591474,4127.21378778591,0,4,-2755.200568853,5520.401137706,5543.61357171284,59217.1128018996,763,507.67,0.446653280008887,24.2440992612342
4,128.018035799836,0.974541367363297,0.974459594453329,6.30627853997281,11917.6554649296,0,4,-3056.3299630576,6122.6599261152,6146.87867586023,37144.385188156,934,507.67,0.446653280008887,24.2440992612342
5,122.798989288233,0.992216901849395,0.992195302132048,4.69027571749132,45936.5687949408,0,4,-3214.40274828721,6438.80549657442,6463.7521729043,23780.5798968819,1081,507.67,0.446653280008887,24.2440992612342
6,117.193160551165,0.991852362018208,0.991833731748432,5.16460325566625,53238.7546704121,0,4,-4025.96608788202,8061.93217576404,8087.84393632347,34995.1423464313,1312,507.67,0.446653280008887,24.2440992612342
7,114.058667051962,0.992802837495263,0.992787832986914,5.03905506796359,66166.9689138062,0,4,-4379.17193431826,8768.34386863653,8794.7162664304,36539.1973322981,1439,507.67,0.446653280008887,24.2440992612342
8,110.279358953827,0.984942395303405,0.984912597932634,7.04944494236526,33054.6746171756,0,4,-5123.26623512706,10256.5324702541,10283.1647983233,75337.1257770858,1516,507.67,0.446653280008887,24.2440992612342
9,114.194238692991,0.990124439431209,0.990105362366363,5.87311581025706,51901.298622517,0,4,-4963.77462775296,9937.54925550591,9964.30183636508,53568.3889150339,1553,507.67,0.446653280008887,24.2440992612342
10,113.604266316144,0.995649731473488,0.995641007672967,3.6930843222484,114130.272587927,0,4,-4086.09808129637,8182.19616259274,8208.76226452819,20403.7522296105,1496,507.67,0.446653280008887,24.2440992612342
11,108.199154324912,0.987022144068423,0.986994783866178,5.87103266122037,36075.1040956336,0,4,-4548.65605943142,9107.31211886284,9133.62876695022,49049.4218764725,1423,507.67,0.446653280008887,24.2440992612342
12,112.04858641432,0.994188684894896,0.994175180676991,3.64341848572457,73620.6044578977,0,4,-3509.85679436067,7029.71358872133,7055.544918592,17137.3772563963,1291,507.67,0.446653280008887,24.2440992612342
13,122.916096334252,0.992994602743929,0.992975179276491,3.52739742823533,51123.4467223505,0,4,-2907.93206940658,5825.86413881315,5850.81542131562,13462.8202912923,1082,507.67,0.446653280008887,24.2440992612342
14,122.325404101992,0.968992167833579,0.96873869781587,6.21174039798354,3822.90645888309,2.30865778705982e-276,4,-1202.02498931519,2414.04997863038,2433.63098894341,14160.9587893022,367,507.67,0.446653280008887,24.2440992612342
15,133.607520200605,0.93862740576771,0.938388911230537,7.48124842960017,3935.63482374582,0,4,-2660.71328134561,5331.42656269121,5354.69732529213,43208.1282664849,772,507.67,0.446653280008887,24.2440992612342
16,124.378072173022,0.988517572881656,0.988477749435003,4.12687102209466,24822.5017158787,0,4,-2462.87741200629,4935.75482401258,4959.59153963891,14731.870734549,865,507.67,0.446653280008887,24.2440992612342
17,120.262687670146,0.99244213913585,0.992421394778492,3.91856945049339,47841.5465951434,0,4,-3052.7740519843,6115.54810396859,6140.54977626997,16783.2188864057,1093,507.67,0.446653280008887,24.2440992612342
18,115.120642825651,0.993972916039622,0.99395913459764,4.2588565693821,72124.0141123596,0,4,-3772.20500272573,7554.41000545146,7580.32176601089,23796.8713734826,1312,507.67,0.446653280008887,24.2440992612342
19,113.452138278351,0.993807110234879,0.993794385118923,4.92056784483072,78098.0789245809,0,4,-4408.09592275417,8826.19184550834,8852.63648398095,35349.5023567497,1460,507.67,0.446653280008887,24.2440992612342
20,113.435112613223,0.994695484741142,0.994685184711513,4.29471621300323,96572.0993612545,0,4,-4453.42330883247,8916.84661766495,8943.57344186703,28496.8874561096,1545,507.67,0.446653280008887,24.2440992612342
21,115.387924968789,0.995396681362483,0.995388182928076,4.12253184058802,117127.065246028,0,4,-4616.87396699427,9243.74793398853,9270.72654203154,27617.3117620758,1625,507.67,0.446653280008887,24.2440992612342
22,111.676421430014,0.997158519597156,0.997153114117633,2.96252594637407,184471.796676944,0,4,-3958.37210715582,7926.74421431164,7953.57327849769,13840.6350930957,1577,507.67,0.446653280008887,24.2440992612342
23,105.157027660271,0.988710590987554,0.988687409449541,5.42359321478305,42650.7762523371,0,4,-4553.70349234668,9117.40698469337,9143.85503730062,42975.845868143,1461,507.67,0.446653280008887,24.2440992612342
24,98.3524141668242,0.994946129854352,0.994934600112575,3.02465238589529,86293.8779623673,0,4,-3329.44103626673,6668.88207253347,6694.80521829705,12030.3065029852,1315,507.67,0.446653280008887,24.2440992612342
25,108.475201618349,0.94346971597515,0.943310923042496,9.00388037706433,5941.50948789696,0,4,-3874.98521026224,7759.97042052448,7784.85682723264,86582.612449909,1068,507.67,0.446653280008887,24.2440992612342
26,121.604511176309,0.97262510511874,0.972532413601083,6.14301329831866,10493.1403617933,0,4,-2876.48148106306,5762.96296212612,5786.91906943975,33434.6385716214,886,507.67,0.446653280008887,24.2440992612342
27,118.700915466119,0.949879857051573,0.949678030972586,7.03599997585936,4706.42774124832,0,4,-2522.10842958602,5054.21685917205,5077.31055408963,36881.4452669183,745,507.67,0.446653280008887,24.2440992612342
28,115.446558180971,0.958748460702654,0.9586075101128,7.35978540720928,6802.01808090338,0,4,-3009.99838153615,6029.9967630723,6053.90772335233,47558.1354088698,878,507.67,0.446653280008887,24.2440992612342
29,108.819901877002,0.992270645247417,0.992249488254481,4.05847034418548,46900.3628376491,0,4,-3099.71549543738,6209.43099087476,6234.44631816869,18052.4149619578,1096,507.67,0.446653280008887,24.2440992612342
30,107.827820208796,0.993918022507028,0.993902980518175,4.15174714392355,66076.2371391134,0,4,-3457.27999109081,6924.55998218162,6950.08070264655,20908.4862730048,1213,507.67,0.446653280008887,24.2440992612342
31,104.497313656768,0.994327862396603,0.994316110730297,4.33526598152922,84611.6488128405,0,4,-4188.064855654,8386.12971130801,8412.53319728493,27214.4810771154,1448,507.67,0.446653280008887,24.2440992612342
32,104.092068860138,0.993418326188973,0.993405479720897,4.7205049722674,77330.0739392661,0,4,-4576.08389569843,9162.16779139685,9188.86872557345,34249.2279759502,1537,507.67,0.446653280008887,24.2440992612342
33,108.642452225535,0.995724928569686,0.995716957647193,3.87268817092146,124919.660110473,0,4,-4470.66491953371,8951.32983906743,8978.25909445805,24131.3212937348,1609,507.67,0.446653280008887,24.2440992612342
34,105.353969626393,0.992891792438173,0.992878431145764,4.79468145443709,74311.0592906448,0,4,-4776.31078618307,9562.62157236614,9589.51036690728,36690.3965182387,1596,507.67,0.446653280008887,24.2440992612342
35,107.417802960819,0.984997799738179,0.984967553366684,6.67028287483684,32565.8170230857,0,4,-4946.36571119562,9902.73142239123,9929.27078629505,66205.0983619484,1488,507.67,0.446653280008887,24.2440992612342
36,109.933947051364,0.995138613422832,0.995127802333335,3.39341415398359,92047.9488857654,0,4,-3570.96571134082,7151.93142268164,7177.9818208225,15534.0852279954,1349,507.67,0.446653280008887,24.2440992612342
37,113.239551775154,0.994299254980258,0.994284562338455,3.35235605895214,67673.2794742336,0,4,-3068.20362527202,6146.40725054404,6171.72249136098,13081.370893936,1164,507.67,0.446653280008887,24.2440992612342
38,109.962670182048,0.978241933989862,0.978174222166179,5.50045613094998,14447.13612455,0,4,-3021.80478549705,6053.60957099411,6077.98573143049,29165.837013159,964,507.67,0.446653280008887,24.2440992612342
39,118.33778644905,0.917827180684693,0.917533005913875,8.26335389791114,3120.0064442335,0,4,-2970.90279902247,5951.80559804493,5975.48449811615,57221.1687840993,838,507.67,0.446653280008887,24.2440992612342
40,115.513928726372,0.92193717403072,0.921668609262477,9.15775509546313,3432.82992799992,0,4,-3180.97611376939,6371.95222753878,6395.82905799346,73129.8251547554,872,507.67,0.446653280008887,24.2440992612342
41,109.403005697251,0.99351516753224,0.993497545704882,3.52567194137504,56379.8037142155,0,4,-2966.33898802981,5942.67797605962,5967.72953539616,13723.120352572,1104,507.67,0.446653280008887,24.2440992612342
42,107.196443185039,0.993149368510179,0.993132439437304,4.24274393016771,58665.3135633196,0,4,-3486.52988192835,6983.05976385671,7008.58459109805,21853.0635331676,1214,507.67,0.446653280008887,24.2440992612342
43,104.510554143114,0.993896005473127,0.993882410830528,4.39447759211239,73109.3883673586,0,4,-3914.93403130342,7839.86806260683,7865.91106429663,26012.5006653074,1347,507.67,0.446653280008887,24.2440992612342
44,97.3115312836418,0.994395274096677,0.994384488864022,4.2051327483031,92199.7054543875,0,4,-4460.74442627909,8931.48885255818,8958.26066421029,27568.017490697,1559,507.67,0.446653280008887,24.2440992612342
45,102.12355913597,0.984511600348465,0.984483250623661,7.40264227821283,34727.3776778102,0,4,-5618.33176433479,11246.6635286696,11273.6849242598,89815.7457139626,1639,507.67,0.446653280008887,24.2440992612342
46,103.663860568749,0.996977947302479,0.996972340525674,3.11248412538069,177816.592687737,0,4,-4138.61459343436,8287.22918686872,8314.1831794774,15664.7803655176,1617,507.67,0.446653280008887,24.2440992612342
47,97.2707211505834,0.996095953735604,0.996088197352297,3.24293268177363,128422.73445526,0,4,-3927.45808921826,7864.91617843651,7891.5287306065,15880.0846915584,1510,507.67,0.446653280008887,24.2440992612342
48,96.6790255793597,0.949279075290333,0.949168088584185,10.603745934487,8553.08809709062,0,4,-5195.69764542386,10401.3952908477,10427.5263358982,154154.455572957,1371,507.67,0.446653280008887,24.2440992612342
49,106.159829980849,0.994507967398027,0.99449421439485,3.28440108332678,72312.0582905782,0,4,-3132.96033038816,6275.92066077632,6301.3793713518,12923.1739904374,1198,507.67,0.446653280008887,24.2440992612342
50,108.638460146324,0.986123877575856,0.98608237372015,4.28343800823537,23759.8136562892,0,4,-2891.80637200765,5793.6127440153,5818.18639847889,18402.8846939066,1003,507.67,0.446653280008887,24.2440992612342
51,115.969196459506,0.953679870398803,0.953487936160124,6.91629687879334,4968.78450120527,0,4,-2438.84673656011,4887.69347312023,4910.64497836121,34632.6576612991,724,507.67,0.446653280008887,24.2440992612342
52,122.28261508066,0.929446273364525,0.929183991852869,8.89898449089912,3543.69725679868,0,4,-2921.54924528298,5853.09849056596,5876.58983083654,63907.8834501953,807,507.67,0.446653280008887,24.2440992612342
53,106.459340284342,0.993079288070838,0.993059974456152,3.39237145184182,51418.6134607374,0,4,-2847.06098953753,5704.12197907507,5729.04092890136,12371.2978723167,1075,507.67,0.446653280008887,24.2440992612342
54,103.388411631908,0.993100069513236,0.993083483141874,3.88239255787523,59874.4624616196,0,4,-3472.78524784146,6955.57049568293,6981.23298344123,18811.0690228593,1248,507.67,0.446653280008887,24.2440992612342
55,102.179469326178,0.992305564725577,0.992289076649989,4.75694550663889,60183.2251087438,0,4,-4179.87333601311,8369.74667202623,8395.98207494916,31679.9427743847,1400,507.67,0.446653280008887,24.2440992612342
56,98.7902977073765,0.995631467484195,0.995622935194125,3.6329043076314,116689.828794355,0,4,-4169.81265544099,8349.62531088198,8376.32299935902,20272.1183361128,1536,507.67,0.446653280008887,24.2440992612342
57,95.594434074056,0.977878952383325,0.977837987480331,8.44622024816455,23871.1404377134,0,4,-5767.51342103965,11545.0268420793,11571.9900796829,115568.591098418,1620,507.67,0.446653280008887,24.2440992612342
58,103.540536030237,0.99242177380159,0.992407564627468,4.86399929236232,69843.7337229681,0,4,-4811.27995202436,9632.55990404872,9659.46118299085,37853.5825857618,1600,507.67,0.446653280008887,24.2440992612342
59,96.2675708013905,0.992980917266768,0.992967091102487,4.29528299018786,71818.9728617579,0,4,-4390.3456493538,8790.6912987076,8817.3466002337,28098.5214359091,1523,507.67,0.446653280008887,24.2440992612342
60,104.328845553156,0.968025777936434,0.967956719141481,8.91307330594811,14017.4148504237,0,4,-5021.79261959134,10053.5852391827,10079.7813140516,110346.154426757,1389,507.67,0.446653280008887,24.2440992612342
61,106.887140775607,0.993145283960959,0.993128699970542,3.85633654136751,59885.784964086,0,4,-3442.20506989341,6894.41013978682,6920.04057615332,18440.451085155,1240,507.67,0.446653280008887,24.2440992612342
62,100.724324634811,0.993312679247183,0.993293841723935,2.75846564118207,52730.5350179567,0,4,-2599.52868612148,5209.05737224295,5233.92976679808,8103.72631866486,1065,507.67,0.446653280008887,24.2440992612342
63,112.579671695941,0.934761553183288,0.934510957356847,7.54796786441457,3730.15611018059,0,4,-2698.56515609854,5407.13031219708,5430.45873078599,44494.9905470256,781,507.67,0.446653280008887,24.2440992612342
64,109.329922701289,0.916926437855315,0.916611367455272,7.55081224119078,2910.22716742043,0,4,-2733.26692108611,5476.53384217222,5499.92555274549,45098.6795118578,791,507.67,0.446653280008887,24.2440992612342
65,103.425486847565,0.973505385401906,0.973424196593127,5.59192964382249,11990.6351632307,0,4,-3084.87440597148,6179.74881194295,6204.20185754369,30613.0139214901,979,507.67,0.446653280008887,24.2440992612342
66,105.480698460587,0.993874058649217,0.993858666836777,3.74591848072009,64571.6066628337,0,4,-3280.04389326362,6570.08778652723,6595.52983042061,16754.0948854552,1194,507.67,0.446653280008887,24.2440992612342
67,103.739823291209,0.994070865073954,0.994057679451435,4.04750216946774,75390.5144517155,0,4,-3809.45009549206,7628.90019098413,7654.95058912498,22099.6873721803,1349,507.67,0.446653280008887,24.2440992612342
68,103.153942339227,0.995125658988248,0.995115942693872,3.84172090619435,102418.228649878,0,4,-4170.16950321585,8350.3390064317,8376.93501872554,22212.0233792416,1505,507.67,0.446653280008887,24.2440992612342
69,98.2976533179536,0.997324875137337,0.997319874903949,2.81226833247396,199455.664909503,0,4,-3944.76176186257,7899.52352372515,7926.44036446011,12693.7093440065,1605,507.67,0.446653280008887,24.2440992612342
70,93.6764157563024,0.993477358872188,0.993465212426885,4.21097794418918,81791.6134370161,0,4,-4611.46053232101,9232.92106464202,9259.85651582031,28566.7920820273,1611,507.67,0.446653280008887,24.2440992612342
71,84.6837257988491,0.97091810884281,0.970856538148758,7.67251482733887,15769.1597243338,0,4,-4909.80158476821,9829.60316953642,9855.89875017691,83415.2245102162,1417,507.67,0.446653280008887,24.2440992612342
72,70.9573241634934,0.978208871973799,0.978162009332882,5.31094362521146,20873.9595729462,0,4,-4319.09971110657,8648.19942221313,8674.41698708646,39347.540455293,1395,507.67,0.446653280008887,24.2440992612342
73,87.2480818780579,0.900499093279558,0.899741472162397,12.2048947948849,1188.5876368577,5.6208604660211e-197,4,-1558.45857753436,3126.91715506873,3146.84941509515,58690.0260399579,394,507.67,0.446653280008887,24.2440992612342
