"Age","power_predict","r.squared","adj.r.squared","sigma","statistic","p.value","df","logLik","AIC","BIC","deviance","df.residual","GHI","Wind_speed","Ambient_temp"
1,152.260560858802,0.639923330031646,0.638640396528195,45.9834142161246,498.796958930996,3.24058888410435e-186,4,-4437.14278822803,8884.28557645606,8907.9881732541,1780387.43046216,842,526.5,1.88156895991956,19.5943311052154
7,127.9918374173,0.609848939886785,0.608602450876839,30.7602606992129,489.253362861997,2.31910872679178e-191,4,-4566.98365653305,9143.9673130661,9168.21264447927,888475.826348248,939,526.5,1.88156895991956,19.5943311052154
8,133.536807737608,0.674343345914552,0.673117536677091,25.0747059075559,550.120953005183,1.2665519515878e-193,4,-3715.27429847041,7440.54859694081,7463.97790167615,501106.478451283,797,526.5,1.88156895991956,19.5943311052154
9,138.311009464789,0.694267076087373,0.692933938337754,25.1816877053148,520.77669864632,1.58477497061408e-176,4,-3212.37266224158,6434.74532448316,6457.44325426125,436272.768233345,688,526.5,1.88156895991956,19.5943311052154
20,131.231733870964,0.615774200174584,0.614305821321748,26.0575091461932,419.356488950584,1.56694783362773e-162,4,-3689.91883845335,7389.83767690671,7413.19150851093,533010.119579595,785,526.5,1.88156895991956,19.5943311052154
21,139.220305988849,0.745823641608006,0.744804217710711,21.8369972194857,731.612868393296,6.25732220724531e-222,4,-3383.90788879148,6777.81577758296,6800.92945920271,356687.126777741,748,526.5,1.88156895991956,19.5943311052154
23,128.997658957061,0.633845587220144,0.632822809530814,36.6326433012322,619.729579392618,1.01551028367638e-233,4,-5409.42505483579,10828.8501096716,10853.7644234289,1441254.89632272,1074,526.5,1.88156895991956,19.5943311052154
33,139.828067414168,0.793120447399375,0.792314423168463,17.604123528457,983.990824323533,7.02567598568946e-263,4,-3316.18830934489,6642.37661868978,6665.63447805773,238626.977207984,770,526.5,1.88156895991956,19.5943311052154
34,136.407848165451,0.773811571690674,0.772930318073885,18.6353846690549,878.080449201084,5.77015432886017e-248,4,-3360.25136232279,6730.50272464558,6753.76058401353,267403.722558007,770,526.5,1.88156895991956,19.5943311052154
35,126.224782767673,0.603449237545507,0.602245136040078,34.5954459186602,501.161434334971,7.07714727318427e-198,4,-4920.95525794118,9851.91051588237,9876.40913141879,1182482.73977121,988,526.5,1.88156895991956,19.5943311052154
38,134.978379786306,0.607386844042869,0.606583954153386,42.4739692010661,756.500800419925,3.55235887929791e-297,4,-7599.87510594107,15209.7502118821,15236.2187004852,2646523.8335698,1467,526.5,1.88156895991956,19.5943311052154
40,127.215779943903,0.651450397721596,0.650710900687059,38.3436157396671,880.937133344334,5.92878775009496e-323,4,-7180.91385519936,14371.8277103987,14398.1127239342,2078909.27533962,1414,526.5,1.88156895991956,19.5943311052154
44,113.930192136879,0.628978381554262,0.627700465532061,25.2052290839724,492.190700035883,5.56278397901628e-187,4,-4063.23667292891,8136.47334585781,8160.3444652896,553349.412235884,871,526.5,1.88156895991956,19.5943311052154
45,118.426557950772,0.81248171676965,0.811491303301884,16.5841785017905,820.345990046318,6.01391307981358e-206,4,-2416.05872247469,4842.11744494938,4863.86313990628,156219.866697014,568,526.5,1.88156895991956,19.5943311052154
46,125.7007815107,0.650885573794357,0.649698109759644,27.0028938470182,548.130768399762,5.38092154803523e-201,4,-4175.38143135756,8360.76286271513,8384.69644746815,643115.835531962,882,526.5,1.88156895991956,19.5943311052154
48,134.945327562731,0.608377442490837,0.607370700697754,37.4573993721734,604.303354316862,5.83959145404734e-237,4,-5902.34579942996,11814.6915988599,11840.0196656779,1637367.24793682,1167,526.5,1.88156895991956,19.5943311052154
50,148.228560229111,0.606258180315807,0.605397855873671,43.2294839303928,704.685523999149,2.98724772472497e-277,4,-7138.37729139977,14286.7545827995,14312.8928952932,2565846.30965935,1373,526.5,1.88156895991956,19.5943311052154
58,115.166734071351,0.628300179103164,0.626840624832627,22.224163762885,430.474009624777,1.13975032125918e-163,4,-3469.44592584135,6948.89185168271,6972.11080034844,377349.879589082,764,526.5,1.88156895991956,19.5943311052154
60,131.183501650092,0.622676641331805,0.621697428463289,38.0689402065919,635.895075884188,4.69431987797071e-244,4,-5865.66777139916,11741.3355427983,11766.6164192188,1675326.30497175,1156,526.5,1.88156895991956,19.5943311052154
69,116.65496316947,0.75592445235605,0.754842876812576,20.1381264713282,698.910452364784,8.59264429313614e-207,4,-3009.07196239323,6028.14392478647,6050.76173631722,274553.381273817,677,526.5,1.88156895991956,19.5943311052154
70,123.688230424622,0.649790465595264,0.648429547715452,25.1282043714287,477.464860470077,2.30915836345886e-175,4,-3600.90806419,7211.81612837999,7235.08689098091,487461.377607726,772,526.5,1.88156895991956,19.5943311052154
76,115.859530352168,0.622681189135622,0.621897828282617,36.4484996824795,794.884230870736,3.55855887942586e-305,4,-7264.49869881946,14538.9973976389,14565.3905423505,1919672.57155485,1445,526.5,1.88156895991956,19.5943311052154
91,98.9355586543602,0.677231824005576,0.671761176954823,30.8518756996955,123.793733670383,3.02766727571182e-43,4,-875.490200373039,1760.98040074608,1776.97288590241,168475.367451535,177,526.5,1.88156895991956,19.5943311052154
