"Age","power_predict","r.squared","adj.r.squared","sigma","statistic","p.value","df","logLik","AIC","BIC","deviance","df.residual","GHI","Wind_speed","Ambient_temp"
1,286.858966157042,0.850262841592385,0.84983297415198,52.9233585293613,1977.96520897705,0,4,-5649.78089523553,11309.5617904711,11334.339753513,2926921.56253855,1045,660.84,0.949672136456871,20.2840653136133
2,305.692176628365,0.882146206718267,0.881805260353903,39.0865572420833,2587.34598435882,0,4,-5291.18668679852,10592.373373597,10617.1130589401,1584286.03844908,1037,660.84,0.949672136456871,20.2840653136133
3,316.918761172396,0.775049848730465,0.774414994117287,51.7262166030344,1220.83045888289,0,4,-5722.3480385053,11454.6960770106,11479.5591082671,2844164.37756007,1063,660.84,0.949672136456871,20.2840653136133
4,304.729958379757,0.74696347699002,0.746263191409734,53.610759691743,1066.65551600397,7.90505033345994e-323,4,-5873.94520845237,11757.8904169047,11782.8508990418,3115539.09332278,1084,660.84,0.949672136456871,20.2840653136133
5,298.965621880833,0.842080961834835,0.841664655055841,48.3133815821907,2022.74141167996,0,4,-6046.76748523255,12103.5349704651,12128.7376524162,2656300.07181344,1138,660.84,0.949672136456871,20.2840653136133
6,297.867145770661,0.916341920994104,0.916138867404284,40.8113360922497,4512.80827788269,0,4,-6356.59080980177,12723.1816196035,12748.7959528965,2058638.52989232,1236,660.84,0.949672136456871,20.2840653136133
7,305.324828781758,0.917108268426822,0.916926222164216,45.7914595598027,5037.77586696557,0,4,-7180.95657878364,14371.9131575673,14398.0259876614,2864307.71193089,1366,660.84,0.949672136456871,20.2840653136133
8,294.200656743582,0.945065992519042,0.94495486505954,36.05940066303,8504.34264173892,0,4,-7439.10312093282,14888.2062418656,14914.7288215979,1928315.79787039,1483,660.84,0.949672136456871,20.2840653136133
9,301.761077309571,0.991649370688679,0.991632579879072,13.7588276580861,59059.0563460758,0,4,-6042.76358899606,12095.5271779921,12122.0799287848,282443.565079173,1492,660.84,0.949672136456871,20.2840653136133
10,299.958163104249,0.990441043653865,0.990421963900679,14.4611177860924,51910.5794505728,0,4,-6162.23322869165,12334.4664573833,12361.0558383764,314313.263217725,1503,660.84,0.949672136456871,20.2840653136133
11,297.213723026615,0.990723363967368,0.990704483432702,13.3910170932702,52473.2684474206,0,4,-5929.98376425267,11869.9675285053,11896.4597540129,264316.705379782,1474,660.84,0.949672136456871,20.2840653136133
12,299.09875523427,0.989958868879153,0.989936686704365,13.3335226374956,44628.5757968317,0,4,-5458.55455622454,10927.1091124491,10953.1926598826,241429.077605617,1358,660.84,0.949672136456871,20.2840653136133
13,307.894187774683,0.976962078080797,0.976906919448907,17.9447399975564,17711.8620352483,0,4,-5410.93492109463,10831.8698421893,10857.5522582322,403483.158055617,1253,660.84,0.949672136456871,20.2840653136133
14,314.033302585873,0.975146171505691,0.975079419951991,16.1288561233128,14608.5913728377,0,4,-4705.69029928785,9421.38059857571,9446.49048069107,290576.379828569,1117,660.84,0.949672136456871,20.2840653136133
15,320.092156125492,0.989158117564416,0.989125689202196,10.2201041347957,30502.8700139396,0,4,-3767.4943916487,7544.9887832974,7569.562437761,104763.880111645,1003,660.84,0.949672136456871,20.2840653136133
16,317.704965332813,0.98416747258368,0.984123123767388,12.0872409339819,22191.5161410176,0,4,-4202.41690310223,8414.83380620445,8439.73418590726,156474.592327251,1071,660.84,0.949672136456871,20.2840653136133
17,311.703843023778,0.990246201105561,0.990219429470901,11.4537746554708,36988.6341900226,0,4,-4229.40823160648,8468.81646321296,8493.81813551434,143389.526567126,1093,660.84,0.949672136456871,20.2840653136133
18,303.064473831433,0.989149107281877,0.98912304428896,13.5201726881472,37952.2455613779,0,4,-5038.96788564322,10087.9357712864,10113.6022510609,228311.041827134,1249,660.84,0.949672136456871,20.2840653136133
19,298.459071675972,0.992235842072776,0.992218626645,12.3379653988678,57636.4325622154,0,4,-5333.20492452815,10676.4098490563,10702.4750073555,205960.952918491,1353,660.84,0.949672136456871,20.2840653136133
20,294.469429572778,0.993877555387904,0.993864870765089,11.1688092548101,78352.9451268749,0,4,-5562.15349805086,11134.3069961017,11160.7104820786,180626.850646641,1448,660.84,0.949672136456871,20.2840653136133
21,293.253888293425,0.99160358290775,0.991586517019351,13.0901085924796,58104.4220922434,0,4,-5904.37449762968,11818.7489952594,11845.2479820931,252913.991813254,1476,660.84,0.949672136456871,20.2840653136133
22,296.543635683933,0.988439532824667,0.988416396466077,15.3192032758771,42722.3466904415,0,4,-6232.51000700737,12475.0200140147,12501.5961059635,351782.305522459,1499,660.84,0.949672136456871,20.2840653136133
23,295.361826969791,0.990857584057218,0.99083754954456,13.1363189356278,49457.5336564534,0,4,-5482.19756932267,10974.3951386453,11000.5189056742,236238.576119411,1369,660.84,0.949672136456871,20.2840653136133
24,302.533545837347,0.992268865700515,0.992252263407818,10.8171245101946,59766.9781986168,0,4,-5321.89382861049,10653.787657221,10680.0123649527,163463.225188668,1397,660.84,0.949672136456871,20.2840653136133
25,298.247945611491,0.990435059161064,0.99041244700778,9.74532781836829,43801.0058901438,0,4,-4702.65669239689,9415.31338479378,9441.05904278656,120518.72473079,1269,660.84,0.949672136456871,20.2840653136133
26,331.743299701914,0.964559307723103,0.964465134050091,18.7943313363477,10242.3456245453,0,4,-4929.37197390603,9868.74394781207,9893.90706911721,398793.159239495,1129,660.84,0.949672136456871,20.2840653136133
27,333.994513526356,0.97778180113887,0.977719155841329,13.7441269688845,15608.223434526,0,4,-4312.2357911239,8634.47158224781,8659.33929734541,200990.691809574,1064,660.84,0.949672136456871,20.2840653136133
28,329.123866436542,0.979790651431816,0.97973372368937,12.3168081915127,17211.1278146727,0,4,-4199.06296458904,8408.12592917808,8432.99832373321,161564.508688237,1065,660.84,0.949672136456871,20.2840653136133
29,320.920554011115,0.98745878662571,0.987424489779654,11.7401182316239,28791.5333389001,0,4,-4272.02376876384,8554.04753752767,8579.06740821129,151199.92257348,1097,660.84,0.949672136456871,20.2840653136133
30,311.139681263132,0.990869751273587,0.990847299842293,11.9810771457802,44133.9235026062,0,4,-4774.37157432351,9558.74314864702,9584.29254596238,175126.375679227,1220,660.84,0.949672136456871,20.2840653136133
31,305.914388372524,0.99161656284862,0.991598164669063,12.0502430650261,53897.5369703004,0,4,-5355.89710920244,10721.7942184049,10747.9106968027,198499.82528513,1367,660.84,0.949672136456871,20.2840653136133
32,296.631623275142,0.990112671048732,0.990092843517413,11.8874200073139,49936.2555579761,0,4,-5839.62617644906,11689.2523528981,11715.8184548336,211400.888627708,1496,660.84,0.949672136456871,20.2840653136133
33,298.265019157673,0.993632632437307,0.993619575634376,10.934870490861,76100.7604761237,0,4,-5588.58073761851,11187.161475237,11213.6163491277,174932.947449733,1463,660.84,0.949672136456871,20.2840653136133
34,295.027779765858,0.953609578772941,0.953470407509259,29.9938500228644,6852.05805817447,0,4,-4837.20662351491,9684.41324702982,9708.97198353108,899631.039194086,1000,660.84,0.949672136456871,20.2840653136133
35,288.257058862103,0.988731518874491,0.988707911721295,14.5118232489003,41882.7086294463,0,4,-5876.84083578056,11763.6816715611,11790.0297553092,301569.196058486,1432,660.84,0.949672136456871,20.2840653136133
36,288.636550889427,0.991317677236774,0.991298857172981,10.7021316490703,52673.4493641386,0,4,-5257.65859903283,10525.3171980657,10551.495293771,158517.300618302,1384,660.84,0.949672136456871,20.2840653136133
37,282.211178738619,0.992150610522481,0.9921095858388,9.29388612964012,24184.2354776316,0,4,-2106.70773768914,4223.41547537828,4245.21334472164,49580.0073302716,574,660.84,0.949672136456871,20.2840653136133
