"Age","power_predict","r.squared","adj.r.squared","sigma","statistic","p.value","df","logLik","AIC","BIC","deviance","df.residual","GHI","Wind_speed","Ambient_temp"
2,55.6270195705352,0.967965333789649,0.967833864571276,4.40384833462127,7362.67656995916,0,4,-2130.5362633281,4271.0725266562,4294.07187915227,14176.9263928273,731,603.7,1.08017765643914,23.9820407696232
3,55.4567402807607,0.994244960831426,0.994231801443084,2.05259345872213,75554.0405779795,0,4,-2811.66105355555,5633.3221071111,5659.23386767052,5527.63955770701,1312,603.7,1.08017765643914,23.9820407696232
4,54.6565629996792,0.996184628900994,0.996176298396411,1.64085420323551,119582.747836904,0,4,-2635.70336382473,5281.40672764945,5307.54866990732,3699.36105736272,1374,603.7,1.08017765643914,23.9820407696232
5,53.6720065688241,0.977720528665874,0.977674433207942,3.720734334197,21210.7780791312,0,4,-3971.57507857512,7953.15015715024,7979.5605254407,20073.6027792249,1450,603.7,1.08017765643914,23.9820407696232
6,46.7862746738504,0.864325817765136,0.864025874841993,8.30980437454255,2881.63430798478,0,4,-4811.00288693658,9632.00577387315,9658.08564888641,93704.715744477,1357,603.7,1.08017765643914,23.9820407696232
7,53.6398040540158,0.986584250166283,0.986555148756665,2.79642071289926,33901.5966281356,0,4,-3392.37282806383,6794.74565612765,6820.92014822923,10815.0168552848,1383,603.7,1.08017765643914,23.9820407696232
8,48.4048679009458,0.993758508625724,0.993744269481904,1.65267772872935,69790.6082846706,0,4,-2532.23831638148,5074.47663276296,5100.39977852655,3591.71693267499,1315,603.7,1.08017765643914,23.9820407696232
9,46.031548899073,0.991367497435765,0.991346165057106,1.67400005819681,46472.431099078,0,4,-2353.79693848507,4717.59387697014,4743.11870421148,3401.96330053933,1214,603.7,1.08017765643914,23.9820407696232
10,44.3254501717879,0.986472726700047,0.986436199409408,1.63643260008529,27006.4576223595,0,4,-2129.27113948381,4268.54227896762,4293.62532738709,2975.15984828495,1111,603.7,1.08017765643914,23.9820407696232
11,51.9414326933628,0.940077125391227,0.939905753967179,3.84424642919684,5485.61191350136,0,4,-2910.08467630812,5830.16935261624,5854.96634517691,15502.3639082039,1049,603.7,1.08017765643914,23.9820407696232
12,56.5523136792918,0.984510008422488,0.984465835442705,2.12570665654655,22287.6068864169,0,4,-2292.7294252615,4595.458850523,4620.27006784433,4753.59748675,1052,603.7,1.08017765643914,23.9820407696232
13,55.3720949165393,0.986161992140562,0.986124926048081,2.20107340653401,26605.5018520148,0,4,-2479.65769659832,4969.31539319663,4994.4386383489,5426.09103786537,1120,603.7,1.08017765643914,23.9820407696232
14,53.8598392221921,0.990552763574377,0.990529243483691,2.21624060616778,42115.1762036204,0,4,-2675.63048960518,5361.26097921036,5386.74872346343,5918.62552143445,1205,603.7,1.08017765643914,23.9820407696232
15,54.515459543132,0.986948158914327,0.986917805795523,2.82883164702722,32515.5436346068,0,4,-3179.68709679539,6369.37419359079,6395.20166096609,10322.9521485174,1290,603.7,1.08017765643914,23.9820407696232
16,54.6645749425046,0.994726948148724,0.994715526375761,1.86357769981834,87090.4150665941,0,4,-2833.55264641525,5677.10529283049,5703.28698954426,4809.99675291541,1385,603.7,1.08017765643914,23.9820407696232
17,52.2198234062904,0.995154779766581,0.995144622072171,1.69083287936069,97970.5373709394,0,4,-2787.86647552893,5585.73295105786,5612.07755169883,4091.10854690175,1431,603.7,1.08017765643914,23.9820407696232
18,52.2043602252359,0.972852064733939,0.972792398942145,3.81422739873707,16305.0222831242,0,4,-3773.25642097834,7556.51284195669,7582.62202108313,19858.4713362625,1365,603.7,1.08017765643914,23.9820407696232
19,53.1465654664861,0.981847313918098,0.981808581301991,2.95586261922275,25349.3673450556,0,4,-3526.8451323178,7063.6902646356,7089.94698955246,12284.3960961481,1406,603.7,1.08017765643914,23.9820407696232
20,52.8022345420897,0.985680456545885,0.985648253674548,2.71207602184828,30608.4648868308,0,4,-3231.47863091286,6472.95726182573,6498.95191802917,9812.04536861141,1334,603.7,1.08017765643914,23.9820407696232
21,55.3994398329452,0.992695320775078,0.992677431764732,1.94636867924133,55491.9082460911,0,4,-2560.34369761871,5130.68739523743,5156.25717578526,4640.73001852626,1225,603.7,1.08017765643914,23.9820407696232
22,54.4539915905493,0.991089564688157,0.991065866721902,1.76247411243929,41821.7138984741,0,4,-2245.76029621697,4501.52059243393,4526.67929872775,3503.92331663704,1128,603.7,1.08017765643914,23.9820407696232
23,53.9938232337577,0.981361506242692,0.981307272022254,2.24252198093807,18094.8762296405,0,4,-2302.46466311885,4614.9293262377,4639.6401097662,5184.80088487511,1031,603.7,1.08017765643914,23.9820407696232
24,55.4519615261687,0.981697858901469,0.981643817146257,2.26387987333793,18165.5435699081,0,4,-2278.73507346001,4567.47014692003,4592.10793645142,5207.15451419905,1016,603.7,1.08017765643914,23.9820407696232
25,54.6539597105966,0.982637966839257,0.982589649492798,2.50660399099647,20337.1674742914,0,4,-2527.5687976444,5065.1375952888,5090.07042758583,6773.1425259584,1078,603.7,1.08017765643914,23.9820407696232
26,54.0365547281445,0.991543409952348,0.991522090817774,2.07902168140603,46509.5525578052,0,4,-2566.09479154208,5142.18958308416,5167.61490455392,5143.57407059006,1190,603.7,1.08017765643914,23.9820407696232
27,53.5724049804161,0.993688195108829,0.993673685212527,1.917240538371,68483.4801337062,0,4,-2707.39847279724,5424.79694559449,5450.68203942404,4796.93372297492,1305,603.7,1.08017765643914,23.9820407696232
28,52.7858561993129,0.993987861799278,0.993974521255934,1.94773196079006,74508.7989378618,0,4,-2826.07624709136,5662.15249418273,5688.21396652523,5129.02803754433,1352,603.7,1.08017765643914,23.9820407696232
29,53.2296074724388,0.992813518436076,0.992798441901327,2.18038563854922,65851.5723229876,0,4,-3150.56058524542,6311.12117049084,6337.46228559664,6798.33659189214,1430,603.7,1.08017765643914,23.9820407696232
30,51.1685009123405,0.995080295860351,0.995070241969057,1.61013570227092,98974.6424349818,0,4,-2787.81557545498,5585.63115090996,5612.1030374064,3805.8442862399,1468,603.7,1.08017765643914,23.9820407696232
31,48.1512192667223,0.990872167766867,0.990852883614262,2.00524211693796,51382.7176154547,0,4,-3009.33474652821,6028.66949305642,6054.97561851628,5709.81424550939,1420,603.7,1.08017765643914,23.9820407696232
32,43.3577960373783,0.995211845105409,0.995201244024462,1.32031034588406,93878.3365621178,0,4,-2303.95552517271,4617.91105034541,4643.98357241617,2362.06229980271,1355,603.7,1.08017765643914,23.9820407696232
33,41.0429155252688,0.993511155938254,0.993495595161128,1.34024727765469,63847.1425856387,0,4,-2146.29660142155,4302.59320284311,4328.26765710094,2247.12471934128,1251,603.7,1.08017765643914,23.9820407696232
34,37.2725431701997,0.97708174894046,0.977022014141869,2.06238080769009,16356.9941136838,0,4,-2472.93004431579,4955.86008863157,4981.11936674635,4895.68019991361,1151,603.7,1.08017765643914,23.9820407696232
35,47.5440356324507,0.927762698935168,0.927545552739583,3.9911430604372,4272.52568912336,0,4,-2806.61823412787,5623.23646825573,5647.78523466396,15897.3644830183,998,603.7,1.08017765643914,23.9820407696232
36,56.4072734955432,0.978129882535491,0.978029407263832,2.57046996139134,9735.03098207245,0,4,-1550.50280969005,3111.0056193801,3133.44403947252,4314.57723203711,653,603.7,1.08017765643914,23.9820407696232
37,54.737774410466,0.982376146563819,0.982327146044534,2.60837207540625,20048.2803222866,0,4,-2573.00731270521,5156.01462541042,5180.95207664542,7341.08966957607,1079,603.7,1.08017765643914,23.9820407696232
38,55.4228924491085,0.991416631373823,0.991394846174264,2.08560896939853,45508.723879106,0,4,-2552.6399288294,5115.27985765881,5140.6715655566,5141.4219619645,1182,603.7,1.08017765643914,23.9820407696232
39,54.477916000429,0.991231205034801,0.991210733139941,2.32881462340631,48419.1234761023,0,4,-2916.67691700913,5843.35383401826,5869.16194403295,6969.04015199551,1285,603.7,1.08017765643914,23.9820407696232
40,53.8009789926827,0.99420527915987,0.994192552832988,1.97194692961747,78121.9348208171,0,4,-2872.20210617445,5754.40421234891,5780.51704244302,5311.79303094914,1366,603.7,1.08017765643914,23.9820407696232
41,51.7580452990197,0.983820758379041,0.983786310029245,3.25650839433198,28559.3000593292,0,4,-3671.22364110904,7352.44728221808,7378.7146341315,14942.2293135977,1409,603.7,1.08017765643914,23.9820407696232
42,49.1642381760868,0.993559662886194,0.993546392960822,1.90911215496503,74873.0407326633,0,4,-3013.73942247376,6037.47884494751,6063.90980352102,5306.69662466251,1456,603.7,1.08017765643914,23.9820407696232
43,44.3254058430979,0.995228202523467,0.995218156634043,1.42481289006696,99068.2019770262,0,4,-2531.58423388774,5073.16846777548,5099.49211866513,2892.88077467387,1425,603.7,1.08017765643914,23.9820407696232
44,42.6263789029483,0.993513187465084,0.993498846685714,1.5597593029139,69278.8837935096,0,4,-2534.1797926615,5078.35958532299,5104.43946033625,3301.3762056669,1357,603.7,1.08017765643914,23.9820407696232
45,39.0931953978891,0.9895919118945,0.989567460630352,1.71670524363032,40472.0142860657,0,4,-2507.91836800601,5025.83673601201,5051.6137175215,3763.41719300952,1277,603.7,1.08017765643914,23.9820407696232
46,41.451866915779,0.981442313297026,0.981394525262598,2.1198275231533,20537.4070107529,0,4,-2535.04601322854,5080.09202645707,5105.41154626443,5235.12406802476,1165,603.7,1.08017765643914,23.9820407696232
47,43.6688637111831,0.907945238025284,0.907687381549164,4.30903949931951,3521.12637110565,0,4,-3093.6238451996,6197.24769039921,6222.14807010201,19886.1367265712,1071,603.7,1.08017765643914,23.9820407696232
48,55.1954045842193,0.980802764350193,0.980744883237681,2.30526404743517,16945.1263423314,0,4,-2249.87560881273,4509.75121762546,4534.28499151871,5287.6711167552,995,603.7,1.08017765643914,23.9820407696232
49,55.4679535776131,0.985714732886298,0.985671135936815,2.17203185705764,22609.7179869513,0,4,-2164.06771782442,4338.13543564884,4362.60878584601,4637.52110747601,983,603.7,1.08017765643914,23.9820407696232
50,55.1770975610181,0.988209650640333,0.988178041124623,2.38158793519441,31263.0430570425,0,4,-2565.96726546505,5141.93453093011,5167.0533257038,6346.92446313814,1119,603.7,1.08017765643914,23.9820407696232
51,53.3855738012848,0.9935582868668,0.993543153633127,1.89460686703358,65654.0636573672,0,4,-2634.2306828154,5278.46136563079,5304.23834714027,4583.83642563998,1277,603.7,1.08017765643914,23.9820407696232
52,53.4292764833674,0.995099147634091,0.995088344873549,1.83083118382525,92115.264775226,0,4,-2760.35929706186,5530.71859412372,5556.81314266181,4561.99418301075,1361,603.7,1.08017765643914,23.9820407696232
53,49.7300637262447,0.946640702222327,0.946527971311529,5.99391881260006,8397.34812326168,0,4,-4568.58714083439,9147.17428166878,9173.48040712864,51016.4290794981,1420,603.7,1.08017765643914,23.9820407696232
54,48.609153609628,0.994514017289904,0.994502744722691,1.82404354132847,88224.2703494154,0,4,-2955.26891199106,5920.53782398212,5946.98246245473,4857.61686736669,1460,603.7,1.08017765643914,23.9820407696232
55,48.0034886884952,0.993258292011196,0.993244088974703,1.94818371201004,69932.8127814117,0,4,-2976.57106160178,5963.14212320356,5989.46227391806,5404.67776065548,1424,603.7,1.08017765643914,23.9820407696232
56,48.2947391841364,0.984425320251099,0.984391065090361,2.8604237013187,28738.0149163202,0,4,-3376.83161702012,6763.66323404023,6789.76875953115,11160.2803964537,1364,603.7,1.08017765643914,23.9820407696232
57,49.7531870910953,0.994240814338076,0.994227273932915,1.78872668233591,73427.7004636793,0,4,-2558.56333154895,5127.12666309791,5152.89973988248,4082.61705187217,1276,603.7,1.08017765643914,23.9820407696232
58,51.0488598213444,0.993373468535255,0.993355671226039,1.78752604788528,55815.9357957374,0,4,-2239.73982738667,4489.47965477335,4514.58953688871,3569.09354837698,1117,603.7,1.08017765643914,23.9820407696232
59,50.2044400534756,0.989232418200168,0.989202646084592,1.97111673941044,33226.8096867053,0,4,-2282.21605817067,4574.43211634135,4599.39719195601,4215.55180241668,1085,603.7,1.08017765643914,23.9820407696232
60,49.9912176460434,0.980080919181579,0.980018082964486,2.34273995198471,15597.3889665248,0,4,-2166.09381064445,4342.1876212889,4366.49617799131,5219.49738897666,951,603.7,1.08017765643914,23.9820407696232
61,49.4096682727702,0.98561125786769,0.985570688106038,2.08029038221376,24294.2333834811,0,4,-2295.7405989435,4601.48119788701,4626.34891298461,4604.57499108828,1064,603.7,1.08017765643914,23.9820407696232
62,49.538408966077,0.988246830436496,0.988215955209972,2.34054982972418,32007.7596731279,0,4,-2598.64226951746,5207.28453903492,5232.50470352129,6256.07414319178,1142,603.7,1.08017765643914,23.9820407696232
63,49.9143014570827,0.987471812870315,0.987441429231359,2.5855899520216,32500.116733471,0,4,-2937.79203523675,5885.58407047351,5911.20243439953,8269.6856697939,1237,603.7,1.08017765643914,23.9820407696232
64,49.0918574325799,0.993696928437618,0.993682806544648,2.01958767361907,70365.7031342743,0,4,-2847.61725979885,5705.2345195977,5731.24782558031,5461.42532335024,1339,603.7,1.08017765643914,23.9820407696232
65,48.7866948757681,0.995285565709105,0.995275563373268,1.7890710071595,99505.3137574081,0,4,-2834.89764340209,5679.79528680418,5706.08030033964,4525.89594708341,1414,603.7,1.08017765643914,23.9820407696232
66,49.0174965606598,0.994532950195982,0.99452156050889,1.88841142162882,87318.7245785122,0,4,-2964.94719006396,5939.89438012793,5966.27024172519,5135.18068416697,1440,603.7,1.08017765643914,23.9820407696232
67,49.3642213370372,0.993980884733256,0.993968344909784,1.86331071828775,79265.9391834595,0,4,-2945.62488681535,5901.2497736307,5927.62563522797,4999.57463935584,1440,603.7,1.08017765643914,23.9820407696232
68,49.301784193674,0.989192744582321,0.989169147954771,2.42739041162008,41920.9373248978,0,4,-3175.32790717396,6360.65581434793,6386.79775660579,8095.91606512412,1374,603.7,1.08017765643914,23.9820407696232
69,49.6538858128645,0.983218469813281,0.983179653629349,2.92620056062866,25330.1167247365,0,4,-3240.92595358589,6491.85190717177,6517.70634956433,11105.7566881675,1297,603.7,1.08017765643914,23.9820407696232
70,49.830286819493,0.988961096989592,0.988933384262369,2.20128275859178,35686.1700777174,0,4,-2645.36323253521,5300.72646507043,5326.17268084556,5790.54671101175,1195,603.7,1.08017765643914,23.9820407696232
71,49.2153322731521,0.988263731654238,0.988231251206787,2.10114285460427,30426.419867949,0,4,-2349.62121615518,4709.24243231036,4734.20291444744,4785.64460427275,1084,603.7,1.08017765643914,23.9820407696232
72,49.941036103834,0.983274281841252,0.983224943439604,2.18382861307084,19929.1879954255,0,4,-2244.21456654609,4498.42913309218,4523.07182218301,4850.18223725847,1017,603.7,1.08017765643914,23.9820407696232
73,49.3919696776733,0.983081638841164,0.983032741843595,2.15357828188671,20105.1534392495,0,4,-2275.88037141627,4561.76074283254,4586.50522894411,4814.13959403027,1038,603.7,1.08017765643914,23.9820407696232
75,48.4969856121981,0.992451816118666,0.992433270212324,2.04681674029648,53513.2550439275,0,4,-2613.6465071776,5237.2930143552,5262.8464949701,5115.32915616502,1221,603.7,1.08017765643914,23.9820407696232
76,49.2984557487241,0.990954371464591,0.99093399842735,2.40132937986556,48640.4829921973,0,4,-3064.0649300469,6138.12986009379,6164.11703686427,7680.82187708656,1332,603.7,1.08017765643914,23.9820407696232
77,49.0454298491664,0.989283753029838,0.989260789643474,2.74604149163068,43080.9174797278,0,4,-3408.45207176741,6826.90414353481,6853.13954645774,10557.0414232601,1400,603.7,1.08017765643914,23.9820407696232
78,46.9820471664684,0.98174323425812,0.981705461639344,3.2902574516822,25990.8702669568,0,4,-3792.79816548472,7595.59633096944,7622.0066992599,15697.4014426078,1450,603.7,1.08017765643914,23.9820407696232
79,46.7772480459335,0.952374824170145,0.952312049333814,4.32871610970158,15171.2832694149,0,4,-6573.99595095976,13157.9919019195,13186.6515555293,42647.1944684957,2276,603.7,1.08017765643914,23.9820407696232
80,44.7648936019861,0.78635299857945,0.785994930979303,9.51692254562086,2196.10207195076,0,4,-6585.58382853863,13181.1676570773,13208.6286722904,162123.54838343,1790,603.7,1.08017765643914,23.9820407696232
81,50.0692001351238,0.978460435703416,0.978411519206149,3.39955520341182,20002.6676146094,0,4,-3499.41962725184,7008.83925450368,7034.78509319578,15266.7647425596,1321,603.7,1.08017765643914,23.9820407696232
82,48.5449936832576,0.987472318436533,0.987441462078003,2.32747048097768,32002.2311593862,0,4,-2764.26326898197,5538.52653796393,5564.06775866259,6598.05074690377,1218,603.7,1.08017765643914,23.9820407696232
83,49.5225107141055,0.989437033064947,0.989408890169027,1.99224903373087,35157.6126316672,0,4,-2380.26550448069,4770.53100896137,4795.6808735199,4469.1572951642,1126,603.7,1.08017765643914,23.9820407696232
84,49.4649295865238,0.982704426428251,0.982653407037184,2.1208882039759,19261.3907354499,0,4,-2214.35581376096,4438.71162752191,4463.35431661274,4574.63560891809,1017,603.7,1.08017765643914,23.9820407696232
85,50.1520941290822,0.982216143573636,0.982163528613795,2.3135723371968,18668.0013923037,0,4,-2296.36655384456,4602.73310768912,4627.36108367468,5427.55359687445,1014,603.7,1.08017765643914,23.9820407696232
86,49.6529830866352,0.986051364085207,0.986012725204557,2.3187737130675,25519.6669128953,0,4,-2454.59131790565,4919.18263581131,4944.13852024691,5822.97858960309,1083,603.7,1.08017765643914,23.9820407696232
87,49.1464708706006,0.992186709160621,0.992167385275611,2.03716129931052,51345.0948711712,0,4,-2590.81015795684,5191.62031591369,5217.14103637862,5033.98173136256,1213,603.7,1.08017765643914,23.9820407696232
88,48.2849667370555,0.994537070890142,0.994524531649645,1.7850072467226,79313.9800714689,0,4,-2617.84822444554,5245.69644889108,5271.5891763099,4164.42988820382,1307,603.7,1.08017765643914,23.9820407696232
89,47.7216373289375,0.993066246145898,0.993051172767955,2.07026466699909,65882.1300610316,0,4,-2968.91225146095,5947.8245029219,5973.98816860278,5914.6741921663,1380,603.7,1.08017765643914,23.9820407696232
90,47.9906728929299,0.995902159659571,0.995893580789354,1.5628845567768,116087.798794271,0,4,-2678.68007560066,5367.36015120133,5393.71171563172,3500.25746148377,1433,603.7,1.08017765643914,23.9820407696232
91,46.0159372655479,0.994818402380379,0.994807696600173,1.64679169062168,92923.4846273715,0,4,-2790.26672527805,5590.53345055609,5616.95069169987,3937.71201058049,1452,603.7,1.08017765643914,23.9820407696232
92,48.1839282568759,0.98883735123152,0.988813651340292,2.47693519881205,41723.2864788477,0,4,-3293.88323178534,6597.76646357068,6624.04794976913,8669.04887448821,1413,603.7,1.08017765643914,23.9820407696232
93,48.0695225777663,0.870738317954209,0.870002482952051,7.65618237409333,1183.33364871246,1.27591396090533e-233,4,-1832.3064453199,3674.6128906398,3695.98670074601,30891.2267434138,527,603.7,1.08017765643914,23.9820407696232
94,49.0525982757339,0.935193181587183,0.934923527696423,5.66480136048557,3468.12419041703,0,4,-2284.07197535651,4578.14395071301,4601.07480898729,23136.8715811603,721,603.7,1.08017765643914,23.9820407696232
95,49.4058129970854,0.9809660129082,0.980770458246298,2.817389315444,5016.32639880267,8.76892903319149e-251,4,-724.592131045588,1459.18426209118,1477.6360593628,2317.80330599518,292,603.7,1.08017765643914,23.9820407696232
96,53.2998284958102,0.973007286986516,0.972901294657929,2.88241957653448,9179.97839992789,0,4,-1900.76746244413,3811.53492488826,3834.753873554,6347.57375800456,764,603.7,1.08017765643914,23.9820407696232
97,56.9667862904452,0.980214087259433,0.980155142137067,2.26867845262809,16629.2654579173,0,4,-2260.75154493389,4531.50308986777,4556.09656596288,5182.9302348689,1007,603.7,1.08017765643914,23.9820407696232
98,55.3876076326304,0.990128953192532,0.990101068879516,1.80363339677962,35508.4578430895,0,4,-2139.31490891643,4288.62981783285,4313.48816085648,3454.78522263746,1062,603.7,1.08017765643914,23.9820407696232
99,54.0561042591426,0.987697839082598,0.987666429310043,2.43027439068205,31445.5584595833,0,4,-2717.88204544601,5445.76409089202,5471.1262003947,6939.8244964559,1175,603.7,1.08017765643914,23.9820407696232
100,52.1178650416053,0.993766635930525,0.993752273340503,1.91810350721989,69191.325131462,0,4,-2701.77670055676,5413.55340111352,5439.4270226627,4790.21562586083,1302,603.7,1.08017765643914,23.9820407696232
101,52.1949412297798,0.99273809752768,0.992722558506697,2.23776303200226,63886.7853173411,0,4,-3125.52499629468,6261.04999258936,6287.29251295122,7020.63190912909,1402,603.7,1.08017765643914,23.9820407696232
102,50.8471593008163,0.993124270808193,0.993110015668196,2.11842695437383,69667.8020018495,0,4,-3146.10474907853,6302.20949815707,6328.60953942149,6493.74930519244,1447,603.7,1.08017765643914,23.9820407696232
103,48.6690533429481,0.995534775329233,0.995525662625823,1.57929417122099,109246.919445051,0,4,-2763.09828102301,5536.19656204601,5562.67523740976,3666.43001650133,1470,603.7,1.08017765643914,23.9820407696232
104,49.1875960527789,0.980287605243728,0.980245544657477,3.34782181025154,23306.560669299,0,4,-3702.41748870006,7414.83497740012,7441.09170231698,15758.3226877134,1406,603.7,1.08017765643914,23.9820407696232
105,53.1620249107741,0.990444740550271,0.990423332201989,2.3288804426485,46264.4164565093,0,4,-3038.98708694178,6087.97417388356,6113.98747986617,7262.31303152574,1339,603.7,1.08017765643914,23.9820407696232
106,53.6006688895607,0.970175729282901,0.970034382028318,3.93526355732017,6863.77483695955,0,4,-1774.53343493296,3559.06686986591,3581.35071814377,9802.8274351072,633,603.7,1.08017765643914,23.9820407696232
