"Age","power_predict","r.squared","adj.r.squared","sigma","statistic","p.value","df","logLik","AIC","BIC","deviance","df.residual","GHI","Wind_speed","Ambient_temp"
1,78.6008092761964,0.767193206385467,0.766573489987203,23.4278990501778,1237.97467443901,0,4,-5169.90802816518,10349.8160563304,10374.9703437109,618572.493551297,1127,386.454715484,2.30472089053036,17.9886929775373
2,90.2419313737641,0.980529299124511,0.980473774312128,6.98857283966794,17659.2996365034,0,4,-3549.55113363725,7109.10226727449,7133.91348459583,51379.8381527823,1052,386.454715484,2.30472089053036,17.9886929775373
3,93.3314346955837,0.986816294928574,0.986769041505379,4.59780065941645,20883.4879719656,0,4,-2474.33369329847,4958.66738659694,4982.3403448968,17693.9882464223,837,386.454715484,2.30472089053036,17.9886929775373
4,92.6674956179616,0.977833662700841,0.977752068821213,4.9762041378058,11984.1545364592,0,4,-2474.32834219058,4958.65668438116,4982.19710480042,20181.5252112092,815,386.454715484,2.30472089053036,17.9886929775373
5,93.9939357207329,0.970099920007995,0.969986375400431,6.46123499567804,8543.77799893561,0,4,-2606.09359800494,5222.18719600987,5245.57261331611,32980.5705588059,790,386.454715484,2.30472089053036,17.9886929775373
6,89.1541165785515,0.73566169530442,0.734860670138676,24.204469737874,918.400228563308,2.008317757623e-285,4,-4575.8389591558,9161.67791831161,9186.18660434489,579997.791738743,990,386.454715484,2.30472089053036,17.9886929775373
7,89.9255473343027,0.783327780711347,0.782682922915845,26.9896261894764,1214.72948947081,0,4,-4768.9598404816,9547.91968096321,9572.51810021245,734267.441222452,1008,386.454715484,2.30472089053036,17.9886929775373
8,88.2199556287622,0.969224011251397,0.969143304987196,10.7460337902607,12009.2785962555,0,4,-4352.90611747458,8715.81223494917,8741.04111783356,132105.965101311,1144,386.454715484,2.30472089053036,17.9886929775373
9,88.8953689752977,0.983978547809002,0.983945239176588,7.98391399846836,29541.2473135278,0,4,-5057.24071426405,10124.4814285281,10150.8676671613,91980.979786517,1443,386.454715484,2.30472089053036,17.9886929775373
10,91.7599945036246,0.98602971056274,0.986001657772705,7.26618878020482,35149.0781966616,0,4,-5094.4486560797,10198.8973121594,10225.4567429798,78879.4640880241,1494,386.454715484,2.30472089053036,17.9886929775373
11,92.6941501749511,0.983261331014434,0.983227606362348,7.76861840230913,29155.566334516,0,4,-5177.26040490561,10364.5208098112,10391.0635237989,89863.2820703565,1489,386.454715484,2.30472089053036,17.9886929775373
12,92.366501184832,0.986659088894789,0.98662872263279,6.93491140159619,32491.9507347948,0,4,-4433.97697276224,8877.95394552448,8903.88845062654,63386.5689230493,1318,386.454715484,2.30472089053036,17.9886929775373
13,93.4561455390341,0.980587464652487,0.980543008464668,7.52722545517198,22057.3898205307,0,4,-4514.82601441945,9039.65202883891,9065.55618483413,74223.4511994157,1310,386.454715484,2.30472089053036,17.9886929775373
14,94.5543074088889,0.98902070728023,0.98898983766621,5.09189276449545,32038.6483174143,0,4,-3260.89216886045,6531.7843377209,6556.66607807314,27664.5058441042,1067,386.454715484,2.30472089053036,17.9886929775373
15,95.4436395973789,0.986996047497779,0.986951360375779,4.86027259678707,22086.8116653615,0,4,-2629.02441819003,5268.04883638006,5291.93137134192,20622.2240012642,873,386.454715484,2.30472089053036,17.9886929775373
16,95.1769154422008,0.980038551636568,0.979958277715535,4.34148933704956,12208.679220228,0,4,-2163.36163837857,4336.72327675715,4359.8236427898,14061.0031291314,746,386.454715484,2.30472089053036,17.9886929775373
17,96.6393646358975,0.983544225501801,0.983485314614576,4.58595426090314,16695.4576960347,0,4,-2475.10597271635,4960.21194543271,4983.89084550392,17623.9582928342,838,386.454715484,2.30472089053036,17.9886929775373
18,97.1618127449791,0.988571399683696,0.988530680205134,5.14046500571827,24277.6045912986,0,4,-2583.44069373018,5176.88138746037,5200.5839842584,22249.3283599619,842,386.454715484,2.30472089053036,17.9886929775373
19,85.3755926373344,0.888798493042679,0.888474919307595,20.2100697938373,2746.81902970583,0,4,-4577.99482645596,9165.98965291192,9190.70043644042,421108.775625,1031,386.454715484,2.30472089053036,17.9886929775373
20,89.1734016412088,0.99059257113944,0.990570895036074,6.34866364775892,45699.7530618486,0,4,-4264.93776542032,8539.87553084063,8565.74915238982,52477.8002063131,1302,386.454715484,2.30472089053036,17.9886929775373
21,89.5597843162241,0.987732971797482,0.987704814885005,7.25884907731491,35079.5909388598,0,4,-4456.917466928,8923.83493385599,8949.72766127481,68866.9931348968,1307,386.454715484,2.30472089053036,17.9886929775373
23,67.7912108037674,0.863989727956238,0.863789712850291,15.9369892879243,4319.62237985381,0,4,-8557.41424003817,17124.8284800763,17152.941799833,518134.760229364,2040,386.454715484,2.30472089053036,17.9886929775373
24,96.3069678887204,0.983915137393406,0.983844897818704,7.23967300579973,14007.9882541686,0,4,-2346.36775923463,4702.73551846927,4725.4262175881,36007.638413632,687,386.454715484,2.30472089053036,17.9886929775373
27,101.808431079908,0.974967093980572,0.97459160039028,5.92239873063129,2596.49463849409,7.93880831779846e-160,4,-650.306870583442,1310.61374116688,1327.20434113611,7014.96134491662,200,386.454715484,2.30472089053036,17.9886929775373
28,101.381334755796,0.98864856243265,0.988601976505561,3.85490318988144,21222.0433124387,0,4,-2032.68359186688,4075.36718373376,4098.36653622983,10862.8636590548,731,386.454715484,2.30472089053036,17.9886929775373
29,101.424552728326,0.844072261982291,0.843365640813027,13.4250870698105,1194.5187870055,1.36084780909556e-266,4,-2672.69236688128,5355.38473376256,5377.89118211526,119314.221394779,662,386.454715484,2.30472089053036,17.9886929775373
30,105.913128876973,0.710057931849911,0.709088225936366,24.4781442459365,732.240488514493,1.41622052437335e-240,4,-4157.6595294114,8325.3190588228,8349.33658511085,537464.052515214,897,386.454715484,2.30472089053036,17.9886929775373
31,99.0105857251801,0.961435784558826,0.961331462966109,10.3950036760395,9216.07655247285,0,4,-4183.17001594652,8376.34003189303,8401.41410364941,119834.216480185,1109,386.454715484,2.30472089053036,17.9886929775373
32,90.6127789628376,0.987714087406828,0.987682825542723,7.21927323903727,31594.8557672965,0,4,-4015.10121911268,8040.20243822536,8065.58148254525,61447.0112917582,1179,386.454715484,2.30472089053036,17.9886929775373
33,90.2852117205442,0.982575165268337,0.982536529271149,7.9433944275259,25431.5984260545,0,4,-4735.66295738044,9481.32591476088,9507.39107306005,85370.9378372806,1353,386.454715484,2.30472089053036,17.9886929775373
34,89.8021358201798,0.984106215188325,0.98407273109111,7.80465490858722,29390.2567792581,0,4,-4958.38206292249,9926.76412584497,9953.08427655947,86739.5968567997,1424,386.454715484,2.30472089053036,17.9886929775373
35,90.102192452713,0.98588059728281,0.985852015495933,7.20086912385268,34493.3156743785,0,4,-5040.2037350612,10090.4074701224,10116.9266862488,76845.428917783,1482,386.454715484,2.30472089053036,17.9886929775373
36,91.0528774991951,0.987183063124534,0.98715518001313,6.63878634389301,35404.3366543267,0,4,-4578.31013187385,9166.62026374771,9192.78031540603,60777.3346012874,1379,386.454715484,2.30472089053036,17.9886929775373
37,91.6797760668201,0.987782555312756,0.987754009881244,6.20437895119025,34603.8754008248,0,4,-4176.51857759166,8363.03715518331,8388.84138471663,49426.7045302448,1284,386.454715484,2.30472089053036,17.9886929775373
38,92.4941893892289,0.989065690725101,0.989037240657603,5.39803360143701,34764.9681607814,0,4,-3590.4506111633,7190.90122232659,7216.16915096256,33596.9980768662,1153,386.454715484,2.30472089053036,17.9886929775373
39,95.3804488622658,0.994320062315362,0.994301580956301,3.35530577736594,53801.2415132751,0,4,-2432.89548155542,4875.79096311084,4899.94533428407,10379.9468645745,922,386.454715484,2.30472089053036,17.9886929775373
40,96.880633159484,0.921456745033561,0.92114670586922,9.8834857711387,2972.06563239047,0,4,-2832.28484435069,5674.56968870138,5697.76252764721,74239.3011511089,760,386.454715484,2.30472089053036,17.9886929775373
41,83.3258409470617,0.640381776606199,0.639031520448275,21.4592863225304,474.266881027006,6.5448551307067e-177,4,-3599.52710106167,7209.05420212334,7232.49597569307,367940.274608399,799,386.454715484,2.30472089053036,17.9886929775373
42,95.6333737138297,0.953476223405981,0.953304970240605,9.31349300820798,5567.64145823724,0,4,-2987.67494653448,5985.34989306897,6008.89031348823,70694.0388913603,815,386.454715484,2.30472089053036,17.9886929775373
43,98.3740010533656,0.810384708642941,0.809376116667637,24.1300361268055,803.481217862236,3.91713345321884e-203,4,-2612.1538013968,5234.3076027936,5256.01820988721,328393.87492325,564,386.454715484,2.30472089053036,17.9886929775373
44,87.8319107927149,0.992290810907948,0.992271681406479,5.3699452989268,51872.2776184332,0,4,-3758.00103274637,7526.00206549275,7551.50632503747,34863.1018287804,1209,386.454715484,2.30472089053036,17.9886929775373
45,86.3628111844596,0.989607761524756,0.989584921440195,6.52812755781954,43327.6750303967,0,4,-4508.93242013686,9027.86484027373,9053.97401940017,58171.4534462373,1365,386.454715484,2.30472089053036,17.9886929775373
46,88.1355647626584,0.977989689098703,0.977944891993748,8.63907717855937,21831.5377763327,0,4,-5282.19358751577,10574.3871750315,10600.8794005391,110010.006728733,1474,386.454715484,2.30472089053036,17.9886929775373
47,86.7473547266154,0.975751203433371,0.975704927104045,9.37791379861569,21085.3198093436,0,4,-5761.89573607027,11533.7914721405,11560.6046984926,138249.960060827,1572,386.454715484,2.30472089053036,17.9886929775373
48,81.3207976829957,0.983290481658271,0.983256287555252,7.31859264103288,28756.1419910611,0,4,-5009.75144735785,10029.5028947157,10055.9679831146,78521.596227728,1466,386.454715484,2.30472089053036,17.9886929775373
49,82.4060454711602,0.976588589726736,0.976535179665276,8.6535578234408,18284.7306861763,0,4,-4715.94003599694,9441.88007199387,9467.80321775746,98472.542849778,1315,386.454715484,2.30472089053036,17.9886929775373
50,82.3998968605953,0.988855253025731,0.988825480772015,5.96158100606101,33213.9871729641,0,4,-3609.21352048057,7228.42704096115,7253.56361353135,39911.9232071222,1123,386.454715484,2.30472089053036,17.9886929775373
51,84.1426859640722,0.986341245550374,0.9863011120897,5.22960712251891,24576.5311281006,0,4,-3148.10264307314,6306.20528614628,6330.86752560414,27923.1152596744,1021,386.454715484,2.30472089053036,17.9886929775373
52,84.9860310089068,0.986348505921904,0.986303990180345,4.40411468292179,22157.2969780683,0,4,-2678.96113859577,5367.92227719154,5392.06583754975,17844.5280491011,920,386.454715484,2.30472089053036,17.9886929775373
53,67.4362663162762,0.79877103302277,0.798001024220561,13.846219201489,1037.35311951172,2.22606883869125e-272,4,-3186.9920950371,6383.98419007419,6407.33168052348,150306.744361735,784,386.454715484,2.30472089053036,17.9886929775373
55,96.127473999589,0.62623632360246,0.625008184468623,34.8812571668845,509.906659880025,1.48510443503881e-194,4,-4556.30008098707,9122.60016197415,9146.70569933543,1110849.01870815,913,386.454715484,2.30472089053036,17.9886929775373
56,86.0245714096048,0.94879864088679,0.948665880232218,14.1104186167026,7146.68546902431,0,4,-4718.45068011753,9446.90136023505,9472.18654514354,230363.227964146,1157,386.454715484,2.30472089053036,17.9886929775373
57,82.1774059650568,0.989459421510591,0.989435264340638,6.33565569093951,40959.2441268346,0,4,-4285.11505921118,8580.23011842235,8606.13046779387,52543.9577416817,1309,386.454715484,2.30472089053036,17.9886929775373
58,82.5287010892357,0.986031383245738,0.986002281960833,7.34659235651823,33882.7438882627,0,4,-4926.62208934693,9863.24417869387,9889.62004029113,77720.283724107,1440,386.454715484,2.30472089053036,17.9886929775373
59,81.7950161520605,0.981407084700616,0.981369472599538,8.15665840563302,26092.8546021546,0,4,-5228.92591855989,10467.8518371198,10494.3744168521,98665.5862213905,1483,386.454715484,2.30472089053036,17.9886929775373
60,82.4560679371786,0.984020651875619,0.983988173525772,7.17580875554893,30297.7416196411,0,4,-5014.6852228391,10039.3704456782,10065.869432512,76002.53339321,1476,386.454715484,2.30472089053036,17.9886929775373
61,81.1312753046,0.985361652437759,0.985327609769009,6.7598408846439,28944.9002865021,0,4,-4306.93652588388,8623.87305176776,8649.70051914306,58947.1289335572,1290,386.454715484,2.30472089053036,17.9886929775373
62,82.5996253602148,0.983806675368179,0.98376461478472,6.31914242491845,23390.2289139844,0,4,-3779.2595850278,7568.5191700556,7593.7957342723,46120.9529392969,1155,386.454715484,2.30472089053036,17.9886929775373
63,79.897851695354,0.911359956653371,0.911046371594362,13.6622795500136,2906.26077509115,0,4,-3434.60310841577,6879.20621683153,6902.94414946568,158285.884362307,848,386.454715484,2.30472089053036,17.9886929775373
64,82.9234403357403,0.986545463555681,0.986499280936307,4.32797650728749,21361.8343204916,0,4,-2530.18136207288,5070.36272414576,5094.25095711393,16371.2266860308,874,386.454715484,2.30472089053036,17.9886929775373
65,87.5588328573196,0.987062592364951,0.987014497912776,3.74800574605507,20523.4189751304,0,4,-2220.26678282007,4450.53356564015,4474.02490591072,11336.3704874767,807,386.454715484,2.30472089053036,17.9886929775373
66,86.575404373738,0.985396310479948,0.985341615013581,4.7255760123284,18016.050980602,0,4,-2390.39704977759,4790.79409955519,4814.24831094228,17887.1859872831,801,386.454715484,2.30472089053036,17.9886929775373
67,80.318924828072,0.954489110719216,0.954167099710154,8.29305110146575,2964.15055342095,5.33055318597476e-284,4,-1510.69516928536,3031.39033857071,3051.68595454862,29160.4713463255,424,386.454715484,2.30472089053036,17.9886929775373
68,85.6777284062536,1,1,1.3248541633699e-10,6.35527927936689e+20,0,2,2048.26912448019,-4090.53824896039,-4082.84520438599,1.64992424094665e-18,94,386.454715484,2.30472089053036,17.9886929775373
69,85.6777284060938,1,1,1.30567723008965e-10,5.23509372453486e+21,0,2,4098.32182852658,-8190.64365705317,-8180.87117093708,3.23910675543173e-18,190,386.454715484,2.30472089053036,17.9886929775373
70,83.5246741536206,0.988725124801598,0.988690715212996,6.62089904172573,28734.0001722796,0,4,-3264.14643106116,6538.29286212232,6562.76621231949,43091.0869506724,983,386.454715484,2.30472089053036,17.9886929775373
71,81.9496826327202,0.990080302319843,0.990048777856876,6.5166595871993,31406.7301755074,0,4,-3120.04459016874,6250.08918033749,6274.36095284876,40088.708453612,944,386.454715484,2.30472089053036,17.9886929775373
72,95.4052199952521,1,1,1.24745880486546e-10,7.25066364160049e+23,0,2,12319.2247697151,-24632.4495394302,-24619.3812164481,8.93232091686069e-18,574,386.454715484,2.30472089053036,17.9886929775373
73,95.4052199957016,1,1,1.20855117723554e-10,3.34137849783817e+22,0,2,4113.16334950493,-8220.32669900986,-8210.55421289377,2.77513230119508e-18,190,386.454715484,2.30472089053036,17.9886929775373
74,83.5706456042107,0.988951344135377,0.988915703310007,5.74945059043549,27747.71161654,0,4,-2956.94771199591,5923.89542399183,5948.09280618297,30742.2493454289,930,386.454715484,2.30472089053036,17.9886929775373
75,84.906881335493,0.99038385259427,0.990354081240072,4.69728696787985,33266.3353514445,0,4,-2883.83957394961,5777.67914789921,5802.08106831014,21380.5052079969,969,386.454715484,2.30472089053036,17.9886929775373
77,86.7053717937108,0.989557224311941,0.989493158203425,2.86869443214096,15445.8768799646,0,4,-1217.08005224154,2444.16010448308,2465.1626503533,4024.18038730332,489,386.454715484,2.30472089053036,17.9886929775373
78,86.1994424064144,0.883373101265003,0.882951558257528,12.7856512904195,2095.57052447496,0,4,-3306.69176517749,6623.38353035498,6647.01469736678,135682.489503772,830,386.454715484,2.30472089053036,17.9886929775373
79,78.1993533466587,0.950004188344786,0.949829581319215,9.92230103525221,5440.8130786096,0,4,-3202.93863344374,6415.87726688748,6439.67934034289,84570.3176795496,859,386.454715484,2.30472089053036,17.9886929775373
80,71.4905662763676,0.83811044535066,0.83752032546737,21.4795918524228,1420.23759761741,0,4,-3707.95171732972,7425.90343465944,7449.49245813456,379709.868838707,823,386.454715484,2.30472089053036,17.9886929775373
81,81.0354915510982,0.985861607170811,0.985825631616538,7.57699983143746,27403.6530388543,0,4,-4072.31468629698,8154.62937259395,8180.00841691385,67687.4822793662,1179,386.454715484,2.30472089053036,17.9886929775373
82,80.828850629291,0.982506190036768,0.982467053996582,8.44237390731822,25104.8952669256,0,4,-4775.70880547801,9561.41761095601,9587.43835741619,95578.0011130874,1341,386.454715484,2.30472089053036,17.9886929775373
