"Age","power_predict","r.squared","adj.r.squared","sigma","statistic","p.value","df","logLik","AIC","BIC","deviance","df.residual","GHI","Wind_speed","Ambient_temp"
1,122.337529751515,0.95008422664649,0.949924751332262,11.8762872001864,5957.56296981104,0,4,-3669.54952967697,7349.09905935393,7373.3443907671,132442.379603971,939,493.8,1.71747480854109,17.2646255957084
2,126.896541841624,0.869315223783409,0.86880606231763,14.9108080156343,1707.34684812314,0,4,-3187.66805068226,6385.33610136452,6408.59396073247,171195.790672909,770,493.8,1.71747480854109,17.2646255957084
3,126.389365349299,0.746875986875705,0.745797333410687,19.3127158900937,692.415137110817,1.72329436556997e-209,4,-3098.82353364763,6207.64706729527,6230.45928776374,262578.620516239,704,493.8,1.71747480854109,17.2646255957084
4,130.350400513001,0.937361576116922,0.937149959820019,11.4812872426915,4429.53397180804,0,4,-3440.80958813607,6891.61917627214,6915.58650693504,117056.121593281,888,493.8,1.71747480854109,17.2646255957084
5,102.562421283759,0.744623416349787,0.743783361798306,30.6348152850846,886.398883307115,9.83999290911724e-270,4,-4432.42091567345,8874.8418313469,8898.94191317027,855904.619686743,912,493.8,1.71747480854109,17.2646255957084
6,106.082040709394,0.95987851082024,0.959745511408595,13.2516208432024,7217.16358699323,0,4,-3636.77567761135,7283.5513552227,7307.61308069359,158922.936749657,905,493.8,1.71747480854109,17.2646255957084
7,107.68679890429,0.968833278663331,0.968755556166233,11.4640922165001,12465.2875914449,0,4,-4654.79370777893,9319.58741555786,9345.06688166335,158104.768649148,1203,493.8,1.71747480854109,17.2646255957084
8,108.856719311821,0.972920591591985,0.972862062611276,10.6699076101666,16622.8863002043,0,4,-5268.61850889866,10547.2370177973,10573.4295020018,158019.536632375,1388,493.8,1.71747480854109,17.2646255957084
9,116.959605429082,0.966809836542508,0.966742376860684,11.1009490889492,14331.6690858762,0,4,-5660.43162165517,11330.8632433103,11357.3622301441,181889.060316954,1476,493.8,1.71747480854109,17.2646255957084
10,124.720891920549,0.97259672020705,0.972539827584642,9.7130077145005,17095.3047873335,0,4,-5348.29138657343,10706.5827731469,10732.9759178585,136324.939755512,1445,493.8,1.71747480854109,17.2646255957084
11,121.471829218416,0.958329289612904,0.958237638490351,12.0714884683788,10456.2744342429,0,4,-5346.58278666781,10703.1655733356,10729.2710988265,198763.217360762,1364,493.8,1.71747480854109,17.2646255957084
12,119.698916450956,0.963091773613129,0.962998097911639,11.0843648414459,10281.1268909566,0,4,-4533.82287350699,9077.64574701399,9103.03745491178,145224.236135048,1182,493.8,1.71747480854109,17.2646255957084
13,117.001710898381,0.942043748054398,0.941880949593876,12.8242224725617,5786.5642281723,0,4,-4254.13030519947,8518.26061039894,8543.14701710709,175644.008403509,1068,493.8,1.71747480854109,17.2646255957084
14,131.127657649626,0.947974356664558,0.947786764200608,9.78586198658504,5053.37121067757,0,4,-3091.09255827412,6192.18511654823,6215.82825961366,79674.8948906478,832,493.8,1.71747480854109,17.2646255957084
15,137.232396254526,0.728403210699745,0.727089032687002,21.5969639425264,554.265254506353,5.58139204965107e-175,4,-2800.68412081164,5611.36824162329,5633.54899346513,289185.887951567,620,493.8,1.71747480854109,17.2646255957084
16,106.425893577393,0.647419743461009,0.646094253774772,25.2222570882833,488.438160012468,4.12264016450251e-180,4,-3724.6206110973,7459.24122219461,7482.67676523394,507657.477596711,798,493.8,1.71747480854109,17.2646255957084
17,127.226773641809,0.882058680920016,0.881718465576516,18.6182464286418,2592.64814998016,0,4,-4532.17233007125,9074.3446601425,9099.09873398471,360504.664080738,1040,493.8,1.71747480854109,17.2646255957084
18,118.018675554083,0.882451236649198,0.882148015419574,20.5028609446204,2910.25545191615,0,4,-5178.89652807822,10367.7930561564,10393.1040143179,488887.177941496,1163,493.8,1.71747480854109,17.2646255957084
19,107.067192392055,0.976065456422735,0.976009447350402,9.9051450642548,17426.9170288609,0,4,-4771.61969954001,9553.23939908002,9579.035858604,125779.45418972,1282,493.8,1.71747480854109,17.2646255957084
20,106.546826455904,0.977738441733791,0.977690464237528,9.08347174347169,20379.105161435,0,4,-5059.04855385228,10128.0971077046,10154.3039391212,114853.166808913,1392,493.8,1.71747480854109,17.2646255957084
21,109.02824458752,0.980313036601139,0.980269352510757,8.23544942432156,22440.9625570026,0,4,-4781.13309798923,9572.26619597846,9598.32766832096,91696.1920021949,1352,493.8,1.71747480854109,17.2646255957084
22,115.849951267884,0.961526158246653,0.961447372222585,11.7399295642327,12204.2731514572,0,4,-5700.55882924055,11411.1176584811,11437.579344362,201915.011143656,1465,493.8,1.71747480854109,17.2646255957084
23,122.484498510799,0.974148814063658,0.97408888086597,9.176187198545,16253.9102139253,0,4,-4716.94121918738,9443.88243837477,9469.72533786109,108957.920484547,1294,493.8,1.71747480854109,17.2646255957084
24,121.539542989385,0.972126721801536,0.9720553738198,9.67536152237486,13625.1467545261,0,4,-4335.69744928442,8681.39489856885,8706.74426921114,109713.9913299,1172,493.8,1.71747480854109,17.2646255957084
25,121.584229262887,0.971297692367735,0.971212522315414,8.94743266240957,11404.2162226695,0,4,-3662.45579727264,7334.91159454529,7359.52481400267,80937.1733120854,1011,493.8,1.71747480854109,17.2646255957084
26,127.993413162098,0.960156993771089,0.960025353882667,8.54303956144476,7293.81500762636,0,4,-3248.4141243489,6506.82824869779,6530.90644864816,66269.0406531566,908,493.8,1.71747480854109,17.2646255957084
28,128.127921939284,0.927052266352464,0.926794196540032,11.5620006190319,3592.2538076614,0,4,-3292.39169390326,6594.78338780652,6618.52132044067,113360.519850691,848,493.8,1.71747480854109,17.2646255957084
30,112.737519986466,0.898998823591084,0.898712430841343,19.4422873133242,3139.04183818136,0,4,-4656.34132660215,9322.6826532043,9347.52219921331,399926.683060328,1058,493.8,1.71747480854109,17.2646255957084
31,111.187871506203,0.975537189671474,0.975476538075618,9.62916695920907,16084.2790021555,0,4,-4470.05129198037,8950.10258396074,8975.61096381883,112192.236157272,1210,493.8,1.71747480854109,17.2646255957084
32,99.4447172444619,0.966125575680333,0.966051071814527,11.6279096034732,12967.4556512228,0,4,-5295.36741313724,10600.7348262745,10626.8403517654,184424.096302285,1364,493.8,1.71747480854109,17.2646255957084
33,104.799542120769,0.966672739654304,0.966604771074401,11.0264909164606,14222.3471644699,0,4,-5631.37506769407,11272.7501353881,11299.232201732,178849.331340189,1471,493.8,1.71747480854109,17.2646255957084
34,108.730083026671,0.970809142001695,0.970750486560305,10.1079682946228,16551.0499793311,0,4,-5585.1944145577,11180.3888291154,11206.9449210375,152541.337406335,1493,493.8,1.71747480854109,17.2646255957084
35,110.426303014589,0.977803093647355,0.977754273472093,8.69505508298386,20028.6682379062,0,4,-4897.75311621158,9805.50623242317,9831.61175791408,103123.832670312,1364,493.8,1.71747480854109,17.2646255957084
36,110.293066156133,0.959159524583356,0.959061507442356,11.7604009023005,9785.63050093346,0,4,-4868.12721645179,9746.25443290358,9771.92490150954,172883.786728537,1250,493.8,1.71747480854109,17.2646255957084
37,107.043673300238,0.961285884722976,0.961176316472192,10.4381316450662,8773.39811345308,0,4,-4003.32223445632,8016.64446891263,8041.49342226214,115491.867774117,1060,493.8,1.71747480854109,17.2646255957084
38,111.41536025962,0.944040050108056,0.943868918762821,11.1665257408665,5516.46484640213,0,4,-3772.37710517972,7554.75421035945,7579.21741856531,122322.162476128,981,493.8,1.71747480854109,17.2646255957084
39,119.522131375784,0.922829467442958,0.922564882759905,10.5434824195988,3487.8416119768,0,4,-3315.73384053791,6641.46768107582,6665.36160556424,97269.3938408411,875,493.8,1.71747480854109,17.2646255957084
42,99.947022108306,0.945828815936109,0.945661448735087,13.9388149627514,5651.21965453546,0,4,-3950.27141313147,7910.54282626293,7934.95501361792,188656.136251413,971,493.8,1.71747480854109,17.2646255957084
43,95.4086240659666,0.955571535446807,0.955458868165607,13.445685353106,8481.35789973209,0,4,-4766.88401965648,9543.76803931296,9569.16396128601,213870.375809225,1183,493.8,1.71747480854109,17.2646255957084
44,97.1343022218456,0.977964964775783,0.977916923274567,9.03513199938885,20356.6695467548,0,4,-4993.67860819262,9997.35721638524,10023.506410276,112327.847699019,1376,493.8,1.71747480854109,17.2646255957084
45,101.825331662372,0.975386524500385,0.975336395222381,9.24571143460508,19457.4221562969,0,4,-5378.85354768505,10767.7070953701,10794.1959367828,125916.724039817,1473,493.8,1.71747480854109,17.2646255957084
46,108.426225421142,0.970093893692861,0.970031718835674,10.4088300686689,15602.6718448093,0,4,-5441.02233654557,10892.0446730911,10918.4309117243,156340.021723928,1443,493.8,1.71747480854109,17.2646255957084
47,110.308240169469,0.964237368239249,0.96415559392882,11.2716069796316,11791.4460322082,0,4,-5053.04963366057,10116.0992673211,10142.0110278806,166688.450561103,1312,493.8,1.71747480854109,17.2646255957084
48,108.346448662004,0.97327535043496,0.973211466810502,9.41773068532078,15235.130421738,0,4,-4607.86647142618,9225.73294285236,9251.42330802258,111310.532332847,1255,493.8,1.71747480854109,17.2646255957084
49,107.880352102143,0.962814336289925,0.962714642821534,9.96771264947903,9657.74741137251,0,4,-4173.63572627309,8357.27145254618,8382.39024731987,111178.575622632,1119,493.8,1.71747480854109,17.2646255957084
50,107.862466159699,0.865357593475147,0.864887910661688,17.8998989999754,1842.42976042187,0,4,-3716.42118952124,7442.84237904249,7466.65024288651,275549.490420015,860,493.8,1.71747480854109,17.2646255957084
51,117.015519830964,0.936889408250351,0.936668226269921,10.3813530208948,4235.83063333035,0,4,-3230.69212046663,6471.38424093325,6495.16890287949,92253.2519060421,856,493.8,1.71747480854109,17.2646255957084
52,118.260570758566,0.933535986016674,0.933307848668905,10.5793059037471,4091.99105340052,0,4,-3314.93750417246,6639.87500834493,6663.76324131311,97819.57751602,874,493.8,1.71747480854109,17.2646255957084
53,116.228684393409,0.926904824841586,0.92664653800357,13.2908328561735,3588.66457138482,0,4,-3415.12444624456,6840.24889248913,6863.99269022659,149972.65607112,849,493.8,1.71747480854109,17.2646255957084
54,99.98226835751,0.964293952257995,0.964188624683535,10.8549439835533,9155.18996046413,0,4,-3881.42999080124,7772.85998160248,7797.5026706933,119832.915637144,1017,493.8,1.71747480854109,17.2646255957084
55,96.7160635423519,0.964972063637976,0.964889255277782,11.4438745026739,11653.0753824654,0,4,-4907.18532113815,9824.37064227629,9850.11630026908,166191.112550214,1269,493.8,1.71747480854109,17.2646255957084
56,94.6745104328452,0.978833458165707,0.9787859285059,8.81775048738421,20594.1608277693,0,4,-4816.24214301311,9642.48428602621,9668.48641049094,103877.638806773,1336,493.8,1.71747480854109,17.2646255957084
57,100.618794284317,0.973618857072351,0.973563896357918,9.63270329588728,17714.814429246,0,4,-5317.84114194891,10645.6822838978,10672.0581454951,133616.120812701,1440,493.8,1.71747480854109,17.2646255957084
58,100.727211693353,0.968096854731686,0.968033344820734,10.3299464448684,15243.2406252398,0,4,-5670.26963785969,11350.5392757194,11377.1419105307,160808.644885652,1507,493.8,1.71747480854109,17.2646255957084
59,107.095499343358,0.977988627050596,0.977941594202414,8.33169553215343,20793.7359705713,0,4,-4980.91691733687,9971.83383467374,9998.08346235733,97461.6792184695,1404,493.8,1.71747480854109,17.2646255957084
60,108.310604790831,0.970471563795219,0.970401866463501,9.61450341861989,13924.0848948628,0,4,-4692.81621825547,9395.63243651094,9421.3859437989,117489.557179037,1271,493.8,1.71747480854109,17.2646255957084
61,104.661344238082,0.963734439025535,0.96363832888161,10.3448115523341,10027.395649048,0,4,-4264.15771191672,8538.31542383345,8563.49176682985,121141.12269234,1132,493.8,1.71747480854109,17.2646255957084
62,105.992953626914,0.928007390978781,0.927763348236337,12.5599160724017,3802.6428554361,0,4,-3509.05565876702,7028.11131753404,7052.06180371161,139610.070195011,885,493.8,1.71747480854109,17.2646255957084
63,110.02723581019,0.891268172909395,0.89089665186011,13.1136161795402,2398.97086484276,0,4,-3519.45950177718,7048.91900355436,7072.82996383439,150986.963929174,878,493.8,1.71747480854109,17.2646255957084
64,113.290606870217,0.792977930132559,0.792185753844801,16.789841214354,1001.01194946994,1.50595969022052e-267,4,-3338.88839372381,6687.77678744762,6711.12427789691,221008.634114525,784,493.8,1.71747480854109,17.2646255957084
65,117.593188113051,0.918431970522406,0.918136434183719,12.1715580089107,3107.67865164396,0,4,-3257.80483329186,6525.60966658372,6549.22882878783,122665.570573623,828,493.8,1.71747480854109,17.2646255957084
66,99.1215498878885,0.845018017969351,0.844535208056483,20.3757745565649,1750.20850949319,0,4,-4284.98264688828,8579.96529377657,8604.33628625383,399810.817795101,963,493.8,1.71747480854109,17.2646255957084
67,99.125580670024,0.84349213648736,0.84311195544239,23.4503463497894,2218.65910372773,0,4,-5664.96444997714,11339.9288999543,11365.5391993624,679149.648747477,1235,493.8,1.71747480854109,17.2646255957084
68,98.353576290595,0.920788175080086,0.920568345778735,18.4837639992359,4188.65078232923,0,4,-4702.37321952344,9414.74643904689,9439.69311537676,369323.143637383,1081,493.8,1.71747480854109,17.2646255957084
