"Age","power_predict","r.squared","adj.r.squared","sigma","statistic","p.value","df","logLik","AIC","BIC","deviance","df.residual","GHI","Wind_speed","Ambient_temp"
2,0.153237640777564,0.990776732769363,0.990729433963052,0.0148795825058547,20947.182604474,0,4,1644.62579206078,-3279.25158412156,-3257.3594532033,0.129520155695895,585,342.8,0.626553078573879,22.9491093088801
3,0.134982604401987,0.983139938689939,0.983067266011878,0.017312004059847,13528.3295583246,0,4,1848.19736217014,-3686.39472434028,-3663.63932266506,0.208595017259438,696,342.8,0.626553078573879,22.9491093088801
4,0.160269473928893,0.942744552820373,0.942486645400645,0.0282761328700366,3655.36033749807,0,4,1440.36109517305,-2870.7221903461,-2848.18580178417,0.532493433595921,666,342.8,0.626553078573879,22.9491093088801
5,0.192231295479384,0.978799721428528,0.978665542450227,0.0181141996880648,7294.73225855668,0,4,1241.0420628993,-2472.0841257986,-2451.23607213614,0.155530885180728,474,342.8,0.626553078573879,22.9491093088801
6,0.203260089296318,0.973121712057313,0.973010644751765,0.0189214248106882,8761.54965003809,0,4,1862.42647039629,-3714.85294079258,-3691.88771812187,0.259922750045098,726,342.8,0.626553078573879,22.9491093088801
7,0.26108646891135,0.903014767330005,0.902653331680303,0.0507266238779239,2498.41090129022,0,4,1265.95893112992,-2521.91786225984,-2498.43886767455,2.07141824789215,805,342.8,0.626553078573879,22.9491093088801
8,0.283459526510242,0.980506831922393,0.980448469143718,0.029015257553958,16800.2081836193,0,4,2135.72488789871,-4261.44977579742,-4236.88108904412,0.84356894126436,1002,342.8,0.626553078573879,22.9491093088801
9,0.29927895777713,0.97521831109228,0.975140053127308,0.0395094428477059,12461.5853663503,0,4,1730.91650365594,-3451.83300731187,-3427.52968895463,1.48294627042933,950,342.8,0.626553078573879,22.9491093088801
10,0.305631353871141,0.969838100705651,0.969761870126137,0.0469427252307993,12722.4285436304,0,4,1955.1105687149,-3900.2211374298,-3874.80839458302,2.61569628963596,1187,342.8,0.626553078573879,22.9491093088801
11,0.325850422935618,0.937218587412818,0.937065337422776,0.0687929099012414,6115.61923858079,0,4,1552.76715302189,-3095.53430604378,-3069.94827852796,5.81619881234411,1229,342.8,0.626553078573879,22.9491093088801
12,0.281105678694812,0.984695824636357,0.984660936698598,0.0346392469049312,28224.5351226163,0,4,2567.85784831872,-5125.71569663744,-5099.78876155953,1.57903869280127,1316,342.8,0.626553078573879,22.9491093088801
13,0.246896499098745,0.970308535665893,0.970232598416956,0.0438614697886005,12777.7678182597,0,4,2012.06104578868,-4014.12209157737,-3988.76847104106,2.25665086805513,1173,342.8,0.626553078573879,22.9491093088801
14,0.268672500855067,0.97327092659837,0.973190011139031,0.0420837816328669,12028.2444733027,0,4,1742.41257302347,-3474.82514604694,-3450.31143236114,1.75510527443412,991,342.8,0.626553078573879,22.9491093088801
15,0.251908936584339,0.918851356928592,0.918633605650225,0.0652609184139932,4219.72887516306,0,4,1472.29860766616,-2934.59721533233,-2909.48287490191,4.76154799396195,1118,342.8,0.626553078573879,22.9491093088801
16,0.217187282623999,0.991549253276906,0.991525403568374,0.0172314755060475,41574.9002532103,0,4,2821.10211848106,-5632.20423696211,-5607.3412057056,0.315629944246792,1063,342.8,0.626553078573879,22.9491093088801
17,0.250032267392506,0.981615447173093,0.981559848727044,0.024022002084453,17655.4475336587,0,4,2302.61122239428,-4595.22244478856,-4570.70370850063,0.572440131472299,992,342.8,0.626553078573879,22.9491093088801
18,0.26190024059277,0.985209043352725,0.985159073904593,0.0200559406333826,19716.2282188245,0,4,2223.34437746817,-4436.68875493634,-4412.72142427344,0.357189790164514,888,342.8,0.626553078573879,22.9491093088801
19,0.259103539959602,0.97839886877894,0.978329928998447,0.0242894914919519,14192.0798381698,0,4,2172.04590263099,-4334.09180526198,-4309.84117443126,0.554580633121349,940,342.8,0.626553078573879,22.9491093088801
20,0.266366977750319,0.986107651451826,0.986067109578631,0.0226447630045121,24323.1891804147,0,4,2446.69644082929,-4883.39288165858,-4858.69661192838,0.527143279693373,1028,342.8,0.626553078573879,22.9491093088801
21,0.26281742601385,0.991335511385012,0.991312809668117,0.0214437370341889,43667.865120639,0,4,2786.47184648132,-5562.94369296265,-5537.7104565734,0.526509767400202,1145,342.8,0.626553078573879,22.9491093088801
22,0.260379104242518,0.993526633858863,0.993511649215018,0.0211089609702442,66302.9861851208,0,4,3172.85791964277,-6335.71583928554,-6309.86524156829,0.577482350283308,1296,342.8,0.626553078573879,22.9491093088801
23,0.255911652242734,0.985815041997516,0.985776738780587,0.0299486876321222,25737.1343989276,0,4,2331.60792954233,-4653.21585908465,-4628.13281066518,0.996482442774823,1111,342.8,0.626553078573879,22.9491093088801
24,0.253679293526298,0.985562963641797,0.985529977267788,0.0310461256631334,29877.8811928493,0,4,2706.25540895226,-5402.51081790453,-5376.59525939581,1.26555069924138,1313,342.8,0.626553078573879,22.9491093088801
25,0.280930092495138,0.988420162807739,0.988387420572511,0.0284874770957946,30187.925654082,0,4,2280.4138106034,-4550.8276212068,-4525.97397081609,0.861040068711714,1061,342.8,0.626553078573879,22.9491093088801
26,0.248903303644106,0.993754109512844,0.993740372217051,0.019885557085476,72339.8640094029,0,4,3420.3928650275,-6830.785730055,-6804.68020456409,0.539373859138022,1364,342.8,0.626553078573879,22.9491093088801
27,0.213753312654828,0.976892748775938,0.97681657102465,0.0323534558223549,12823.8590960918,0,4,1841.06004588856,-3672.12009177712,-3648.03093891985,0.952538954320653,910,342.8,0.626553078573879,22.9491093088801
28,0.222743057836368,0.979897626574297,0.979843000559553,0.0269327823965834,17938.2960878771,0,4,2434.58717618824,-4859.17435237648,-4834.12279303995,0.800813743454371,1104,342.8,0.626553078573879,22.9491093088801
29,0.272443263394819,0.975897943663458,0.97582019509463,0.029732713976741,12551.9730894079,0,4,1960.19957789726,-3910.39915579453,-3886.20177360338,0.822151880793104,930,342.8,0.626553078573879,22.9491093088801
30,0.263287580352693,0.986659382489311,0.986608464101866,0.0203614211394592,19377.270805124,0,4,1957.39313766251,-3904.78627532502,-3881.42611059771,0.325865752063276,786,342.8,0.626553078573879,22.9491093088801
31,0.265642359252627,0.961996528827759,0.961857830027861,0.0328061274260428,6935.86771861356,0,4,1652.51924449558,-3295.03848899116,-3271.45551512356,0.884670921282269,822,342.8,0.626553078573879,22.9491093088801
32,0.274647922290553,0.987429660698768,0.987390982731687,0.0218199294488724,25529.5129301433,0,4,2357.47124269417,-4704.94248538835,-4680.50982717569,0.464206588124927,975,342.8,0.626553078573879,22.9491093088801
33,0.25961064891091,0.991383496021301,0.991359292358439,0.021786811751295,40960.060536857,0,4,2582.85652380623,-5155.71304761245,-5130.8266409043,0.506942397593841,1068,342.8,0.626553078573879,22.9491093088801
34,0.262162012696774,0.991312582051204,0.991291358717452,0.0244381436716185,46708.6176788017,0,4,2826.57462665224,-5643.14925330448,-5617.56728258401,0.733389679588811,1228,342.8,0.626553078573879,22.9491093088801
35,0.26671978774104,0.989961980214653,0.989895795468815,0.0255184854282312,14957.555063306,0,4,1034.48962516555,-2058.97925033109,-2038.33399928079,0.296292859840635,455,342.8,0.626553078573879,22.9491093088801
36,0.264037258948866,0.987890858252164,0.987811540729798,0.0276931792879165,12454.8880094481,0,4,1003.45404458471,-1996.90808916942,-1976.23026471401,0.35124577801529,458,342.8,0.626553078573879,22.9491093088801
37,0.209825173069477,0.990085024640522,0.989787575379737,0.0226943219994007,3328.58458625766,5.21959200860454e-100,4,248.176483499361,-486.352966998722,-473.131012503015,0.0515032251012484,100,342.8,0.626553078573879,22.9491093088801
38,0.185336117473617,0.98844452582283,0.988417859343959,0.0240773036135756,37066.9307570362,0,4,3011.04450232643,-6012.08900465286,-5986.22304594043,0.753631514090392,1300,342.8,0.626553078573879,22.9491093088801
39,0.161555729693902,0.982042913247202,0.981998611223963,0.027759611645875,22166.999189935,0,4,2643.58949779785,-5277.1789955957,-5251.64596490707,0.937044783095435,1216,342.8,0.626553078573879,22.9491093088801
40,0.233261350489706,0.945654037411867,0.945509883664949,0.0503999644529096,6560.03785977884,0,4,1782.62135579093,-3555.24271158185,-3530.07077193228,2.8729169074625,1131,342.8,0.626553078573879,22.9491093088801
41,0.254471336483867,0.97048440860055,0.970386023295885,0.033184640630264,9864.11956446827,0,4,1798.0080039773,-3586.0160079546,-3561.98186115263,0.991098336383791,900,342.8,0.626553078573879,22.9491093088801
42,0.236935844211037,0.969201292505954,0.969098171833541,0.0293260573355646,9398.70997566173,0,4,1901.31072415999,-3792.62144831999,-3768.60947450337,0.770575804408542,896,342.8,0.626553078573879,22.9491093088801
43,0.241569954581764,0.961624732330118,0.961481896346235,0.0316622482143818,6732.37027665417,0,4,1649.2952175382,-3288.59043507639,-3265.10526383806,0.808013357363234,806,342.8,0.626553078573879,22.9491093088801
44,0.228639894600701,0.93580175577,0.935596649558403,0.0438785007674499,4562.52274605254,0,4,1612.07517159456,-3214.15034318911,-3189.90501177595,1.80787813699356,939,342.8,0.626553078573879,22.9491093088801
45,0.234544443079732,0.960204747038582,0.960094714081085,0.0444556586618276,8726.51947999017,0,4,1847.12304948257,-3684.24609896514,-3659.28102335047,2.14429156195676,1085,342.8,0.626553078573879,22.9491093088801
46,0.242935150788916,0.971672024072866,0.971601204133049,0.0420579580897507,13720.3169978997,0,4,2108.72415121886,-4207.44830243771,-4181.98127930837,2.12264620641507,1200,342.8,0.626553078573879,22.9491093088801
47,0.240215442560775,0.976643053922165,0.976587131465474,0.0392907088473728,17464.2372977824,0,4,2287.01382833135,-4564.0276566627,-4538.34524061975,1.93433103156646,1253,342.8,0.626553078573879,22.9491093088801
48,0.241577787821455,0.981467046339917,0.981425211230075,0.0356833710438626,23460.3673814313,0,4,2553.54091291216,-5097.08182582431,-5071.10588922342,1.69221964587273,1329,342.8,0.626553078573879,22.9491093088801
49,0.225808662746666,0.981783514822596,0.981744673702814,0.0318389234163896,25276.9106645747,0,4,2863.69031615351,-5717.38063230701,-5691.12036254775,1.42629988135082,1407,342.8,0.626553078573879,22.9491093088801
50,0.243467658266642,0.972809828835316,0.972748589711071,0.0388398475506604,15885.4301205682,0,4,2446.04135663767,-4882.08271327533,-4856.09553650485,2.00936696533438,1332,342.8,0.626553078573879,22.9491093088801
51,0.218375346306408,0.971068968196489,0.971003710230015,0.03709689057169,14880.4662582017,0,4,2503.63131591655,-4997.2626318331,-4971.28294570072,1.83031845581696,1330,342.8,0.626553078573879,22.9491093088801
52,0.17873971570525,0.974681101023218,0.974613823169427,0.0315630308668969,14487.3988407412,0,4,2309.73217729163,-4609.46435458327,-4584.30123327813,1.12473793186279,1129,342.8,0.626553078573879,22.9491093088801
53,0.171091866648057,0.95918867807107,0.959047625115095,0.0344137600746324,6800.20260076823,0,4,1702.71874726187,-3395.43749452374,-3371.58354740419,1.02797837398775,868,342.8,0.626553078573879,22.9491093088801
54,0.176116994685023,0.92508461787926,0.924769405892778,0.0401518241450607,2934.80152262487,0,4,1289.84434169569,-2569.68868339139,-2546.81330418839,1.1494764842914,713,342.8,0.626553078573879,22.9491093088801
55,0.234050060941382,0.963382902203706,0.963256925949819,0.0292924832596589,7647.33727574528,0,4,1851.66614683285,-3693.33229366569,-3669.45546321101,0.748219229851172,872,342.8,0.626553078573879,22.9491093088801
56,0.213794083251918,0.963358637898004,0.963241322971317,0.0327394643343707,8211.73115051188,0,4,1884.22590147345,-3758.45180294689,-3734.21708724897,1.00434455583274,937,342.8,0.626553078573879,22.9491093088801
57,0.233489828399614,0.972561870918354,0.972475677842705,0.0342403901073751,11283.5267055229,0,4,1877.24314104097,-3744.48628208194,-3720.15682670752,1.1196461205435,955,342.8,0.626553078573879,22.9491093088801
58,0.228054538568695,0.980400757826821,0.980346315487451,0.0352432728110549,18008.0571329768,0,4,2090.37531057674,-4170.75062115349,-4145.80855524349,1.3414553407092,1080,342.8,0.626553078573879,22.9491093088801
59,0.230132791765313,0.978214890296478,0.97816469419117,0.0376574416884532,19487.8643333168,0,4,2431.53678964652,-4853.07357929305,-4827.19995774387,1.84634395470407,1302,342.8,0.626553078573879,22.9491093088801
60,0.228484730433887,0.984998380036172,0.984950553405044,0.0320056273509196,20595.1863387404,0,4,1913.64947330411,-3817.29894660823,-3793.04302197076,0.963922931380501,941,342.8,0.626553078573879,22.9491093088801
61,0.212708279995917,0.977293238780818,0.977239894784218,0.0350301629518114,18320.5852781979,0,4,2477.67302503693,-4945.34605007386,-4919.56906856437,1.5670224280817,1277,342.8,0.626553078573879,22.9491093088801
62,0.239965697226079,0.946322523052872,0.946204895272856,0.0547619856629512,8045.05978882884,0,4,2042.03444465873,-4074.06888931747,-4047.94512228863,4.10545997596276,1369,342.8,0.626553078573879,22.9491093088801
63,0.216978446243241,0.973253437657469,0.973192418884064,0.036233893746833,15950.0655838735,0,4,2506.54895818211,-5003.09791636422,-4977.17477060064,1.72645699871467,1315,342.8,0.626553078573879,22.9491093088801
64,0.205801562745463,0.94160390174676,0.94145815441335,0.0514629663075633,6460.52232800113,0,4,1868.83620701798,-3727.67241403596,-3702.19709214952,3.18342115521042,1202,342.8,0.626553078573879,22.9491093088801
65,0.237193673929026,0.976150824734806,0.976081428492521,0.0305847444325234,14066.3354757645,0,4,2142.71032313116,-4275.42064626232,-4250.70986273382,0.964424816354858,1031,342.8,0.626553078573879,22.9491093088801
66,0.220589880397903,0.962741105244428,0.962607401076645,0.031684341513888,7200.53175010846,0,4,1709.71985928299,-3409.43971856598,-3385.77270910679,0.839258307633024,836,342.8,0.626553078573879,22.9491093088801
67,0.24358153962941,0.957471274010873,0.957324959586599,0.0337962786178804,6543.92947761901,0,4,1726.38083944349,-3442.76167888699,-3418.88484843231,0.995988327019975,872,342.8,0.626553078573879,22.9491093088801
68,0.234212392648545,0.964238719152418,0.964116527987791,0.0351514986006551,7891.23110573258,0,4,1703.51440260251,-3397.02880520502,-3373.11784492499,1.08488125569949,878,342.8,0.626553078573879,22.9491093088801
69,0.236081926906045,0.96623213154237,0.966112950830167,0.0390128819848817,8107.28610090329,0,4,1560.49051775564,-3110.98103551129,-3087.23137954235,1.29370421665136,850,342.8,0.626553078573879,22.9491093088801
70,0.223045986753726,0.978070395588925,0.977858855996535,0.0307954770503736,4623.58078948502,1.49578965148869e-257,4,651.369215359281,-1292.73843071856,-1273.97556752443,0.294940397502386,311,342.8,0.626553078573879,22.9491093088801
