"Age","power_predict","r.squared","adj.r.squared","sigma","statistic","p.value","df","logLik","AIC","BIC","deviance","df.residual","GHI","Wind_speed","Ambient_temp"
1,32.1836477431613,0.964217437393134,0.964111152553708,1.8991691306732,9072.01292863061,0,4,-2087.19603924712,4184.39207849424,4209.00036941499,3642.91182077102,1010,866,4.50569727612373,26.5088716492113
2,32.569885083497,0.96220277658297,0.962104771682148,1.80474659764099,9817.90470182957,0,4,-2330.86202766427,4671.72405532854,4697.00924023703,3768.47659592311,1157,866,4.50569727612373,26.5088716492113
3,33.7502199364622,0.968057933441241,0.967975110451028,1.77564956086188,11688.2755736457,0,4,-2311.9912648046,4633.98252960919,4659.26771451768,3647.94158697828,1157,866,4.50569727612373,26.5088716492113
4,33.7433989337429,0.956519372993106,0.956408264065491,2.2166939317678,8608.84353328107,0,4,-2607.21405693529,5224.42811387059,5249.78598069164,5768.72135289786,1174,866,4.50569727612373,26.5088716492113
5,33.1476147229967,0.957519997395628,0.957419094776616,2.31635332481822,9489.54553176218,0,4,-2860.06449051103,5730.12898102207,5755.85101692367,6776.6173121757,1263,866,4.50569727612373,26.5088716492113
6,32.3027516975095,0.954405356883389,0.954304928154057,2.46632016819913,9503.3100909874,0,4,-3169.39249762627,6348.78499525253,6374.88320545318,8284.68530435358,1362,866,4.50569727612373,26.5088716492113
7,31.7707295188062,0.964043141665485,0.963965087703833,2.24092008800714,12350.9828490106,0,4,-3082.99065311016,6175.98130622033,6202.15219211908,6940.02096603248,1382,866,4.50569727612373,26.5088716492113
8,26.7307660609649,0.812876593374947,0.812356806134321,4.65199354548185,1563.86407715068,0,4,-3202.55436920142,6415.10873840284,6440.05080431284,23372.3274629811,1080,866,4.50569727612373,26.5088716492113
9,26.8743050245288,0.880628851858576,0.880310245591295,3.95578699523046,2764.00354385006,0,4,-3149.76166460186,6309.52332920372,6334.66433636401,17588.6338448371,1124,866,4.50569727612373,26.5088716492113
10,26.2597147160188,0.908475140616713,0.90818912543114,3.44566535747787,3176.31785458316,0,4,-2558.43339525679,5126.86679051359,5151.22224698664,11397.7053654942,960,866,4.50569727612373,26.5088716492113
11,29.3786083816326,0.935713955073392,0.935551479812414,3.05897227525371,5759.1164922347,0,4,-3019.58451811908,6049.16903623815,6074.58177908493,11107.128608975,1187,866,4.50569727612373,26.5088716492113
12,26.897445396848,0.899158399748834,0.898753954828041,3.60613321839663,2223.19122708934,0,4,-2029.57876174571,4069.15752349141,4092.27120511116,9727.13919804009,748,866,4.50569727612373,26.5088716492113
13,31.2303612025854,0.901783454731503,0.90139267272115,3.1011631424991,2307.63809705302,0,4,-1931.43726675489,3872.87453350977,3896.02795043798,7251.37847864177,754,866,4.50569727612373,26.5088716492113
14,33.9411056467912,0.945125031100037,0.944959745049133,2.28154345654937,5718.11732407966,0,4,-2241.78669106874,4493.57338213748,4518.11215853239,5184.61878194675,996,866,4.50569727612373,26.5088716492113
15,30.6719355188781,0.860616119571279,0.860092775840007,3.47026032600904,1644.45672728298,0,4,-2136.51902351755,4283.03804703509,4306.47982060482,9622.12267748762,799,866,4.50569727612373,26.5088716492113
16,33.5505635372609,0.932401277407858,0.932025032198626,2.57537232424091,2478.17448442563,8.34873081395169e-315,4,-1282.15102544149,2574.30205088297,2595.78759748264,3574.9404659632,539,866,4.50569727612373,26.5088716492113
17,31.8175983141869,0.823715458578044,0.822920189970126,4.37961109706077,1035.77011638105,4.34609922427697e-250,4,-1935.35006875056,3880.70013750112,3903.22905780176,12755.3605853961,665,866,4.50569727612373,26.5088716492113
18,29.7483280300841,0.843132938414737,0.842544686933793,4.65005183380826,1433.28655469029,3.38434967401254e-321,4,-2374.47179574963,4758.94359149926,4782.39158784516,17298.3856456828,800,866,4.50569727612373,26.5088716492113
19,32.3114521256536,0.947009709162297,0.946735621451068,2.46478921056164,3455.13377784877,0,4,-1353.48329651428,2716.96659302857,2738.81609794271,3523.60779445062,580,866,4.50569727612373,26.5088716492113
20,31.4893522054483,0.927339639633124,0.92684646976638,2.90111472701309,1880.36557415101,3.59617678787325e-251,4,-1105.86995629676,2221.73991259352,2242.24150735362,3720.07826340717,442,866,4.50569727612373,26.5088716492113
21,30.4496432246796,0.876843260169315,0.876365908464545,3.62303922233834,1836.89143959718,0,4,-2103.45871874916,4216.91743749832,4240.20107011922,10159.8438219099,774,866,4.50569727612373,26.5088716492113
22,25.305922224535,0.848268073786278,0.846503749062863,4.2924400310395,480.789087478298,2.70709478538731e-105,4,-751.442571211965,1512.88514242393,1530.72686494274,4753.66068637816,258,866,4.50569727612373,26.5088716492113
23,28.1278171047926,0.867106234874509,0.866326036644809,4.01588512155697,1111.39221016743,1.91152405121767e-223,4,-1444.72829220395,2899.4565844079,2920.67741891122,8241.0673211763,511,866,4.50569727612373,26.5088716492113
24,29.2003501655432,0.865221639670184,0.864644018125913,3.90083055898902,1497.90403119865,4.57797041394628e-304,4,-1955.20442793471,3920.40885586942,3943.19274765021,10651.5353349598,700,866,4.50569727612373,26.5088716492113
25,29.2424910277292,0.821063533582185,0.819865298315995,4.02893390235804,685.227314492591,6.16946519527227e-167,4,-1269.21412876514,2548.42825753028,2568.99666842944,7272.07415852736,448,866,4.50569727612373,26.5088716492113
26,31.2847582777474,0.921783569527669,0.921456759929595,2.6081338684147,2820.55231841599,0,4,-1714.60251052089,3439.20502104177,3462.11514673624,4884.09611386057,718,866,4.50569727612373,26.5088716492113
27,32.2625897765689,0.934166160263298,0.933808367656033,2.32847149373942,2610.91520980539,0,4,-1256.86049034198,2523.72098068396,2545.32482215521,2992.82228243071,552,866,4.50569727612373,26.5088716492113
28,33.1559567974768,0.852716278566947,0.851963550859453,3.82830557084218,1132.83498146426,1.27573885055934e-243,4,-1629.95745093851,3269.91490187702,3291.82398196405,8603.02712017613,587,866,4.50569727612373,26.5088716492113
29,35.2199026380719,0.934636787822538,0.934433796480372,2.98494483666204,4604.31847905155,0,4,-2435.14007062413,4880.28014124826,4904.66662160574,8606.95922486626,966,866,4.50569727612373,26.5088716492113
30,33.7125444625769,0.946232752681203,0.94607883880529,2.9674547456751,6147.80666831235,0,4,-2634.98476145136,5279.96952290271,5304.7617648692,9228.46547567591,1048,866,4.50569727612373,26.5088716492113
31,32.5497722025002,0.933322102238932,0.933093492303751,2.9170757608503,4082.59641690889,0,4,-2186.28368774701,4382.56737549401,4406.46129998244,7445.66462022282,875,866,4.50569727612373,26.5088716492113
32,32.6383717264858,0.981847325709187,0.981808343588304,1.44742343308388,25187.1192097553,0,4,-2503.99885583807,5017.99771167614,5044.22241940783,2926.76332871254,1397,866,4.50569727612373,26.5088716492113
33,32.026418869775,0.981616284614283,0.981576778062595,1.58728159066851,24846.9239318587,0,4,-2631.34309018353,5272.68618036706,5298.90731794507,3517.1701359129,1396,866,4.50569727612373,26.5088716492113
34,31.8470379299986,0.977350501240194,0.977302951557703,1.73282276717429,20554.3013127031,0,4,-2819.13035940341,5648.26071880681,5674.59834594595,4290.82220694327,1429,866,4.50569727612373,26.5088716492113
35,30.8936881013102,0.979654935188672,0.979610898251851,1.64230813689479,22246.2097935984,0,4,-2659.90436548529,5329.80873097058,5355.9940261012,3738.285958884,1386,866,4.50569727612373,26.5088716492113
36,30.4475577093875,0.975337369214449,0.975281147411746,1.65691388899423,17348.0273191049,0,4,-2537.53876257178,5085.07752514357,5111.00446022147,3612.89854437324,1316,866,4.50569727612373,26.5088716492113
37,32.5253083251346,0.969576418501583,0.969503692808758,1.7882806279189,13331.9653734479,0,4,-2516.23998993791,5042.47997987582,5068.17034504604,4013.42424325849,1255,866,4.50569727612373,26.5088716492113
38,33.0821910073844,0.973186044436338,0.973117988711557,1.58974563298562,14299.8410136678,0,4,-2230.65651277411,4471.31302554822,4496.704733446,2987.25817191947,1182,866,4.50569727612373,26.5088716492113
39,34.0136476065854,0.975289521127722,0.975225059008925,1.47256480707672,15129.6534976662,0,4,-2082.05610991983,4174.11221983965,4199.36716707499,2493.71417769703,1150,866,4.50569727612373,26.5088716492113
40,33.3957386444333,0.978910243467959,0.978856305471713,1.37938498269042,18148.8062517202,0,4,-2046.65486162096,4103.30972324192,4128.66334377822,2231.87053744347,1173,866,4.50569727612373,26.5088716492113
41,33.5274898799411,0.977871790907882,0.977817819666194,1.60147762718409,18118.3860204508,0,4,-2330.09047401109,4670.18094802218,4695.77102904451,3154.61862615655,1230,866,4.50569727612373,26.5088716492113
42,33.0735712470844,0.977190535639553,0.977137531462108,1.72677908893426,18436.1041477484,0,4,-2542.92625332388,5095.85250664776,5121.68383651843,3849.45993437699,1291,866,4.50569727612373,26.5088716492113
43,32.1978552365004,0.941861920646739,0.941674981484831,2.79212552637854,5038.33392123756,0,4,-2289.65566965395,4589.3113393079,4613.52475571909,7273.63530306598,933,866,4.50569727612373,26.5088716492113
44,32.3774213108121,0.981360282529982,0.981319584456904,1.48500027799566,24113.1878807551,0,4,-2498.17620450073,5006.35240900146,5032.49435125933,3029.98028443925,1374,866,4.50569727612373,26.5088716492113
45,31.6649118056449,0.981683163774461,0.981643257813186,1.48341174615076,24599.9127045874,0,4,-2502.1411997546,5014.2823995092,5040.43521527624,3030.10283266703,1377,866,4.50569727612373,26.5088716492113
46,30.1421753356938,0.974598412849972,0.974544519807928,1.84150572353678,18083.9376640857,0,4,-2875.85950903838,5761.71901807676,5788.00403161222,4795.07666836365,1414,866,4.50569727612373,26.5088716492113
47,28.8196756002897,0.977696146369316,0.977647729899785,1.81086104542828,20193.4621800597,0,4,-2787.6561081979,5585.3122163958,5611.48310229455,4531.87889712413,1382,866,4.50569727612373,26.5088716492113
48,28.9058699141283,0.972841246040468,0.972778907661066,1.86373381866769,15605.8154762857,0,4,-2674.43023705817,5358.86047411633,5384.75320153515,4539.86939712726,1307,866,4.50569727612373,26.5088716492113
49,30.169091748101,0.966635560002453,0.966555421235445,1.95966864094109,12062.0218665123,0,4,-2618.91435690849,5247.82871381698,5273.49519359146,4796.53617667757,1249,866,4.50569727612373,26.5088716492113
50,31.0441297245749,0.95202142391671,0.951901277232027,2.14279058837694,7923.82600011783,0,4,-2619.61579107792,5249.23158215583,5274.69029273131,5500.67870375286,1198,866,4.50569727612373,26.5088716492113
51,31.7901936747682,0.950632641091745,0.950503067971251,2.05620254317505,7336.65005108037,0,4,-2452.3464038825,4914.692807765,4939.91733335065,4832.56845105357,1143,866,4.50569727612373,26.5088716492113
52,32.4010164793354,0.96054225803282,0.960439324792906,1.88298666056178,9331.70139045254,0,4,-2365.77107007994,4741.54214015989,4766.79708739523,4077.48457843162,1150,866,4.50569727612373,26.5088716492113
53,32.0822768596966,0.969634353172298,0.969559314506331,1.72739776124635,12921.7962591121,0,4,-2392.04224202209,4794.08448404418,4819.60931128553,3622.45827302852,1214,866,4.50569727612373,26.5088716492113
54,30.9236005767438,0.963334766353046,0.963249630361606,2.12269310066055,11315.2469367627,0,4,-2812.42180069231,5634.84360138461,5660.67879076918,5821.52719147273,1292,866,4.50569727612373,26.5088716492113
55,30.2814207831128,0.976322879996914,0.976271667769077,1.70767142184734,19064.253230956,0,4,-2716.10742347489,5442.21484694979,5468.4037379094,4044.68851708686,1387,866,4.50569727612373,26.5088716492113
56,30.3835555865638,0.979036933816758,0.978991096208486,1.62498094323546,21358.8136623258,0,4,-2618.49912680605,5246.9982536121,5273.13293370456,3622.85252638517,1372,866,4.50569727612373,26.5088716492113
57,30.2284760139415,0.98128511702641,0.981245269866069,1.60264323529057,24626.2245194792,0,4,-2669.4048204557,5348.80964091139,5375.07699282481,3618.96766352826,1409,866,4.50569727612373,26.5088716492113
58,29.4947115287481,0.973380989908311,0.973324593700489,1.85268130525183,17259.6886831701,0,4,-2888.5100954002,5787.02019080041,5813.31225155338,4860.31807466274,1416,866,4.50569727612373,26.5088716492113
59,28.513176870031,0.976466461375134,0.976415851614651,1.75720872145335,19294.0344321903,0,4,-2771.74565163445,5553.4913032689,5579.70886814223,4307.45657459862,1395,866,4.50569727612373,26.5088716492113
60,29.0381886497769,0.973708820639898,0.973650352487133,1.82777911209891,16653.6614308571,0,4,-2733.81737844576,5477.63475689152,5503.68515503237,4506.70747506125,1349,866,4.50569727612373,26.5088716492113
61,29.8346300457565,0.965910216269722,0.965829050117983,2.00750899366397,11900.4067037527,0,4,-2672.40996835339,5354.81993670678,5380.53011958031,5077.91637314858,1260,866,4.50569727612373,26.5088716492113
62,30.7090782173418,0.965201677579285,0.965114970795845,1.85723569109448,11131.7896856782,0,4,-2459.93417668566,4929.86835337132,4955.35196026379,4152.98659237932,1204,866,4.50569727612373,26.5088716492113
63,31.0795715250188,0.952768353010221,0.952647038848432,2.10410886824801,7853.72737165514,0,4,-2532.83400752591,5075.66801505182,5101.00034990251,5171.05618318585,1168,866,4.50569727612373,26.5088716492113
64,31.3605517436501,0.954575655886056,0.954457976238092,2.00819989310654,8111.64608668302,0,4,-2456.9945472855,4923.98909457101,4949.27858425807,4670.05976675946,1158,866,4.50569727612373,26.5088716492113
65,32.0363957161249,0.961928501480978,0.961834497780931,1.95094800664061,10232.879141995,0,4,-2542.35927025376,5094.71854050752,5120.24747115493,4624.5307214072,1215,866,4.50569727612373,26.5088716492113
66,31.4705968005582,0.969289194587638,0.969216189503456,1.88121705550179,13277.0094775524,0,4,-2594.38239147592,5198.76478295185,5224.48287096537,4466.18974370747,1262,866,4.50569727612373,26.5088716492113
67,30.9262087967207,0.982119319453652,0.982079317931177,1.60449262882221,24552.0484893098,0,4,-2542.39555244967,5094.79110489933,5120.81185135951,3452.26583516199,1341,866,4.50569727612373,26.5088716492113
68,30.6550361609307,0.976753391420946,0.97670307408636,1.77390742427571,19411.8666945288,0,4,-2767.0484078496,5544.0968156992,5570.28211082982,4361.3921041621,1386,866,4.50569727612373,26.5088716492113
69,30.0098498586374,0.98226677474846,0.982228910210557,1.50899068596382,25941.6020670344,0,4,-2577.00192849561,5164.00385699123,5190.25703455072,3199.25931090742,1405,866,4.50569727612373,26.5088716492113
70,30.0345473813181,0.976689452189838,0.976638996458648,1.82005715338175,19357.3540436062,0,4,-2802.74806386213,5615.49612772425,5641.68142285487,4591.27474562444,1386,866,4.50569727612373,26.5088716492113
71,28.7657122710139,0.977877874007047,0.977829712629704,1.68599670440397,20304.1924453217,0,4,-2680.86739549998,5371.73479099996,5397.8912260216,3917.08197464571,1378,866,4.50569727612373,26.5088716492113
72,28.685021221032,0.97831882931454,0.978270648935239,1.64294361693091,20305.3368094548,0,4,-2591.48662578736,5192.97325157472,5219.02734384208,3644.00603335895,1350,866,4.50569727612373,26.5088716492113
73,29.2951208606137,0.970148523281163,0.970077617160691,1.80681805710515,13682.1548946569,0,4,-2545.3077506622,5100.61550132441,5126.33753722601,4123.1790537408,1263,866,4.50569727612373,26.5088716492113
74,29.3276364483275,0.958509133119461,0.958405750560788,2.01392367211707,9271.47814319844,0,4,-2557.77698259731,5125.55396519462,5151.0375720871,4883.28982276467,1204,866,4.50569727612373,26.5088716492113
75,31.3023125815598,0.961179642015331,0.961078984215889,1.70262511409156,9548.98326157396,0,4,-2263.23499901744,4536.46999803487,4561.75518294336,3354.06464695955,1157,866,4.50569727612373,26.5088716492113
76,30.7149515323996,0.952739426705056,0.952618349232908,1.95469449899272,7868.84141042906,0,4,-2452.77421431813,4915.54842863626,4940.89354576915,4474.19261432349,1171,866,4.50569727612373,26.5088716492113
77,31.4545037674584,0.953416964502488,0.953301564744856,2.138089288192,8261.86279820103,0,4,-2645.30079609078,5300.60159218156,5326.11408896044,5535.99664898475,1211,866,4.50569727612373,26.5088716492113
78,30.5294436796625,0.944581327019449,0.94444757318281,2.6230224210164,7062.08771844357,0,4,-2969.92921546109,5949.85843092219,5975.50091065059,8552.14655009535,1243,866,4.50569727612373,26.5088716492113
79,30.7639554289734,0.975076330096925,0.975020363772292,1.66952896257142,17422.5543038074,0,4,-2586.18029139089,5182.36058278178,5208.3627072465,3723.86881437139,1336,866,4.50569727612373,26.5088716492113
80,28.4778032293702,0.980618650230299,0.980575644276668,1.39739909220207,22801.9278131662,0,4,-2375.8125402924,4761.6250805848,4787.6865529273,2640.08314934347,1352,866,4.50569727612373,26.5088716492113
81,28.0118715857848,0.981888737115646,0.981849676160468,1.36071310765487,25137.3457877005,0,4,-2407.08880508125,4824.17761016249,4850.38085863377,2575.49236442917,1391,866,4.50569727612373,26.5088716492113
82,27.3033460692544,0.983198158464272,0.983161711953348,1.31785991508883,26976.4686262639,0,4,-2348.88953944139,4707.77907888277,4733.95357098434,2401.93182726854,1383,866,4.50569727612373,26.5088716492113
83,28.567566196865,0.973244884379919,0.973186038817705,1.76414291301541,16538.9682375093,0,4,-2715.67066372327,5441.34132744654,5467.44685293745,4245.04109672795,1364,866,4.50569727612373,26.5088716492113
84,27.4962125976763,0.97717628205728,0.977125487432778,1.68817692741237,19237.7892669815,0,4,-2624.37565829881,5258.75131659762,5284.79801788064,3841.72092395758,1348,866,4.50569727612373,26.5088716492113
85,28.3128297378758,0.963000283004624,0.962914436793498,1.95252899303282,11217.7377472067,0,4,-2706.21589816317,5422.43179632635,5448.27084224793,4929.39372294343,1293,866,4.50569727612373,26.5088716492113
86,29.7525107532414,0.956161218048257,0.956053770053278,1.98013689201616,8898.82792348386,0,4,-2579.38107742528,5168.76215485055,5194.32786539409,4799.23314401506,1224,866,4.50569727612373,26.5088716492113
87,31.0482534778713,0.954634501308989,0.954516361989481,1.88678702648958,8080.58236060543,0,4,-2372.20543449503,4754.41086899006,4779.67447423622,4101.08000639548,1152,866,4.50569727612373,26.5088716492113
88,31.6735234460749,0.941325594319714,0.941174631011788,2.23227252274553,6235.45951169617,0,4,-2597.68821526574,5205.37643053149,5230.70022567045,5810.22535802827,1166,866,4.50569727612373,26.5088716492113
89,32.139866596117,0.969138020763794,0.969056947263173,1.70324133793039,11953.8198467608,0,4,-2234.38299889078,4478.76599778155,4503.98616226792,3312.97746507825,1142,866,4.50569727612373,26.5088716492113
90,31.4441641602572,0.954169166095065,0.953875378698238,2.00288203524906,3247.82198420356,8.68022043851694e-313,4,-995.575604862831,2001.15120972566,2021.93610465359,1877.39905725376,468,866,4.50569727612373,26.5088716492113
