"","raw","seasonal","trend","remainder","weights","sub.labels","interpolated","age","sigma","power"
"1",NA,-11.889667865663,163.188832298638,NA,1,"subseries 1",TRUE,1,NA,NA
"2",NA,-16.2122879946034,163.068466177681,NA,1,"subseries 2",TRUE,2,NA,NA
"3",NA,-12.4478063197253,162.985775014474,NA,1,"subseries 3",TRUE,3,NA,NA
"4",NA,-7.87800207060183,162.996888824221,NA,1,"subseries 4",TRUE,4,NA,NA
"5",167.171636596272,-1.3802618904254,163.049695156973,5.50220332972444,1,"subseries 5",FALSE,5,24.7374261972874,163.049695156973
"6",173.295456201313,4.68713784509011,163.231871858362,5.37644649786088,1,"subseries 6",FALSE,6,19.6201011667125,163.231871858362
"7",175.222171793228,10.5901394205821,163.457036908399,1.17499546424742,1,"subseries 7",FALSE,7,30.692635471652,163.457036908399
"8",179.29385239272,16.2386682424018,163.768992744348,-0.713808594030269,1,"subseries 8",FALSE,8,18.502718727626,163.768992744348
"9",163.217976467196,14.3011377881663,164.134547052662,-15.2177083736326,1,"subseries 9",FALSE,9,26.0512670805805,164.134547052662
"10",173.120807379385,8.21909825947758,164.435490485448,0.466218634459523,1,"subseries 10",FALSE,10,27.3861007066177,164.435490485448
"11",164.016052357835,2.12364356169536,164.859414856457,-2.96700606031752,1,"subseries 11",FALSE,11,11.6971456982537,164.859414856457
"12",157.58710340796,-6.35179897639434,165.171308855285,-1.23240647093101,1,"subseries 12",FALSE,12,10.3000324480302,165.171308855285
"13",150.038540729791,-11.889667865663,165.833688541267,-3.90547994581266,1,"subseries 1",FALSE,13,11.7861905810187,165.833688541267
"14",156.583485978054,-16.2122879946034,166.839968310826,5.95580566183133,1,"subseries 2",FALSE,14,11.0271732005187,166.839968310826
"15",156.630943526759,-12.4478063197253,167.516706366663,1.5620434798216,1,"subseries 3",FALSE,15,11.2184313960165,167.516706366663
"16",166.414043716325,-7.87800207060183,168.110426637288,6.18161914963846,1,"subseries 4",FALSE,16,10.7145402503003,168.110426637288
"17",172.078934391462,-1.3802618904254,168.240257346484,5.21893893540357,1,"subseries 5",FALSE,17,19.2511008631595,168.240257346484
"18",171.804104101914,4.68713784509011,168.229295056246,-1.11232879942168,1,"subseries 6",FALSE,18,14.227521185398,168.229295056246
"19",177.496918224984,10.5901394205821,167.944293566746,-1.0375147623439,1,"subseries 7",FALSE,19,15.6986097746834,167.944293566746
"20",180.119434053543,16.2386682424018,167.492638582167,-3.61187277102576,1,"subseries 8",FALSE,20,16.9662749972485,167.492638582167
"21",183.032103710428,14.3011377881663,167.177388525003,1.55357739725841,1,"subseries 9",FALSE,21,16.5237186328543,167.177388525003
"22",172.758181412892,8.21909825947758,166.778975011716,-2.23989185830121,1,"subseries 10",FALSE,22,13.2070293065668,166.778975011716
"23",165.143479604427,2.12364356169536,166.628571046855,-3.60873500412291,1,"subseries 11",FALSE,23,15.241199506509,166.628571046855
"24",159.049879992284,-6.35179897639434,166.534423823479,-1.13274485480079,1,"subseries 12",FALSE,24,12.9826766122114,166.534423823479
"25",156.975532455885,-11.889667865663,166.464272829806,2.4009274917421,1,"subseries 1",FALSE,25,9.84200823357268,166.464272829806
"26",153.35470687646,-16.2122879946034,166.299350101018,3.26764477004568,1,"subseries 2",FALSE,26,9.13728967054645,166.299350101018
"27",155.339531234666,-12.4478063197253,165.867004183345,1.92033337104655,1,"subseries 3",FALSE,27,8.70947863943647,165.867004183345
"28",159.313699352678,-7.87800207060183,165.317714151514,1.87398727176591,1,"subseries 4",FALSE,28,11.0009821080877,165.317714151514
"29",163.373473712344,-1.3802618904254,164.419202211341,0.334533391427925,1,"subseries 5",FALSE,29,11.6941559909995,164.419202211341
"30",170.063476474605,4.68713784509011,163.465189963806,1.9111486657084,1,"subseries 6",FALSE,30,14.6707787522975,163.465189963806
"31",177.125259404242,10.5901394205821,162.397518090856,4.13760189280413,1,"subseries 7",FALSE,31,16.73382845559,162.397518090856
"32",174.435193443788,16.2386682424018,161.029879123797,-2.83335392241071,1,"subseries 8",FALSE,32,17.2419493185174,161.029879123797
"33",165.402801488916,14.3011377881663,159.61562394221,-8.51396024146015,1,"subseries 9",FALSE,33,14.7682435542948,159.61562394221
"34",168.962790428547,8.21909825947758,158.253445254772,2.49024691429707,1,"subseries 10",FALSE,34,14.4055922240239,158.253445254772
"35",162.627566889562,2.12364356169536,157.047157748007,3.45676557985948,1,"subseries 11",FALSE,35,10.9878601565691,157.047157748007
"36",151.647289039251,-6.35179897639434,156.20721209071,1.79187592493528,1,"subseries 12",FALSE,36,10.5942007833877,156.20721209071
"37",143.86328257042,-11.889667865663,155.708316070026,0.044634366056556,1,"subseries 1",FALSE,37,10.2970874420841,155.708316070026
"38",127.347329237758,-16.2122879946034,155.479266593975,-11.9196493616131,1,"subseries 2",FALSE,38,18.3295683966613,155.479266593975
"39",140.943803522542,-12.4478063197253,155.511115892792,-2.11950605052479,1,"subseries 3",FALSE,39,9.16325895073173,155.511115892792
"40",149.139910958628,-7.87800207060183,155.417884501289,1.60002852794051,1,"subseries 4",FALSE,40,11.1969964156547,155.417884501289
"41",155.714506216549,-1.3802618904254,155.500643805506,1.59412430146858,1,"subseries 5",FALSE,41,16.7366789911555,155.500643805506
"42",160.630050447528,4.68713784509011,155.682266371311,0.260646231126771,1,"subseries 6",FALSE,42,13.0102051724933,155.682266371311
"43",168.77742076957,10.5901394205821,155.774974289731,2.41230705925739,1,"subseries 7",FALSE,43,16.9090235453419,155.774974289731
"44",173.635225128426,16.2386682424018,156.07683753157,1.31971935445461,1,"subseries 8",FALSE,44,15.9898411230242,156.07683753157
"45",174.104165287654,14.3011377881663,156.146489850911,3.65653764857677,1,"subseries 9",FALSE,45,16.5980840582212,156.146489850911
"46",163.58497871945,8.21909825947758,155.954862646731,-0.588982186758926,1,"subseries 10",FALSE,46,14.6761803163283,155.954862646731
"47",153.715818435814,2.12364356169536,155.654033569827,-4.06185869570862,1,"subseries 11",FALSE,47,12.439355938225,155.654033569827
"48",148.398217495903,-6.35179897639434,155.250734699849,-0.50071822755126,1,"subseries 12",FALSE,48,9.05123809583262,155.250734699849
"49",143.759705189021,-11.889667865663,154.884592875097,0.764780179586694,1,"subseries 1",FALSE,49,9.39501802686486,154.884592875097
"50",141.338647914267,-16.2122879946034,154.676143088153,2.87479282071706,1,"subseries 2",FALSE,50,10.1460093245108,154.676143088153
"51",141.037250727546,-12.4478063197253,154.662764468131,-1.17770742086014,1,"subseries 3",FALSE,51,9.39165530018914,154.662764468131
"52",144.05543978272,-7.87800207060183,154.701064076238,-2.76762222291651,1,"subseries 4",FALSE,52,11.7480029300422,154.701064076238
"53",149.923298427124,-1.3802618904254,154.785826985761,-3.48226666821154,1,"subseries 5",FALSE,53,11.0408612457027,154.785826985761
"54",158.995042581646,4.68713784509011,154.815698845989,-0.507794109433604,1,"subseries 6",FALSE,54,12.9504209118856,154.815698845989
"55",169.355928672701,10.5901394205821,154.866374828657,3.89941442346233,1,"subseries 7",FALSE,55,13.7482394048632,154.866374828657
"56",174.882883857139,16.2386682424018,155.045641774316,3.5985738404211,1,"subseries 8",FALSE,56,13.6084924755073,155.045641774316
"57",167.513065355213,14.3011377881663,155.24851766789,-2.03659010084311,1,"subseries 9",FALSE,57,16.8549388244086,155.24851766789
"58",162.45139692216,8.21909825947758,155.457544631675,-1.2252459689922,1,"subseries 10",FALSE,58,15.087453367683,155.457544631675
"59",156.255376283675,2.12364356169536,155.53955281634,-1.40782009436001,1,"subseries 11",FALSE,59,14.5208869544761,155.53955281634
"60",150.119680800949,-6.35179897639434,155.4499967969,1.0214829804433,1,"subseries 12",FALSE,60,9.74799193106566,155.4499967969
"61",144.394741681093,-11.889667865663,155.347313084971,0.937096461785103,1,"subseries 1",FALSE,61,9.49436864422538,155.347313084971
"62",140.112384934096,-16.2122879946034,156.105468131616,0.21920479708379,1,"subseries 2",FALSE,62,10.1543775773391,156.105468131616
"63",144.91625051881,-12.4478063197253,157.431939540167,-0.0678827016318735,1,"subseries 3",FALSE,63,10.9068679570002,157.431939540167
"64",144.761952021046,-7.87800207060183,159.783386470604,-7.14343237895571,1,"subseries 4",FALSE,64,10.5586791818659,159.783386470604
"65",150.412177076228,-1.3802618904254,162.678855992874,-10.8864170262206,1,"subseries 5",FALSE,65,12.9074213527222,162.678855992874
"66",161.813283726429,4.68713784509011,165.293638620355,-8.16749273901641,1,"subseries 6",FALSE,66,37.28036266611,165.293638620355
"67",165.510752486514,10.5901394205821,168.092657618937,-13.1720445530047,1,"subseries 7",FALSE,67,18.7409569415092,168.092657618937
"68",186.542629397586,16.2386682424018,170.894210939057,-0.590249783872594,1,"subseries 8",FALSE,68,18.85369727341,170.894210939057
"69",205.957813098977,14.3011377881663,173.794369430058,17.862305880753,1,"subseries 9",FALSE,69,20.7636711117258,173.794369430058
"70",NA,8.21909825947758,176.898938968963,NA,1,"subseries 10",TRUE,70,NA,NA
"71",188.567721869398,2.12364356169536,180.086611672047,6.35746663565544,1,"subseries 11",FALSE,71,33.0816506682713,180.086611672047
