"","raw","seasonal","trend","remainder","weights","sub.labels","interpolated","age","sigma","power"
"1",96.5615590884413,2.24415919893291,93.7689349466819,0.548464942826442,1,"subseries 1",FALSE,1,6.36896246247989,93.7689349466819
"2",94.5260212886157,2.15692582315745,93.9953757641142,-1.62628029865594,1,"subseries 2",FALSE,2,7.29710739258919,93.9953757641142
"3",93.7527185202076,1.65912848456057,94.1926488145354,-2.09905877888841,1,"subseries 3",FALSE,3,4.31560700890841,94.1926488145354
"4",93.180646554113,0.512845809744652,94.3121040291842,-1.64430328481589,1,"subseries 4",FALSE,4,4.29746567247501,94.3121040291842
"5",89.8788922408094,-1.71876034654596,94.3933952660365,-2.79574267868109,1,"subseries 5",FALSE,5,3.64834179631761,94.3933952660365
"6",90.6046020040379,-4.51994741038272,94.4170989497362,0.707450464684399,1,"subseries 6",FALSE,6,4.36987188213077,94.4170989497362
"7",100.325673105031,-4.58339878509012,94.3731882864887,10.5358836036324,1,"subseries 7",FALSE,7,4.22651701157852,94.3731882864887
"8",97.0618189288335,1.14730850480342,94.5113388075702,1.40317161645984,1,"subseries 8",FALSE,8,4.52600804664297,94.5113388075702
"9",93.9156202431962,-0.0517546595352888,94.3729723877682,-0.405597485036708,1,"subseries 9",FALSE,9,5.0010015919749,94.3729723877682
"10",97.2084336441542,-0.621473331813445,93.7311874747382,4.0987195012294,1,"subseries 10",FALSE,10,3.83190182038872,93.7311874747382
"11",95.9497823407207,1.02708356090215,92.7522162192881,2.17048256053047,1,"subseries 11",FALSE,11,5.72643020703928,92.7522162192881
"12",92.7476901416933,2.74788315126639,91.5541673320028,-1.55436034157587,1,"subseries 12",FALSE,12,7.88995755865224,91.5541673320028
"13",90.4121365856432,2.24415919893291,90.3534805214436,-2.18550313473337,1,"subseries 1",FALSE,13,5.36037258698766,90.3534805214436
"14",89.6025399295487,2.15692582315745,89.2846953039428,-1.83908119755156,1,"subseries 2",FALSE,14,4.20043621623564,89.2846953039428
"15",88.2126590875252,1.65912848456057,88.5577953077457,-2.00426470478106,1,"subseries 3",FALSE,15,5.10295726948138,88.5577953077457
"16",86.7614179150879,0.512845809744652,88.1930106437336,-1.94443853839032,1,"subseries 4",FALSE,16,3.66724821240809,88.1930106437336
"17",84.8222751148952,-1.71876034654596,88.3592434442346,-1.81820798279338,1,"subseries 5",FALSE,17,5.21291795754534,88.3592434442346
"18",81.9183484215829,-4.51994741038272,88.7043801889293,-2.26608435696365,1,"subseries 6",FALSE,18,3.91928954147654,88.7043801889293
"19",75.7716427428025,-4.58339878509012,89.3217067754291,-8.96666524753653,1,"subseries 7",FALSE,19,5.15060976754662,89.3217067754291
"20",97.0222528192405,1.14730850480342,89.9263432376043,5.94860107683276,1,"subseries 8",FALSE,20,4.63057279598837,89.9263432376043
"21",92.5289222329388,-0.0517546595352888,90.4739938706624,2.10668302181173,1,"subseries 9",FALSE,21,4.20080584514734,90.4739938706624
"22",95.0879207444046,-0.621473331813445,91.1110522999518,4.59834177626627,1,"subseries 10",FALSE,22,4.28188263352795,91.1110522999518
"23",96.0722425046221,1.02708356090215,91.4907764109008,3.55438253281915,1,"subseries 11",FALSE,23,4.71015959704468,91.4907764109008
"24",93.5707957668433,2.74788315126639,91.9364044382879,-1.113491822711,1,"subseries 12",FALSE,24,4.72095589788881,91.9364044382879
"25",93.3704467100737,2.24415919893291,92.1743176275367,-1.04803011639595,1,"subseries 1",FALSE,25,5.468629759582,92.1743176275367
"26",93.6104553848476,2.15692582315745,92.221072840557,-0.767543278866867,1,"subseries 2",FALSE,26,4.38146130101031,92.221072840557
"27",93.2116719843636,1.65912848456057,92.3595230201017,-0.806979520298697,1,"subseries 3",FALSE,27,4.3758203136682,92.3595230201017
"28",91.0483713355694,0.512845809744652,92.4168592629683,-1.88133373714354,1,"subseries 4",FALSE,28,4.0758302713752,92.4168592629683
"29",87.7906210229879,-1.71876034654596,92.6493676098726,-3.13998624033874,1,"subseries 5",FALSE,29,5.60920854642507,92.6493676098726
"30",88.9092337167088,-4.51994741038272,92.9187952629327,0.510385864158849,1,"subseries 6",FALSE,30,5.27541016510085,92.9187952629327
"31",93.7108495317387,-4.58339878509012,93.1742205664508,5.12002775037801,1,"subseries 7",FALSE,31,5.80071447669922,93.1742205664508
"32",94.2011315166019,1.14730850480342,93.4098591710799,-0.35603615928143,1,"subseries 8",FALSE,32,4.07828000425407,93.4098591710799
"33",92.0708254198947,-0.0517546595352888,93.4699978554086,-1.34741777597857,1,"subseries 9",FALSE,33,4.85057689227297,93.4699978554086
"34",96.4117840855051,-0.621473331813445,93.5341292337616,3.49912818355692,1,"subseries 10",FALSE,34,3.56474122328469,93.5341292337616
"35",96.4188442763758,1.02708356090215,93.4458307928044,1.94592992266922,1,"subseries 11",FALSE,35,3.09264231657451,93.4458307928044
"36",94.4705842803829,2.74788315126639,93.2593900291529,-1.53668890003635,1,"subseries 12",FALSE,36,3.69923951811129,93.2593900291529
"37",93.9830897995878,2.24415919893291,93.0633557469977,-1.32442514634283,1,"subseries 1",FALSE,37,4.07067215369024,93.0633557469977
"38",93.5531627377175,2.15692582315745,92.8000776943201,-1.40384077976003,1,"subseries 2",FALSE,38,4.5763201684548,92.8000776943201
"39",93.8620822028626,1.65912848456057,92.5919680409694,-0.389014322667421,1,"subseries 3",FALSE,39,4.59310549999747,92.5919680409694
"40",93.0790173611814,0.512845809744652,92.4296321291771,0.136539422259688,1,"subseries 4",FALSE,40,4.27144439028372,92.4296321291771
"41",91.678425986134,-1.71876034654596,92.3776205437531,1.01956578892691,1,"subseries 5",FALSE,41,4.68128238408401,92.3776205437531
"42",89.2778304418386,-4.51994741038272,92.3983909697034,1.39938688251787,1,"subseries 6",FALSE,42,4.00665935321971,92.3983909697034
"43",83.4403746103483,-4.58339878509012,92.4111064192947,-4.38733302385629,1,"subseries 7",FALSE,43,3.21358059427327,92.4111064192947
"44",94.3778204378922,1.14730850480342,92.3326388847636,0.897873048325181,1,"subseries 8",FALSE,44,3.96417187904066,92.3326388847636
"45",94.6126279447177,-0.0517546595352888,92.1612911065495,2.50309149770351,1,"subseries 9",FALSE,45,3.84570112074011,92.1612911065495
"46",92.7382787354628,-0.621473331813445,92.0526824070753,1.30706966020095,1,"subseries 10",FALSE,46,4.18780382484491,92.0526824070753
"47",92.432879259327,1.02708356090215,91.9596734699277,-0.553877771502812,1,"subseries 11",FALSE,47,4.6960233040932,91.9596734699277
"48",95.1936554422537,2.74788315126639,91.9971387073315,0.448633583655862,1,"subseries 12",FALSE,48,5.23608225051588,91.9971387073315
"49",93.1393598952254,2.24415919893291,92.1109377919947,-1.21573709570222,1,"subseries 1",FALSE,49,3.95264176424423,92.1109377919947
"50",90.3944348647589,2.15692582315745,91.989633327036,-3.75212428543458,1,"subseries 2",FALSE,50,4.7804871456103,91.989633327036
"51",92.7286119698488,1.65912848456057,91.8199996851019,-0.75051619981366,1,"subseries 3",FALSE,51,5.24740268319015,91.8199996851019
"52",93.9854132457863,0.512845809744652,91.3185052205519,2.15406221548976,1,"subseries 4",FALSE,52,5.22985008525684,91.3185052205519
"53",93.5743652715313,-1.71876034654596,90.5335958170738,4.75952980100351,1,"subseries 5",FALSE,53,6.18839543244102,90.5335958170738
"54",88.5552686295339,-4.51994741038272,89.9459736657948,3.12924237412187,1,"subseries 6",FALSE,54,4.62507992667541,89.9459736657948
"55",89.1249057489682,-4.58339878509012,89.1641370225815,4.5441675114768,1,"subseries 7",FALSE,55,5.21520226466392,89.1641370225815
"56",89.334427180018,1.14730850480342,88.5832131309128,-0.39609445569819,1,"subseries 8",FALSE,56,3.56167048889634,88.5832131309128
"57",84.0084883858488,-0.0517546595352888,88.0811097494796,-4.02086670409552,1,"subseries 9",FALSE,57,5.53360158158677,88.0811097494796
"58",76.044171537149,-0.621473331813445,87.36137093368,-10.6957260647175,1,"subseries 10",FALSE,58,4.43465259898379,87.36137093368
"59",88.2662689253044,1.02708356090215,86.9547046799443,0.284480684457904,1,"subseries 11",FALSE,59,3.99706255354559,86.9547046799443
"60",88.3453532028155,2.74788315126639,86.4910020189555,-0.893531967406417,1,"subseries 12",FALSE,60,4.40980175827882,86.4910020189555
"61",91.6692428766816,2.24415919893291,86.2500254413216,3.17505823642711,1,"subseries 1",FALSE,61,3.74941772384767,86.2500254413216
"62",90.5766765690711,2.15692582315745,86.1948454181591,2.22490532775456,1,"subseries 2",FALSE,62,4.09591617701352,86.1948454181591
"63",88.7121087396175,1.65912848456057,85.9617621321553,1.09121812290159,1,"subseries 3",FALSE,63,4.76178694030642,85.9617621321553
"64",87.902500094932,0.512845809744652,85.8938748308125,1.49577945437481,1,"subseries 4",FALSE,64,3.79486687704119,85.8938748308125
"65",86.0849135328501,-1.71876034654596,85.5998287407171,2.20384513867899,1,"subseries 5",FALSE,65,3.7195569349359,85.5998287407171
"66",81.7291609541026,-4.51994741038272,85.1908952910104,1.05821307347496,1,"subseries 6",FALSE,66,3.54336057343961,85.1908952910104
"67",76.3279038947157,-4.58339878509012,84.8397384160884,-3.92843573628257,1,"subseries 7",FALSE,67,5.69378365990239,84.8397384160884
"68",79.6182897697944,1.14730850480342,84.4605444490193,-5.98956318402827,1,"subseries 8",FALSE,68,5.8236242940358,84.4605444490193
"69",86.864643292254,-0.0517546595352888,84.2830552281143,2.63334272367503,1,"subseries 9",FALSE,69,5.25126152457657,84.2830552281143
"70",83.4061064067518,-0.621473331813445,84.0567732587751,-0.0291935202098585,1,"subseries 10",FALSE,70,5.5132403519597,84.0567732587751
"71",83.5568700233124,1.02708356090215,83.9186345049385,-1.38884804252825,1,"subseries 11",FALSE,71,4.46919751882034,83.9186345049385
"72",87.0419949950389,2.74788315126639,83.8079981618269,0.486113681945653,1,"subseries 12",FALSE,72,3.85366922395393,83.8079981618269
"73",89.0244310878708,2.24415919893291,83.5522887646705,3.22798312426741,1,"subseries 1",FALSE,73,4.00971734365798,83.5522887646705
"74",88.1075368977258,2.15692582315745,83.3343470012348,2.61626407333351,1,"subseries 2",FALSE,74,3.91841963231083,83.3343470012348
"75",85.3771916116913,1.65912848456057,82.9213112823692,0.796751844761488,1,"subseries 3",FALSE,75,4.64976753285574,82.9213112823692
"76",83.0926671383526,0.512845809744652,82.3548709510783,0.224950377529609,1,"subseries 4",FALSE,76,5.03459935884685,82.3548709510783
"77",78.4424389751945,-1.71876034654596,81.6664821548899,-1.50528283314944,1,"subseries 5",FALSE,77,3.70364110919879,81.6664821548899
"78",73.6391209177243,-4.51994741038272,80.9517948514067,-2.79272652329966,1,"subseries 6",FALSE,78,3.76960004367933,80.9517948514067
"79",79.0945332663597,-4.58339878509012,80.3311519468028,3.34678010464702,1,"subseries 7",FALSE,79,8.97857056790898,80.3311519468028
"80",79.7073326185683,1.14730850480342,79.9412605284105,-1.38123641464564,1,"subseries 8",FALSE,80,3.84302663718226,79.9412605284105
"81",78.3518944434866,-0.0517546595352888,79.8739207873513,-1.47027168432939,1,"subseries 9",FALSE,81,5.01132047955341,79.8739207873513
"82",76.3519841494742,-0.621473331813445,79.9795526561106,-3.0060951748229,1,"subseries 10",FALSE,82,4.46535028315589,79.9795526561106
"83",74.9912576138121,1.02708356090215,80.3279268850501,-6.36375283214018,1,"subseries 11",FALSE,83,4.62234918722157,80.3279268850501
"84",87.0872676906829,2.74788315126639,80.5164000638277,3.82298447558887,1,"subseries 12",FALSE,84,4.00565090451291,80.5164000638277
"85",81.4862792156097,2.24415919893291,80.5827233405819,-1.34060332390507,1,"subseries 1",FALSE,85,20.5794489849871,80.5827233405819
"86",87.4171831205725,2.15692582315745,80.6368753800069,4.6233819174082,1,"subseries 2",FALSE,86,3.94399355516648,80.6368753800069
"87",86.7534554631899,1.65912848456057,80.6312837554155,4.46304322321383,1,"subseries 3",FALSE,87,3.58705388518531,80.6312837554155
"88",83.0773806591788,0.512845809744652,80.6911417096026,1.87339313983155,1,"subseries 4",FALSE,88,4.55558320340669,80.6911417096026
"89",80.7114921256878,-1.71876034654596,80.7283347519763,1.70191772025747,1,"subseries 5",FALSE,89,3.37890736398443,80.7283347519763
"90",74.9860047232927,-4.51994741038272,80.7447058086111,-1.23875367493571,1,"subseries 6",FALSE,90,3.004058003696,80.7447058086111
"91",70.4065012647127,-4.58339878509012,80.7435883149053,-5.75368826510245,1,"subseries 7",FALSE,91,2.87639830994574,80.7435883149053
