"","raw","seasonal","trend","remainder","weights","sub.labels","interpolated","age","sigma","power"
"1",4.09369636915178,-1.6192435853203,6.03024209893491,-0.317302144462832,1,"subseries 1",FALSE,1,0.546813153328262,6.03024209893491
"2",4.79138367883595,-1.27295552562647,5.94467616306709,0.119663041395326,1,"subseries 2",FALSE,2,0.543699688532409,5.94467616306709
"3",4.91605523698832,-0.622043177575749,5.85890041836873,-0.320802003804658,1,"subseries 3",FALSE,3,1.3228340893099,5.85890041836873
"4",6.18291957435232,0.184200563084668,5.77316528573509,0.225553725532563,1,"subseries 4",FALSE,4,1.23642259376617,5.77316528573509
"5",7.50727742279577,1.26991699385065,5.6874647558244,0.549895673120723,1,"subseries 5",FALSE,5,0.770158255084855,5.6874647558244
"6",7.95900195756915,1.96233411565065,5.6086498110962,0.388018030822297,1,"subseries 6",FALSE,6,0.816081838259372,5.6086498110962
"7",7.42773348125984,1.91785812360639,5.52889264142597,-0.0190172837725209,1,"subseries 7",FALSE,7,0.711527451538267,5.52889264142597
"8",6.42518524687178,1.44062059770728,5.44830678046456,-0.463742131300063,1,"subseries 8",FALSE,8,0.762904626697583,5.44830678046456
"9",5.3977114105327,0.14572711597321,5.3677279116796,-0.115743617120113,1,"subseries 9",FALSE,9,0.691043779051768,5.3677279116796
"10",4.19885518037506,-0.582909757392386,5.30186576890378,-0.520100831136336,1,"subseries 10",FALSE,10,0.555299078121689,5.30186576890378
"11",3.91191510836668,-1.21756876299337,5.27733679650825,-0.147852925148198,1,"subseries 11",FALSE,11,0.59167984370937,5.27733679650825
"12",3.46995788022859,-1.60593670096458,5.2684738242818,-0.19257924308863,1,"subseries 12",FALSE,12,0.626860378867368,5.2684738242818
"13",3.75756969405216,-1.6192435853203,5.29182139882843,0.0849918805440284,1,"subseries 1",FALSE,13,0.468439657363369,5.29182139882843
"14",3.98653929908953,-1.27295552562647,5.32706072353669,-0.0675658988206917,1,"subseries 2",FALSE,14,0.426796779382383,5.32706072353669
"15",4.74330575913359,-0.622043177575749,5.35242052269492,0.0129284140144206,1,"subseries 3",FALSE,15,0.636184196042679,5.35242052269492
"16",5.89656125754448,0.184200563084668,5.36790799073938,0.344452703720428,1,"subseries 4",FALSE,16,0.594353441357768,5.36790799073938
"17",7.11437995706671,1.26991699385065,5.35082141825569,0.493641544960367,1,"subseries 5",FALSE,17,0.749193098461249,5.35082141825569
"18",7.23519400341553,1.96233411565065,5.32751866749738,-0.0546587797325042,1,"subseries 6",FALSE,18,0.754445503529861,5.32751866749738
"19",7.51927901843269,1.91785812360639,5.28002351436628,0.321397380460017,1,"subseries 7",FALSE,19,0.731214280268953,5.28002351436628
"20",6.52782046476988,1.44062059770728,5.23207532352021,-0.144875456457613,1,"subseries 8",FALSE,20,0.780273853207225,5.23207532352021
"21",5.11978548683989,0.14572711597321,5.18794581758446,-0.213887446717774,1,"subseries 9",FALSE,21,0.629659007488774,5.18794581758446
"22",4.23939296173272,-0.582909757392386,5.14299192727489,-0.320689208149787,1,"subseries 10",FALSE,22,0.45800094424812,5.14299192727489
"23",3.78721883725363,-1.21756876299337,5.12846633126586,-0.12367873101886,1,"subseries 11",FALSE,23,0.585433841930643,5.12846633126586
"24",3.33598685746438,-1.60593670096458,5.12848930432286,-0.186565745893897,1,"subseries 12",FALSE,24,0.608162749748512,5.12848930432286
"25",3.26339110030554,-1.6192435853203,5.15920478543939,-0.276570099813552,1,"subseries 1",FALSE,25,0.549867606508928,5.15920478543939
"26",4.0062218396284,-1.27295552562647,5.20049220391858,0.0786851613362893,1,"subseries 2",FALSE,26,0.52289281669827,5.20049220391858
"27",4.83512545048205,-0.622043177575749,5.24615372165088,0.211014906406922,1,"subseries 3",FALSE,27,0.581550015605131,5.24615372165088
"28",5.50526122865912,0.184200563084668,5.28571962114843,0.0353410444260192,1,"subseries 4",FALSE,28,0.715626092719397,5.28571962114843
"29",6.58854109260831,1.26991699385065,5.30023403282262,0.0183900659350416,1,"subseries 5",FALSE,29,0.716938711489376,5.30023403282262
"30",7.74658102663405,1.96233411565065,5.30142590310239,0.482821007881011,1,"subseries 6",FALSE,30,0.757527867560156,5.30142590310239
"31",7.46091529359031,1.91785812360639,5.27060189949538,0.272455270488535,1,"subseries 7",FALSE,31,0.801142332614904,5.27060189949538
"32",6.59653257982623,1.44062059770728,5.23393749123814,-0.0780255091191933,1,"subseries 8",FALSE,32,0.709699357397686,5.23393749123814
"33",5.47679795987864,0.14572711597321,5.18563441386474,0.14543643004069,1,"subseries 9",FALSE,33,0.569982597493738,5.18563441386474
"34",4.30748015591697,-0.582909757392386,5.13186332082494,-0.241473407515582,1,"subseries 10",FALSE,34,0.632071628459965,5.13186332082494
"35",3.67627854434547,-1.21756876299337,5.087098913739,-0.193251606400162,1,"subseries 11",FALSE,35,0.556055271302784,5.087098913739
"36",3.21056314029451,-1.60593670096458,5.02908885371863,-0.212589012459545,1,"subseries 12",FALSE,36,0.566569908482044,5.02908885371863
"37",3.24842906518464,-1.6192435853203,4.98523863424726,-0.117565983742315,1,"subseries 1",FALSE,37,0.549379695359549,4.98523863424726
"38",3.78005828826376,-1.27295552562647,4.95398317626559,0.0990306376246366,1,"subseries 2",FALSE,38,0.506223319024461,4.95398317626559
"39",4.54670245787088,-0.622043177575749,4.93086188891467,0.237883746531962,1,"subseries 3",FALSE,39,0.448120789382816,4.93086188891467
"40",5.09471017852883,0.184200563084668,4.91982439221363,-0.00931477676946901,1,"subseries 4",FALSE,40,0.642187343618746,4.91982439221363
"41",6.23928509766124,1.26991699385065,4.90365290685992,0.0657151969506655,1,"subseries 5",FALSE,41,0.740514574831928,4.90365290685992
"42",6.75863139501739,1.96233411565065,4.88473992757306,-0.088442648206323,1,"subseries 6",FALSE,42,0.796177986741655,4.88473992757306
"43",6.4758680661242,1.91785812360639,4.86003021747809,-0.302020274960284,1,"subseries 7",FALSE,43,0.827309336389583,4.86003021747809
"44",6.62292002250616,1.44062059770728,4.83199658345903,0.350302841339854,1,"subseries 8",FALSE,44,0.738091347227398,4.83199658345903
"45",5.12073643224516,0.14572711597321,4.80914510651343,0.165864209758517,1,"subseries 9",FALSE,45,0.725874738831661,4.80914510651343
"46",3.94649147313664,-0.582909757392386,4.78961397099482,-0.260212740465797,1,"subseries 10",FALSE,46,0.581343874869869,4.78961397099482
"47",3.30103225802355,-1.21756876299337,4.773452246495,-0.25485122547808,1,"subseries 11",FALSE,47,0.499655886363857,4.773452246495
"48",3.28529554312289,-1.60593670096458,4.7641764291456,0.127055814941865,1,"subseries 12",FALSE,48,0.609706569097275,4.7641764291456
"49",3.23926116119178,-1.6192435853203,4.76135152140314,0.0971532251089391,1,"subseries 1",FALSE,49,0.517792873988464,4.76135152140314
"50",3.43809619518331,-1.27295552562647,4.77245885779006,-0.0614071369802804,1,"subseries 2",FALSE,50,0.470959700054594,4.77245885779006
"51",4.11476043838499,-0.622043177575749,4.80203451467175,-0.0652308987110128,1,"subseries 3",FALSE,51,0.466914115564691,4.80203451467175
"52",4.79894275282567,0.184200563084668,4.86152415491658,-0.246781965175578,1,"subseries 4",FALSE,52,0.673210024645511,4.86152415491658
"53",5.980854733291,1.26991699385065,4.94693859779673,-0.236000858356383,1,"subseries 5",FALSE,53,0.689962898984307,4.94693859779673
"54",6.99635509639653,1.96233411565065,5.03255403479703,0.00146694594885144,1,"subseries 6",FALSE,54,0.951578215344336,5.03255403479703
"55",6.7060777864083,1.91785812360639,5.13660641624998,-0.348386753448074,1,"subseries 7",FALSE,55,1.04352381107447,5.13660641624998
"56",6.88094938094343,1.44062059770728,5.22926561884176,0.211063164394393,1,"subseries 8",FALSE,56,0.959196173200327,5.22926561884176
"57",5.16687552099664,0.14572711597321,5.3099680826008,-0.28881967757737,1,"subseries 9",FALSE,57,0.75549015807399,5.3099680826008
"58",5.71212711302989,-0.582909757392386,5.38432952069925,0.910707349723028,1,"subseries 10",FALSE,58,1.53630789487395,5.38432952069925
"59",4.44911933494411,-1.21756876299337,5.42467143376992,0.242016664167561,1,"subseries 11",FALSE,59,0.527009768032649,5.42467143376992
"60",3.97409905893474,-1.60593670096458,5.45795882364438,0.122076936254937,1,"subseries 12",FALSE,60,0.505527463003284,5.45795882364438
"61",3.95590128340451,-1.6192435853203,5.46056693959194,0.114577929132872,1,"subseries 1",FALSE,61,0.520448398501112,5.46056693959194
"62",4.0397497861813,-1.27295552562647,5.45185381819194,-0.139148506384171,1,"subseries 2",FALSE,62,0.490047134464501,5.45185381819194
"63",4.65463064241905,-0.622043177575749,5.44030198346865,-0.163628163473851,1,"subseries 3",FALSE,63,0.43126851345001,5.44030198346865
"64",5.59832769329009,0.184200563084668,5.4153361442746,-0.0012090140691754,1,"subseries 4",FALSE,64,0.563623039691116,5.4153361442746
"65",6.37661419836974,1.26991699385065,5.4109837401386,-0.304286535619513,1,"subseries 5",FALSE,65,0.79026960498994,5.4109837401386
"66",7.07383471403384,1.96233411565065,5.40521663353769,-0.293716035154501,1,"subseries 6",FALSE,66,0.872108750684281,5.40521663353769
"67",7.72317102020109,1.91785812360639,5.4062303814249,0.399082515169795,1,"subseries 7",FALSE,67,0.89452438941165,5.4062303814249
"68",6.68398571687504,1.44062059770728,5.39763667022123,-0.15427155105347,1,"subseries 8",FALSE,68,0.700239324946838,5.39763667022123
"69",5.9045513036165,0.14572711597321,5.36755255090557,0.391271636737722,1,"subseries 9",FALSE,69,0.726451370480704,5.36755255090557
"70",5.02385856862311,-0.582909757392386,5.31926318198538,0.287505144030114,1,"subseries 10",FALSE,70,0.682953465510897,5.31926318198538
"71",4.17916619927341,-1.21756876299337,5.22969569148679,0.167039270779985,1,"subseries 11",FALSE,71,0.502061225984616,5.22969569148679
"72",3.74618714096377,-1.60593670096458,5.12658066391098,0.225543178017372,1,"subseries 12",FALSE,72,0.519278515203145,5.12658066391098
"73",3.62032990080309,-1.6192435853203,4.99589016320167,0.243683322921723,1,"subseries 1",FALSE,73,0.510385794472705,4.99589016320167
"74",3.52922832606344,-1.27295552562647,4.88242141869502,-0.0802375670051161,1,"subseries 2",FALSE,74,0.547708386522945,4.88242141869502
"75",3.80068407190529,-0.622043177575749,4.79402209403212,-0.37129484455108,1,"subseries 3",FALSE,75,0.617813067084627,4.79402209403212
"76",4.61623416936807,0.184200563084668,4.72605813626634,-0.294024529982942,1,"subseries 4",FALSE,76,0.669145699567381,4.72605813626634
"77",5.3481550529415,1.26991699385065,4.71421476300656,-0.63597670391571,1,"subseries 5",FALSE,77,0.759971821818991,4.71421476300656
"78",6.19453181820058,1.96233411565065,4.70286972141814,-0.470672018868211,1,"subseries 6",FALSE,78,0.950309996293081,4.70286972141814
"79",6.29834977324848,1.91785812360639,4.72953799102685,-0.349046341384765,1,"subseries 7",FALSE,79,0.81247817763205,4.72953799102685
"80",6.54947021987489,1.44062059770728,4.76231482526167,0.346534796905939,1,"subseries 8",FALSE,80,1.07540164088655,4.76231482526167
"81",5.7854809316246,0.14572711597321,4.77770704427183,0.862046771379561,1,"subseries 9",FALSE,81,0.922858790188714,4.77770704427183
"82",4.33091743111244,-0.582909757392386,4.79962129606675,0.114205892438075,1,"subseries 10",FALSE,82,0.66239243162753,4.79962129606675
"83",3.89574411889151,-1.21756876299337,4.81221894104757,0.301093940837314,1,"subseries 11",FALSE,83,0.666728902886649,4.81221894104757
"84",3.3056142078378,-1.60593670096458,4.79077517830599,0.120775730496391,1,"subseries 12",FALSE,84,0.613557864776496,4.79077517830599
"85",3.28216281194295,-1.6192435853203,4.75365915811396,0.147747239149294,1,"subseries 1",FALSE,85,0.571750405088087,4.75365915811396
"86",3.45563559893202,-1.27295552562647,4.72099724998649,0.00759387457199789,1,"subseries 2",FALSE,86,0.566308248903839,4.72099724998649
"87",3.77154734618891,-0.622043177575749,4.68121473891449,-0.28762421514983,1,"subseries 3",FALSE,87,0.491774451083229,4.68121473891449
"88",NA,0.184200563084668,4.62781712317247,NA,1,"subseries 4",TRUE,88,NA,NA
"89",NA,1.26991699385065,4.56516867194678,NA,1,"subseries 5",TRUE,89,NA,NA
"90",NA,1.96233411565065,4.46924851321508,NA,1,"subseries 6",TRUE,90,NA,NA
"91",NA,1.91785812360639,4.3647433330064,NA,1,"subseries 7",TRUE,91,NA,NA
"92",5.63394049418054,1.44062059770728,4.25702642563328,-0.0637065291600187,1,"subseries 8",FALSE,92,1.00321722805719,4.25702642563328
"93",NA,0.14572711597321,4.14103039679731,NA,1,"subseries 9",TRUE,93,NA,NA
"94",NA,-0.582909757392386,4.12447181085071,NA,1,"subseries 10",TRUE,94,NA,NA
"95",NA,-1.21756876299337,4.11297361960792,NA,1,"subseries 11",TRUE,95,NA,NA
"96",NA,-1.60593670096458,4.14159867215573,NA,1,"subseries 12",TRUE,96,NA,NA
"97",NA,-1.6192435853203,4.17943279881164,NA,1,"subseries 1",TRUE,97,NA,NA
"98",NA,-1.27295552562647,4.17305426947749,NA,1,"subseries 2",TRUE,98,NA,NA
"99",NA,-0.622043177575749,4.17042228264753,NA,1,"subseries 3",TRUE,99,NA,NA
"100",NA,0.184200563084668,4.15064991996453,NA,1,"subseries 4",TRUE,100,NA,NA
"101",NA,1.26991699385065,4.13265989093941,NA,1,"subseries 5",TRUE,101,NA,NA
"102",NA,1.96233411565065,4.10764990725023,NA,1,"subseries 6",TRUE,102,NA,NA
"103",NA,1.91785812360639,4.08364882211863,NA,1,"subseries 7",TRUE,103,NA,NA
"104",NA,1.44062059770728,4.05628166344901,NA,1,"subseries 8",TRUE,104,NA,NA
"105",3.25696482802229,0.14572711597321,4.02956834421832,-0.918330632169235,1,"subseries 9",FALSE,105,0.54226749674243,4.02956834421832
"106",NA,-0.582909757392386,4.00128867758272,NA,1,"subseries 10",TRUE,106,NA,NA
"107",NA,-1.21756876299337,3.97349179219171,NA,1,"subseries 11",TRUE,107,NA,NA
"108",NA,-1.60593670096458,3.94570265176583,NA,1,"subseries 12",TRUE,108,NA,NA
"109",NA,-1.6192435853203,3.91833251014009,NA,1,"subseries 1",TRUE,109,NA,NA
"110",NA,-1.27295552562647,3.89205840194761,NA,1,"subseries 2",TRUE,110,NA,NA
"111",4.02503160989571,-0.622043177575749,3.86619551588743,0.780879271584032,1,"subseries 3",FALSE,111,0.210583156669198,3.86619551588743
"112",3.99927592130578,0.184200563084668,3.8416725116308,-0.0265971534096918,1,"subseries 4",FALSE,112,0.338746347906737,3.8416725116308
