"","raw","seasonal","trend","remainder","weights","sub.labels","interpolated","age","sigma","power"
"1",NA,-12.7721483604452,179.846370220867,NA,1,"subseries 1",TRUE,1,NA,NA
"2",NA,-17.4978738252363,179.30389875475,NA,1,"subseries 2",TRUE,2,NA,NA
"3",NA,-13.4012959076602,178.800148516373,NA,1,"subseries 3",TRUE,3,NA,NA
"4",NA,-9.09004894893265,178.381779911461,NA,1,"subseries 4",TRUE,4,NA,NA
"5",176.931601471398,-2.11271030354747,178.00815263261,1.03615914233501,1,"subseries 5",FALSE,5,26.4534402454116,178.00815263261
"6",191.0942310473,4.32348732370264,177.767336144812,9.00340757878556,1,"subseries 6",FALSE,6,13.5870665540279,177.767336144812
"7",194.695787467456,11.3473957860689,177.57456513789,5.77382654349665,1,"subseries 7",FALSE,7,19.5292994352326,177.57456513789
"8",192.618637127873,17.3218038166127,177.501852351702,-2.20501904044198,1,"subseries 8",FALSE,8,19.7372706483051,177.501852351702
"9",178.042180455254,16.4696026456664,177.485287729164,-15.9127099195767,1,"subseries 9",FALSE,9,28.694274944464,177.485287729164
"10",186.735975104109,8.60169592021139,177.421964178645,0.712315005252833,1,"subseries 10",FALSE,10,30.0821429170262,177.421964178645
"11",175.680613185053,2.95850961540903,177.480533518855,-4.75842994921106,1,"subseries 11",FALSE,11,11.9581744132048,177.480533518855
"12",168.510502740785,-6.14841776184927,177.294639842722,-2.63571934008752,1,"subseries 12",FALSE,12,10.8529468355432,177.294639842722
"13",160.367469943879,-12.7721483604452,177.537582949547,-4.39796464522288,1,"subseries 1",FALSE,13,12.8461124955584,177.537582949547
"14",166.406226195193,-17.4978738252363,178.226641240452,5.6774587799774,1,"subseries 2",FALSE,14,13.701609699138,178.226641240452
"15",166.922158578417,-13.4012959076602,178.609496511635,1.713957974442,1,"subseries 3",FALSE,15,12.2777001474151,178.609496511635
"16",177.559103736086,-9.09004894893265,178.977695166728,7.67145751829068,1,"subseries 4",FALSE,16,11.7456523877518,178.977695166728
"17",183.151070843002,-2.11271030354747,178.842446288742,6.42133485780707,1,"subseries 5",FALSE,17,20.3969267925955,178.842446288742
"18",181.982368088737,4.32348732370264,178.655255164167,-0.99637439913306,1,"subseries 6",FALSE,18,15.7885270645555,178.655255164167
"19",187.62570115227,11.3473957860689,178.196405392296,-1.91810002609509,1,"subseries 7",FALSE,19,16.6753990058289,178.196405392296
"20",190.343513409458,17.3218038166127,177.603674848027,-4.58196525518136,1,"subseries 8",FALSE,20,18.1375873207271,177.603674848027
"21",193.788016802307,16.4696026456664,177.254921787916,0.0634923687244111,1,"subseries 9",FALSE,21,17.7467702939421,177.254921787916
"22",183.057476571874,8.60169592021139,176.835112786657,-2.37933213499397,1,"subseries 10",FALSE,22,14.0502641259731,176.835112786657
"23",174.152558614773,2.95850961540903,176.806844636228,-5.61279563686446,1,"subseries 11",FALSE,23,17.6016138056577,176.806844636228
"24",169.939765218999,-6.14841776184927,176.914806824616,-0.826623843767976,1,"subseries 12",FALSE,24,13.0863100041864,176.914806824616
"25",167.509685584582,-12.7721483604452,177.112723549954,3.16911039507329,1,"subseries 1",FALSE,25,11.4768078715151,177.112723549954
"26",163.504690611085,-17.4978738252363,177.327198271172,3.67536616514903,1,"subseries 2",FALSE,26,10.3676694253925,177.327198271172
"27",165.541321390373,-13.4012959076602,177.290650407723,1.65196689031004,1,"subseries 3",FALSE,27,9.63157073989046,177.290650407723
"28",169.899658646339,-9.09004894893265,177.180090043204,1.80961755206718,1,"subseries 4",FALSE,28,12.240130411258,177.180090043204
"29",175.298685864327,-2.11271030354747,176.723362945649,0.688033222225783,1,"subseries 5",FALSE,29,12.6122422077383,176.723362945649
"30",181.708763175505,4.32348732370264,176.145041813533,1.24023403826948,1,"subseries 6",FALSE,30,16.0400021284582,176.145041813533
"31",189.238595672077,11.3473957860689,175.438344991892,2.45285489411634,1,"subseries 7",FALSE,31,18.0641466514839,175.438344991892
"32",190.198244047418,17.3218038166127,174.354660439955,-1.47822020914978,1,"subseries 8",FALSE,32,18.8417120991716,174.354660439955
"33",183.555798807062,16.4696026456664,173.157223916424,-6.07102775502821,1,"subseries 9",FALSE,33,16.0466485939675,173.157223916424
"34",182.397838394273,8.60169592021139,171.974292664363,1.82184980969825,1,"subseries 10",FALSE,34,18.8697888167853,171.974292664363
"35",178.172527493255,2.95850961540903,170.832476555734,4.38154132211224,1,"subseries 11",FALSE,35,11.90270013084,170.832476555734
"36",166.538745798063,-6.14841776184927,169.998102683581,2.68906087633161,1,"subseries 12",FALSE,36,12.1222463657462,169.998102683581
"37",157.151036186754,-12.7721483604452,169.387962149471,0.535222397727836,1,"subseries 1",FALSE,37,11.0024223327625,169.387962149471
"38",138.887307741815,-17.4978738252363,168.916095067144,-12.5309135000927,1,"subseries 2",FALSE,38,20.4660450546786,168.916095067144
"39",153.666509389512,-13.4012959076602,168.639211478035,-1.57140618086325,1,"subseries 3",FALSE,39,10.3239140307645,168.639211478035
"40",160.192556829227,-9.09004894893265,168.220564941713,1.06204083644636,1,"subseries 4",FALSE,40,11.6018409725487,168.220564941713
"41",168.61999598656,-2.11271030354747,167.975932641887,2.75677364822062,1,"subseries 5",FALSE,41,16.244574868739,167.975932641887
"42",172.354306992557,4.32348732370264,167.885564362187,0.145255306667764,1,"subseries 6",FALSE,42,14.1028438847656,167.885564362187
"43",180.387795910911,11.3473957860689,167.77642393858,1.26397618626254,1,"subseries 7",FALSE,43,18.2080805451979,167.77642393858
"44",185.802403711508,17.3218038166127,167.92844624554,0.552153649354864,1,"subseries 8",FALSE,44,17.2689356611818,167.92844624554
"45",186.934161582715,16.4696026456664,167.938753062481,2.52580587456728,1,"subseries 9",FALSE,45,17.8934928243662,167.938753062481
"46",175.352325276931,8.60169592021139,167.708693537359,-0.958064180639269,1,"subseries 10",FALSE,46,15.8855267719191,167.708693537359
"47",166.405984542077,2.95850961540903,167.450721161554,-4.00324623488589,1,"subseries 11",FALSE,47,13.6356295760531,167.450721161554
"48",160.538987233981,-6.14841776184927,167.130457232119,-0.443052236288253,1,"subseries 12",FALSE,48,9.98593127366764,167.130457232119
"49",155.445355863191,-12.7721483604452,166.850302228268,1.36720199536776,1,"subseries 1",FALSE,49,10.4303414516009,166.850302228268
"50",152.45855150854,-17.4978738252363,166.713503459424,3.24292187435219,1,"subseries 2",FALSE,50,11.3886971914173,166.713503459424
"51",152.074194431661,-13.4012959076602,166.685404413363,-1.20991407404159,1,"subseries 3",FALSE,51,10.6138169297178,166.685404413363
"52",155.648777742493,-9.09004894893265,166.666117931515,-1.927291240089,1,"subseries 4",FALSE,52,13.6784729345892,166.666117931515
"53",162.106810286238,-2.11271030354747,166.61738529492,-2.39786470513431,1,"subseries 5",FALSE,53,12.307935087834,166.61738529492
"54",170.38135485723,4.32348732370264,166.481114170083,-0.423246636555632,1,"subseries 6",FALSE,54,14.0356307398,166.481114170083
"55",181.02785573809,11.3473957860689,166.312615210632,3.36784474138943,1,"subseries 7",FALSE,55,14.8691159982033,166.312615210632
"56",187.237545975164,17.3218038166127,166.17059866664,3.74514349191111,1,"subseries 8",FALSE,56,14.5143628137868,166.17059866664
"57",179.555371906277,16.4696026456664,166.026316897883,-2.94054763727206,1,"subseries 9",FALSE,57,18.0072511666834,166.026316897883
"58",174.061201866211,8.60169592021139,165.856497426127,-0.396991480127582,1,"subseries 10",FALSE,58,16.3522050236734,165.856497426127
"59",168.162002997613,2.95850961540903,165.602861829085,-0.399368446881141,1,"subseries 11",FALSE,59,15.302077457985,165.602861829085
"60",160.248444787404,-6.14841776184927,165.480978390058,0.915884159195286,1,"subseries 12",FALSE,60,10.5255282758322,165.480978390058
"61",151.909520555668,-12.7721483604452,165.454586763267,-0.772917847153593,1,"subseries 1",FALSE,61,12.326852443643,165.454586763267
"62",NA,-17.4978738252363,166.483569268716,NA,1,"subseries 2",TRUE,62,NA,NA
"63",153.797959312249,-13.4012959076602,168.152855922826,-0.95360070291693,1,"subseries 3",FALSE,63,12.3305571873547,168.152855922826
"64",151.983356361009,-9.09004894893265,170.452785342848,-9.37938003290625,1,"subseries 4",FALSE,64,12.0797981865918,170.452785342848
"65",160.32521585245,-2.11271030354747,173.198215894761,-10.7602897387635,1,"subseries 5",FALSE,65,10.6612211144465,173.198215894761
"66",168.421755926253,4.32348732370264,175.674825629615,-11.5765570270648,1,"subseries 6",FALSE,66,13.0840803038313,175.674825629615
"67",175.991827926761,11.3473957860689,178.321015215126,-13.6765830744339,1,"subseries 7",FALSE,67,17.3612225676989,178.321015215126
"68",199.45341962173,17.3218038166127,181.008802003627,1.12281380149076,1,"subseries 8",FALSE,68,20.6596199380569,181.008802003627
"69",219.94713722355,16.4696026456664,183.798439003455,19.6790955744287,1,"subseries 9",FALSE,69,21.8430745882767,183.798439003455
"70",NA,8.60169592021139,186.815646178586,NA,1,"subseries 10",TRUE,70,NA,NA
"71",201.058205237606,2.95850961540903,189.921574036693,8.17812158550373,1,"subseries 11",FALSE,71,35.3848326236305,189.921574036693
