"","raw","seasonal","trend","remainder","weights","sub.labels","interpolated","age","sigma","power"
"1",120.888216128673,-4.46531968272136,124.648555722726,0.704980088668719,1,"subseries 1",FALSE,1,2.95085889441444,124.648555722726
"2",120.684245917312,-6.27654237266997,124.054496367065,2.90629192291686,1,"subseries 2",FALSE,2,4.03999602318909,124.054496367065
"3",123.812475858652,-5.9339162469249,123.5118877399,6.23450436567644,1,"subseries 3",FALSE,3,5.06987699461979,123.5118877399
"4",124.657527116092,-3.04158694615786,123.11142816276,4.58768589948983,1,"subseries 4",FALSE,4,5.60904258236421,123.11142816276
"5",NA,-1.33322108440952,122.77203618537,NA,1,"subseries 5",TRUE,5,NA,NA
"6",125.02991667044,4.83170067617106,122.486341353882,-2.28812535961346,1,"subseries 6",FALSE,6,5.48194585774736,122.486341353882
"7",104.078527160524,2.8199864456336,122.301547577933,-21.0430068630428,1,"subseries 7",FALSE,7,23.5973210462838,122.301547577933
"8",127.543754151432,6.54938990628916,121.705272525385,-0.710908280241881,1,"subseries 8",FALSE,8,5.75856504608807,121.705272525385
"9",124.977921946366,4.90456692788875,121.490349183714,-1.41699416523694,1,"subseries 9",FALSE,9,4.06414295902332,121.490349183714
"10",125.210874949792,9.74856364859774,121.598745217751,-6.1364339165567,1,"subseries 10",FALSE,10,3.40703678986325,121.598745217751
"11",119.017835281311,-3.50299503324934,121.829856456832,0.690973857728395,1,"subseries 11",FALSE,11,12.4643281686491,121.829856456832
"12",130.857264797049,-4.30062623844735,122.380907947729,12.7769830877677,1,"subseries 12",FALSE,12,16.1974977633446,122.380907947729
"13",123.108149981578,-4.46531968272136,122.551040941209,5.02242872309077,1,"subseries 1",FALSE,13,3.29965486519555,122.551040941209
"14",122.005742447257,-6.27654237266997,123.13081035741,5.15147446251714,1,"subseries 2",FALSE,14,3.84201671163037,123.13081035741
"15",120.486012655644,-5.9339162469249,123.107767112766,3.31216178980246,1,"subseries 3",FALSE,15,4.29116782162552,123.107767112766
"16",121.977975818005,-3.04158694615786,122.438627094149,2.58093567001337,1,"subseries 4",FALSE,16,8.17005413350536,122.438627094149
"17",109.592595752838,-1.33322108440952,121.555779881735,-10.6299630444878,1,"subseries 5",FALSE,17,17.5477753383154,121.555779881735
"18",123.937209130292,4.83170067617106,120.494484344573,-1.38897589045247,1,"subseries 6",FALSE,18,4.50876638390819,120.494484344573
"19",124.197597651669,2.8199864456336,119.85189131629,1.52571988974501,1,"subseries 7",FALSE,19,6.63542981471734,119.85189131629
"20",122.313937324345,6.54938990628916,119.471159477235,-3.70661205917878,1,"subseries 8",FALSE,20,9.17946948877258,119.471159477235
"21",124.238461686916,4.90456692788875,119.585710296601,-0.251815537573862,1,"subseries 9",FALSE,21,6.67230778983964,119.585710296601
"22",121.15053103415,9.74856364859774,119.785626059804,-8.38365867425162,1,"subseries 10",FALSE,22,3.7585876802808,119.785626059804
"23",119.320065942913,-3.50299503324934,119.976779292766,2.84628168339641,1,"subseries 11",FALSE,23,4.48353342739241,119.976779292766
"24",120.409833271157,-4.30062623844735,120.237700209715,4.47275929988923,1,"subseries 12",FALSE,24,5.0376477092206,120.237700209715
"25",119.492034040931,-4.46531968272136,120.445997924998,3.51135579865478,1,"subseries 1",FALSE,25,5.50046406305361,120.445997924998
"26",116.715532846569,-6.27654237266997,120.858601433242,2.13347378599727,1,"subseries 2",FALSE,26,5.64563904555402,120.858601433242
"27",119.961927858105,-5.9339162469249,121.24987590178,4.64596820324971,1,"subseries 3",FALSE,27,8.81836602089925,121.24987590178
"28",106.649578216999,-3.04158694615786,120.981496891416,-11.290331728259,1,"subseries 4",FALSE,28,22.7414726409747,120.981496891416
"29",124.122608481567,-1.33322108440952,120.381031530235,5.07479803574114,1,"subseries 5",FALSE,29,8.44299221794195,120.381031530235
"30",123.758764401319,4.83170067617106,119.284146178836,-0.357082453687809,1,"subseries 6",FALSE,30,4.53147943039065,119.284146178836
"31",NA,2.8199864456336,117.799395397395,NA,1,"subseries 7",TRUE,31,NA,NA
"32",NA,6.54938990628916,116.486011151852,NA,1,"subseries 8",TRUE,32,NA,NA
"33",NA,4.90456692788875,115.009531324405,NA,1,"subseries 9",TRUE,33,NA,NA
"34",146.832468610854,9.74856364859774,113.993613931373,23.0902910308831,1,"subseries 10",FALSE,34,20.1200800830787,113.993613931373
"35",103.560995026641,-3.50299503324934,113.037308235923,-5.97331817603273,1,"subseries 11",FALSE,35,8.77873574875171,113.037308235923
"36",99.7533963788544,-4.30062623844735,112.057914945773,-8.00389232847114,1,"subseries 12",FALSE,36,14.45359154033,112.057914945773
"37",102.034714499909,-4.46531968272136,111.366854971382,-4.86682078875205,1,"subseries 1",FALSE,37,9.61239447786004,111.366854971382
"38",91.1486718772072,-6.27654237266997,110.419802983654,-12.9945887337765,1,"subseries 2",FALSE,38,13.9484064079568,110.419802983654
"39",98.2935845703112,-5.9339162469249,109.726011312026,-5.49851049478944,1,"subseries 3",FALSE,39,10.3111771380848,109.726011312026
"40",106.700407542656,-3.04158694615786,108.88518963315,0.856804855663995,1,"subseries 4",FALSE,40,6.5127915879127,108.88518963315
"41",110.522483786726,-1.33322108440952,108.221198440895,3.63450643024032,1,"subseries 5",FALSE,41,7.80071611671315,108.221198440895
"42",115.527400766807,4.83170067617106,108.185227591972,2.51047249866362,1,"subseries 6",FALSE,42,5.64712069738753,108.185227591972
"43",122.531661676876,2.8199864456336,107.831203878779,11.8804713524632,1,"subseries 7",FALSE,43,7.60965475923222,107.831203878779
"44",119.519680578518,6.54938990628916,107.436670194217,5.53362047801157,1,"subseries 8",FALSE,44,5.66707212131666,107.436670194217
"45",113.028272764447,4.90456692788875,106.531597240604,1.592108595954,1,"subseries 9",FALSE,45,11.1609962153247,106.531597240604
"46",106.305081159427,9.74856364859774,105.488988108825,-8.93247059799523,1,"subseries 10",FALSE,46,5.91599075112233,105.488988108825
"47",102.975532983745,-3.50299503324934,104.572363451019,1.906164565975,1,"subseries 11",FALSE,47,6.94689416989734,104.572363451019
"48",89.9144450479174,-4.30062623844735,104.110695867873,-9.89562458150849,1,"subseries 12",FALSE,48,5.19497319229215,104.110695867873
"49",93.8305267823561,-4.46531968272136,104.305679901057,-6.00983343597936,1,"subseries 1",FALSE,49,9.63034932914672,104.305679901057
"50",99.715003447286,-6.27654237266997,104.744370731384,1.24717508857236,1,"subseries 2",FALSE,50,9.49283119754012,104.744370731384
"51",89.4410294657491,-5.9339162469249,105.437583242124,-10.06263752945,1,"subseries 3",FALSE,51,17.8202799264023,105.437583242124
"52",105.094982579058,-3.04158694615786,106.074893130356,2.06167639486033,1,"subseries 4",FALSE,52,7.32387943002874,106.074893130356
"53",106.948255049334,-1.33322108440952,106.80312952319,1.47834661055384,1,"subseries 5",FALSE,53,15.6917208324696,106.80312952319
"54",113.309740778173,4.83170067617106,107.651032081177,0.827008020825133,1,"subseries 6",FALSE,54,7.0761131085608,107.651032081177
"55",118.779458531215,2.8199864456336,108.558601902645,7.40087018293671,1,"subseries 7",FALSE,55,5.62826865370088,108.558601902645
"56",115.078367510526,6.54938990628916,109.57359941676,-1.04462181252326,1,"subseries 8",FALSE,56,5.56525848737801,109.57359941676
