"","raw","seasonal","trend","remainder","weights","sub.labels","interpolated","age","sigma","power"
"1",21.0184895754244,1.27930183826141,19.7062655032893,0.0329222338737054,1,"subseries 1",FALSE,1,1.07992375184771,19.7062655032893
"2",21.2401023613091,1.97463884069934,19.5468418712686,-0.281378350658887,1,"subseries 2",FALSE,2,0.315813491165722,19.5468418712686
"3",NA,2.16263731166553,19.3929725356031,NA,1,"subseries 3",TRUE,3,NA,NA
"4",NA,2.76338564965833,19.2471074288497,NA,1,"subseries 4",TRUE,4,NA,NA
"5",NA,1.02416153151765,19.1092937893233,NA,1,"subseries 5",TRUE,5,NA,NA
"6",20.1901132945253,-0.337099649264001,18.9883100607365,1.53890288305282,1,"subseries 6",FALSE,6,1.02127597501752,18.9883100607365
"7",20.2331728015938,-0.341925861324217,18.879427408209,1.69567125470904,1,"subseries 7",FALSE,7,1.12295425251324,18.879427408209
"8",18.6962307744421,-1.20356024914836,18.7777992190766,1.12199180451383,1,"subseries 8",FALSE,8,1.13945619736512,18.7777992190766
"9",14.8514439485313,-2.27204245189277,18.7013389158388,-1.5778525154147,1,"subseries 9",FALSE,9,2.72792344981176,18.7013389158388
"10",12.1351532939666,-2.74667709769568,18.641792947475,-3.75996255581268,1,"subseries 10",FALSE,10,0.703094557045729,18.641792947475
"11",11.0292290051609,-2.33061247171742,18.6573450406987,-5.29750356382043,1,"subseries 11",FALSE,11,2.92631983219062,18.6573450406987
"12",21.2065448484671,0.0277926092401882,18.6788762114047,2.49987602782224,1,"subseries 12",FALSE,12,1.10385246234401,18.6788762114047
"13",21.2434379520795,1.27930183826141,18.7852421032218,1.17889401059625,1,"subseries 1",FALSE,13,1.07090796296517,18.7852421032218
"14",21.395855724659,1.97463884069934,18.9635748448707,0.457642039088981,1,"subseries 2",FALSE,14,1.08294097858823,18.9635748448707
"15",20.3927506486952,2.16263731166553,19.1435988113065,-0.913485474276825,1,"subseries 3",FALSE,15,0.873847321166748,19.1435988113065
"16",22.6986812309379,2.76338564965833,19.2160671458298,0.719228435449747,1,"subseries 4",FALSE,16,1.88866646318191,19.2160671458298
"17",22.2995153240002,1.02416153151765,18.9748623927156,2.30049139976697,1,"subseries 5",FALSE,17,1.09310675231718,18.9748623927156
"18",21.3822939895997,-0.337099649264001,18.6173709190422,3.10202271982148,1,"subseries 6",FALSE,18,1.05868784385455,18.6173709190422
"19",19.6168555426716,-0.341925861324217,18.0912459013593,1.86753550263652,1,"subseries 7",FALSE,19,1.20967253692741,18.0912459013593
"20",17.7412984934741,-1.20356024914836,17.7053859663635,1.239472776259,1,"subseries 8",FALSE,20,1.05940806780198,17.7053859663635
"21",11.3405646835307,-2.27204245189277,17.3842453130054,-3.77163817758194,1,"subseries 9",FALSE,21,1.8504049838479,17.3842453130054
"22",10.8843288707114,-2.74667709769568,16.9956871010811,-3.36468113267404,1,"subseries 10",FALSE,22,0.736630228045968,16.9956871010811
"23",12.0388972570986,-2.33061247171742,16.8039131509297,-2.43440342211368,1,"subseries 11",FALSE,23,1.59553720516931,16.8039131509297
"24",14.6019086912542,0.0277926092401882,16.406083436847,-1.83196735483297,1,"subseries 12",FALSE,24,1.84368563307281,16.406083436847
"25",19.3900674024476,1.27930183826141,16.0696287879337,2.04113677625253,1,"subseries 1",FALSE,25,2.3772186491103,16.0696287879337
"26",20.1631333520047,1.97463884069934,15.9091616550267,2.27933285627869,1,"subseries 2",FALSE,26,0.839147125035513,15.9091616550267
"27",20.9627677661223,2.16263731166553,15.6671301517978,3.13300030265898,1,"subseries 3",FALSE,27,0.919520664487189,15.6671301517978
"28",20.7700778478007,2.76338564965833,15.8100702072864,2.19662199085592,1,"subseries 4",FALSE,28,1.60511295165837,15.8100702072864
"29",16.5959727679071,1.02416153151765,16.0038737726549,-0.432062536265462,1,"subseries 5",FALSE,29,1.94132354136111,16.0038737726549
"30",10.2064451899821,-0.337099649264001,16.1404272287199,-5.5968823894738,1,"subseries 6",FALSE,30,0.517833411843666,16.1404272287199
"31",10.9394323985079,-0.341925861324217,16.46864556892,-5.18728730908784,1,"subseries 7",FALSE,31,1.42694145850615,16.46864556892
"32",11.4584363922584,-1.20356024914836,16.5908730529823,-3.92887641157555,1,"subseries 8",FALSE,32,2.20302645896984,16.5908730529823
"33",19.8016166603334,-2.27204245189277,16.8872949382232,5.18636417400301,1,"subseries 9",FALSE,33,1.39656168899745,16.8872949382232
"34",15.819750468888,-2.74667709769568,17.3708002992048,1.19562726737893,1,"subseries 10",FALSE,34,1.89010992045541,17.3708002992048
"35",18.941488574133,-2.33061247171742,17.8520701488652,3.42003089698519,1,"subseries 11",FALSE,35,1.4377498692517,17.8520701488652
"36",18.9969399303315,0.0277926092401882,18.5111475440036,0.457999777087693,1,"subseries 12",FALSE,36,0.91208493445104,18.5111475440036
"37",19.6295694565435,1.27930183826141,18.9547469901345,-0.60447937185242,1,"subseries 1",FALSE,37,0.789680792924163,18.9547469901345
"38",20.2693047469235,1.97463884069934,19.2000718136771,-0.90540590745292,1,"subseries 2",FALSE,38,0.901554012412183,19.2000718136771
"39",21.1694700728729,2.16263731166553,19.3562522437331,-0.349419482525732,1,"subseries 3",FALSE,39,1.41178953932069,19.3562522437331
"40",22.8861392845561,2.76338564965833,19.4198119830918,0.702941651806011,1,"subseries 4",FALSE,40,1.18278432185836,19.4198119830918
"41",21.691649648468,1.02416153151765,19.5593924536622,1.10809566328818,1,"subseries 5",FALSE,41,1.17107459477995,19.5593924536622
"42",17.1651642919892,-0.337099649264001,19.7093628879413,-2.20709894668807,1,"subseries 6",FALSE,42,1.07937204661849,19.7093628879413
"43",19.442415228374,-0.341925861324217,19.8499410021111,-0.0655999124128854,1,"subseries 7",FALSE,43,1.89495240229912,19.8499410021111
"44",19.3171377027745,-1.20356024914836,19.9269716752616,0.59372627666129,1,"subseries 8",FALSE,44,1.13639778034808,19.9269716752616
"45",17.8102822227322,-2.27204245189277,19.9264834409568,0.155841233668141,1,"subseries 9",FALSE,45,1.33331756509554,19.9264834409568
"46",19.3866011097574,-2.74667709769568,19.9059354930319,2.22734271442122,1,"subseries 10",FALSE,46,1.22201612859544,19.9059354930319
"47",18.7313747487071,-2.33061247171742,19.8207636926156,1.24122352780896,1,"subseries 11",FALSE,47,1.27574122659964,19.8207636926156
"48",18.6096263587856,0.0277926092401882,19.7456114824798,-1.16377773293441,1,"subseries 12",FALSE,48,1.07260332348911,19.7456114824798
"49",20.5039416954592,1.27930183826141,19.6121393023767,-0.387499445178896,1,"subseries 1",FALSE,49,1.57462844980787,19.6121393023767
"50",21.0707302190188,1.97463884069934,19.3969045691568,-0.300813190837324,1,"subseries 2",FALSE,50,1.36568419085245,19.3969045691568
"51",21.2485737502402,2.16263731166553,19.194493960515,-0.108557521940284,1,"subseries 3",FALSE,51,1.10127671576883,19.194493960515
"52",21.6311268844269,2.76338564965833,19.0555151022253,-0.187773867456738,1,"subseries 4",FALSE,52,1.30922910575489,19.0555151022253
"53",19.8894670182261,1.02416153151765,19.0287376399183,-0.16343215320984,1,"subseries 5",FALSE,53,0.823434630554986,19.0287376399183
"54",18.6834684668143,-0.337099649264001,19.1004317084927,-0.0798635924143944,1,"subseries 6",FALSE,54,0.805287437032385,19.1004317084927
"55",17.5463001298291,-0.341925861324217,19.2523519117248,-1.36412592057145,1,"subseries 7",FALSE,55,0.717089114140774,19.2523519117248
"56",17.2329870813121,-1.20356024914836,19.3760047283953,-0.939457397934831,1,"subseries 8",FALSE,56,0.946746302361367,19.3760047283953
"57",16.1554999958388,-2.27204245189277,19.5204006042509,-1.09285815651928,1,"subseries 9",FALSE,57,2.44302314647576,19.5204006042509
"58",19.1245206027737,-2.74667709769568,19.6636359036602,2.20756179680915,1,"subseries 10",FALSE,58,1.28549014492424,19.6636359036602
"59",19.3679023793328,-2.33061247171742,19.7748460475629,1.92366880348733,1,"subseries 11",FALSE,59,1.35765974625699,19.7748460475629
"60",19.8257156296605,0.0277926092401882,19.933080820586,-0.135157800165732,1,"subseries 12",FALSE,60,0.973409367945713,19.933080820586
"61",20.190134013681,1.27930183826141,20.0303488163863,-1.11951664096671,1,"subseries 1",FALSE,61,0.97922921598617,20.0303488163863
"62",22.9655522709163,1.97463884069934,20.1267523784262,0.864161051790724,1,"subseries 2",FALSE,62,1.71032090909555,20.1267523784262
"63",22.2102792531348,2.16263731166553,20.2151882816059,-0.167546340136674,1,"subseries 3",FALSE,63,1.17261089117189,20.2151882816059
"64",22.0867744299881,2.76338564965833,20.2633668455261,-0.939978065196364,1,"subseries 4",FALSE,64,1.10392103972912,20.2633668455261
"65",20.6485567504053,1.02416153151765,20.383129781359,-0.758734562471389,1,"subseries 5",FALSE,65,0.929738402790003,20.383129781359
"66",20.0418830902441,-0.337099649264001,20.4785508453266,-0.099568105818495,1,"subseries 6",FALSE,66,0.867268954645525,20.4785508453266
"67",20.306504012186,-0.341925861324217,20.564808567647,0.0836213058632538,1,"subseries 7",FALSE,67,1.22752788154747,20.564808567647
"68",19.8940444292522,-1.20356024914836,20.5752544472219,0.522350231178613,1,"subseries 8",FALSE,68,1.16934499472026,20.5752544472219
"69",19.3152212538537,-2.27204245189277,20.4813495958852,1.10591410986124,1,"subseries 9",FALSE,69,1.28660180957263,20.4813495958852
"70",19.4206386050016,-2.74667709769568,20.369091900931,1.79822380176629,1,"subseries 10",FALSE,70,1.67195782800728,20.369091900931
"71",18.692409099107,-2.33061247171742,20.1236566025345,0.899364968289937,1,"subseries 11",FALSE,71,1.00637510059076,20.1236566025345
"72",20.1327458141263,0.0277926092401882,19.8827898222961,0.222163382590015,1,"subseries 12",FALSE,72,1.14554738293741,19.8827898222961
"73",20.1454872608785,1.27930183826141,19.6148552520478,-0.748669829430664,1,"subseries 1",FALSE,73,1.18386737968798,19.6148552520478
"74",20.1958171190836,1.97463884069934,19.345231079575,-1.12405280119071,1,"subseries 2",FALSE,74,1.08040300137603,19.345231079575
"75",20.7632834567274,2.16263731166553,19.1770804976183,-0.576434352556426,1,"subseries 3",FALSE,75,1.1661340668747,19.1770804976183
"76",20.3895214541616,2.76338564965833,18.9587714108698,-1.33263560636649,1,"subseries 4",FALSE,76,2.29489621681987,18.9587714108698
"77",18.4014378551889,1.02416153151765,18.8297831547471,-1.45250683107582,1,"subseries 5",FALSE,77,1.22204488508501,18.8297831547471
"78",19.0378327798236,-0.337099649264001,18.7363685459329,0.63856388315466,1,"subseries 6",FALSE,78,1.50879035148594,18.7363685459329
"79",20.2919346569619,-0.341925861324217,18.6419375219409,1.99192299634523,1,"subseries 7",FALSE,79,1.02144392263779,18.6419375219409
"80",18.6576900560537,-1.20356024914836,18.6026870316555,1.2585632735466,1,"subseries 8",FALSE,80,1.43396029421454,18.6026870316555
"81",16.0608930865673,-2.27204245189277,18.4908149820154,-0.157879443555281,1,"subseries 9",FALSE,81,1.22496520061883,18.4908149820154
"82",15.1533728212919,-2.74667709769568,18.3728021598436,-0.47275224085605,1,"subseries 10",FALSE,82,1.19852972869147,18.3728021598436
"83",15.9477906750826,-2.33061247171742,18.1993086422011,0.0790945045989062,1,"subseries 11",FALSE,83,1.84162978706759,18.1993086422011
"84",17.9531584212989,0.0277926092401882,18.1296378663581,-0.204272054299423,1,"subseries 12",FALSE,84,1.78656968426522,18.1296378663581
"85",18.8284808552405,1.27930183826141,18.1549552814427,-0.605776264463646,1,"subseries 1",FALSE,85,0.896108142408839,18.1549552814427
"86",18.9427760570705,1.97463884069934,18.1555319097328,-1.18739469336167,1,"subseries 2",FALSE,86,0.98657967402851,18.1555319097328
"87",19.2162924430755,2.16263731166553,18.1884820760668,-1.13482694465682,1,"subseries 3",FALSE,87,1.23700863535643,18.1884820760668
"88",19.7052267676976,2.76338564965833,18.2104186256212,-1.26857750758196,1,"subseries 4",FALSE,88,1.11555472018279,18.2104186256212
"89",18.5638158575905,1.02416153151765,18.246564391752,-0.70691006567915,1,"subseries 5",FALSE,89,1.83413473596428,18.246564391752
"90",20.5335016794216,-0.337099649264001,18.3040020575509,2.56659927113467,1,"subseries 6",FALSE,90,1.08146266814858,18.3040020575509
"91",18.8834371964823,-0.341925861324217,18.3723911387182,0.85297191908835,1,"subseries 7",FALSE,91,1.07754061303656,18.3723911387182
