"","raw","seasonal","trend","remainder","weights","sub.labels","interpolated","age","sigma","power"
"1",NA,2.59724695830552,68.0041521326032,NA,1,"subseries 1",TRUE,1,NA,NA
"2",NA,6.78160121493518,68.1574544909736,NA,1,"subseries 2",TRUE,2,NA,NA
"3",NA,6.10999361329273,68.3186331097615,NA,1,"subseries 3",TRUE,3,NA,NA
"4",NA,2.56566696555497,68.5002865786698,NA,1,"subseries 4",TRUE,4,NA,NA
"5",68.6664147167454,0.0702898217516832,68.6904903409277,-0.0943654459339598,1,"subseries 5",FALSE,5,10.3446721257751,68.6904903409277
"6",68.362956027128,-2.71513247376606,68.9109820634701,2.16710643742397,1,"subseries 6",FALSE,6,2.6039008921263,68.9109820634701
"7",67.4696101345705,-4.12978206873247,69.1394828039505,2.45990939935243,1,"subseries 7",FALSE,7,5.03529522158943,69.1394828039505
"8",63.2895708787853,-4.9915012973318,69.3921224414726,-1.11105026535546,1,"subseries 8",FALSE,8,7.87428463355321,69.3921224414726
"9",64.0885538826493,-3.62683567316153,69.6519985997059,-1.93660904389505,1,"subseries 9",FALSE,9,8.88788422518432,69.6519985997059
"10",63.0485755720685,-0.500226609632151,69.8826952587503,-6.33389307704961,1,"subseries 10",FALSE,10,9.39014971075643,69.8826952587503
"11",68.7828916778677,-2.8948012115083,70.1315127257246,1.54618016365137,1,"subseries 11",FALSE,11,3.58478560855996,70.1315127257246
"12",72.0296839547452,0.733480760292231,70.310531618309,0.985671576144,1,"subseries 12",FALSE,12,3.51563545728545,70.310531618309
"13",74.1839261303732,2.59724695830552,70.5713597654326,1.01531940663503,1,"subseries 1",FALSE,13,4.43661245102121,70.5713597654326
"14",80.187902034329,6.78160121493518,70.9578264330056,2.44847438638821,1,"subseries 2",FALSE,14,3.86744885993644,70.9578264330056
"15",77.0569256376886,6.10999361329273,71.2154884003872,-0.268556375991338,1,"subseries 3",FALSE,15,4.63323070377788,71.2154884003872
"16",74.0910938066773,2.56566696555497,71.3938951828009,0.131531658321407,1,"subseries 4",FALSE,16,4.78687843415511,71.3938951828009
"17",73.3104285041921,0.0702898217516832,71.3821588837324,1.857979798708,1,"subseries 5",FALSE,17,7.855438312856,71.3821588837324
"18",67.6957805923172,-2.71513247376606,71.2875087810635,-0.876595714980226,1,"subseries 6",FALSE,18,3.49601465449753,71.2875087810635
"19",66.9655931415087,-4.12978206873247,71.2012709388723,-0.105895728631126,1,"subseries 7",FALSE,19,4.65509330230981,71.2012709388723
"20",67.1363933031194,-4.9915012973318,71.1606032182563,0.967291382194887,1,"subseries 8",FALSE,20,3.55448906591893,71.1606032182563
"21",66.1856039195527,-3.62683567316153,71.2172631208342,-1.40482352812,1,"subseries 9",FALSE,21,3.48344100079658,71.2172631208342
"22",66.6266522206689,-0.500226609632151,71.2171170556455,-4.09023822534442,1,"subseries 10",FALSE,22,2.70767309422706,71.2171170556455
"23",70.1484302892858,-2.8948012115083,71.262145849292,1.78108565150208,1,"subseries 11",FALSE,23,3.53078887269427,71.262145849292
"24",71.9045529685865,0.733480760292231,71.2839066938317,-0.112834485537434,1,"subseries 12",FALSE,24,4.85368592879399,71.2839066938317
"25",75.7496329936535,2.59724695830552,71.2776700471476,1.87471598820038,1,"subseries 1",FALSE,25,4.32278016944336,71.2776700471476
"26",80.2187841841783,6.78160121493518,71.2241445032811,2.21303846596207,1,"subseries 2",FALSE,26,4.03704598902547,71.2241445032811
"27",76.7474031384291,6.10999361329273,70.9892369918466,-0.351827466710219,1,"subseries 3",FALSE,27,4.40002770467672,70.9892369918466
"28",73.9906036956068,2.56566696555497,70.649418555371,0.77551817468084,1,"subseries 4",FALSE,28,4.1195084154741,70.649418555371
"29",70.6204962857215,0.0702898217516832,70.11016376123,0.440042702739831,1,"subseries 5",FALSE,29,3.68754252077221,70.11016376123
"30",68.244762801305,-2.71513247376606,69.6024077979996,1.35748747707144,1,"subseries 6",FALSE,30,4.09224614528144,69.6024077979996
"31",66.5906087964764,-4.12978206873247,69.1542242703925,1.56616659481639,1,"subseries 7",FALSE,31,3.62924948157581,69.1542242703925
"32",61.476877140833,-4.9915012973318,68.7327548566537,-2.26437641848895,1,"subseries 8",FALSE,32,11.7691505989567,68.7327548566537
"33",59.6152856684042,-3.62683567316153,68.4531692470102,-5.21104790544445,1,"subseries 9",FALSE,33,5.07114047983846,68.4531692470102
"34",65.4435198968314,-0.500226609632151,68.1404626310931,-2.19671612462953,1,"subseries 10",FALSE,34,4.01163074861132,68.1404626310931
"35",67.5335204641798,-2.8948012115083,67.9629301505115,2.46539152517657,1,"subseries 11",FALSE,35,3.52969754493061,67.9629301505115
"36",70.1158498679097,0.733480760292231,67.9105333221388,1.4718357854787,1,"subseries 12",FALSE,36,4.11687745228982,67.9105333221388
"37",70.6712307829648,2.59724695830552,67.956798815843,0.11718500881625,1,"subseries 1",FALSE,37,3.89259233910822,67.956798815843
"38",75.4849282988223,6.78160121493518,68.1625735079879,0.540753575899259,1,"subseries 2",FALSE,38,4.16302982830866,68.1625735079879
"39",72.2706238501757,6.10999361329273,68.3117987252824,-2.15116848839945,1,"subseries 3",FALSE,39,3.74025689139234,68.3117987252824
"40",71.3349464748364,2.56566696555497,68.2837246075662,0.485554901715275,1,"subseries 4",FALSE,40,3.72618700068488,68.2837246075662
"41",69.3046823391842,0.0702898217516832,68.1387945894492,1.09559792798328,1,"subseries 5",FALSE,41,6.38385512067816,68.1387945894492
"42",65.7062223002501,-2.71513247376606,67.744920500521,0.676434273495204,1,"subseries 6",FALSE,42,3.19065191443352,67.744920500521
"43",64.6870936926328,-4.12978206873247,67.1351222225812,1.68175353878411,1,"subseries 7",FALSE,43,3.8896784348769,67.1351222225812
"44",63.9731494054462,-4.9915012973318,66.3969159549899,2.56773474778808,1,"subseries 8",FALSE,44,3.44260155392909,66.3969159549899
"45",63.8897777087261,-3.62683567316153,65.3666111500636,2.15000223182405,1,"subseries 9",FALSE,45,3.46363262923621,65.3666111500636
"46",63.2181427288816,-0.500226609632151,64.3529706278049,-0.634601289291112,1,"subseries 10",FALSE,46,2.89330438444686,64.3529706278049
"47",64.6591448156795,-2.8948012115083,63.2662177332638,4.28772829392396,1,"subseries 11",FALSE,47,6.17226649382711,63.2662177332638
"48",58.7683983635983,0.733480760292231,62.1955822685934,-4.16066466528736,1,"subseries 12",FALSE,48,7.624622873338,62.1955822685934
"49",59.8253286694069,2.59724695830552,61.2927578727473,-4.06467616164589,1,"subseries 1",FALSE,49,7.59994667841036,61.2927578727473
"50",64.0886662933684,6.78160121493518,60.4140363028012,-3.10697122436795,1,"subseries 2",FALSE,50,7.63817706423056,60.4140363028012
"51",66.2932271618633,6.10999361329273,59.8368056922476,0.346427856322983,1,"subseries 3",FALSE,51,7.20799735404401,59.8368056922476
"52",61.5303425949706,2.56566696555497,59.4581329076906,-0.493457278274967,1,"subseries 4",FALSE,52,8.2186425345577,59.4581329076906
"53",58.9806763785783,0.0702898217516832,59.3343444897797,-0.423957932953115,1,"subseries 5",FALSE,53,8.15985309848707,59.3343444897797
"54",56.6333635305159,-2.71513247376606,59.5536938893617,-0.205197885079748,1,"subseries 6",FALSE,54,8.48149357318926,59.5536938893617
"55",54.9688024446935,-4.12978206873247,59.9187613867714,-0.82017687334546,1,"subseries 7",FALSE,55,7.98178465632117,59.9187613867714
"56",54.5176345886613,-4.9915012973318,60.4618203508534,-0.952684464860248,1,"subseries 8",FALSE,56,7.64253641643615,60.4618203508534
"57",57.966873696514,-3.62683567316153,61.1564364171998,0.43727295247573,1,"subseries 9",FALSE,57,7.57672527400455,61.1564364171998
"58",59.1277007013505,-0.500226609632151,61.9241981189885,-2.29627080800585,1,"subseries 10",FALSE,58,7.09699428661907,61.9241981189885
"59",57.1333713850686,-2.8948012115083,62.8424808534479,-2.81430825687102,1,"subseries 11",FALSE,59,7.65520713903652,62.8424808534479
"60",66.1573384345715,0.733480760292231,63.7630512215393,1.66080645273994,1,"subseries 12",FALSE,60,4.24709049052941,63.7630512215393
"61",68.4693092380988,2.59724695830552,64.7070290692765,1.16503321051678,1,"subseries 1",FALSE,61,3.46941968071234,64.7070290692765
"62",70.9843603303359,6.78160121493518,65.8544082359352,-1.65164912053449,1,"subseries 2",FALSE,62,4.16230380932702,65.8544082359352
"63",76.1212321291226,6.10999361329273,67.0903723896573,2.92086612617257,1,"subseries 3",FALSE,63,3.96582091556209,67.0903723896573
"64",70.96738104438,2.56566696555497,68.9334265824018,-0.531712503576784,1,"subseries 4",FALSE,64,4.84094435095988,68.9334265824018
"65",67.6944969441606,0.0702898217516832,71.0336009193922,-3.40939379698328,1,"subseries 5",FALSE,65,4.29539944251797,71.0336009193922
"66",66.0023850253849,-2.71513247376606,72.8388651204397,-4.12134762128875,1,"subseries 6",FALSE,66,3.32655805614119,72.8388651204397
"67",64.361381354845,-4.12978206873247,74.6728280593487,-6.18166463577123,1,"subseries 7",FALSE,67,3.79289413178471,74.6728280593487
"68",70.6513383742933,-4.9915012973318,76.4969374980154,-0.854097826390301,1,"subseries 8",FALSE,68,6.48997110390717,76.4969374980154
"69",79.0616482860235,-3.62683567316153,78.3366218119538,4.35186214723127,1,"subseries 9",FALSE,69,4.29425719895105,78.3366218119538
"70",93.710215122576,-0.500226609632151,80.2600545674789,13.9503871647292,1,"subseries 10",FALSE,70,12.1196903625522,80.2600545674789
"71",70.6181168472837,-2.8948012115083,82.2029568528844,-8.69003879409235,1,"subseries 11",FALSE,71,15.3231040441482,82.2029568528844
