"","raw","seasonal","trend","remainder","weights","sub.labels","interpolated","age","sigma","power"
"1",133.493733023512,6.37228299517423,122.609995521589,4.51145450674908,1,"subseries 1",FALSE,1,5.3239491510124,122.609995521589
"2",134.08383066852,10.1888506766537,122.956720559887,0.938259431979517,1,"subseries 2",FALSE,2,6.29531682329892,122.956720559887
"3",131.029609348524,7.54037711491452,123.318054044928,0.171178188681296,1,"subseries 3",FALSE,3,4.15461910788088,123.318054044928
"4",120.058994048256,3.28840466836627,123.692097009106,-6.92150762921582,1,"subseries 4",FALSE,4,6.18683925005011,123.692097009106
"5",121.199591138763,-2.48271519556737,124.087223414193,-0.40491707986223,1,"subseries 5",FALSE,5,4.52819149191005,124.087223414193
"6",121.655210263444,-2.20391724308528,124.443577543496,-0.584450036966572,1,"subseries 6",FALSE,6,5.83265902691135,124.443577543496
"7",120.029543497454,-4.89227189865472,124.854830374343,0.066985021766186,1,"subseries 7",FALSE,7,6.78568824031956,124.854830374343
"8",120.767725942686,-4.57663260104976,125.314716821792,0.0296417219437046,1,"subseries 8",FALSE,8,5.16409112824897,125.314716821792
"9",121.369984878956,-4.30856371580898,125.881304531998,-0.202755937233334,1,"subseries 9",FALSE,9,6.71128261096328,125.881304531998
"10",121.991060700224,-5.29520471070565,126.562011242549,0.724254168381037,1,"subseries 10",FALSE,10,5.60814837508062,126.562011242549
"11",124.267484508804,-3.64607254177123,127.089466755813,0.824090294761746,1,"subseries 11",FALSE,11,5.28131773054682,127.089466755813
"12",128.695710343434,0.015462451534252,127.405434302449,1.27481358945039,1,"subseries 12",FALSE,12,6.2791264297186,127.405434302449
"13",134.49132530931,6.37228299517423,127.525476415297,0.593565898839174,1,"subseries 1",FALSE,13,5.54284902504303,127.525476415297
"14",138.665186269816,10.1888506766537,127.657774022804,0.818561570357787,1,"subseries 2",FALSE,14,3.95531003989115,127.657774022804
"15",138.297636533919,7.54037711491452,127.70360831817,3.05365110083432,1,"subseries 3",FALSE,15,16.8446657176571,127.70360831817
"16",130.158971245193,3.28840466836627,127.74099239966,-0.870425822833596,1,"subseries 4",FALSE,16,4.65509605161356,127.74099239966
"17",122.961259631346,-2.48271519556737,127.808744427227,-2.3647696003132,1,"subseries 5",FALSE,17,6.13755324339482,127.808744427227
"18",122.076184962613,-2.20391724308528,127.778799381951,-3.49869717625315,1,"subseries 6",FALSE,18,6.22919254703637,127.778799381951
"19",123.397006462662,-4.89227189865472,127.819721804933,0.46955655638375,1,"subseries 7",FALSE,19,5.61144151769791,127.819721804933
"20",125.250432075892,-4.57663260104976,127.831272228791,1.99579244815116,1,"subseries 8",FALSE,20,5.6229780806076,127.831272228791
"21",123.390280153897,-4.30856371580898,127.880261458064,-0.181417588357888,1,"subseries 9",FALSE,21,4.9797364215943,127.880261458064
"22",123.8686666985,-5.29520471070565,128.016240764968,1.14763064423727,1,"subseries 10",FALSE,22,5.12462261062017,128.016240764968
"23",124.71697569047,-3.64607254177123,128.074016068404,0.289032163837504,1,"subseries 11",FALSE,23,4.40322694145392,128.074016068404
"24",129.139015412521,0.015462451534252,128.111368375158,1.01218458582881,1,"subseries 12",FALSE,24,5.95905903776133,128.111368375158
"25",132.858669264953,6.37228299517423,128.055324460476,-1.56893819069745,1,"subseries 1",FALSE,25,8.48417291309058,128.055324460476
"26",140.504995992214,10.1888506766537,127.936074610512,2.38007070504872,1,"subseries 2",FALSE,26,5.07166409003701,127.936074610512
"27",132.771636357272,7.54037711491452,127.837700663571,-2.60644142121325,1,"subseries 3",FALSE,27,12.6539344226915,127.837700663571
"28",131.366067745793,3.28840466836627,127.759985028952,0.31767804847459,1,"subseries 4",FALSE,28,5.36965036866378,127.759985028952
"29",126.162914003699,-2.48271519556737,127.739838030559,0.905791168707779,1,"subseries 5",FALSE,29,10.8230636321718,127.739838030559
"30",123.046754531783,-2.20391724308528,127.743619690258,-2.49294791538998,1,"subseries 6",FALSE,30,6.30433764574713,127.743619690258
"31",123.526778551788,-4.89227189865472,127.798605375638,0.620445074804366,1,"subseries 7",FALSE,31,7.26152936382395,127.798605375638
"32",123.701756970856,-4.57663260104976,127.848800268116,0.429589303789669,1,"subseries 8",FALSE,32,5.90901440858352,127.848800268116
"33",123.276783234131,-4.30856371580898,127.893122044879,-0.307775094938833,1,"subseries 9",FALSE,33,6.60999749922289,127.893122044879
"34",123.317766113721,-5.29520471070565,127.918289722465,0.694681101961621,1,"subseries 10",FALSE,34,7.15205531713261,127.918289722465
"35",124.493083531901,-3.64607254177123,127.879357926137,0.25979814753542,1,"subseries 11",FALSE,35,14.1233235804716,127.879357926137
"36",129.14931418103,0.015462451534252,127.885758929773,1.24809279972308,1,"subseries 12",FALSE,36,4.00358448393881,127.885758929773
"37",133.83225728963,6.37228299517423,127.872859335172,-0.412885040716688,1,"subseries 1",FALSE,37,3.53210604868616,127.872859335172
"38",138.015768459987,10.1888506766537,127.839271861505,-0.0123540781721942,1,"subseries 2",FALSE,38,3.04432714212839,127.839271861505
"39",134.666321472785,7.54037711491452,127.821612920933,-0.695668563062299,1,"subseries 3",FALSE,39,4.57754137732938,127.821612920933
"40",130.476008029311,3.28840466836627,127.711924077262,-0.524320716317746,1,"subseries 4",FALSE,40,3.72711191224957,127.711924077262
"41",122.610737092228,-2.48271519556737,127.588840351584,-2.49538806378817,1,"subseries 5",FALSE,41,12.4311208069877,127.588840351584
"42",128.728206742322,-2.20391724308528,127.466929816023,3.46519416938403,1,"subseries 6",FALSE,42,18.3682792406393,127.466929816023
"43",124.070923533056,-4.89227189865472,127.330372800667,1.63282263104409,1,"subseries 7",FALSE,43,15.9815554466011,127.330372800667
"44",121.994660653192,-4.57663260104976,127.274799559356,-0.703506305114146,1,"subseries 8",FALSE,44,7.06752904168251,127.274799559356
"45",122.657845897689,-4.30856371580898,127.206638761394,-0.240229147896201,1,"subseries 9",FALSE,45,6.32919834167237,127.206638761394
"46",120.406915254311,-5.29520471070565,127.24763555236,-1.54551558734356,1,"subseries 10",FALSE,46,7.53759850569445,127.24763555236
"47",123.506778287113,-3.64607254177123,127.404274998887,-0.251424170002622,1,"subseries 11",FALSE,47,6.05610508710606,127.404274998887
"48",126.37091486638,0.015462451534252,127.610197613267,-1.25474519842162,1,"subseries 12",FALSE,48,7.47011204376051,127.610197613267
"49",133.492498289931,6.37228299517423,128.024179718191,-0.903964423434445,1,"subseries 1",FALSE,49,3.46744966976297,128.024179718191
"50",135.865134053219,10.1888506766537,128.333502335071,-2.65721895850535,1,"subseries 2",FALSE,50,3.38574741257171,128.333502335071
"51",135.98754138196,7.54037711491452,128.60225008043,-0.155085813384346,1,"subseries 3",FALSE,51,3.51654634101406,128.60225008043
"52",135.958883508174,3.28840466836627,128.773258031953,3.89722080785481,1,"subseries 4",FALSE,52,9.27601063734583,128.773258031953
"53",127.217479038975,-2.48271519556737,128.714601040688,0.985593193854243,1,"subseries 5",FALSE,53,4.43329286664804,128.714601040688
"54",134.147780888985,-2.20391724308528,128.657408338394,7.69428979367584,1,"subseries 6",FALSE,54,33.8881871871404,128.657408338394
"55",121.77660284804,-4.89227189865472,128.339110791673,-1.67023604497817,1,"subseries 7",FALSE,55,7.24699033770123,128.339110791673
"56",121.837820503801,-4.57663260104976,127.963987367279,-1.54953426242818,1,"subseries 8",FALSE,56,6.63941331337569,127.963987367279
"57",122.543540797073,-4.30856371580898,127.498492412352,-0.646387899470469,1,"subseries 9",FALSE,57,7.00419831075466,127.498492412352
"58",120.507464968435,-5.29520471070565,127.009899697063,-1.20723001792261,1,"subseries 10",FALSE,58,6.76357550573485,127.009899697063
"59",121.935116474201,-3.64607254177123,126.782110037013,-1.20092102104033,1,"subseries 11",FALSE,59,12.7028483337159,126.782110037013
"60",124.308023987598,0.015462451534252,126.57188664616,-2.27932511009591,1,"subseries 12",FALSE,60,6.56373770464659,126.57188664616
"61",131.039434025969,6.37228299517423,126.583736845118,-1.91658581432281,1,"subseries 1",FALSE,61,3.15276556687339,126.583736845118
"62",135.7835750929,10.1888506766537,126.747968606181,-1.15324418993434,1,"subseries 2",FALSE,62,2.55229690972268,126.747968606181
"63",134.936179774796,7.54037711491452,126.903753748075,0.492048911806421,1,"subseries 3",FALSE,63,3.33150888496311,126.903753748075
"64",134.750387976049,3.28840466836627,127.143332180984,4.31865112669863,1,"subseries 4",FALSE,64,13.4964436840312,127.143332180984
"65",128.397959629224,-2.48271519556737,127.393701324891,3.4869734999005,1,"subseries 5",FALSE,65,15.3945345626023,127.393701324891
"66",120.843195130022,-2.20391724308528,127.657023454777,-4.60991108166957,1,"subseries 6",FALSE,66,20.6287962354718,127.657023454777
"67",121.748682719097,-4.89227189865472,127.924163377372,-1.28320875962011,1,"subseries 7",FALSE,67,8.20653726858572,127.924163377372
"68",123.11614763027,-4.57663260104976,128.176837477888,-0.484057246568142,1,"subseries 8",FALSE,68,6.4370544035944,128.176837477888
"69",125.39459659184,-4.30856371580898,128.429308014245,1.27385229340408,1,"subseries 9",FALSE,69,5.9679117385622,128.429308014245
