"","raw","seasonal","trend","remainder","weights","sub.labels","interpolated","age","sigma","power"
"1",167.90255022627,4.89478881165439,190.068801625838,-27.0610402112225,1,"subseries 1",FALSE,1,31.5542561335378,190.068801625838
"2",219.729146288389,21.2292224105618,191.03860847658,7.46131540124691,1,"subseries 2",FALSE,2,18.1869143764609,191.03860847658
"3",221.617299281784,20.7049943344792,191.953648274131,8.95865667317372,1,"subseries 3",FALSE,3,17.4120695900396,191.953648274131
"4",211.726478262062,9.57121858614959,192.844547999091,9.31071167682146,1,"subseries 4",FALSE,4,16.0440323191654,192.844547999091
"5",199.60403969987,1.33985189680053,193.653341741343,4.61084606172625,1,"subseries 5",FALSE,5,12.3118923476364,193.653341741343
"6",192.950370584313,-7.5686053865565,194.629456493985,5.889519476884,1,"subseries 6",FALSE,6,9.02769802117593,194.629456493985
"7",189.808424468473,-12.2809126137873,195.395406254346,6.69393082791385,1,"subseries 7",FALSE,7,10.923607195275,195.395406254346
"8",175.92709584781,-14.8450640962157,195.886761825382,-5.11460188135666,1,"subseries 8",FALSE,8,21.8275726890069,195.886761825382
"9",180.752880821824,-16.9418968690334,196.087476857692,1.6073008331652,1,"subseries 9",FALSE,9,24.7502036471327,196.087476857692
"10",187.303536070936,-4.24718513600953,195.848217466978,-4.29749626003215,1,"subseries 10",FALSE,10,20.0865727479382,195.848217466978
"11",170.681226317759,-6.33252449469789,196.01800964134,-19.0042588288833,1,"subseries 11",FALSE,11,14.364536485405,196.01800964134
"12",204.529080109117,4.47611255665472,196.161670298769,3.8912972536931,1,"subseries 12",FALSE,12,11.9984834889214,196.161670298769
"13",209.17537923407,4.89478881165439,196.606445147108,7.67414527530781,1,"subseries 1",FALSE,13,15.8856907144055,196.606445147108
"14",224.237053919191,21.2292224105618,197.452134458769,5.55569704986047,1,"subseries 2",FALSE,14,14.4135030784288,197.452134458769
"15",216.299121340095,20.7049943344792,198.282617987464,-2.68849098184771,1,"subseries 3",FALSE,15,12.0854419037549,198.282617987464
"16",206.741454397864,9.57121858614959,199.196772451673,-2.02653663995869,1,"subseries 4",FALSE,16,15.7338020829715,199.196772451673
"17",205.165410705763,1.33985189680053,199.758896191038,4.06666261792444,1,"subseries 5",FALSE,17,22.12070268753,199.758896191038
"18",190.758470596904,-7.5686053865565,200.100214856654,-1.77313887319391,1,"subseries 6",FALSE,18,10.7447042704533,200.100214856654
"19",188.246484685003,-12.2809126137873,200.436247342791,0.0911499559990148,1,"subseries 7",FALSE,19,12.5704531090444,200.436247342791
"20",189.022935875184,-14.8450640962157,200.815936913026,3.0520630583741,1,"subseries 8",FALSE,20,9.61069307896,200.815936913026
"21",183.409522428485,-16.9418968690334,201.335845007607,-0.98442571008863,1,"subseries 9",FALSE,21,9.01900831385299,201.335845007607
"22",187.627949066987,-4.24718513600953,201.641766984196,-9.76663278119989,1,"subseries 10",FALSE,22,7.39453986665865,201.641766984196
"23",200.829603267675,-6.33252449469789,201.823906061374,5.33822170099845,1,"subseries 11",FALSE,23,10.1558007191786,201.823906061374
"24",204.975106013596,4.47611255665472,201.82321059718,-1.32421714023855,1,"subseries 12",FALSE,24,14.1253421145966,201.82321059718
"25",217.199523915392,4.89478881165439,201.62482747944,10.6799076242981,1,"subseries 1",FALSE,25,12.5771985027675,201.62482747944
"26",223.697009726788,21.2292224105618,201.345128225903,1.12265909032297,1,"subseries 2",FALSE,26,11.6802003212552,201.345128225903
"27",220.691821216746,20.7049943344792,200.676308324142,-0.689481441875387,1,"subseries 3",FALSE,27,9.92736156847062,200.676308324142
"28",209.760450306396,9.57121858614959,199.676831683307,0.512400036939539,1,"subseries 4",FALSE,28,10.9703932683924,199.676831683307
"29",198.856607289631,1.33985189680053,198.260430029701,-0.743674636870992,1,"subseries 5",FALSE,29,11.3700363487312,198.260430029701
"30",192.036977149505,-7.5686053865565,196.86519617618,2.74038635988137,1,"subseries 6",FALSE,30,11.3633479897017,196.86519617618
"31",186.517283708516,-12.2809126137873,195.662742548154,3.13545377414897,1,"subseries 7",FALSE,31,9.95266229785255,195.662742548154
"32",180.513917929451,-14.8450640962157,194.5368923932,0.822089632466458,1,"subseries 8",FALSE,32,19.4866337846718,194.5368923932
"33",161.97391666772,-16.9418968690334,193.633565368428,-14.7177518316747,1,"subseries 9",FALSE,33,14.9131446116091,193.633565368428
"34",183.590323006713,-4.24718513600953,192.57696522011,-4.73945707738764,1,"subseries 10",FALSE,34,12.5428198905702,192.57696522011
"35",191.560781667832,-6.33252449469789,191.654569890269,6.23873627226075,1,"subseries 11",FALSE,35,9.54017432659084,191.654569890269
"36",199.534113282982,4.47611255665472,191.106567386046,3.95143334028171,1,"subseries 12",FALSE,36,11.9448118484439,191.106567386046
"37",200.928044425128,4.89478881165439,190.841010357339,5.19224525613475,1,"subseries 1",FALSE,37,10.4410121511045,190.841010357339
"38",209.286780095208,21.2292224105618,190.962993083957,-2.90543539931059,1,"subseries 2",FALSE,38,16.3155528701227,190.962993083957
"39",201.01025344748,20.7049943344792,191.094269902363,-10.7890107893625,1,"subseries 3",FALSE,39,15.1694084437875,191.094269902363
"40",200.038908390545,9.57121858614959,190.726124318691,-0.258434514295516,1,"subseries 4",FALSE,40,10.6087342727566,190.726124318691
"41",195.378786015165,1.33985189680053,190.170782422772,3.86815169559222,1,"subseries 5",FALSE,41,18.2125782040479,190.170782422772
"42",185.51943874267,-7.5686053865565,189.615602901576,3.47244122765017,1,"subseries 6",FALSE,42,8.81978459555654,189.615602901576
"43",181.553889320641,-12.2809126137873,189.068512905854,4.76628902857453,1,"subseries 7",FALSE,43,9.88326941986507,189.068512905854
"44",177.930303885645,-14.8450640962157,189.010323520377,3.76504446148357,1,"subseries 8",FALSE,44,8.64141144951678,189.010323520377
"45",168.081834655312,-16.9418968690334,188.93008820784,-3.90635668349489,1,"subseries 9",FALSE,45,8.81552334786158,188.93008820784
"46",173.212679769839,-4.24718513600953,188.691896758655,-11.2320318528065,1,"subseries 10",FALSE,46,7.85391979823292,188.691896758655
"47",184.324789505939,-6.33252449469789,188.634265708138,2.02304829249883,1,"subseries 11",FALSE,47,9.40532205326076,188.634265708138
"48",189.952231411318,4.47611255665472,188.481095522688,-3.00497666802482,1,"subseries 12",FALSE,48,9.85111989211406,188.481095522688
"49",197.202401346698,4.89478881165439,188.65351766,3.65409487504371,1,"subseries 1",FALSE,49,9.56727110923893,188.65351766
"50",209.039545824078,21.2292224105618,189.115161380381,-1.30483796686511,1,"subseries 2",FALSE,50,11.525061219734,189.115161380381
"51",211.331638572994,20.7049943344792,189.628903041978,0.99774119653685,1,"subseries 3",FALSE,51,10.1194232501236,189.628903041978
"52",200.361106711806,9.57121858614959,190.079582471428,0.71030565422808,1,"subseries 4",FALSE,52,11.8909062614677,190.079582471428
"53",192.281135496742,1.33985189680053,190.203797236995,0.737486362946555,1,"subseries 5",FALSE,53,11.9427510219398,190.203797236995
"54",184.326817019577,-7.5686053865565,190.046582526749,1.84883987938497,1,"subseries 6",FALSE,54,9.65832519042431,190.046582526749
"55",180.094494870987,-12.2809126137873,189.619235744926,2.75617173984813,1,"subseries 7",FALSE,55,7.51369862156012,189.619235744926
"56",176.241356682889,-14.8450640962157,189.265304178286,1.8211166008191,1,"subseries 8",FALSE,56,8.69261172876481,189.265304178286
"57",176.141750612452,-16.9418968690334,188.857363398048,4.22628408343706,1,"subseries 9",FALSE,57,7.91746698575219,188.857363398048
"58",175.88037019509,-4.24718513600953,188.56786963225,-8.44031430115035,1,"subseries 10",FALSE,58,9.6834951566865,188.56786963225
"59",181.123758187034,-6.33252449469789,188.49764424825,-1.04136156651828,1,"subseries 11",FALSE,59,10.1184563617471,188.49764424825
"60",188.101436966594,4.47611255665472,188.414194425021,-4.78887001508215,1,"subseries 12",FALSE,60,9.40281136967526,188.414194425021
"61",194.915262054064,4.89478881165439,188.692868278601,1.32760496380834,1,"subseries 1",FALSE,61,8.75434817722423,188.692868278601
"62",203.209446144816,21.2292224105618,189.713822612395,-7.73359887814073,1,"subseries 2",FALSE,62,13.9078813691584,189.713822612395
"63",218.427949080149,20.7049943344792,191.536732389561,6.1862223561092,1,"subseries 3",FALSE,63,13.1440861327939,191.536732389561
"64",199.118012535338,9.57121858614959,196.59524213108,-7.04844818189167,1,"subseries 4",FALSE,64,11.2232379995576,196.59524213108
"65",191.233169348377,1.33985189680053,203.062777579206,-13.1694601276295,1,"subseries 5",FALSE,65,11.6611301483709,203.062777579206
"66",186.38000649213,-7.5686053865565,208.853920374837,-14.90530849615,1,"subseries 6",FALSE,66,9.43379876243318,208.853920374837
"67",180.728838325536,-12.2809126137873,215.03344039892,-22.0236894595964,1,"subseries 7",FALSE,67,8.99156248133924,215.03344039892
"68",195.943948092294,-14.8450640962157,221.136631993505,-10.3476198049948,1,"subseries 8",FALSE,68,18.2079670648741,221.136631993505
"69",217.939675439217,-16.9418968690334,227.417746089714,7.46382621853616,1,"subseries 9",FALSE,69,13.3861720837515,227.417746089714
"70",261.891746759208,-4.24718513600953,234.041550991457,32.0973809037608,1,"subseries 10",FALSE,70,33.6797589826059,234.041550991457
"71",235.198264969572,-6.33252449469789,240.809335642908,0.721453821361564,1,"subseries 11",FALSE,71,33.3562457451538,240.809335642908
