"","raw","seasonal","trend","remainder","weights","sub.labels","interpolated","age","sigma","power"
"1",25.3668716635951,-1.50822835738066,27.4263238792497,-0.551223858273943,1,"subseries 1",FALSE,1,1.03143714670367,27.4263238792497
"2",26.0540046016253,-1.64389444586223,27.4310658896882,0.266833157799326,1,"subseries 2",FALSE,2,0.986472148649627,27.4310658896882
"3",26.009355602487,-1.45407577859432,27.4336365361368,0.0297948449445506,1,"subseries 3",FALSE,3,1.03092857376757,27.4336365361368
"4",27.2785425386081,-0.760415112875466,27.4328139282728,0.606143723210817,1,"subseries 4",FALSE,4,0.736894635887551,27.4328139282728
"5",25.5097426431668,-0.657068061772236,27.4288634745212,-1.26205276958219,1,"subseries 5",FALSE,5,5.45652675136913,27.4288634745212
"6",28.8156928089207,0.852982592796456,27.423401974979,0.5393082411452,1,"subseries 6",FALSE,6,0.98583712260786,27.423401974979
"7",30.6940304886677,2.54551076526698,27.4118079649518,0.736711758448877,1,"subseries 7",FALSE,7,1.56179250277223,27.4118079649518
"8",29.4652690661159,1.76804237385167,27.4028908385035,0.294335853760678,1,"subseries 8",FALSE,8,2.12516181559978,27.4028908385035
"9",29.305070311361,1.92488303425151,27.3806848577962,-0.000497580686722898,1,"subseries 9",FALSE,9,1.39747332146543,27.3806848577962
"10",27.5788258815725,0.412080899851447,27.3636782144721,-0.196933232751022,1,"subseries 10",FALSE,10,0.940344668830344,27.3636782144721
"11",26.511199554894,-0.54786293216612,27.3562625265049,-0.297200039444771,1,"subseries 11",FALSE,11,0.958096749444157,27.3562625265049
"12",25.9085323180361,-0.931954977367044,27.3321005154574,-0.491613220054255,1,"subseries 12",FALSE,12,0.983141757612961,27.3321005154574
"13",26.1759322359457,-1.50822835738066,27.3295776269845,0.354582966341859,1,"subseries 1",FALSE,13,1.1221145507122,27.3295776269845
"14",25.1805175270341,-1.64389444586223,27.3055297614076,-0.481117788511224,1,"subseries 2",FALSE,14,1.06477071534779,27.3055297614076
"15",25.758771246504,-1.45407577859432,27.2793144889319,-0.0664674638335612,1,"subseries 3",FALSE,15,0.962309375923602,27.2793144889319
"16",26.8483704483772,-0.760415112875466,27.2739024211116,0.334883140141038,1,"subseries 4",FALSE,16,0.878380181828278,27.2739024211116
"17",27.9275544171944,-0.657068061772236,27.2507125094359,1.33390996953069,1,"subseries 5",FALSE,17,0.702724947950625,27.2507125094359
"18",27.8575497053354,0.852982592796456,27.25510586016,-0.250538747621057,1,"subseries 6",FALSE,18,4.42880167032434,27.25510586016
"19",29.061140155289,2.54551076526698,27.258346418501,-0.742717028478982,1,"subseries 7",FALSE,19,3.64791902876617,27.258346418501
"20",28.7495549319366,1.76804237385167,27.2412167789845,-0.259704220899575,1,"subseries 8",FALSE,20,2.86906486522213,27.2412167789845
"21",29.15045647895,1.92488303425151,27.231723706646,-0.00615026194753554,1,"subseries 9",FALSE,21,1.55425913521049,27.231723706646
"22",27.0991596209279,0.412080899851447,27.2022735039122,-0.515194782835781,1,"subseries 10",FALSE,22,3.56060404450038,27.2022735039122
"23",26.9877238972367,-0.54786293216612,27.1776531131609,0.357933716241913,1,"subseries 11",FALSE,23,1.14560602316528,27.1776531131609
"24",26.743918595237,-0.931954977367044,27.1616719575106,0.514201615093441,1,"subseries 12",FALSE,24,1.03827768468698,27.1616719575106
"25",25.8347629214643,-1.50822835738066,27.1488879349071,0.194103343937858,1,"subseries 1",FALSE,25,1.09511513966148,27.1488879349071
"26",25.4016657759363,-1.64389444586223,27.162334698258,-0.116774476459426,1,"subseries 2",FALSE,26,0.970528334598413,27.162334698258
"27",25.618000922842,-1.45407577859432,27.1688033013955,-0.0967265999592222,1,"subseries 3",FALSE,27,1.27101312811272,27.1688033013955
"28",26.2197215455532,-0.760415112875466,27.177272822008,-0.197136163579334,1,"subseries 4",FALSE,28,0.889283523816266,27.177272822008
"29",26.5243597905451,-0.657068061772236,27.1929469106034,-0.0115190582860976,1,"subseries 5",FALSE,29,0.886918431749117,27.1929469106034
"30",27.7566350560819,0.852982592796456,27.1886455329313,-0.284993069645811,1,"subseries 6",FALSE,30,1.09956980152033,27.1886455329313
"31",NA,2.54551076526698,27.1935108767279,NA,1,"subseries 7",TRUE,31,NA,NA
"32",28.9263454086959,1.76804237385167,27.1897841151409,-0.0314810802967003,1,"subseries 8",FALSE,32,4.83682745681546,27.1897841151409
"33",NA,1.92488303425151,27.1800308253171,NA,1,"subseries 9",TRUE,33,NA,NA
"34",28.2997092425122,0.412080899851447,27.1654432221307,0.722185120530028,1,"subseries 10",FALSE,34,6.88838453355585,27.1654432221307
"35",26.5502343039631,-0.54786293216612,27.1418644347855,-0.0437671986563082,1,"subseries 11",FALSE,35,1.36923711453333,27.1418644347855
"36",26.1960127022731,-0.931954977367044,27.1245027960655,0.00346488357461894,1,"subseries 12",FALSE,36,0.968047912598165,27.1245027960655
"37",25.6344139475747,-1.50822835738066,27.1037018240349,0.0389404809204521,1,"subseries 1",FALSE,37,1.13156511933495,27.1037018240349
"38",25.8081067785929,-1.64389444586223,27.0818662466181,0.370134977836994,1,"subseries 2",FALSE,38,1.50637594591162,27.0818662466181
"39",25.773742202638,-1.45407577859432,27.0579505472899,0.169867433942404,1,"subseries 3",FALSE,39,1.00227140956385,27.0579505472899
"40",25.5591842645379,-0.760415112875466,27.0296486797139,-0.710049302300554,1,"subseries 4",FALSE,40,1.19732648387035,27.0296486797139
"41",26.3133552498991,-0.657068061772236,26.9995512212114,-0.0291279095400334,1,"subseries 5",FALSE,41,0.882541006103579,26.9995512212114
