"","raw","seasonal","trend","remainder","weights","sub.labels","interpolated","age","sigma","power"
"1",NA,0.302232861225438,75.2483673258592,NA,1,"subseries 1",TRUE,1,NA,NA
"2",72.3123905611879,-0.8068301989884,74.0189337138557,-0.899712953679369,1,"subseries 2",FALSE,2,14.6662610436657,74.0189337138557
"3",75.1948298949071,1.41823765325011,72.8403804961732,0.93621174548376,1,"subseries 3",FALSE,3,12.1301139798407,72.8403804961732
"4",80.9403159100384,3.89125116688382,71.7967521682238,5.25231257493074,1,"subseries 4",FALSE,4,4.78926819537691,71.7967521682238
"5",84.8349071292375,5.2766016781996,70.8158873981663,8.74241805287159,1,"subseries 5",FALSE,5,3.35967313828107,70.8158873981663
"6",82.1820710019133,3.68353353364351,70.0074707871606,8.49106668110922,1,"subseries 6",FALSE,6,4.06695688177901,70.0074707871606
"7",49.718078239224,-6.0147145309027,69.2795428221089,-13.5467500519822,1,"subseries 7",FALSE,7,9.28105834559617,69.2795428221089
"8",45.1864714281437,-8.46617360020544,68.4488900308823,-14.7962450025332,1,"subseries 8",FALSE,8,2.37303232881742,68.4488900308823
"9",43.8375718028289,-9.2478574811173,67.8298266359707,-14.7443973520245,1,"subseries 9",FALSE,9,2.35618192053362,67.8298266359707
"10",73.9400141187252,3.14967334853335,67.098168275934,3.69217249425789,1,"subseries 10",FALSE,10,9.82792467396061,67.098168275934
"11",76.0398557598591,4.32031455586231,67.0640799187431,4.65546128525369,1,"subseries 11",FALSE,11,3.52505483829731,67.0640799187431
"12",73.8709390408868,2.49373101361571,67.9896057615673,3.38760226570379,1,"subseries 12",FALSE,12,3.25531188400952,67.9896057615673
"13",68.5827678209218,0.302232861225437,69.048937663586,-0.768402703889635,1,"subseries 1",FALSE,13,2.95271680716078,69.048937663586
"14",67.2371895115786,-0.8068301989884,70.5951326806216,-2.55111297005459,1,"subseries 2",FALSE,14,3.7425477873347,70.5951326806216
"15",74.6973219639325,1.41823765325011,71.8549209561698,1.4241633545126,1,"subseries 3",FALSE,15,5.08780456165794,71.8549209561698
"16",83.1786311540954,3.89125116688382,72.5022088670143,6.78517112019725,1,"subseries 4",FALSE,16,4.84729045323643,72.5022088670143
"17",74.9614420463108,5.2766016781996,72.8917179806585,-3.20687761254734,1,"subseries 5",FALSE,17,9.26824147630025,72.8917179806585
"18",71.4027987091265,3.68353353364351,72.8005187291832,-5.08125355370019,1,"subseries 6",FALSE,18,13.6939575733649,72.8005187291832
"19",73.806578192024,-6.0147145309027,72.2480577730779,7.57323494984878,1,"subseries 7",FALSE,19,3.41218251009296,72.2480577730779
"20",69.7766483118635,-8.46617360020544,71.6569749956549,6.58584691641406,1,"subseries 8",FALSE,20,3.38390923736317,71.6569749956549
"21",69.466280109162,-9.2478574811173,70.7247215840287,7.98941600625061,1,"subseries 9",FALSE,21,3.4215581528948,70.7247215840287
"22",69.0863567997977,3.14967334853335,69.5923346159677,-3.65565116470333,1,"subseries 10",FALSE,22,3.38885987908459,69.5923346159677
"23",67.3483999015832,4.32031455586231,68.2289193928682,-5.2008340471473,1,"subseries 11",FALSE,23,2.8436499670931,68.2289193928682
"24",65.3102341676234,2.49373101361571,66.8259486197396,-4.00944546573194,1,"subseries 12",FALSE,24,2.55858854917153,66.8259486197396
"25",67.1766366706355,0.302232861225437,65.6328073581123,1.24159645129778,1,"subseries 1",FALSE,25,4.17120099309274,65.6328073581123
"26",66.9499310036151,-0.8068301989884,64.9757972575841,2.78096394501939,1,"subseries 2",FALSE,26,3.00138741894204,64.9757972575841
"27",63.5189884130705,1.41823765325011,65.184507044469,-3.08375628464865,1,"subseries 3",FALSE,27,4.48822744735267,65.184507044469
"28",57.012847626923,3.89125116688382,65.903903712123,-12.7823072520838,1,"subseries 4",FALSE,28,5.54445986898829,65.903903712123
"29",66.1606165991122,5.2766016781996,67.2141915526958,-6.33017663178322,1,"subseries 5",FALSE,29,3.31367857521922,67.2141915526958
"30",68.1396867391054,3.68353353364351,68.7537755497821,-4.2976223443202,1,"subseries 6",FALSE,30,3.01529801871075,68.7537755497821
"31",69.2493632454424,-6.0147145309027,70.3212906455176,4.94278713082751,1,"subseries 7",FALSE,31,4.58851353963868,70.3212906455176
"32",70.4938883682751,-8.46617360020544,71.9530362152432,7.00702575323736,1,"subseries 8",FALSE,32,3.25717434940295,71.9530362152432
"33",69.7318759753151,-9.2478574811173,73.5936430538457,5.38609040258673,1,"subseries 9",FALSE,33,2.58068787749757,73.5936430538457
"34",76.95127591031,3.14967334853335,75.3247931177854,-1.52319055600877,1,"subseries 10",FALSE,34,4.68837915644822,75.3247931177854
"35",80.3804056650436,4.32031455586231,77.0642989201709,-1.00420781098957,1,"subseries 11",FALSE,35,3.55047585574742,77.0642989201709
"36",80.3250555757775,2.49373101361571,78.8015509802001,-0.97022641803828,1,"subseries 12",FALSE,36,2.90290108230557,78.8015509802001
"37",78.7561156519152,0.302232861225437,80.5398262752461,-2.08594348455635,1,"subseries 1",FALSE,37,2.85910010138507,80.5398262752461
