"","raw","seasonal","trend","remainder","weights","sub.labels","interpolated","age","sigma","power"
"1",75.7368270185492,3.95256323943267,69.3048973907842,2.47936638833237,1,"subseries 1",FALSE,1,6.44123665620143,69.3048973907842
"2",75.6885751335543,3.94411488317258,70.2907323849377,1.45372786544398,1,"subseries 2",FALSE,2,7.34934126823764,70.2907323849377
"3",70.5664014169956,5.06790470400991,71.27851222221,-5.78001550922434,1,"subseries 3",FALSE,3,8.69790182276966,71.27851222221
"4",71.1206828236179,2.22134299003213,72.2554040582155,-3.35606422462973,1,"subseries 4",FALSE,4,8.64784716527928,72.2554040582155
"5",80.116288913837,-0.16202418275864,73.2370489223258,7.04126417426988,1,"subseries 5",FALSE,5,8.23375169011523,73.2370489223258
"6",75.1512606974269,-1.22494190804773,74.2144693615445,2.16173324393013,1,"subseries 6",FALSE,6,7.82934626500785,74.2144693615445
"7",67.3919466441485,-3.07715415160851,75.2025281524536,-4.73342735669662,1,"subseries 7",FALSE,7,7.59665343253731,75.2025281524536
"8",70.554815168664,-3.24377737185082,76.2475384653827,-2.44894592486783,1,"subseries 8",FALSE,8,7.59058435295237,76.2475384653827
"9",72.9331147977522,-4.3255831774158,77.255849603706,0.00284837146199379,1,"subseries 9",FALSE,9,8.77389517795129,77.255849603706
"10",78.8743007029204,-1.25356170218079,77.8956492781553,2.23221312694584,1,"subseries 10",FALSE,10,7.59192937090657,77.8956492781553
"11",82.7519923784861,-1.07582285209072,78.2816196457209,5.54619558485595,1,"subseries 11",FALSE,11,8.20251200456209,78.2816196457209
"12",79.7055164633002,-0.823060470694288,78.666771863651,1.86180507034349,1,"subseries 12",FALSE,12,7.42540576002534,78.666771863651
"13",82.8994184350141,3.95256323943267,78.835752448217,0.111102747364413,1,"subseries 1",FALSE,13,8.44913292643924,78.835752448217
"14",82.7247472134155,3.94411488317258,79.3044038162429,-0.523771486000001,1,"subseries 2",FALSE,14,7.71389684089569,79.3044038162429
"15",88.3876193744761,5.06790470400991,79.8919960425715,3.42771862789466,1,"subseries 3",FALSE,15,8.29462411199724,79.8919960425715
"16",75.0457525320814,2.22134299003213,80.293332744785,-7.46892320273577,1,"subseries 4",FALSE,16,11.5275075050118,80.293332744785
"17",73.6161839383659,-0.16202418275864,80.9637690703975,-7.18556094927297,1,"subseries 5",FALSE,17,7.52814705991581,80.9637690703975
"18",76.2782018317375,-1.22494190804773,81.1441892748026,-3.64104553501733,1,"subseries 6",FALSE,18,9.85862520826486,81.1441892748026
"19",85.0410765787939,-3.07715415160851,81.1527647354279,6.96546599497455,1,"subseries 7",FALSE,19,5.31537093450324,81.1527647354279
"20",85.0523546344863,-3.24377737185082,81.0622944967362,7.2338375096009,1,"subseries 8",FALSE,20,8.53829299265143,81.0622944967362
"21",83.5132896013794,-4.3255831774158,80.4592459442715,7.37962683452373,1,"subseries 9",FALSE,21,8.14329260056132,80.4592459442715
"22",85.3034894481296,-1.25356170218079,80.0191830027783,6.53786814753211,1,"subseries 10",FALSE,22,7.1812755331142,80.0191830027783
"23",77.7264124825874,-1.07582285209072,79.0367739058846,-0.234538571206457,1,"subseries 11",FALSE,23,6.52931633950216,79.0367739058846
"24",71.2872514619428,-0.823060470694288,77.8712842372925,-5.76097230465545,1,"subseries 12",FALSE,24,9.25488844222483,77.8712842372925
"25",77.261319678972,3.95256323943267,76.7766639939878,-3.46790755444844,1,"subseries 1",FALSE,25,7.3198018567869,76.7766639939878
"26",77.3095356037893,3.94411488317258,75.7579976730137,-2.39257695239702,1,"subseries 2",FALSE,26,7.50618965059372,75.7579976730137
"27",75.5470815290835,5.06790470400991,75.5168291077104,-5.03765228263686,1,"subseries 3",FALSE,27,7.01058576070666,75.5168291077104
"28",74.7249713442094,2.22134299003213,75.7850809856847,-3.28145263150743,1,"subseries 4",FALSE,28,7.74135224889857,75.7850809856847
"29",69.0936201701889,-0.16202418275864,76.8324350939713,-7.57679074102373,1,"subseries 5",FALSE,29,7.89827000214049,76.8324350939713
"30",75.7062016654596,-1.22494190804773,78.4013384082414,-1.47019483473402,1,"subseries 6",FALSE,30,7.20397896203847,78.4013384082414
"31",78.9450758635659,-3.07715415160851,80.3694565224183,1.65277349275608,1,"subseries 7",FALSE,31,5.89546946446076,80.3694565224183
"32",80.4025240186421,-3.24377737185082,82.106968617739,1.53933277275392,1,"subseries 8",FALSE,32,6.49911062778026,82.106968617739
"33",81.3215043068701,-4.3255831774158,83.4712529588735,2.17583452541243,1,"subseries 9",FALSE,33,8.2873405307355,83.4712529588735
"34",82.8440950895113,-1.25356170218079,84.4715134517728,-0.373856660080662,1,"subseries 10",FALSE,34,7.33344745815125,84.4715134517728
"35",96.8386385062244,-1.07582285209072,84.6411539304764,13.2733074278388,1,"subseries 11",FALSE,35,8.82480416979446,84.6411539304764
"36",92.7057215296673,-0.823060470694288,85.1768522431415,8.35192975722012,1,"subseries 12",FALSE,36,7.80492602140097,85.1768522431415
"37",91.7022133639256,3.95256323943267,85.5462528859447,2.20339723854823,1,"subseries 1",FALSE,37,8.14332448999707,85.5462528859447
"38",85.444853650334,3.94411488317258,85.8803887322257,-4.3796499650643,1,"subseries 2",FALSE,38,9.42573244287038,85.8803887322257
"39",73.401520951643,5.06790470400991,86.5097459341689,-18.1761296865358,1,"subseries 3",FALSE,39,7.77448911557236,86.5097459341689
"40",76.9682295374732,2.22134299003213,86.3673909553692,-11.6205044079281,1,"subseries 4",FALSE,40,11.5724745862998,86.3673909553692
"41",91.2559794907208,-0.16202418275864,86.4722619211607,4.94574175231871,1,"subseries 5",FALSE,41,8.64457416340466,86.4722619211607
"42",94.6261776827347,-1.22494190804773,86.0345254325377,9.81659415824471,1,"subseries 6",FALSE,42,6.40501524906592,86.0345254325377
"43",93.1595235159202,-3.07715415160851,85.1492980196898,11.0873796478389,1,"subseries 7",FALSE,43,6.57259040634138,85.1492980196898
"44",88.1004536632647,-3.24377737185082,84.6170585436656,6.72717249144992,1,"subseries 8",FALSE,44,5.68461181827881,84.6170585436656
"45",82.1587602674177,-4.3255831774158,83.4435286339044,3.04081481092905,1,"subseries 9",FALSE,45,7.24284399145296,83.4435286339044
"46",89.4596785073216,-1.25356170218079,82.3954249340846,8.31781527541776,1,"subseries 10",FALSE,46,8.70301319864708,82.3954249340846
"47",74.9898190395625,-1.07582285209072,80.8968626801058,-4.83122078845253,1,"subseries 11",FALSE,47,12.0028841627072,80.8968626801058
"48",74.5877465680062,-0.823060470694288,79.2974358146505,-3.88662877595002,1,"subseries 12",FALSE,48,8.61284047524659,79.2974358146505
"49",73.2918784075601,3.95256323943267,78.0466813768209,-8.7073662086935,1,"subseries 1",FALSE,49,5.92038771413375,78.0466813768209
"50",NA,3.94411488317258,76.6931220130242,NA,1,"subseries 2",TRUE,50,NA,NA
"51",71.9126398729783,5.06790470400991,75.9891783479222,-9.14444317895381,1,"subseries 3",FALSE,51,9.8998372164755,75.9891783479222
"52",70.9657103575335,2.22134299003213,75.5325748610464,-6.78820749354503,1,"subseries 4",FALSE,52,12.6492304389529,75.5325748610464
"53",76.7661590597596,-0.16202418275864,75.7275218283717,1.20066141414658,1,"subseries 5",FALSE,53,13.1123773576292,75.7275218283717
"54",78.1639201690173,-1.22494190804773,76.6791149726544,2.7097471044106,1,"subseries 6",FALSE,54,12.764034975537,76.6791149726544
"55",72.9152219100167,-3.07715415160851,78.1899061860954,-2.19753012447022,1,"subseries 7",FALSE,55,13.476514624209,78.1899061860954
"56",75.6596992171908,-3.24377737185082,80.3935057250931,-1.4900291360515,1,"subseries 8",FALSE,56,10.3661740180578,80.3935057250931
"57",77.4523192265636,-4.3255831774158,82.8380968171055,-1.06019441312608,1,"subseries 9",FALSE,57,16.6537397008079,82.8380968171055
"58",75.7670857514119,-1.25356170218079,85.1130764258878,-8.09242897229511,1,"subseries 10",FALSE,58,17.5455194301188,85.1130764258878
"59",85.5674307559515,-1.07582285209072,87.3343015101642,-0.691047902121923,1,"subseries 11",FALSE,59,17.3036331283645,87.3343015101642
"60",94.3562818906661,-0.823060470694288,88.6152061632922,6.56413619806814,1,"subseries 12",FALSE,60,13.9723573791061,88.6152061632922
"61",100.163009588855,3.95256323943267,89.0402647466875,7.17018160273481,1,"subseries 1",FALSE,61,13.1674239531603,89.0402647466875
"62",99.6023780319855,3.94411488317258,89.1081498512722,6.55011329754073,1,"subseries 2",FALSE,62,5.84635679522518,89.1081498512722
"63",106.699850141166,5.06790470400991,87.996567420349,13.6353780168071,1,"subseries 3",FALSE,63,8.49081491900955,87.996567420349
"64",105.620002987958,2.22134299003213,86.8274668704667,16.5711931274592,1,"subseries 4",FALSE,64,7.99665100484408,86.8274668704667
"65",75.5765326700204,-0.16202418275864,84.9686885212108,-9.23013166843174,1,"subseries 5",FALSE,65,13.4603415464458,84.9686885212108
"66",72.2950009409061,-1.22494190804773,82.511081156106,-8.99113830715218,1,"subseries 6",FALSE,66,7.89848935282862,82.511081156106
"67",68.7372363747364,-3.07715415160851,80.1600398117768,-8.34564928543188,1,"subseries 7",FALSE,67,7.71446457818397,80.1600398117768
"68",71.5603132427956,-3.24377737185082,77.4670606525339,-2.66297003788748,1,"subseries 8",FALSE,68,5.99019051442011,77.4670606525339
"69",71.8542669779219,-4.3255831774158,75.4228262477728,0.7570239075649,1,"subseries 9",FALSE,69,6.15275094748304,75.4228262477728
"70",72.5378120715733,-1.25356170218079,74.1726281160781,-0.381254342323984,1,"subseries 10",FALSE,70,7.68479501536804,74.1726281160781
"71",72.1693337679294,-1.07582285209072,73.3745293157469,-0.12937269572673,1,"subseries 11",FALSE,71,8.09648919434856,73.3745293157469
"72",70.192285261417,-0.823060470694288,72.9124227109278,-1.89707697881656,1,"subseries 12",FALSE,72,7.70627010338586,72.9124227109278
"73",74.2030414311859,3.95256323943267,72.6813247603865,-2.43084656863324,1,"subseries 1",FALSE,73,7.47708883355681,72.6813247603865
"74",76.4208166980397,3.94411488317258,72.7235854339747,-0.246883619107621,1,"subseries 2",FALSE,74,7.65521322802861,72.7235854339747
"75",76.2172534219426,5.06790470400991,72.9423538736913,-1.79300515575862,1,"subseries 3",FALSE,75,6.042163328381,72.9423538736913
"76",73.2322968156004,2.22134299003213,73.1877031515596,-2.17674932599134,1,"subseries 4",FALSE,76,7.93270430180622,73.1877031515596
"77",73.3295642753102,-0.16202418275864,73.5990313200616,-0.107442861992709,1,"subseries 5",FALSE,77,9.18268549972061,73.5990313200616
"78",72.7556395617749,-1.22494190804773,74.2325619587794,-0.251980488956747,1,"subseries 6",FALSE,78,8.33336904432928,74.2325619587794
"79",NA,-3.07715415160851,75.0179107755467,NA,1,"subseries 7",TRUE,79,NA,NA
"80",75.2786124950334,-3.24377737185082,75.9773538351865,2.54503603169776,1,"subseries 8",FALSE,80,6.55519896047305,75.9773538351865
"81",68.8728772100396,-4.3255831774158,77.0473678015266,-3.84890741407118,1,"subseries 9",FALSE,81,7.64342648590599,77.0473678015266
"82",78.4246945272941,-1.25356170218079,77.9527881501698,1.72546807930513,1,"subseries 10",FALSE,82,6.74945477371781,77.9527881501698
"83",72.4947324582882,-1.07582285209072,78.7586558886444,-5.18810057826548,1,"subseries 11",FALSE,83,7.39466651169171,78.7586558886444
"84",78.1913498930986,-0.823060470694288,79.4398864692284,-0.425476105435521,1,"subseries 12",FALSE,84,10.0905151995826,79.4398864692284
"85",88.7613967690268,3.95256323943267,79.9538603849259,4.85497314466824,1,"subseries 1",FALSE,85,8.28193296460568,79.9538603849259
"86",92.2943408325756,3.94411488317258,80.4856523760224,7.86457357338062,1,"subseries 2",FALSE,86,6.46705832098643,80.4856523760224
"87",92.0298432542712,5.06790470400991,80.9025255958112,6.05941295445011,1,"subseries 3",FALSE,87,12.5230498122577,80.9025255958112
"88",75.2082502153057,2.22134299003213,81.4490863855058,-8.46217916023221,1,"subseries 4",FALSE,88,6.77336626845325,81.4490863855058
"89",79.5192538715736,-0.16202418275864,81.8280961233187,-2.14681806898645,1,"subseries 5",FALSE,89,8.37250663834723,81.8280961233187
"90",80.2852308949605,-1.22494190804773,81.8545690927391,-0.344396289730867,1,"subseries 6",FALSE,90,7.42439975841802,81.8545690927391
"91",79.3179380304045,-3.07715415160851,81.8806824399461,0.514409742066931,1,"subseries 7",FALSE,91,7.08875552878667,81.8806824399461
"92",77.245415416128,-3.24377737185082,81.6542965644015,-1.16510377642273,1,"subseries 8",FALSE,92,5.7104426788201,81.6542965644015
"93",80.025687608906,-4.3255831774158,81.4157164692005,2.9355543171213,1,"subseries 9",FALSE,93,6.87830464130529,81.4157164692005
"94",80.3135298525138,-1.25356170218079,81.086968216236,0.480123338458569,1,"subseries 10",FALSE,94,7.20976812259132,81.086968216236
"95",84.4042011935739,-1.07582285209072,80.5276567136606,4.95236733200403,1,"subseries 11",FALSE,95,5.40441687255357,80.5276567136606
"96",81.4699016401144,-0.823060470694288,79.9148333114654,2.37812879934332,1,"subseries 12",FALSE,96,6.93491268840839,79.9148333114654
"97",81.1613380916592,3.95256323943267,79.031370240757,-1.82259538853044,1,"subseries 1",FALSE,97,6.12438604383781,79.031370240757
"98",NA,3.94411488317258,78.205757358626,NA,1,"subseries 2",TRUE,98,NA,NA
"99",85.7426120710733,5.06790470400991,77.3668108653341,3.30789650172925,1,"subseries 3",FALSE,99,11.6471580503818,77.3668108653341
"100",76.4563792010416,2.22134299003213,76.6320655238799,-2.3970293128704,1,"subseries 4",FALSE,100,8.00736379691964,76.6320655238799
"101",73.222869786747,-0.16202418275864,76.1849870736117,-2.80009310410605,1,"subseries 5",FALSE,101,7.03249392070193,76.1849870736117
"102",70.173140124194,-1.22494190804773,75.8296937173577,-4.431611685116,1,"subseries 6",FALSE,102,7.28957945574063,75.8296937173577
"103",67.2573664760258,-3.07715415160851,75.9437430523599,-5.60922242472563,1,"subseries 7",FALSE,103,5.51807126073451,75.9437430523599
"104",69.5839268008863,-3.24377737185082,76.9499749061014,-4.12227073336425,1,"subseries 8",FALSE,104,5.14180055929001,76.9499749061014
"105",73.1972443576331,-4.3255831774158,78.7295170991241,-1.20668956407523,1,"subseries 9",FALSE,105,5.59918251051073,78.7295170991241
"106",75.1656398250876,-1.25356170218079,81.3892682739238,-4.97006674665546,1,"subseries 10",FALSE,106,5.9033798138227,81.3892682739238
"107",80.3812108537171,-1.07582285209072,84.8264317528588,-3.36939804705098,1,"subseries 11",FALSE,107,6.58741154781558,84.8264317528588
"108",82.8199502008388,-0.823060470694288,87.9790703611827,-4.33605968964962,1,"subseries 12",FALSE,108,8.62561504445596,87.9790703611827
"109",NA,3.95256323943267,91.2814109935736,NA,1,"subseries 1",TRUE,109,NA,NA
"110",87.0522211922109,3.94411488317258,94.1165609470228,-11.0084546379845,1,"subseries 2",FALSE,110,6.18495300369203,94.1165609470228
"111",110.11722117669,5.06790470400991,96.4000813254649,8.64923514721524,1,"subseries 3",FALSE,111,15.4630868684525,96.4000813254649
"112",124.853283569845,2.22134299003213,98.7448950457888,23.8870455340241,1,"subseries 4",FALSE,112,6.91904638073809,98.7448950457888
"113",110.865907577421,-0.16202418275864,100.211955979498,10.8159757806814,1,"subseries 5",FALSE,113,9.76466751673686,100.211955979498
"114",105.210420009132,-1.22494190804773,101.725135764685,4.71022615249485,1,"subseries 6",FALSE,114,6.62383818362134,101.725135764685
"115",100.507940985421,-3.07715415160851,102.585285786438,0.999809350591832,1,"subseries 7",FALSE,115,5.58030470421071,102.585285786438
"116",94.1550934607081,-3.24377737185082,103.01657916883,-5.61770833627072,1,"subseries 8",FALSE,116,4.4318395704762,103.01657916883
"117",89.5072100290726,-4.3255831774158,103.533767086119,-9.70097387963042,1,"subseries 9",FALSE,117,5.97424204337891,103.533767086119
"118",97.8440678222998,-1.25356170218079,104.307687576629,-5.21005805214797,1,"subseries 10",FALSE,118,5.42596746803243,104.307687576629
"119",94.8624897718628,-1.07582285209072,105.516031106016,-9.5777184820622,1,"subseries 11",FALSE,119,7.22774317940765,105.516031106016
"120",101.979453868377,-0.823060470694288,106.500395662595,-3.6978813235241,1,"subseries 12",FALSE,120,9.95495041704122,106.500395662595
"121",110.161851574328,3.95256323943267,107.627668047527,-1.41837971263186,1,"subseries 1",FALSE,121,7.17089625155421,107.627668047527
"122",114.005746527134,3.94411488317258,108.830415899986,1.23121574397587,1,"subseries 2",FALSE,122,6.81360015980658,108.830415899986
"123",118.908751281892,5.06790470400991,110.114905336523,3.72594124135925,1,"subseries 3",FALSE,123,7.38739029814913,110.114905336523
"124",117.939795246514,2.22134299003213,111.554444608088,4.16400764839364,1,"subseries 4",FALSE,124,5.91457153132736,111.554444608088
"125",117.258303553906,-0.16202418275864,113.058682870166,4.36164486649902,1,"subseries 5",FALSE,125,7.72182084389702,113.058682870166
