"","raw","seasonal","trend","remainder","weights","sub.labels","interpolated","age","sigma","power"
"1",111.07895359491,-5.03173732764976,120.985278689628,-4.87458776706865,1,"subseries 1",FALSE,1,9.10167179483976,120.985278689628
"2",110.564200403019,-5.74735351286825,122.268306762051,-5.95675284616418,1,"subseries 2",FALSE,2,7.0790830825975,122.268306762051
"3",119.95893760711,-4.17057490860965,123.513846115977,0.615666399743091,1,"subseries 3",FALSE,3,7.53876373204128,123.513846115977
"4",131.442930558149,-0.273855413499952,124.695286348772,7.02149962287653,1,"subseries 4",FALSE,4,6.51906158098139,124.695286348772
"5",134.150037263467,4.75846621220474,125.826016152807,3.56555489845555,1,"subseries 5",FALSE,5,5.86219152274176,125.826016152807
"6",136.90905327134,7.47111701467012,126.997434535126,2.44050172154367,1,"subseries 6",FALSE,6,5.58946063488184,126.997434535126
"7",135.328844795108,5.54053233452449,128.050330802898,1.73798165768599,1,"subseries 7",FALSE,7,6.32334192674874,128.050330802898
"8",133.156974528975,3.36009528443659,129.13982302303,0.657056221508896,1,"subseries 8",FALSE,8,7.99632260272919,129.13982302303
"9",133.259546572848,3.29720107896383,129.904357641393,0.0579878524909248,1,"subseries 9",FALSE,9,7.43065175120554,129.904357641393
"10",132.129093242281,0.766952252635006,130.148882178722,1.21325881092389,1,"subseries 10",FALSE,10,9.9217737425081,130.148882178722
"11",127.141265562184,-4.69462426470117,130.442589626858,1.39330020002762,1,"subseries 11",FALSE,11,10.6568073876696,130.442589626858
"12",123.892491692208,-5.27621875010601,130.671319170871,-1.50260872855736,1,"subseries 12",FALSE,12,9.00191912344257,130.671319170871
"13",122.996159011363,-5.03173732764976,130.910253086861,-2.88235674784838,1,"subseries 1",FALSE,13,7.5150605932646,130.910253086861
"14",122.078441472157,-5.74735351286825,130.890034849271,-3.06423986424592,1,"subseries 2",FALSE,14,10.9268137042109,130.890034849271
"15",130.999636111465,-4.17057490860964,130.715023959965,4.45518706010992,1,"subseries 3",FALSE,15,9.23280085466846,130.715023959965
"16",134.979503008594,-0.273855413499952,130.407062434269,4.84629598782504,1,"subseries 4",FALSE,16,5.60687922745807,130.407062434269
"17",136.437778352664,4.75846621220474,129.844622610631,1.83468952982781,1,"subseries 5",FALSE,17,5.25606098867827,129.844622610631
"18",139.005020378388,7.47111701467012,129.31042902503,2.22347433868785,1,"subseries 6",FALSE,18,5.7067687305892,129.31042902503
"19",133.113861829969,5.54053233452449,128.514193224388,-0.940863728943228,1,"subseries 7",FALSE,19,5.0657193505906,128.514193224388
"20",131.59922306395,3.36009528443659,127.554547081457,0.684580698056649,1,"subseries 8",FALSE,20,6.57463378081071,127.554547081457
"21",127.523200553721,3.29720107896383,126.549482923644,-2.32348344888713,1,"subseries 9",FALSE,21,7.61282683706609,126.549482923644
"22",124.331267938617,0.766952252635006,125.516168376625,-1.95185269064332,1,"subseries 10",FALSE,22,7.75306568301689,125.516168376625
"23",120.482753315961,-4.69462426470117,124.739626177032,0.437751403630003,1,"subseries 11",FALSE,23,8.09666441984494,124.739626177032
"24",116.884652801609,-5.27621875010601,124.23627184096,-2.07540028924474,1,"subseries 12",FALSE,24,6.90698657257369,124.23627184096
"25",117.537136382214,-5.03173732764976,124.047686498451,-1.47881278858678,1,"subseries 1",FALSE,25,6.09220661973022,124.047686498451
"26",117.181702314855,-5.74735351286825,124.043599069211,-1.11454324148819,1,"subseries 2",FALSE,26,5.92011218295639,124.043599069211
"27",116.325029484382,-4.17057490860964,124.258535675487,-3.762931282495,1,"subseries 3",FALSE,27,5.85694769334856,124.258535675487
"28",124.334112969957,-0.273855413499952,124.590125235543,0.0178431479139647,1,"subseries 4",FALSE,28,7.35268849640279,124.590125235543
"29",133.546621771018,4.75846621220474,125.027800569536,3.76035498927779,1,"subseries 5",FALSE,29,4.99870125060065,125.027800569536
"30",131.810163360917,7.47111701467012,125.674335210219,-1.33528886397171,1,"subseries 6",FALSE,30,4.85328969371587,125.674335210219
"31",131.670206021841,5.54053233452449,126.384938807528,-0.255265120211945,1,"subseries 7",FALSE,31,5.63582048260414,126.384938807528
"32",130.969813109073,3.36009528443659,127.12585884878,0.483858975856293,1,"subseries 8",FALSE,32,6.85223401778544,127.12585884878
"33",130.136276787726,3.29720107896383,127.836766288717,-0.997690579954721,1,"subseries 9",FALSE,33,7.7120232309276,127.836766288717
"34",127.554937933359,0.766952252635006,128.303504113287,-1.51551843256281,1,"subseries 10",FALSE,34,10.3813583745053,128.303504113287
"35",124.785513883572,-4.69462426470117,128.627009755523,0.853128392750165,1,"subseries 11",FALSE,35,9.07965490330508,128.627009755523
"36",127.490622373453,-5.27621875010601,128.71723979776,4.04960132579907,1,"subseries 12",FALSE,36,11.577615477464,128.71723979776
"37",125.91415625132,-5.03173732764976,128.502341029233,2.44355254973686,1,"subseries 1",FALSE,37,7.92460562749831,128.502341029233
"38",124.256930341601,-5.74735351286825,128.293514325815,1.71076952865431,1,"subseries 2",FALSE,38,8.26478708848807,128.293514325815
"39",125.590021831333,-4.17057490860964,127.848329453752,1.91226728619057,1,"subseries 3",FALSE,39,7.6631232178907,127.848329453752
"40",129.528405408918,-0.273855413499952,127.295555776496,2.50670504592175,1,"subseries 4",FALSE,40,6.60120870913284,127.295555776496
"41",126.410643782172,4.75846621220474,126.65240083429,-5.00022326432293,1,"subseries 5",FALSE,41,5.36637094599312,126.65240083429
"42",129.591449325826,7.47111701467012,125.708504887054,-3.5881725758978,1,"subseries 6",FALSE,42,4.99400414061664,125.708504887054
"43",131.923331988196,5.54053233452449,124.780653129596,1.60214652407522,1,"subseries 7",FALSE,43,4.20397558665833,124.780653129596
"44",129.239438267814,3.36009528443659,123.920904803535,1.9584381798426,1,"subseries 8",FALSE,44,6.0363778266955,123.920904803535
"45",126.847880108736,3.29720107896383,123.159363802144,0.391315227627686,1,"subseries 9",FALSE,45,7.55056359579621,123.159363802144
"46",125.176761519403,0.766952252635006,122.668519299626,1.74128996714158,1,"subseries 10",FALSE,46,11.9526533145061,122.668519299626
"47",115.70328965544,-4.69462426470117,122.291645449083,-1.89373152894157,1,"subseries 11",FALSE,47,10.2258361956429,122.291645449083
"48",111.966643327302,-5.27621875010601,122.199757196018,-4.95689511860999,1,"subseries 12",FALSE,48,10.1441541790642,122.199757196018
"49",116.57718128325,-5.03173732764976,122.415849487913,-0.806930877012846,1,"subseries 1",FALSE,49,7.88122009754796,122.415849487913
"50",115.924487503783,-5.74735351286825,122.688200447952,-1.01635943130056,1,"subseries 2",FALSE,50,7.95858047011962,122.688200447952
"51",116.673495058013,-4.17057490860964,123.308012972331,-2.46394300570813,1,"subseries 3",FALSE,51,7.44844869965035,123.308012972331
"52",119.568944622693,-0.273855413499952,123.827697301781,-3.9848972655881,1,"subseries 4",FALSE,52,7.16403702522919,123.827697301781
"53",130.121907963786,4.75846621220474,124.276720933431,1.0867208181499,1,"subseries 5",FALSE,53,7.03377432943585,124.276720933431
"54",139.64030516896,7.47111701467012,124.641013549281,7.52817460500874,1,"subseries 6",FALSE,54,4.17363152005532,124.641013549281
"55",134.160947917668,5.54053233452449,124.611424517136,4.00899106600764,1,"subseries 7",FALSE,55,5.8991167497293,124.611424517136
"56",131.570157726901,3.36009528443659,124.629972299122,3.58009014334228,1,"subseries 8",FALSE,56,7.91004893404368,124.629972299122
"57",129.448027175514,3.29720107896383,124.317419029273,1.83340706727689,1,"subseries 9",FALSE,57,7.06816871747472,124.317419029273
"58",122.080673766207,0.766952252635006,123.840160366017,-2.52643885244521,1,"subseries 10",FALSE,58,8.59504370609042,123.840160366017
"59",115.616245712005,-4.69462426470117,123.254933161313,-2.94406318460683,1,"subseries 11",FALSE,59,8.70218971972829,123.254933161313
"60",114.455140894976,-5.27621875010601,122.228269613283,-2.49690996820121,1,"subseries 12",FALSE,60,12.0768149346348,122.228269613283
"61",115.621772156923,-5.03173732764976,121.269624393851,-0.616114909278153,1,"subseries 1",FALSE,61,8.48166367957303,121.269624393851
"62",117.810896895356,-5.74735351286825,120.370604632314,3.1876457759105,1,"subseries 2",FALSE,62,9.35261964001445,120.370604632314
"63",115.296425544617,-4.17057490860964,119.515691347675,-0.0486908944487539,1,"subseries 3",FALSE,63,6.59808876627222,119.515691347675
"64",122.422314770606,-0.273855413499952,119.003091642565,3.69307854154077,1,"subseries 4",FALSE,64,6.3384231601579,119.003091642565
"65",123.072602033524,4.75846621220474,118.543473836709,-0.229338015389246,1,"subseries 5",FALSE,65,5.22251765919838,118.543473836709
"66",120.473042693863,7.47111701467012,118.235531202668,-5.23360552347557,1,"subseries 6",FALSE,66,5.65836972937188,118.235531202668
"67",120.984250657566,5.54053233452449,118.13671197757,-2.69299365452858,1,"subseries 7",FALSE,67,5.58704582946135,118.13671197757
"68",120.473178054929,3.36009528443659,117.933382120504,-0.820299350011382,1,"subseries 8",FALSE,68,5.6799226968655,117.933382120504
"69",118.587041133074,3.29720107896383,117.949375471837,-2.6595354177271,1,"subseries 9",FALSE,69,6.27361106850126,117.949375471837
"70",119.173086571702,0.766952252635006,117.877765685247,0.528368633819952,1,"subseries 10",FALSE,70,9.67359325003533,117.877765685247
"71",116.172997360893,-4.69462426470117,117.733276904722,3.13434472087216,1,"subseries 11",FALSE,71,9.03627807312861,117.733276904722
"72",114.974736460138,-5.27621875010601,117.793494896336,2.45746031390792,1,"subseries 12",FALSE,72,8.75244542500684,117.793494896336
"73",116.898625011558,-5.03173732764976,117.643609538114,4.28675280109405,1,"subseries 1",FALSE,73,9.27031458928172,117.643609538114
"74",112.542726732161,-5.74735351286825,117.436195376086,0.853884868943339,1,"subseries 2",FALSE,74,7.34235617157466,117.436195376086
"75",111.627876300729,-4.17057490860964,117.058423882982,-1.25997267364322,1,"subseries 3",FALSE,75,6.11769947119938,117.058423882982
"76",109.462361548993,-0.273855413499952,116.483143642193,-6.74692667969957,1,"subseries 4",FALSE,76,4.95014693739995,116.483143642193
"77",123.216313802431,4.75846621220474,115.925398233632,2.53244935659404,1,"subseries 5",FALSE,77,5.86594312820148,115.925398233632
"78",124.394125869299,7.47111701467012,115.35652741813,1.56648143649926,1,"subseries 6",FALSE,78,5.74811614574945,115.35652741813
"79",121.284617575914,5.54053233452449,114.959294064268,0.784791177121647,1,"subseries 7",FALSE,79,5.23925845909063,114.959294064268
"80",114.525137030891,3.36009528443659,114.684204683683,-3.51916293722843,1,"subseries 8",FALSE,80,5.82193206107651,114.684204683683
"81",117.632023083397,3.29720107896383,114.447148436987,-0.112326432553388,1,"subseries 9",FALSE,81,6.2685615049812,114.447148436987
"82",114.82505609758,0.766952252635006,114.091608401903,-0.0335045569583201,1,"subseries 10",FALSE,82,8.9460888169332,114.091608401903
"83",110.847817026048,-4.69462426470117,113.579588951599,1.96285233915059,1,"subseries 11",FALSE,83,7.21943744651548,113.579588951599
"84",109.816354146388,-5.27621875010601,112.832884552915,2.25968834357931,1,"subseries 12",FALSE,84,7.67363462510177,112.832884552915
"85",107.696625902841,-5.03173732764976,111.84230976867,0.886053461820666,1,"subseries 1",FALSE,85,7.2681515709585,111.84230976867
"86",107.660293904577,-5.74735351286825,111.00073447454,2.40691294290544,1,"subseries 2",FALSE,86,6.97115795050525,111.00073447454
"87",107.942212307708,-4.17057490860964,110.055652944956,2.05713427136213,1,"subseries 3",FALSE,87,7.70150210234234,110.055652944956
"88",109.354862145417,-0.273855413499952,109.316895592405,0.311821966512213,1,"subseries 4",FALSE,88,5.95203609680935,109.316895592405
"89",106.208572203494,4.75846621220474,108.863921589935,-7.41381559864615,1,"subseries 5",FALSE,89,4.91747773332589,108.863921589935
"90",112.197538711713,7.47111701467012,108.472451836526,-3.7460301394832,1,"subseries 6",FALSE,90,5.39840103079239,108.472451836526
"91",109.547438325945,5.54053233452449,108.541163497679,-4.53425750625873,1,"subseries 7",FALSE,91,4.1904850132814,108.541163497679
"92",108.86785570509,3.36009528443659,108.935575734566,-3.42781531391223,1,"subseries 8",FALSE,92,6.27863809571919,108.935575734566
"93",116.422200669068,3.29720107896383,109.578546379019,3.54645321108556,1,"subseries 9",FALSE,93,6.91323261749394,109.578546379019
"94",113.45380681524,0.766952252635006,110.141946067051,2.54490849555414,1,"subseries 10",FALSE,94,6.91344155297548,110.141946067051
"95",103.34822989558,-4.69462426470117,110.634394763047,-2.59154060276541,1,"subseries 11",FALSE,95,34.3605169281305,110.634394763047
"96",108.831106422495,-5.27621875010601,111.192030872951,2.91529429965017,1,"subseries 12",FALSE,96,6.99810069934987,111.192030872951
"97",110.737042159995,-5.03173732764976,111.723372956684,4.04540653096048,1,"subseries 1",FALSE,97,7.13949339888789,111.723372956684
"98",110.58794837998,-5.74735351286825,112.293215595609,4.04208629723972,1,"subseries 2",FALSE,98,7.49529345986801,112.293215595609
"99",108.0803546023,-4.17057490860965,112.851118119033,-0.600188608122991,1,"subseries 3",FALSE,99,5.94151616808585,112.851118119033
"100",106.227417732429,-0.273855413499952,113.385217074691,-6.88394392876222,1,"subseries 4",FALSE,100,5.34534469672958,113.385217074691
