"","raw","seasonal","trend","remainder","weights","sub.labels","interpolated","age","sigma","power"
"1",NA,31.0487521707721,202.421267935755,NA,1,"subseries 1",TRUE,1,NA,NA
"2",NA,22.519282438614,201.791473953197,NA,1,"subseries 2",TRUE,2,NA,NA
"3",NA,4.43974774291519,201.163127266687,NA,1,"subseries 3",TRUE,3,NA,NA
"4",NA,-8.79230140043972,200.538761250865,NA,1,"subseries 4",TRUE,4,NA,NA
"5",NA,-18.4132110413788,199.915900400985,NA,1,"subseries 5",TRUE,5,NA,NA
"6",NA,-23.5647139562065,199.29767503201,NA,1,"subseries 6",TRUE,6,NA,NA
"7",176.465173554574,-24.7988976915673,198.680993238838,2.58307800730327,1,"subseries 7",FALSE,7,8.76769693123524,198.680993238838
"8",173.392977621642,-25.131828661736,198.064911702646,0.459894580732197,1,"subseries 8",FALSE,8,8.08342750496845,198.064911702646
"9",171.426779360969,-19.1128584123106,197.451223346221,-6.91158557294133,1,"subseries 9",FALSE,9,6.39177026025428,197.451223346221
"10",195.0154755231,-0.572847399097555,196.821518812196,-1.23319588999891,1,"subseries 10",FALSE,10,17.1086568117904,196.821518812196
"11",223.989891282963,24.2247268203299,196.200666505948,3.56449795668479,1,"subseries 11",FALSE,11,10.576141770354,196.200666505948
"12",238.843009543781,38.1541493901053,195.601394710536,5.08746544314008,1,"subseries 12",FALSE,12,8.98230026702672,195.601394710536
"13",229.860654971646,31.0487521707721,195.021394852782,3.79050794809203,1,"subseries 1",FALSE,13,8.54227212195196,195.021394852782
"14",211.042026283975,22.519282438614,194.559027716913,-6.03628387155209,1,"subseries 2",FALSE,14,14.3315605880299,194.559027716913
"15",192.545627709467,4.43974774291519,194.071360866616,-5.96548090006377,1,"subseries 3",FALSE,15,16.4438245764439,194.071360866616
"16",185.206272373667,-8.79230140043972,193.559949829512,0.438623944594298,1,"subseries 4",FALSE,16,14.8177616780931,193.559949829512
"17",175.662571061509,-18.4132110413788,193.228827528616,0.846954574271649,1,"subseries 5",FALSE,17,12.6448452533133,193.228827528616
"18",171.394596424652,-23.5647139562065,193.097731085995,1.86157929486333,1,"subseries 6",FALSE,18,10.8073559591005,193.097731085995
"19",168.872498739454,-24.7988976915673,193.268939055688,0.402457375332801,1,"subseries 7",FALSE,19,8.86959606624142,193.268939055688
"20",164.964157450343,-25.131828661736,193.502239977675,-3.40625386559586,1,"subseries 8",FALSE,20,6.82551989815576,193.502239977675
"21",166.911915142972,-19.1128584123106,193.62912462936,-7.60435107407707,1,"subseries 9",FALSE,21,6.7632932532147,193.62912462936
"22",200.191227259602,-0.572847399097555,193.521611957487,7.24246270121211,1,"subseries 10",FALSE,22,13.6783805470649,193.521611957487
"23",222.54401142931,24.2247268203299,193.247263534637,5.07202107434321,1,"subseries 11",FALSE,23,11.2832515758809,193.247263534637
"24",233.43454040051,38.1541493901053,193.126351673347,2.15403933705744,1,"subseries 12",FALSE,24,7.88630713377762,193.126351673347
"25",226.113897149312,31.0487521707721,192.906152030994,2.15899294754553,1,"subseries 1",FALSE,25,9.01173468449679,192.906152030994
"26",210.011241326315,22.519282438614,192.772749254293,-5.28079036659216,1,"subseries 2",FALSE,26,11.4674487268755,192.772749254293
"27",195.962247297066,4.43974774291519,192.625015410334,-1.10251585618346,1,"subseries 3",FALSE,27,12.5901793057629,192.625015410334
"28",181.020442236951,-8.79230140043972,192.536663004376,-2.72391936698568,1,"subseries 4",FALSE,28,15.0916309755688,192.536663004376
"29",172.552346753811,-18.4132110413788,192.892631835784,-1.92707404059416,1,"subseries 5",FALSE,29,14.0209477077758,192.892631835784
"30",170.476537234554,-23.5647139562065,193.345724952638,0.695526238122397,1,"subseries 6",FALSE,30,12.7116060876183,193.345724952638
"31",166.332472899563,-24.7988976915673,194.089344843463,-2.95797425233232,1,"subseries 7",FALSE,31,11.80686620366,194.089344843463
"32",160.112779230183,-25.131828661736,194.702281335331,-9.45767344341229,1,"subseries 8",FALSE,32,7.95282896149084,194.702281335331
"33",187.494357999058,-19.1128584123106,195.128289002262,11.4789274091067,1,"subseries 9",FALSE,33,9.74664210516214,195.128289002262
"34",200.91558819818,-0.572847399097555,195.669512674539,5.81892292273838,1,"subseries 10",FALSE,34,10.6109059954548,195.669512674539
"35",222.686822076387,24.2247268203299,196.155165540327,2.30692971573006,1,"subseries 11",FALSE,35,9.5372452187508,196.155165540327
"36",234.694240255768,38.1541493901053,196.674866157074,-0.134775291410875,1,"subseries 12",FALSE,36,9.00748939604393,196.674866157074
"37",227.871042688776,31.0487521707721,197.122848202778,-0.300557684774077,1,"subseries 1",FALSE,37,8.81124513452723,197.122848202778
"38",216.762570123955,22.519282438614,197.786698932318,-3.54341124697746,1,"subseries 2",FALSE,38,10.4993485429505,197.786698932318
"39",200.264065824222,4.43974774291519,198.457296035849,-2.63297795454221,1,"subseries 3",FALSE,39,11.0286986122747,198.457296035849
"40",NA,-8.79230140043972,199.341381454305,NA,1,"subseries 4",TRUE,40,NA,NA
"41",NA,-18.4132110413788,200.325465896866,NA,1,"subseries 5",TRUE,41,NA,NA
"42",NA,-23.5647139562065,200.813243313949,NA,1,"subseries 6",TRUE,42,NA,NA
"43",NA,-24.7988976915673,201.342838462104,NA,1,"subseries 7",TRUE,43,NA,NA
"44",NA,-25.131828661736,201.694056375207,NA,1,"subseries 8",TRUE,44,NA,NA
"45",NA,-19.1128584123106,202.011306364144,NA,1,"subseries 9",TRUE,45,NA,NA
"46",NA,-0.572847399097555,202.880835883391,NA,1,"subseries 10",TRUE,46,NA,NA
"47",226.148368086111,24.2247268203299,203.54534861087,-1.62170734508899,1,"subseries 11",FALSE,47,11.4890631526156,203.54534861087
"48",242.502622795213,38.1541493901053,204.839738952864,-0.491265547755887,1,"subseries 12",FALSE,48,10.5235405227561,204.839738952864
"49",248.378469730476,31.0487521707721,205.606311408622,11.7234061510818,1,"subseries 1",FALSE,49,10.3254973121916,205.606311408622
"50",228.655657189099,22.519282438614,205.087027068731,1.04934768175372,1,"subseries 2",FALSE,50,11.4191070583992,205.087027068731
"51",208.790275062675,4.43974774291519,204.207008235106,0.143519084653661,1,"subseries 3",FALSE,51,13.4553533091552,204.207008235106
"52",191.656805588845,-8.79230140043972,202.825382238085,-2.37627524880031,1,"subseries 4",FALSE,52,11.1447325455422,202.825382238085
"53",181.482284473181,-18.4132110413788,201.307324406929,-1.41182889236907,1,"subseries 5",FALSE,53,10.833207017697,201.307324406929
"54",178.657291504,-23.5647139562065,199.69404550598,2.52795995422605,1,"subseries 6",FALSE,54,14.9040812428249,199.69404550598
"55",181.292053855101,-24.7988976915673,197.775757449189,8.31519409747915,1,"subseries 7",FALSE,55,9.84452092548448,197.775757449189
"56",179.050566262795,-25.131828661736,195.920021251213,8.26237367331771,1,"subseries 8",FALSE,56,10.2215878711048,195.920021251213
"57",174.685800553215,-19.1128584123106,194.256662979617,-0.458004014091273,1,"subseries 9",FALSE,57,6.47079237367573,194.256662979617
"58",183.525132615859,-0.572847399097555,193.232795966083,-9.13481595112648,1,"subseries 10",FALSE,58,12.4592731851664,193.232795966083
"59",207.027601298436,24.2247268203299,192.877568232623,-10.074693754517,1,"subseries 11",FALSE,59,8.50909814003921,192.877568232623
"60",222.869419634867,38.1541493901053,192.114016049899,-7.39874580513694,1,"subseries 12",FALSE,60,11.5836932598337,192.114016049899
"61",204.937333799737,31.0487521707721,192.017956073608,-18.1293744446429,1,"subseries 1",FALSE,61,37.6287575074893,192.017956073608
"62",228.006224363909,22.519282438614,192.364975166609,13.1219667586862,1,"subseries 2",FALSE,62,10.5260606981429,192.364975166609
"63",206.355361897279,4.43974774291519,192.9476119136,8.96800224076432,1,"subseries 3",FALSE,63,10.2050628017405,192.9476119136
"64",189.701279228169,-8.79230140043972,194.034580744876,4.45899988373282,1,"subseries 4",FALSE,64,15.4174747536119,194.034580744876
"65",179.080346961809,-18.4132110413788,195.109013316267,2.38454468692038,1,"subseries 5",FALSE,65,12.7493844950519,195.109013316267
"66",167.567234630946,-23.5647139562065,196.191385725994,-5.05943713884099,1,"subseries 6",FALSE,66,10.8150976634844,196.191385725994
"67",164.048671390372,-24.7988976915673,197.256687392507,-8.40911831056732,1,"subseries 7",FALSE,67,12.4889480077514,197.256687392507
"68",177.187934818744,-25.131828661736,198.267959817099,4.0518036633807,1,"subseries 8",FALSE,68,13.5899832850235,198.267959817099
"69",183.471993431891,-19.1128584123106,199.262588154085,3.32226369011698,1,"subseries 9",FALSE,69,9.03125121073176,199.262588154085
"70",196.709066174688,-0.572847399097555,200.22914461793,-2.94723104414413,1,"subseries 10",FALSE,70,11.8072531740869,200.22914461793
