"","raw","seasonal","trend","remainder","weights","sub.labels","interpolated","age","sigma","power"
"1",17.2403012637626,0.807347757519661,16.1572106132862,0.275742892956753,1,"subseries 1",FALSE,1,0.829805071913844,16.1572106132862
"2",16.8046248016454,0.776800956455559,16.1596442752262,-0.131820430036356,1,"subseries 2",FALSE,2,1.82647950922272,16.1596442752262
"3",15.9030511602375,0.217316442313266,16.1590079187759,-0.47327320085169,1,"subseries 3",FALSE,3,0.844475509352379,16.1590079187759
"4",15.8973240098928,0.0222185829112882,16.148909367637,-0.273803940655466,1,"subseries 4",FALSE,4,0.792550918118132,16.148909367637
"5",15.619407460635,-0.209922107714694,16.1349416985449,-0.305612130195172,1,"subseries 5",FALSE,5,1.00088644630939,16.1349416985449
"6",15.6226723465189,-0.56454035638176,16.1121502587726,0.0750624441280827,1,"subseries 6",FALSE,6,0.940147897031554,16.1121502587726
"7",15.9779837827046,-0.755571712084098,16.0833179325558,0.650237562232888,1,"subseries 7",FALSE,7,1.28648579602158,16.0833179325558
"8",15.7862845449328,-1.0773510608674,16.0793081155791,0.784327490221091,1,"subseries 8",FALSE,8,1.38380795425968,16.0793081155791
"9",15.4602649297052,-0.810834589286833,16.0461828223417,0.224916696650293,1,"subseries 9",FALSE,9,0.67088897010824,16.0461828223417
"10",16.3233253993392,-0.1111629886876,15.9627442708735,0.471744117153335,1,"subseries 10",FALSE,10,0.547654668267198,15.9627442708735
"11",16.3100606033918,0.588811383638845,15.8349629059554,-0.113713686202402,1,"subseries 11",FALSE,11,0.617649342483505,15.8349629059554
"12",16.2650438541083,1.11688769218377,15.6827357067341,-0.534579544809612,1,"subseries 12",FALSE,12,0.584610297864705,15.6827357067341
"13",16.4808443237855,0.807347757519661,15.5373782924615,0.136118273804362,1,"subseries 1",FALSE,13,0.560914898311652,15.5373782924615
"14",15.9707269255653,0.776800956455559,15.4299126667068,-0.235986697597045,1,"subseries 2",FALSE,14,0.671141403423994,15.4299126667068
"15",15.3539482488065,0.217316442313266,15.3949148807596,-0.25828307426641,1,"subseries 3",FALSE,15,1.2226348978168,15.3949148807596
"16",14.8733634386781,0.0222185829112882,15.3985391477688,-0.547394292001968,1,"subseries 4",FALSE,16,1.0001450049038,15.3985391477688
"17",14.5244698261009,-0.209922107714694,15.4645570586636,-0.730165124848044,1,"subseries 5",FALSE,17,0.696118768515444,15.4645570586636
"18",14.1548796376517,-0.56454035638176,15.506427631509,-0.787007637475547,1,"subseries 6",FALSE,18,1.21681297565453,15.506427631509
"19",15.6542547863244,-0.755571712084098,15.5434817648862,0.866344733522322,1,"subseries 7",FALSE,19,1.12982529227909,15.5434817648862
"20",15.1193828325187,-1.0773510608674,15.5847076238816,0.612026269504462,1,"subseries 8",FALSE,20,1.1867227481057,15.5847076238816
"21",15.5712041090499,-0.810834589286833,15.5830601102724,0.798978588064381,1,"subseries 9",FALSE,21,0.742752728419992,15.5830601102724
"22",16.4053728436088,-0.1111629886876,15.6151876799328,0.901348152363584,1,"subseries 10",FALSE,22,0.484148663347804,15.6151876799328
"23",15.8677096362212,0.588811383638845,15.6028744006108,-0.323976148028468,1,"subseries 11",FALSE,23,0.672139583798753,15.6028744006108
"24",15.9900006306131,1.11688769218377,15.5446614210327,-0.671548482603388,1,"subseries 12",FALSE,24,0.557334023711604,15.5446614210327
"25",15.9816990645262,0.807347757519661,15.4690332204873,-0.294681913480794,1,"subseries 1",FALSE,25,0.660989911140981,15.4690332204873
"26",15.9705774733523,0.776800956455559,15.3219641407387,-0.128187623841939,1,"subseries 2",FALSE,26,0.638404253397083,15.3219641407387
"27",15.4352538223328,0.217316442313266,15.1810891502193,0.0368482298002331,1,"subseries 3",FALSE,27,0.801231257966271,15.1810891502193
"28",15.5857963519749,0.0222185829112882,15.1026495606163,0.460928208447285,1,"subseries 4",FALSE,28,0.847043770323046,15.1026495606163
"29",15.3008735279639,-0.209922107714694,15.0540752133359,0.456720422342732,1,"subseries 5",FALSE,29,0.882640879713416,15.0540752133359
"30",14.4279304957264,-0.56454035638176,15.031579498105,-0.0391086459968157,1,"subseries 6",FALSE,30,1.48288659329886,15.031579498105
"31",13.6592733044885,-0.755571712084098,15.0123829346767,-0.597537918104102,1,"subseries 7",FALSE,31,0.738657782112754,15.0123829346767
"32",11.9363257734605,-1.0773510608674,14.9696830608866,-1.95600622655872,1,"subseries 8",FALSE,32,1.32945700133381,14.9696830608866
"33",15.3730307164895,-0.810834589286833,14.9422501772048,1.24161512857154,1,"subseries 9",FALSE,33,0.65259112294607,14.9422501772048
"34",15.8779128621495,-0.1111629886876,14.9391879638538,1.04988788698333,1,"subseries 10",FALSE,34,0.535429994393051,14.9391879638538
"35",15.2760982407587,0.588811383638845,14.9654922422769,-0.278205385157074,1,"subseries 11",FALSE,35,0.499256210075937,14.9654922422769
"36",15.5808540283227,1.11688769218377,15.0147807099845,-0.550814373845522,1,"subseries 12",FALSE,36,0.611808873095718,15.0147807099845
"37",15.3568843458208,0.807347757519661,15.0511544738045,-0.50161788550337,1,"subseries 1",FALSE,37,0.679598202031148,15.0511544738045
"38",16.1936826230722,0.776800956455559,15.0737684682021,0.343113198414567,1,"subseries 2",FALSE,38,0.693557427210175,15.0737684682021
"39",15.5360881433617,0.217316442313266,15.090459712447,0.228311988601405,1,"subseries 3",FALSE,39,0.802837304845473,15.090459712447
"40",15.4914048330436,0.0222185829112882,15.1197653269396,0.349420923192737,1,"subseries 4",FALSE,40,0.731275567581571,15.1197653269396
"41",14.9714784870783,-0.209922107714694,15.1706674206696,0.0107331741234002,1,"subseries 5",FALSE,41,0.916514110011539,15.1706674206696
"42",14.5017295705627,-0.56454035638176,15.2083219725293,-0.142052045584858,1,"subseries 6",FALSE,42,0.822469795490046,15.2083219725293
"43",13.1820175366838,-0.755571712084098,15.2174993760875,-1.27991012731965,1,"subseries 7",FALSE,43,0.606793428440783,15.2174993760875
"44",14.7670740024616,-1.0773510608674,15.181303231236,0.663121832092997,1,"subseries 8",FALSE,44,1.27575458582366,15.181303231236
"45",15.4256319848174,-0.810834589286833,15.1217618915945,1.11470468250971,1,"subseries 9",FALSE,45,0.731429220451667,15.1217618915945
"46",15.6385072231131,-0.1111629886876,15.0867369776595,0.662933234141201,1,"subseries 10",FALSE,46,0.530557618106821,15.0867369776595
"47",15.1850958323058,0.588811383638845,15.0403523232528,-0.444067874585892,1,"subseries 11",FALSE,47,0.633182378458489,15.0403523232528
"48",15.7710388828476,1.11688769218377,15.003786122852,-0.349634932188136,1,"subseries 12",FALSE,48,0.573944115282706,15.003786122852
"49",15.4563763127125,0.807347757519661,14.9625360488936,-0.313507493700774,1,"subseries 1",FALSE,49,0.728011793157652,14.9625360488936
"50",15.2912217406012,0.776800956455559,14.9064195136066,-0.391998729461003,1,"subseries 2",FALSE,50,0.739604028810025,14.9064195136066
"51",15.1778141447629,0.217316442313266,14.8952920089452,0.065205693504474,1,"subseries 3",FALSE,51,0.796747237025246,14.8952920089452
"52",14.8513080339071,0.0222185829112882,14.9031005104642,-0.0740110594684058,1,"subseries 4",FALSE,52,0.923908470129393,14.9031005104642
"53",14.6603686217281,-0.209922107714694,14.9416988308646,-0.0714081014218433,1,"subseries 5",FALSE,53,0.791910909133179,14.9416988308646
"54",13.9545882923476,-0.56454035638176,14.9754667609297,-0.456338112200312,1,"subseries 6",FALSE,54,0.728012594399965,14.9754667609297
"55",14.4648795026209,-0.755571712084098,14.983580391246,0.236870823458993,1,"subseries 7",FALSE,55,1.08466631225197,14.983580391246
"56",14.5730563433271,-1.0773510608674,14.9785108725455,0.671896531648967,1,"subseries 8",FALSE,56,0.817520493912995,14.9785108725455
"57",14.8606927528148,-0.810834589286833,14.9362072074557,0.735320134645955,1,"subseries 9",FALSE,57,0.73613848793219,14.9362072074557
"58",14.9751501378513,-0.1111629886876,14.88976415846,0.196548968078918,1,"subseries 10",FALSE,58,0.489352430437265,14.88976415846
"59",15.0255814108703,0.588811383638845,14.8105128360265,-0.373742808795038,1,"subseries 11",FALSE,59,0.56600185744354,14.8105128360265
"60",15.6286320592879,1.11688769218377,14.7050108001167,-0.193266433012541,1,"subseries 12",FALSE,60,0.592358641941271,14.7050108001167
"61",15.5198901243333,0.807347757519661,14.5857872164971,0.126755150316567,1,"subseries 1",FALSE,61,0.607792803917073,14.5857872164971
"62",15.0596188271912,0.776800956455559,14.4056128237613,-0.122794953025709,1,"subseries 2",FALSE,62,0.672184939076456,14.4056128237613
"63",14.5933139588614,0.217316442313266,14.2094809706908,0.166516545857322,1,"subseries 3",FALSE,63,0.739627827984914,14.2094809706908
"64",14.0444612008826,0.0222185829112882,14.0045478433804,0.0176947745908649,1,"subseries 4",FALSE,64,0.761831027280919,14.0045478433804
"65",14.0851654276375,-0.209922107714694,13.7723218116849,0.522765723667279,1,"subseries 5",FALSE,65,0.763522541565605,13.7723218116849
"66",13.5078275495958,-0.56454035638176,13.6259495144902,0.446418391487327,1,"subseries 6",FALSE,66,0.685851085484586,13.6259495144902
"67",12.9172793797597,-0.755571712084098,13.5220262807005,0.150824811143327,1,"subseries 7",FALSE,67,0.649771833578419,13.5220262807005
"68",11.5449457591073,-1.0773510608674,13.4590944151925,-0.836797595217798,1,"subseries 8",FALSE,68,0.473026886823235,13.4590944151925
"69",10.9143825296892,-0.810834589286833,13.4796313032086,-1.75441418423256,1,"subseries 9",FALSE,69,0.464535580207496,13.4796313032086
"70",11.4436472130034,-0.1111629886876,13.4815648721448,-1.9267546704538,1,"subseries 10",FALSE,70,1.4619501014895,13.4815648721448
"71",15.2656674643646,0.588811383638845,13.5540400398035,1.12281604092225,1,"subseries 11",FALSE,71,0.5625988388142,13.5540400398035
"72",15.5160437535117,1.11688769218377,13.6430920916684,0.756063969659502,1,"subseries 12",FALSE,72,0.574970883921446,13.6430920916684
"73",14.6505652420463,0.807347757519661,13.7376033973167,0.105614087209899,1,"subseries 1",FALSE,73,0.663733331674937,13.7376033973167
"74",15.3891637619795,0.776800956455559,13.8540351661076,0.758327639416331,1,"subseries 2",FALSE,74,0.650687569224323,13.8540351661076
"75",14.5702840151002,0.217316442313266,13.8732482140083,0.479719358778658,1,"subseries 3",FALSE,75,0.79883244775936,13.8732482140083
"76",14.1810099306305,0.0222185829112882,13.8410889300666,0.317702417652598,1,"subseries 4",FALSE,76,0.862069666387777,13.8410889300666
"77",13.9435026774687,-0.209922107714694,13.7260568523463,0.427367932837104,1,"subseries 5",FALSE,77,0.754598226614221,13.7260568523463
"78",13.2649393767369,-0.56454035638176,13.6245871469284,0.204892586190308,1,"subseries 6",FALSE,78,0.722136196190365,13.6245871469284
"79",12.5765073545255,-0.755571712084098,13.5620877358593,-0.230008669249743,1,"subseries 7",FALSE,79,0.523091109586002,13.5620877358593
"80",11.8787697244934,-1.0773510608674,13.5171277280332,-0.561006942672423,1,"subseries 8",FALSE,80,0.471853122893591,13.5171277280332
"81",10.934683646941,-0.810834589286833,13.549865856801,-1.8043476205732,1,"subseries 9",FALSE,81,0.456439761827937,13.549865856801
"82",12.2551295858207,-0.1111629886876,13.5653496477441,-1.19905707323576,1,"subseries 10",FALSE,82,1.56947785208666,13.5653496477441
"83",14.9475991460571,0.588811383638845,13.6388859711431,0.719901791275111,1,"subseries 11",FALSE,83,0.506613189927802,13.6388859711431
"84",15.8290922062483,1.11688769218377,13.763598690213,0.94860582385158,1,"subseries 12",FALSE,84,0.555153949819171,13.763598690213
"85",14.9590837326232,0.807347757519661,13.9055107039322,0.246225271171292,1,"subseries 1",FALSE,85,0.585638640708216,13.9055107039322
"86",15.2394850143649,0.776800956455559,14.111045307812,0.351638750097374,1,"subseries 2",FALSE,86,0.661017962404402,14.111045307812
"87",14.2918056162055,0.217316442313266,14.2834135105561,-0.208924336663859,1,"subseries 3",FALSE,87,0.878299376450886,14.2834135105561
"88",14.1925151481107,0.0222185829112882,14.4102869899228,-0.239990424723391,1,"subseries 4",FALSE,88,0.929990782205412,14.4102869899228
"89",14.0523533491756,-0.209922107714694,14.5056383758931,-0.243362919002779,1,"subseries 5",FALSE,89,0.95758005516752,14.5056383758931
"90",14.144747198529,-0.56454035638176,14.5326396830554,0.176647871855337,1,"subseries 6",FALSE,90,0.923772623087209,14.5326396830554
"91",14.371661967541,-0.755571712084098,14.5396799504432,0.587553729181899,1,"subseries 7",FALSE,91,0.986951741202474,14.5396799504432
"92",13.828423982616,-1.0773510608674,14.538611441368,0.367163602115422,1,"subseries 8",FALSE,92,0.904451673316834,14.538611441368
"93",13.53194142984,-0.810834589286833,14.4957684352417,-0.15299241611487,1,"subseries 9",FALSE,93,0.729760073220503,14.4957684352417
"94",15.0746365644772,-0.1111629886876,14.454375328645,0.731424224519781,1,"subseries 10",FALSE,94,0.766402580803696,14.454375328645
"95",14.9701331151894,0.588811383638845,14.3868880712059,-0.00556633965535092,1,"subseries 11",FALSE,95,0.618858144296118,14.3868880712059
"96",15.1115945582314,1.11688769218377,14.3022858549234,-0.307578988875727,1,"subseries 12",FALSE,96,0.595539080666998,14.3022858549234
"97",14.7555018851066,0.807347757519661,14.2267862480524,-0.278632120465486,1,"subseries 1",FALSE,97,0.720851923724416,14.2267862480524
"98",14.3835112868902,0.776800956455559,14.1361884039697,-0.529478073535079,1,"subseries 2",FALSE,98,0.656778800151841,14.1361884039697
"99",14.486723277361,0.217316442313266,14.065028259873,0.204378575174783,1,"subseries 3",FALSE,99,0.804620519055142,14.065028259873
"100",14.0934095581481,0.0222185829112882,14.0044839070712,0.0667070681656252,1,"subseries 4",FALSE,100,0.903286774445479,14.0044839070712
"101",13.6392060790431,-0.209922107714694,13.9594293431461,-0.110301156388266,1,"subseries 5",FALSE,101,1.00452039129166,13.9594293431461
"102",13.8080593238192,-0.56454035638176,13.9455822911445,0.427017389056491,1,"subseries 6",FALSE,102,0.98554519581079,13.9455822911445
"103",12.9384097134136,-0.755571712084098,13.9342375474033,-0.240256121905619,1,"subseries 7",FALSE,103,0.871098778690337,13.9342375474033
"104",12.7482101643142,-1.0773510608674,13.919111831389,-0.0935506062074332,1,"subseries 8",FALSE,104,0.731104387378395,13.919111831389
"105",12.9217565048002,-0.810834589286833,13.9002673210012,-0.167676226914141,1,"subseries 9",FALSE,105,0.949225605886173,13.9002673210012
"106",13.8793273853243,-0.1111629886876,13.8568981850678,0.133592188944075,1,"subseries 10",FALSE,106,0.699009150820664,13.8568981850678
"107",14.3622841157069,0.588811383638845,13.8032893257838,-0.0298165937157933,1,"subseries 11",FALSE,107,0.633572997716268,13.8032893257838
"108",15.0968217411235,1.11688769218377,13.7487367897976,0.231197259142155,1,"subseries 12",FALSE,108,0.569528539808414,13.7487367897976
"109",14.9173637879399,0.807347757519661,13.6810003404569,0.4290156899633,1,"subseries 1",FALSE,109,0.543552212667469,13.6810003404569
"110",14.3728316945901,0.776800956455559,13.6220986534851,-0.0260679153506036,1,"subseries 2",FALSE,110,0.664248659548005,13.6220986534851
"111",13.6794382054736,0.217316442313266,13.5539511702961,-0.0918294071357302,1,"subseries 3",FALSE,111,0.734133943301932,13.5539511702961
"112",13.2542722131145,0.0222185829112882,13.4575305887564,-0.225476958553216,1,"subseries 4",FALSE,112,0.956479735235772,13.4575305887564
"113",13.0828200358493,-0.209922107714694,13.3543733517107,-0.0616312081467054,1,"subseries 5",FALSE,113,0.97065349522871,13.3543733517107
"114",12.7652949138758,-0.56454035638176,13.263368992626,0.0664662776315499,1,"subseries 6",FALSE,114,0.893958757653205,13.263368992626
"115",12.3477935109135,-0.755571712084098,13.1793664065159,-0.0760011835182652,1,"subseries 7",FALSE,115,0.919142114650987,13.1793664065159
"116",12.5028946676448,-1.0773510608674,13.0958323068364,0.484413421675837,1,"subseries 8",FALSE,116,0.807244378085186,13.0958323068364
"117",12.1262176345237,-0.810834589286833,13.0142667824501,-0.0772145586395414,1,"subseries 9",FALSE,117,0.649391406090839,13.0142667824501
"118",11.9694849392583,-0.1111629886876,12.928621411551,-0.847973483605141,1,"subseries 10",FALSE,118,0.473309632703002,12.928621411551
"119",13.3105825088552,0.588811383638845,12.8430944991781,-0.121323373961706,1,"subseries 11",FALSE,119,0.588567720381517,12.8430944991781
"120",14.6902462588805,1.11688769218377,12.7588577723607,0.814500794335999,1,"subseries 12",FALSE,120,0.672933354999811,12.7588577723607
"121",NA,0.807347757519662,12.6748926762807,NA,1,"subseries 1",TRUE,121,NA,NA
"122",NA,0.77680095645556,12.5932852091577,NA,1,"subseries 2",TRUE,122,NA,NA
"123",12.5701697966457,0.217316442313266,12.5120817653248,-0.159228410992386,1,"subseries 3",FALSE,123,2.52012738862307,12.5120817653248
