"","raw","seasonal","trend","remainder","weights","sub.labels","interpolated","age","sigma","power"
"1",198.216724805229,3.15795613911581,217.278487606407,-22.2197189402935,1,"subseries 1",FALSE,1,8.09561572082603,217.278487606407
"2",194.619003991155,-13.2839961404512,224.7303110656,-16.8273109339935,1,"subseries 2",FALSE,2,17.5682527350045,224.7303110656
"3",212.703811135723,-4.11221374967484,232.092172825611,-15.2761479402128,1,"subseries 3",FALSE,3,23.7510639119185,232.092172825611
"4",291.568568801231,16.9381793030625,239.292550537275,35.3378389608933,1,"subseries 4",FALSE,4,37.9240068811212,239.292550537275
"5",272.829026473243,2.75698412386199,246.390096893197,23.681945456184,1,"subseries 5",FALSE,5,29.1382804268711,246.390096893197
"6",275.626119676687,1.44339340784865,253.801417928644,20.3813083401944,1,"subseries 6",FALSE,6,28.3571806240426,253.801417928644
"7",276.153302501233,1.56816241725822,260.967883664823,13.6172564191519,1,"subseries 7",FALSE,7,14.0609609390243,260.967883664823
"8",NA,-1.46184917768696,268.728231875698,NA,1,"subseries 8",TRUE,8,NA,NA
"9",248.200923357293,-8.37966428595047,275.714679534604,-19.1340918913608,1,"subseries 9",FALSE,9,39.0694963478787,275.714679534604
"10",248.031575523098,-12.7888396479845,279.978261629944,-19.1578464588611,1,"subseries 10",FALSE,10,37.3204153036374,279.978261629944
"11",267.629669602332,-7.0660205166708,283.737671424075,-9.04198130507245,1,"subseries 11",FALSE,11,25.2817651159285,283.737671424075
"12",311.057738156456,21.2279081272715,286.137043623381,3.69278640580382,1,"subseries 12",FALSE,12,17.0453130148531,286.137043623381
"13",317.929434659639,3.1579561391158,288.075034416231,26.6964441042922,1,"subseries 1",FALSE,13,15.1560329527893,288.075034416231
"14",301.217489255221,-13.2839961404512,290.811680457407,23.6898049382655,1,"subseries 2",FALSE,14,34.3867825246356,290.811680457407
"15",313.97283170155,-4.11221374967484,292.844762496633,25.2402829545914,1,"subseries 3",FALSE,15,38.180436523382,292.844762496633
"16",295.827143028805,16.9381793030625,295.567045273942,-16.6780815481994,1,"subseries 4",FALSE,16,18.2847777886413,295.567045273942
"17",289.315790559244,2.75698412386199,297.278297181922,-10.7194907465401,1,"subseries 5",FALSE,17,14.9733751064298,297.278297181922
"18",289.497079906048,1.44339340784865,297.033131354481,-8.97944485628204,1,"subseries 6",FALSE,18,14.4348803129066,297.033131354481
"19",289.629565319028,1.56816241725822,297.176188818757,-9.11478591698705,1,"subseries 7",FALSE,19,13.6733250901881,297.176188818757
"20",299.170650761214,-1.46184917768696,296.838269291279,3.79423064762233,1,"subseries 8",FALSE,20,15.0282412128124,296.838269291279
"21",293.196864643027,-8.37966428595047,297.049531314958,4.52699761401931,1,"subseries 9",FALSE,21,14.5285076493656,297.049531314958
"22",289.179642265591,-12.7888396479845,297.795917995906,4.17256391766961,1,"subseries 10",FALSE,22,15.3787115245917,297.795917995906
"23",300.342356567023,-7.0660205166708,297.928005938363,9.48037114533037,1,"subseries 11",FALSE,23,17.3465580092099,297.928005938363
"24",316.730726196908,21.2279081272715,297.872606556869,-2.36978848723209,1,"subseries 12",FALSE,24,18.9696467551555,297.872606556869
"25",307.025717485324,3.1579561391158,297.02130845334,6.84645289286811,1,"subseries 1",FALSE,25,29.8519409623587,297.02130845334
"26",286.637655284137,-13.2839961404512,296.123988169885,3.79766325470297,1,"subseries 2",FALSE,26,47.3350516607618,296.123988169885
"27",290.359098385009,-4.11221374967484,295.38602051633,-0.914708381646165,1,"subseries 3",FALSE,27,37.5007925322914,295.38602051633
"28",301.275736889362,16.9381793030625,295.127234773243,-10.7896771869434,1,"subseries 4",FALSE,28,15.9264786860833,295.127234773243
"29",290.882193553149,2.75698412386199,295.238452020594,-7.11324259130657,1,"subseries 5",FALSE,29,16.8648638165599,295.238452020594
"30",288.494894149385,1.44339340784865,295.115784810204,-8.06428406866809,1,"subseries 6",FALSE,30,15.5208776041686,295.115784810204
"31",292.942342843194,1.56816241725822,295.118646406837,-3.74446598090117,1,"subseries 7",FALSE,31,14.1718962182722,295.118646406837
"32",286.641912302106,-1.46184917768696,295.144665278829,-7.04090379903562,1,"subseries 8",FALSE,32,14.6309019261845,295.144665278829
"33",297.930433011807,-8.37966428595047,295.24384198235,11.0662553154077,1,"subseries 9",FALSE,33,16.6336800020052,295.24384198235
"34",293.183175917599,-12.7888396479845,295.49228806368,10.4797275019031,1,"subseries 10",FALSE,34,15.7790038606983,295.49228806368
