"","raw","seasonal","trend","remainder","weights","sub.labels","interpolated","age","sigma","power"
"1",109.908796422999,-8.68901172639202,136.259353210758,-17.6615450613671,1,"subseries 1",FALSE,1,22.8077306142773,136.259353210758
"2",128.120099236916,-2.57383102272962,136.997977255592,-6.30404699594672,1,"subseries 2",FALSE,2,19.9215507452477,136.997977255592
"3",145.870336363055,-0.892143936262737,137.692438131043,9.07004216827448,1,"subseries 3",FALSE,3,21.8024103411113,137.692438131043
"4",148.195358610707,1.16022831924365,138.343175326809,8.69195496465412,1,"subseries 4",FALSE,4,32.9607967256242,138.343175326809
"5",152.266599460722,-0.458947359736797,138.933120186457,13.7924266340021,1,"subseries 5",FALSE,5,33.5552406613659,138.933120186457
"6",136.522370053254,-4.94532127989985,139.640497465937,1.82719386721672,1,"subseries 6",FALSE,6,27.0299961896723,139.640497465937
"7",141.374193032152,-6.77278429247495,140.197201927256,7.94977539737118,1,"subseries 7",FALSE,7,30.3059198190358,140.197201927256
"8",137.127818728569,4.07015364558348,140.760797894473,-7.703132811487,1,"subseries 8",FALSE,8,31.4428495695937,140.760797894473
"9",142.055160590508,4.50739584470798,140.925983073795,-3.37821832799489,1,"subseries 9",FALSE,9,28.657821661334,140.925983073795
"10",146.039317602647,8.77441312839635,140.133862604411,-2.86895813016051,1,"subseries 10",FALSE,10,29.6753987437918,140.133862604411
"11",145.95350932553,7.1936035160847,139.353641001468,-0.593735192023104,1,"subseries 11",FALSE,11,32.5112608404292,139.353641001468
"12",135.6593945487,-1.37375483652018,138.713862869804,-1.68071348458352,1,"subseries 12",FALSE,12,31.9167908923261,138.713862869804
"13",137.407712457314,-8.68901172639202,138.275931760446,7.82079242326026,1,"subseries 1",FALSE,13,29.6954332260303,138.275931760446
"14",138.665492937103,-2.57383102272962,138.073712075187,3.16561188464601,1,"subseries 2",FALSE,14,25.6680111387841,138.073712075187
"15",NA,-0.892143936262737,137.872011338943,NA,1,"subseries 3",TRUE,15,NA,NA
"16",128.993266559747,1.16022831924365,137.519966084571,-9.68692784406728,1,"subseries 4",FALSE,16,25.3195567136244,137.519966084571
"17",135.348691146818,-0.458947359736796,136.970232402998,-1.16259389644313,1,"subseries 5",FALSE,17,29.8380696019363,136.970232402998
"18",133.877590595772,-4.94532127989985,136.051698979732,2.77121289594004,1,"subseries 6",FALSE,18,32.5037156008541,136.051698979732
"19",137.513169079107,-6.77278429247495,134.91144896314,9.37450440844239,1,"subseries 7",FALSE,19,32.4393796531149,134.91144896314
"20",138.955867379915,4.07015364558348,133.789770689484,1.09594304484705,1,"subseries 8",FALSE,20,30.2163358548348,133.789770689484
"21",139.34062787399,4.50739584470798,132.546624754539,2.28660727474309,1,"subseries 9",FALSE,21,29.4761357132922,132.546624754539
"22",138.253447349975,8.77441312839635,131.182701352739,-1.70366713116044,1,"subseries 10",FALSE,22,30.4671710095078,131.182701352739
"23",NA,7.1936035160847,129.677275665,NA,1,"subseries 11",TRUE,23,NA,NA
"24",121.669610855048,-1.37375483652018,128.136788403703,-5.09342271213517,1,"subseries 12",FALSE,24,32.0181920695438,128.136788403703
"25",120.465334585001,-8.68901172639202,126.518028960741,2.63631735065179,1,"subseries 1",FALSE,25,27.8368963525835,126.518028960741
"26",120.097985685532,-2.57383102272962,125.061539767551,-2.38972305928961,1,"subseries 2",FALSE,26,24.1232380677601,125.061539767551
"27",126.282939311066,-0.892143936262737,124.02056883903,3.15451440829845,1,"subseries 3",FALSE,27,22.0049327806198,124.02056883903
"28",124.905107938295,1.16022831924365,123.509610538833,0.23526908021833,1,"subseries 4",FALSE,28,22.28637095465,123.509610538833
"29",120.074567717455,-0.458947359736796,123.467105252733,-2.93359017554089,1,"subseries 5",FALSE,29,29.7367472586346,123.467105252733
"30",102.267061631613,-4.94532127989985,123.578495149727,-16.3661122382145,1,"subseries 6",FALSE,30,26.4310517357162,123.578495149727
"31",NA,-6.77278429247495,123.956979830184,NA,1,"subseries 7",TRUE,31,NA,NA
"32",132.741629726257,4.07015364558348,124.233489515237,4.43798656543613,1,"subseries 8",FALSE,32,30.8138386151304,124.233489515237
"33",130.884969979247,4.50739584470798,124.688930172416,1.68864396212327,1,"subseries 9",FALSE,33,28.2309440722707,124.688930172416
"34",133.097338213652,8.77441312839635,125.254653343381,-0.93172825812529,1,"subseries 10",FALSE,34,24.6453720139021,125.254653343381
"35",139.565909975148,7.1936035160847,125.696183711804,6.67612274725892,1,"subseries 11",FALSE,35,31.0877332528848,125.696183711804
"36",122.297857162213,-1.37375483652018,126.42895000757,-2.75733800883654,1,"subseries 12",FALSE,36,30.8830279051365,126.42895000757
"37",123.198472838476,-8.68901172639202,126.889919196485,4.99756536838269,1,"subseries 1",FALSE,37,30.5332251848001,126.889919196485
"38",123.608919620495,-2.57383102272962,127.126301255018,-0.943550611793555,1,"subseries 2",FALSE,38,25.5504120872806,127.126301255018
"39",131.351926829752,-0.892143936262737,127.300519678761,4.94355108725343,1,"subseries 3",FALSE,39,23.395767403255,127.300519678761
"40",124.56930601349,1.16022831924365,127.287625278623,-3.87854758437616,1,"subseries 4",FALSE,40,28.9257949775944,127.287625278623
"41",115.102285573694,-0.458947359736796,127.287315194883,-11.7260822614524,1,"subseries 5",FALSE,41,22.3022549259937,127.287315194883
"42",129.389035156299,-4.94532127989985,126.994687894465,7.33966854173359,1,"subseries 6",FALSE,42,32.0985366112238,126.994687894465
"43",120.930820953817,-6.77278429247495,126.601495899496,1.10210934679554,1,"subseries 7",FALSE,43,33.2478246844734,126.601495899496
"44",135.457725666279,4.07015364558348,126.171555470705,5.21601654999098,1,"subseries 8",FALSE,44,29.0017022094465,126.171555470705
"45",127.919007277449,4.50739584470798,125.537612324784,-2.12600089204285,1,"subseries 9",FALSE,45,28.9629923668992,125.537612324784
"46",140.769705140477,8.77441312839635,124.88004248978,7.11524952230022,1,"subseries 10",FALSE,46,26.2700047316007,124.88004248978
"47",130.993275828749,7.1936035160847,123.824305189468,-0.024632876803409,1,"subseries 11",FALSE,47,30.3097077302945,123.824305189468
"48",118.831971948133,-1.37375483652018,122.100365390571,-1.89463860591802,1,"subseries 12",FALSE,48,32.6676357780712,122.100365390571
"49",109.53309235654,-8.68901172639202,119.927748827038,-1.70564474410568,1,"subseries 1",FALSE,49,29.1602650988577,119.927748827038
"50",121.171265402612,-2.57383102272962,117.404200314689,6.34089611065257,1,"subseries 2",FALSE,50,26.8859109622632,117.404200314689
"51",118.27638410407,-0.892143936262737,114.698200889461,4.47032715087215,1,"subseries 3",FALSE,51,21.7834596215153,114.698200889461
"52",119.079388390381,1.16022831924365,112.26383137471,5.65532869642765,1,"subseries 4",FALSE,52,13.1170810613313,112.26383137471
"53",100.780271839979,-0.458947359736797,109.864338765876,-8.62511956616034,1,"subseries 5",FALSE,53,19.1384522789675,109.864338765876
"54",101.693577465839,-4.94532127989985,107.614050383485,-0.975151637746421,1,"subseries 6",FALSE,54,25.8239422680352,107.614050383485
"55",90.6882447099808,-6.77278429247495,105.525851652981,-8.06482265052477,1,"subseries 7",FALSE,55,33.4570545121016,105.525851652981
"56",107.633873305193,4.07015364558348,105.246503585826,-1.68278392621679,1,"subseries 8",FALSE,56,29.6572816856078,105.246503585826
"57",102.025704850487,4.50739584470798,105.916020120757,-8.39771111497824,1,"subseries 9",FALSE,57,26.4650377333274,105.916020120757
"58",113.814436066338,8.77441312839635,106.91959800968,-1.87957507173884,1,"subseries 10",FALSE,58,24.0426561475047,106.91959800968
"59",NA,7.1936035160847,108.830154635231,NA,1,"subseries 11",TRUE,59,NA,NA
"60",NA,-1.37375483652018,110.187578734696,NA,1,"subseries 12",TRUE,60,NA,NA
"61",NA,-8.68901172639202,111.935144034399,NA,1,"subseries 1",TRUE,61,NA,NA
"62",NA,-2.57383102272962,113.775803924263,NA,1,"subseries 2",TRUE,62,NA,NA
"63",99.9939495732083,-0.892143936262737,115.588338162772,-14.7022446533008,1,"subseries 3",FALSE,63,14.0648666386154,115.588338162772
"64",124.482710335259,1.16022831924365,117.499785374157,5.8226966418581,1,"subseries 4",FALSE,64,21.8967567790202,117.499785374157
"65",133.805209395853,-0.458947359736797,119.273684564479,14.9904721911111,1,"subseries 5",FALSE,65,30.000799290324,119.273684564479
"66",117.709807940906,-4.94532127989985,121.243318335033,1.41181088577312,1,"subseries 6",FALSE,66,27.1477248034049,121.243318335033
"67",120.303533991609,-6.77278429247495,122.937157604016,4.13916068006804,1,"subseries 7",FALSE,67,31.2640032656039,122.937157604016
"68",130.760685115346,4.07015364558348,124.057821136868,2.6327103328948,1,"subseries 8",FALSE,68,32.2052809096191,124.057821136868
"69",123.08497048486,4.50739584470798,124.769684673179,-6.19211003302705,1,"subseries 9",FALSE,69,30.2135733660001,124.769684673179
"70",133.748098844653,8.77441312839635,125.105302823071,-0.131617106814659,1,"subseries 10",FALSE,70,29.0769543913925,125.105302823071
"71",143.599022713626,7.1936035160847,125.139028639541,11.2663905579999,1,"subseries 11",FALSE,71,23.8951030398312,125.139028639541
"72",NA,-1.37375483652018,125.044282064354,NA,1,"subseries 12",TRUE,72,NA,NA
"73",118.768951244974,-8.68901172639202,124.735718800512,2.722244170854,1,"subseries 1",FALSE,73,28.781146183018,124.735718800512
"74",122.863343103826,-2.57383102272962,124.644000023013,0.793174103542341,1,"subseries 2",FALSE,74,26.9285566240807,124.644000023013
"75",NA,-0.892143936262737,124.618102447025,NA,1,"subseries 3",TRUE,75,NA,NA
"76",NA,1.16022831924365,124.772066679143,NA,1,"subseries 4",TRUE,76,NA,NA
"77",122.332305677541,-0.458947359736796,125.133131734091,-2.3418786968135,1,"subseries 5",FALSE,77,27.0077814254229,125.133131734091
"78",118.657597272288,-4.94532127989985,125.099478316283,-1.49655976409528,1,"subseries 6",FALSE,78,26.8076006597128,125.099478316283
"79",96.3295678499512,-6.77278429247495,125.228268132547,-22.1259159901205,1,"subseries 7",FALSE,79,20.815130133728,125.228268132547
"80",131.28001128978,4.07015364558348,125.276554623414,1.9333030207827,1,"subseries 8",FALSE,80,31.3346225342394,125.276554623414
"81",137.540212504575,4.50739584470798,125.503019115273,7.52979754459426,1,"subseries 9",FALSE,81,29.7270968398187,125.503019115273
"82",139.751759325051,8.77441312839635,126.061642727376,4.9157034692788,1,"subseries 10",FALSE,82,28.8671330193553,126.061642727376
"83",136.400432382121,7.1936035160847,126.683553271171,2.52327559486487,1,"subseries 11",FALSE,83,26.537664407377,126.683553271171
"84",130.152591258323,-1.37375483652018,127.51379528716,4.0125508076832,1,"subseries 12",FALSE,84,26.8402620585115,127.51379528716
"85",NA,-8.68901172639202,128.276614326199,NA,1,"subseries 1",TRUE,85,NA,NA
"86",NA,-2.57383102272962,129.199673135923,NA,1,"subseries 2",TRUE,86,NA,NA
"87",124.067765820044,-0.892143936262737,129.935545402349,-4.97563564604211,1,"subseries 3",FALSE,87,24.7301581976035,129.935545402349
"88",126.511367197917,1.16022831924365,130.092960242394,-4.74182136372089,1,"subseries 4",FALSE,88,26.4280597522358,130.092960242394
"89",NA,-0.458947359736796,130.187832393929,NA,1,"subseries 5",TRUE,89,NA,NA
"90",133.231864452704,-4.94532127989985,130.346765805349,7.83041992725435,1,"subseries 6",FALSE,90,30.7308224392043,130.346765805349
"91",122.85067124248,-6.77278429247495,130.47301638394,-0.849560848985504,1,"subseries 7",FALSE,91,32.3474259543347,130.47301638394
"92",137.468351501474,4.07015364558348,130.599564710666,2.79863314522439,1,"subseries 8",FALSE,92,31.5842841394167,130.599564710666
"93",139.222051082523,4.50739584470798,130.729565779466,3.98508945834917,1,"subseries 9",FALSE,93,30.6644905682164,130.729565779466
"94",134.749070604809,8.77441312839635,130.84794365411,-4.87328617769704,1,"subseries 10",FALSE,94,30.5696475692291,130.84794365411
"95",137.00739191948,7.1936035160847,130.906580336075,-1.09279193267969,1,"subseries 11",FALSE,95,25.8239894060542,130.906580336075
"96",129.112753642305,-1.37375483652018,130.843702837109,-0.357194358283778,1,"subseries 12",FALSE,96,28.8026136575507,130.843702837109
"97",NA,-8.68901172639202,130.700939067417,NA,1,"subseries 1",TRUE,97,NA,NA
"98",NA,-2.57383102272962,130.389824350608,NA,1,"subseries 2",TRUE,98,NA,NA
"99",NA,-0.892143936262737,130.020012524913,NA,1,"subseries 3",TRUE,99,NA,NA
"100",NA,1.16022831924365,129.656171537818,NA,1,"subseries 4",TRUE,100,NA,NA
"101",NA,-0.458947359736796,129.269354788881,NA,1,"subseries 5",TRUE,101,NA,NA
"102",124.041628412222,-4.94532127989985,128.964567868858,0.0223818232639701,1,"subseries 6",FALSE,102,27.1568224272358,128.964567868858
"103",132.326378349459,-6.77278429247495,128.657197410955,10.4419652309785,1,"subseries 7",FALSE,103,32.5916978320202,128.657197410955
"104",125.754730148317,4.07015364558348,128.365302589984,-6.68072608725032,1,"subseries 8",FALSE,104,37.2048355735945,128.365302589984
"105",138.857487206938,4.50739584470798,128.071409674735,6.27868168749475,1,"subseries 9",FALSE,105,26.6011357304365,128.071409674735
"106",138.245022709454,8.77441312839635,127.763351010184,1.70725857087403,1,"subseries 10",FALSE,106,26.6358739797341,127.763351010184
"107",116.075813338061,7.1936035160847,127.451708935312,-18.5694991133359,1,"subseries 11",FALSE,107,28.7005291154645,127.451708935312
"108",133.659406811996,-1.37375483652018,127.115240621481,7.91792102703569,1,"subseries 12",FALSE,108,25.7863483834875,127.115240621481
"109",119.451429174571,-8.68901172639202,126.774006100118,1.36643480084498,1,"subseries 1",FALSE,109,27.832042191452,126.774006100118
