"","raw","seasonal","trend","remainder","weights","sub.labels","interpolated","age","sigma","power"
"1",109.295760977838,13.5076212648991,96.0894456092025,-0.301305896263642,1,"subseries 1",FALSE,1,14.971314088099,96.0894456092025
"2",NA,14.6158791615493,96.4776038541576,NA,1,"subseries 2",TRUE,2,NA,NA
"3",NA,6.38551842451643,96.9192158892318,NA,1,"subseries 3",TRUE,3,NA,NA
"4",110.557810576984,4.37018850780027,97.5012132250033,8.68640884418045,1,"subseries 4",FALSE,4,6.55029805487931,97.5012132250033
"5",109.476991936353,1.55266391571645,98.1461132889851,9.77821473165143,1,"subseries 5",FALSE,5,7.7270500078238,98.1461132889851
"6",96.586836861336,-6.95655896689427,98.9497690426924,4.59362678553784,1,"subseries 6",FALSE,6,15.5696062719597,98.9497690426924
"7",83.1689079906992,-11.0327946902191,99.8320534905257,-5.63035080960732,1,"subseries 7",FALSE,7,3.22744861335833,99.8320534905257
"8",81.6929714086323,-9.65610478335997,100.698238427854,-9.34916223586201,1,"subseries 8",FALSE,8,5.982234637965,100.698238427854
"9",75.4992812201246,-9.37168945318322,101.723724635817,-16.8527539625088,1,"subseries 9",FALSE,9,5.22075952826375,101.723724635817
"10",68.2243660333311,-11.4052639575496,102.733362375142,-23.103732384261,1,"subseries 10",FALSE,10,3.95673777226326,102.733362375142
"11",116.759640327274,5.85588685297104,104.08588251766,6.81787095664255,1,"subseries 11",FALSE,11,5.26780290089534,104.08588251766
"12",113.498315612207,2.13465372375351,105.626561580843,5.73710030761032,1,"subseries 12",FALSE,12,4.7666385567827,105.626561580843
"13",129.780195600592,13.5076212648991,107.614568237722,8.6580060979713,1,"subseries 1",FALSE,13,5.02927530319812,107.614568237722
"14",129.455051903553,14.6158791615493,110.325159917243,4.51401282476029,1,"subseries 2",FALSE,14,4.43355250815863,110.325159917243
"15",122.639338000983,6.38551842451643,112.763228879897,3.49059069656937,1,"subseries 3",FALSE,15,6.5359025104081,112.763228879897
"16",117.913001436363,4.37018850780027,115.135014062385,-1.59220113382226,1,"subseries 4",FALSE,16,6.63498620179901,115.135014062385
"17",NA,1.55266391571645,116.950240880893,NA,1,"subseries 5",TRUE,17,NA,NA
"18",106.297814784646,-6.95655896689427,117.925909769804,-4.67153601826422,1,"subseries 6",FALSE,18,12.2766420177871,117.925909769804
"19",110.026494650158,-11.0327946902191,118.511223453164,2.54806588721277,1,"subseries 7",FALSE,19,7.13852254832421,118.511223453164
"20",119.067958815373,-9.65610478335997,118.80396583527,9.92009776346309,1,"subseries 8",FALSE,20,5.98286373490033,118.80396583527
"21",113.593300038455,-9.37168945318322,118.76753221524,4.19745727639845,1,"subseries 9",FALSE,21,5.45712084117689,118.76753221524
"22",107.293687417569,-11.4052639575496,118.739482500998,-0.040531125879653,1,"subseries 10",FALSE,22,5.3363754183676,118.739482500998
"23",129.367525860995,5.85588685297104,118.401055956508,5.11058305151644,1,"subseries 11",FALSE,23,10.2400404701228,118.401055956508
"24",115.753965672771,2.13465372375351,117.865419553676,-4.24610760465802,1,"subseries 12",FALSE,24,8.26645296842276,117.865419553676
"25",129.592751494736,13.5076212648991,117.274452087882,-1.18932185804488,1,"subseries 1",FALSE,25,4.23415347722884,117.274452087882
"26",127.57066156487,14.6158791615493,116.414655157271,-3.45987275395028,1,"subseries 2",FALSE,26,5.03988148594522,116.414655157271
"27",122.793291175556,6.38551842451643,115.841963746998,0.565809004041995,1,"subseries 3",FALSE,27,6.7127762909537,115.841963746998
"28",116.235623161142,4.37018850780027,115.817503882975,-3.95206922963328,1,"subseries 4",FALSE,28,6.1661248960185,115.817503882975
"29",115.509763446827,1.55266391571645,116.272355063192,-2.31525553208157,1,"subseries 5",FALSE,29,5.64299010877185,116.272355063192
"30",109.796726074694,-6.95655896689427,116.539261319384,0.214023722204047,1,"subseries 6",FALSE,30,7.17292322897544,116.539261319384
"31",103.836940220965,-11.0327946902191,116.745833534823,-1.87609862363929,1,"subseries 7",FALSE,31,4.69415169612859,116.745833534823
"32",101.060733032735,-9.65610478335997,116.841171981519,-6.12433416542407,1,"subseries 8",FALSE,32,4.72854105429164,116.841171981519
"33",122.24210307073,-9.37168945318322,116.616099531515,14.9976929923983,1,"subseries 9",FALSE,33,10.0363630110555,116.616099531515
"34",119.560228021171,-11.4052639575496,116.588799753291,14.3766922254298,1,"subseries 10",FALSE,34,5.16109475879557,116.588799753291
"35",113.335669536291,5.85588685297104,116.267785766587,-8.78800308326684,1,"subseries 11",FALSE,35,5.87609673577725,116.267785766587
"36",113.691301986912,2.13465372375351,115.920145448311,-4.36349718515275,1,"subseries 12",FALSE,36,7.37059398929821,115.920145448311
"37",125.502937590198,13.5076212648991,115.537672670001,-3.54235634470214,1,"subseries 1",FALSE,37,4.43831960503891,115.537672670001
"38",127.81269533722,14.6158791615493,115.034332779649,-1.8375166039784,1,"subseries 2",FALSE,38,4.75062707281883,115.034332779649
"39",122.393433942762,6.38551842451643,114.973550248335,1.03436526991088,1,"subseries 3",FALSE,39,4.73868890439504,114.973550248335
"40",117.104671195859,4.37018850780027,115.011176047028,-2.27669335896954,1,"subseries 4",FALSE,40,5.55427233296246,115.011176047028
"41",110.794600075433,1.55266391571645,115.408897334433,-6.16696117471673,1,"subseries 5",FALSE,41,6.99916632198779,115.408897334433
"42",109.730899300838,-6.95655896689427,115.937913963417,0.749544304314867,1,"subseries 6",FALSE,42,6.64122215119621,115.937913963417
"43",110.793967471702,-11.0327946902191,116.28825322476,5.53850893716154,1,"subseries 7",FALSE,43,7.62618374013791,116.28825322476
"44",112.479297089424,-9.65610478335997,116.299907610858,5.83549426192548,1,"subseries 8",FALSE,44,4.37277057655895,116.299907610858
"45",104.316888639049,-9.37168945318322,115.985316018203,-2.29673792597085,1,"subseries 9",FALSE,45,6.83755507115467,115.985316018203
"46",112.739962868392,-11.4052639575496,115.559192894889,8.58603393105294,1,"subseries 10",FALSE,46,11.049297478204,115.559192894889
"47",117.466527646816,5.85588685297104,114.997620921036,-3.38698012719119,1,"subseries 11",FALSE,47,5.91477166010333,114.997620921036
"48",119.242311139143,2.13465372375351,114.462943908223,2.64471350716688,1,"subseries 12",FALSE,48,4.17746804115394,114.462943908223
"49",125.524886686857,13.5076212648991,113.878502415928,-1.86123699396973,1,"subseries 1",FALSE,49,4.52331955496916,113.878502415928
"50",128.74533605147,14.6158791615493,113.229590294243,0.89986659567812,1,"subseries 2",FALSE,50,4.58504862223059,113.229590294243
"51",114.086769300609,6.38551842451643,112.547986885185,-4.84673600909213,1,"subseries 3",FALSE,51,6.09148669742956,112.547986885185
"52",116.77635346008,4.37018850780027,111.807235351906,0.598929600373424,1,"subseries 4",FALSE,52,6.61912361090526,111.807235351906
