"","raw","seasonal","trend","remainder","weights","sub.labels","interpolated","age","sigma","power"
"1",281.564218372552,-5.91133414558003,286.897444372611,0.578108145521014,1,"subseries 1",FALSE,1,51.9932052633911,286.897444372611
"2",300.004278896749,13.2486861023292,288.803039296288,-2.04744650186808,1,"subseries 2",FALSE,2,38.6644692642915,288.803039296288
"3",312.011555111784,19.2221409771333,290.676569755736,2.11284437891459,1,"subseries 3",FALSE,3,50.8212675978928,290.676569755736
"4",299.132888139449,11.8559289137062,292.46830788211,-5.1913486563671,1,"subseries 4",FALSE,4,53.0062125497146,292.46830788211
"5",293.908642327267,5.90548739683634,294.21572928872,-6.21257435828886,1,"subseries 5",FALSE,5,47.6848644235533,294.21572928872
"6",304.920523200637,4.06945394243959,295.87465097864,4.97641827955778,1,"subseries 6",FALSE,6,42.9877805603667,295.87465097864
"7",300.254291090361,0.377293105454205,297.457652389192,2.41934559571445,1,"subseries 7",FALSE,7,44.8664999740122,297.457652389192
"8",289.665357217216,-16.4683798503352,299.2131677856,6.92056928195115,1,"subseries 8",FALSE,8,35.1740825842099,299.2131677856
"9",296.789779899728,-11.9457585239699,300.673403653728,8.06213476996953,1,"subseries 9",FALSE,9,10.3765533189036,300.673403653728
"10",294.845680695129,-5.78746484423418,301.521163068677,-0.888017529313629,1,"subseries 10",FALSE,10,11.0409453433808,301.521163068677
"11",293.679542991024,-9.50364386130352,301.795323287642,1.38786356468597,1,"subseries 11",FALSE,11,9.55164673819753,301.795323287642
"12",294.602088749219,-5.06240921247601,301.587914246441,-1.92341628474645,1,"subseries 12",FALSE,12,9.9049756764389,301.587914246441
"13",301.682818884914,-5.91133414558003,301.095325792883,6.49882723761141,1,"subseries 1",FALSE,13,15.3329907821189,301.095325792883
"14",309.390332978738,13.2486861023292,300.045017740498,-3.90337086408948,1,"subseries 2",FALSE,14,13.7655334603886,300.045017740498
"15",315.932332306193,19.2221409771333,298.774736314019,-2.06454498495913,1,"subseries 3",FALSE,15,7.3720097912227,298.774736314019
"16",312.67562145827,11.8559289137062,297.626594631077,3.19309791348684,1,"subseries 4",FALSE,16,9.28778707254328,297.626594631077
"17",306.725770035348,5.90548739683634,296.495719666926,4.32456297158541,1,"subseries 5",FALSE,17,8.91063715655214,296.495719666926
"18",298.886364039705,4.06945394243959,296.01174017143,-1.19483007416449,1,"subseries 6",FALSE,18,10.2574317591678,296.01174017143
"19",297.103311769597,0.377293105454205,296.084833128205,0.641185535937325,1,"subseries 7",FALSE,19,11.3163970897736,296.084833128205
"20",266.736027402855,-16.4683798503352,296.51733849047,-13.3129312372799,1,"subseries 8",FALSE,20,36.279281827576,296.51733849047
"21",271.431525368941,-11.9457585239699,297.675129955846,-14.2978460629355,1,"subseries 9",FALSE,21,28.7949238648164,297.675129955846
"22",293.539564557739,-5.78746484423418,298.756866610764,0.570162791208816,1,"subseries 10",FALSE,22,11.8394922689914,298.756866610764
"23",293.080719956882,-9.50364386130352,300.351900041241,2.23246377694437,1,"subseries 11",FALSE,23,10.052109669782,300.351900041241
"24",301.573736225679,-5.06240921247601,302.097228230881,4.5389172072741,1,"subseries 12",FALSE,24,8.2584506222967,302.097228230881
"25",300.111944205944,-5.91133414558003,303.637115173811,2.38616317771289,1,"subseries 1",FALSE,25,8.14120345247287,303.637115173811
"26",326.603418101851,13.2486861023292,305.352554768356,8.00217723116623,1,"subseries 2",FALSE,26,15.9043726290867,305.352554768356
"27",327.400612286207,19.2221409771333,306.338016572489,1.84045473658472,1,"subseries 3",FALSE,27,10.5232539195139,306.338016572489
"28",322.334194579101,11.8559289137062,306.770681426893,3.70758423850208,1,"subseries 4",FALSE,28,9.02056669562188,306.770681426893
"29",315.874685377541,5.90548739683634,306.613180722069,3.35601725863603,1,"subseries 5",FALSE,29,9.52642442401502,306.613180722069
"30",306.672948209416,4.06945394243959,305.172597692435,-2.5691034254582,1,"subseries 6",FALSE,30,10.2796743318258,305.172597692435
"31",301.711690140366,0.377293105454205,303.326684080664,-1.99228704575177,1,"subseries 7",FALSE,31,10.1616912496113,303.326684080664
"32",292.469265981113,-16.4683798503352,301.532751359593,7.40489447185502,1,"subseries 8",FALSE,32,10.140813697562,301.532751359593
"33",295.006326083648,-11.9457585239699,299.601982723154,7.3501018844641,1,"subseries 9",FALSE,33,8.40550757009099,299.601982723154
"34",293.513262289518,-5.78746484423418,297.698460218767,1.60226691498502,1,"subseries 10",FALSE,34,11.6189581303628,297.698460218767
"35",284.076316367992,-9.50364386130352,295.735206731547,-2.15524650225126,1,"subseries 11",FALSE,35,12.2632477207771,295.735206731547
"36",287.611702926492,-5.06240921247601,293.694660446087,-1.02054830711938,1,"subseries 12",FALSE,36,8.00925277580114,293.694660446087
"37",279.096912640849,-5.91133414558003,291.610924108721,-6.60267732229198,1,"subseries 1",FALSE,37,7.39430166096988,291.610924108721
