"","raw","seasonal","trend","remainder","weights","sub.labels","interpolated","age","sigma","power"
"1",NA,1.19676323655159,43.4210737424389,NA,1,"subseries 1",TRUE,1,NA,NA
"2",NA,-1.98738400389546,50.1712580653456,NA,1,"subseries 2",TRUE,2,NA,NA
"3",NA,3.30348417392447,56.8186666441005,NA,1,"subseries 3",TRUE,3,NA,NA
"4",NA,4.81544130947376,63.2950243290212,NA,1,"subseries 4",TRUE,4,NA,NA
"5",NA,2.88716744726647,69.6521495974594,NA,1,"subseries 5",TRUE,5,NA,NA
"6",NA,6.45833578993062,75.758938005243,NA,1,"subseries 6",TRUE,6,NA,NA
"7",NA,2.16558354624883,81.7291905968606,NA,1,"subseries 7",TRUE,7,NA,NA
"8",39.2240390796834,-5.59765338525726,87.3324382895977,-42.5107458246571,1,"subseries 8",FALSE,8,13.0541397618641,87.3324382895977
"9",102.746872114641,-3.65652902407003,92.7853209685692,13.6180801701418,1,"subseries 9",FALSE,9,25.3682886174644,92.7853209685692
"10",105.371487178583,-3.73047295795425,97.924253923689,11.1777062128483,1,"subseries 10",FALSE,10,17.7268493669658,97.924253923689
"11",108.420344208341,-0.767691429883132,102.872611756707,6.31542388151701,1,"subseries 11",FALSE,11,16.1779187693395,102.872611756707
"12",112.917623054917,-5.08704470233562,107.721171829769,10.2834959274834,1,"subseries 12",FALSE,12,18.3139523285939,107.721171829769
"13",114.018390463077,1.19676323655159,112.217843207061,0.603784019464328,1,"subseries 1",FALSE,13,13.8554335413923,112.217843207061
"14",118.684741366127,-1.98738400389546,116.816585078863,3.85554029115973,1,"subseries 2",FALSE,14,18.1745376540519,116.816585078863
"15",131.22104015609,3.30348417392447,120.498831991273,7.41872399089237,1,"subseries 3",FALSE,15,18.0598570359033,120.498831991273
"16",146.458723319921,4.81544130947376,122.449436824069,19.1938451863787,1,"subseries 4",FALSE,16,22.3273165263277,122.449436824069
"17",136.061931731209,2.88716744726647,123.166006393129,10.0087578908134,1,"subseries 5",FALSE,17,22.5803122023802,123.166006393129
"18",140.27869499362,6.45833578993062,122.757786209461,11.0625729942285,1,"subseries 6",FALSE,18,20.7362586036465,122.757786209461
"19",116.63515832131,2.16558354624883,121.498103319228,-7.02852854416686,1,"subseries 7",FALSE,19,21.3083969875648,121.498103319228
"20",109.972525436335,-5.59765338525726,119.861165909762,-4.29098708816952,1,"subseries 8",FALSE,20,19.7723827922125,119.861165909762
"21",108.715144626537,-3.65652902407003,118.321369542542,-5.94969589193478,1,"subseries 9",FALSE,21,20.9850678297935,118.321369542542
"22",109.20629566886,-3.73047295795425,116.715685114487,-3.778916487673,1,"subseries 10",FALSE,22,20.3419171909361,116.715685114487
"23",111.391857601824,-0.767691429883132,116.119421030348,-3.95987199864078,1,"subseries 11",FALSE,23,19.9148742402527,116.119421030348
"24",104.452709639036,-5.08704470233562,115.76614732489,-6.22639298351861,1,"subseries 12",FALSE,24,17.9402462089994,115.76614732489
"25",111.222724384453,1.19676323655159,115.916765036199,-5.89080388829771,1,"subseries 1",FALSE,25,18.6192193917321,115.916765036199
"26",116.398592522922,-1.98738400389546,116.09944645369,2.28653007312714,1,"subseries 2",FALSE,26,18.735596948774,116.09944645369
"27",127.231538121649,3.30348417392447,115.955244181738,7.97280976598665,1,"subseries 3",FALSE,27,19.4786652923546,115.955244181738
"28",133.286501559684,4.81544130947376,115.712983509303,12.7580767409071,1,"subseries 4",FALSE,28,25.1320743335181,115.712983509303
"29",120.680219761778,2.88716744726647,114.736907424532,3.05614488997904,1,"subseries 5",FALSE,29,22.6355970091892,114.736907424532
"30",121.238262381528,6.45833578993062,113.743778898585,1.03614769301221,1,"subseries 6",FALSE,30,22.2673637185313,113.743778898585
"31",113.379723684054,2.16558354624883,112.210362324648,-0.99622218684253,1,"subseries 7",FALSE,31,19.5558974792116,112.210362324648
"32",107.063405346486,-5.59765338525726,109.998935316404,2.66212341533935,1,"subseries 8",FALSE,32,19.9528465850078,109.998935316404
"33",98.2838021699108,-3.65652902407003,107.677153786764,-5.73682259278284,1,"subseries 9",FALSE,33,21.7661755267123,107.677153786764
"34",95.0465678228552,-3.73047295795425,104.96844236794,-6.19140158713103,1,"subseries 10",FALSE,34,18.6520852627203,104.96844236794
"35",104.379432638123,-0.767691429883132,102.252991259268,2.89413280873838,1,"subseries 11",FALSE,35,15.7434517658395,102.252991259268
"36",103.64604797428,-5.08704470233562,99.7658519840459,8.96724069256976,1,"subseries 12",FALSE,36,18.5045825828232,99.7658519840459
"37",97.1742398896396,1.19676323655159,97.3859557250836,-1.40847907199561,1,"subseries 1",FALSE,37,20.1401652168621,97.3859557250836
"38",94.4503201492484,-1.98738400389546,95.7292936175244,0.708410535619407,1,"subseries 2",FALSE,38,19.7774760641473,95.7292936175244
"39",92.1278393945918,3.30348417392447,94.3984240491405,-5.57406882847319,1,"subseries 3",FALSE,39,20.5065687681206,94.3984240491405
"40",91.8684719924144,4.81544130947376,93.3325282387055,-6.27949755576491,1,"subseries 4",FALSE,40,19.7024579117761,93.3325282387055
"41",NA,2.88716744726647,92.6937357893412,NA,1,"subseries 5",TRUE,41,NA,NA
"42",NA,6.45833578993062,92.3507608699211,NA,1,"subseries 6",TRUE,42,NA,NA
"43",83.1977667288825,2.16558354624883,92.4500837174842,-11.4179005348505,1,"subseries 7",FALSE,43,24.2709047835945,92.4500837174842
"44",87.7193871291789,-5.59765338525726,92.5126236915915,0.804416822844658,1,"subseries 8",FALSE,44,20.6946801372494,92.5126236915915
"45",87.5883014767449,-3.65652902407003,92.8625416036072,-1.61771110279227,1,"subseries 9",FALSE,45,18.7241700408943,92.8625416036072
"46",89.8302478839176,-3.73047295795425,93.3114408751312,0.249279966740673,1,"subseries 10",FALSE,46,17.2544747384121,93.3114408751312
"47",90.2416035223843,-0.767691429883132,94.009739106843,-3.00044415457553,1,"subseries 11",FALSE,47,16.0921281367993,94.009739106843
"48",99.6084893606391,-5.08704470233562,94.5345676576094,10.1609664053653,1,"subseries 12",FALSE,48,17.5242794909465,94.5345676576094
"49",89.8055789804604,1.19676323655159,94.8082287577418,-6.19941301383297,1,"subseries 1",FALSE,49,14.5886544337332,94.8082287577418
"50",97.7312895876849,-1.98738400389546,94.0108171279438,5.70785646363657,1,"subseries 2",FALSE,50,18.2033559961543,94.0108171279438
"51",103.892070575963,3.30348417392447,92.7490391435631,7.83954725847546,1,"subseries 3",FALSE,51,20.6789276436949,92.7490391435631
"52",NA,4.81544130947376,92.1825542408733,NA,1,"subseries 4",TRUE,52,NA,NA
"53",NA,2.88716744726647,91.3814739657602,NA,1,"subseries 5",TRUE,53,NA,NA
"54",NA,6.45833578993062,90.6984494064626,NA,1,"subseries 6",TRUE,54,NA,NA
"55",NA,2.16558354624883,89.7258549155043,NA,1,"subseries 7",TRUE,55,NA,NA
"56",90.9332458894148,-5.59765338525726,88.6017146563447,7.92918461832734,1,"subseries 8",FALSE,56,25.2038292249335,88.6017146563447
"57",83.8458256277997,-3.65652902407003,87.3367622129139,0.165592438955784,1,"subseries 9",FALSE,57,15.7793976499629,87.3367622129139
"58",85.4358348908961,-3.73047295795425,86.4146058100417,2.75170203880867,1,"subseries 10",FALSE,58,12.6474249559361,86.4146058100417
"59",86.289799407265,-0.767691429883132,85.7613780085504,1.29611282859769,1,"subseries 11",FALSE,59,12.0710822336842,85.7613780085504
"60",63.9687691376606,-5.08704470233562,85.0860086978534,-16.0301948578571,1,"subseries 12",FALSE,60,24.6085211788476,85.0860086978534
"61",NA,1.19676323655159,84.8839938828447,NA,1,"subseries 1",TRUE,61,NA,NA
"62",NA,-1.98738400389546,84.7662953495621,NA,1,"subseries 2",TRUE,62,NA,NA
"63",NA,3.30348417392447,84.8703270598899,NA,1,"subseries 3",TRUE,63,NA,NA
"64",73.9137164844315,4.81544130947376,84.5925733058355,-15.4942981308778,1,"subseries 4",FALSE,64,12.0312424479761,84.5925733058355
"65",82.5502090723852,2.88716744726647,84.5626871387544,-4.89964551363568,1,"subseries 5",FALSE,65,12.2722188327048,84.5626871387544
"66",NA,6.45833578993062,84.52185798862,NA,1,"subseries 6",TRUE,66,NA,NA
"67",98.1006598380247,2.16558354624883,84.8423359986673,11.0927402931086,1,"subseries 7",FALSE,67,20.4807847912987,84.8423359986673
"68",88.7816804885255,-5.59765338525726,86.4619179138979,7.91741595988481,1,"subseries 8",FALSE,68,21.2006320299632,86.4619179138979
"69",86.10193890711,-3.65652902407003,88.1169273268141,1.6415406043659,1,"subseries 9",FALSE,69,15.7570625866217,88.1169273268141
"70",85.7719732048403,-3.73047295795425,89.9831437511654,-0.480697588370887,1,"subseries 10",FALSE,70,18.2137733496576,89.9831437511654
"71",95.2774844620253,-0.767691429883132,91.7964703599818,4.24870553192665,1,"subseries 11",FALSE,71,20.1990028479266,91.7964703599818
"72",59.1502839292334,-5.08704470233562,93.2717445777577,-29.0344159461886,1,"subseries 12",FALSE,72,21.5002076226761,93.2717445777577
"73",100.999287321127,1.19676323655159,94.7965153969982,5.00600868757721,1,"subseries 1",FALSE,73,18.4110365605219,94.7965153969982
"74",100.992600690272,-1.98738400389546,96.0320114116323,6.94797328253512,1,"subseries 2",FALSE,74,16.4633236866298,96.0320114116323
"75",102.744477844068,3.30348417392447,97.6435625885142,1.7974310816293,1,"subseries 3",FALSE,75,19.2006108781051,97.6435625885142
"76",107.50275707886,4.81544130947376,99.7575455232902,2.929770246096,1,"subseries 4",FALSE,76,24.2108707774283,99.7575455232902
"77",104.452420150428,2.88716744726647,101.661101566111,-0.0958488629496514,1,"subseries 5",FALSE,77,23.1253842652389,101.661101566111
"78",104.177670908832,6.45833578993062,103.47926728799,-5.75993216908911,1,"subseries 6",FALSE,78,21.4370294956899,103.47926728799
"79",111.728395606383,2.16558354624883,104.87098881582,4.69182324431368,1,"subseries 7",FALSE,79,21.7391571157787,104.87098881582
"80",107.211800541947,-5.59765338525726,105.791540268743,7.0179136584608,1,"subseries 8",FALSE,80,20.9981076001889,105.791540268743
"81",103.577036658618,-3.65652902407003,106.554432256606,0.679133426082359,1,"subseries 9",FALSE,81,21.8184716838788,106.554432256606
"82",100.973454802118,-3.73047295795425,106.9808720822,-2.27694432212763,1,"subseries 10",FALSE,82,18.5608619517889,106.9808720822
"83",102.905249382608,-0.767691429883132,106.95719958259,-3.28425877009914,1,"subseries 11",FALSE,83,19.1892044582555,106.95719958259
"84",109.65960214868,-5.08704470233562,106.589610435967,8.1570364150483,1,"subseries 12",FALSE,84,18.4191565705067,106.589610435967
"85",109.728606172595,1.19676323655159,105.855489414341,2.67635352170211,1,"subseries 1",FALSE,85,17.2899348807536,105.855489414341
"86",107.031334266379,-1.98738400389546,105.412840157427,3.60587811284771,1,"subseries 2",FALSE,86,20.8077446994186,105.412840157427
"87",109.311559304108,3.30348417392447,105.155975118243,0.852100011940877,1,"subseries 3",FALSE,87,18.9295885128121,105.155975118243
"88",100.235635241943,4.81544130947376,104.926432961302,-9.50623902883305,1,"subseries 4",FALSE,88,16.0323377447509,104.926432961302
"89",103.319369935688,2.88716744726647,104.896332490474,-4.4641300020525,1,"subseries 5",FALSE,89,20.3402897762449,104.896332490474
"90",102.463524361708,6.45833578993062,104.407492620789,-8.40230404901153,1,"subseries 6",FALSE,90,21.1371231769787,104.407492620789
"91",109.284064897628,2.16558354624883,104.08525521792,3.03322613345954,1,"subseries 7",FALSE,91,23.7173561602612,104.08525521792
"92",111.87328110574,-5.59765338525726,104.232606257441,13.2383282335562,1,"subseries 8",FALSE,92,17.050061177649,104.232606257441
"93",99.9675687634341,-3.65652902407003,104.49283721329,-0.868739425785989,1,"subseries 9",FALSE,93,20.3073121030438,104.49283721329
"94",103.472707333914,-3.73047295795425,104.8104719634,2.39270832846789,1,"subseries 10",FALSE,94,22.2168888032489,104.8104719634
"95",99.5324680040136,-0.767691429883132,104.92902545726,-4.6288660233632,1,"subseries 11",FALSE,95,18.8126150278231,104.92902545726
"96",90.073712737846,-5.08704470233562,105.02337211645,-9.86261467626854,1,"subseries 12",FALSE,96,21.9076944522691,105.02337211645
"97",115.050371066235,1.19676323655159,105.013138582993,8.84046924669086,1,"subseries 1",FALSE,97,19.973263826743,105.013138582993
"98",106.895441844805,-1.98738400389546,104.942450542331,3.9403753063697,1,"subseries 2",FALSE,98,18.9994250074973,104.942450542331
"99",108.035890049704,3.30348417392447,105.026684517087,-0.294278641307642,1,"subseries 3",FALSE,99,21.3708334642099,105.026684517087
"100",106.056387683281,4.81544130947376,105.139752982027,-3.89880660821986,1,"subseries 4",FALSE,100,20.7990157628792,105.139752982027
"101",103.656419667802,2.88716744726647,105.29139632026,-4.5221440997244,1,"subseries 5",FALSE,101,25.6317326230928,105.29139632026
"102",NA,6.45833578993062,104.911356678072,NA,1,"subseries 6",TRUE,102,NA,NA
"103",107.994504147136,2.16558354624883,104.154002608756,1.67491799213161,1,"subseries 7",FALSE,103,28.2524978565946,104.154002608756
"104",109.847171011188,-5.59765338525726,101.89668573777,13.5481386586749,1,"subseries 8",FALSE,104,30.9792009946018,101.89668573777
"105",99.9868365002735,-3.65652902407003,99.0012754751773,4.6420900491662,1,"subseries 9",FALSE,105,19.9082084308675,99.0012754751773
"106",96.2994909461647,-3.73047295795425,96.4751823950225,3.5547815090964,1,"subseries 10",FALSE,106,23.9867736605054,96.4751823950225
"107",100.434058570409,-0.767691429883132,93.7096274702974,7.49212252999472,1,"subseries 11",FALSE,107,21.5441392876908,93.7096274702974
"108",116.962059628174,-5.08704470233562,91.0466770928188,31.0024272376908,1,"subseries 12",FALSE,108,21.3905725200578,91.0466770928188
"109",NA,1.19676323655159,88.2614504611843,NA,1,"subseries 1",TRUE,109,NA,NA
"110",60.1635877229035,-1.98738400389546,85.2949040563824,-23.1439323295834,1,"subseries 2",FALSE,110,11.4707133419922,85.2949040563824
"111",68.3957297477986,3.30348417392447,82.2294681830648,-17.1372226091907,1,"subseries 3",FALSE,111,12.917548685573,82.2294681830648
