"","raw","seasonal","trend","remainder","weights","sub.labels","interpolated","age","sigma","power"
"1",NA,-0.352474332029801,5.75306005061456,NA,1,"subseries 1",TRUE,1,NA,NA
"2",NA,-0.119581996765534,5.8359750106963,NA,1,"subseries 2",TRUE,2,NA,NA
"3",NA,-0.00126408805851413,5.91878118679126,NA,1,"subseries 3",TRUE,3,NA,NA
"4",NA,0.331377368869333,6.00173950000521,NA,1,"subseries 4",TRUE,4,NA,NA
"5",NA,0.309985937536065,6.08456188658362,NA,1,"subseries 5",TRUE,5,NA,NA
"6",NA,-0.0270975774011342,6.16754577787012,NA,1,"subseries 6",TRUE,6,NA,NA
"7",NA,-0.060119972775736,6.25035756242479,NA,1,"subseries 7",TRUE,7,NA,NA
"8",NA,0.0319226557285404,6.33333217980609,NA,1,"subseries 8",TRUE,8,NA,NA
"9",NA,0.259709047980807,6.41608567370981,NA,1,"subseries 9",TRUE,9,NA,NA
"10",NA,0.253194626592005,6.49898543663511,NA,1,"subseries 10",TRUE,10,NA,NA
"11",NA,-0.424747098872345,6.58159656338868,NA,1,"subseries 11",TRUE,11,NA,NA
"12",NA,-0.200904570803686,6.66429945143059,NA,1,"subseries 12",TRUE,12,NA,NA
"13",NA,-0.352474332029801,6.74661930263931,NA,1,"subseries 1",TRUE,13,NA,NA
"14",NA,-0.119581996765534,6.82889685883448,NA,1,"subseries 2",TRUE,14,NA,NA
"15",NA,-0.00126408805851419,6.91065811502915,NA,1,"subseries 3",TRUE,15,NA,NA
"16",NA,0.331377368869333,6.99207533380273,NA,1,"subseries 4",TRUE,16,NA,NA
"17",NA,0.309985937536065,7.07278935883384,NA,1,"subseries 5",TRUE,17,NA,NA
"18",7.21832747323903,-0.0270975774011343,7.15248057293084,0.0929444777093265,1,"subseries 6",FALSE,18,0.28459211262303,7.15248057293084
"19",7.03604550494538,-0.060119972775736,7.23122325935954,-0.135057781638424,1,"subseries 7",FALSE,19,0.467809345591083,7.23122325935954
"20",7.24488433188237,0.0319226557285403,7.30736354519399,-0.0944018690401593,1,"subseries 8",FALSE,20,0.311857082859365,7.30736354519399
"21",7.58375667501483,0.259709047980807,7.38233885955357,-0.0582912325195464,1,"subseries 9",FALSE,21,0.706084961968079,7.38233885955357
"22",7.46657250098372,0.253194626592005,7.45393400096003,-0.24055612656832,1,"subseries 10",FALSE,22,1.20923922476225,7.45393400096003
"23",7.41172848869011,-0.424747098872345,7.52406437833508,0.31241120922737,1,"subseries 11",FALSE,23,0.663399306999761,7.52406437833508
"24",7.54042771475701,-0.200904570803686,7.59585857227503,0.14547371328567,1,"subseries 12",FALSE,24,0.315219936783453,7.59585857227503
"25",7.50700840967971,-0.352474332029801,7.66378111354908,0.19570162816043,1,"subseries 1",FALSE,25,0.418094094394828,7.66378111354908
"26",7.72815553236793,-0.119581996765534,7.71918536442947,0.128552164703992,1,"subseries 2",FALSE,26,0.300400238712405,7.71918536442947
"27",7.93710592273631,-0.00126408805851419,7.75838469990257,0.179985310892254,1,"subseries 3",FALSE,27,0.293426885890937,7.75838469990257
"28",7.94067583648014,0.331377368869333,7.77487865720518,-0.165580189594368,1,"subseries 4",FALSE,28,0.299132995479923,7.77487865720518
"29",7.9746889996029,0.309985937536065,7.77034117407247,-0.105638112005634,1,"subseries 5",FALSE,29,0.313931013193859,7.77034117407247
"30",7.91352118892743,-0.0270975774011343,7.76879458725884,0.171824179069728,1,"subseries 6",FALSE,30,0.336600842489179,7.76879458725884
"31",7.98523637312386,-0.060119972775736,7.76901844900282,0.276337896896778,1,"subseries 7",FALSE,31,0.405384951948918,7.76901844900282
"32",8.06702753212276,0.0319226557285403,7.78189231935774,0.253212557036477,1,"subseries 8",FALSE,32,0.368195633306827,7.78189231935774
"33",8.02872507561234,0.259709047980807,7.80617389122178,-0.0371578635902514,1,"subseries 9",FALSE,33,0.54859493125703,7.80617389122178
"34",6.93640815541539,0.253194626592005,7.80217379435249,-1.1189602655291,1,"subseries 10",FALSE,34,1.59230039725013,7.80217379435249
"35",NA,-0.424747098872345,7.79161938146502,NA,1,"subseries 11",TRUE,35,NA,NA
"36",7.67676269175868,-0.200904570803686,7.76065212284237,0.117015139719991,1,"subseries 12",FALSE,36,0.816200115132494,7.76065212284237
"37",7.96295708821351,-0.352474332029801,7.71636498324613,0.599066436997184,1,"subseries 1",FALSE,37,0.587322806911567,7.71636498324613
"38",8.1178595801596,-0.119581996765534,7.68392841347524,0.553513163449894,1,"subseries 2",FALSE,38,0.297272618117402,7.68392841347524
"39",8.04108329213441,-0.00126408805851419,7.63623974280999,0.406107637382936,1,"subseries 3",FALSE,39,0.34974199735902,7.63623974280999
"40",7.87201547821138,0.331377368869333,7.59365603368471,-0.0530179243426669,1,"subseries 4",FALSE,40,0.512691613479299,7.59365603368471
"41",7.30298919222144,0.309985937536065,7.52370278086558,-0.530699526180207,1,"subseries 5",FALSE,41,0.338430084743461,7.52370278086558
"42",7.42004490516459,-0.0270975774011343,7.41233010536446,0.0348123772012654,1,"subseries 6",FALSE,42,0.581935612136906,7.41233010536446
"43",7.34032545219642,-0.060119972775736,7.29269593841123,0.107749486560927,1,"subseries 7",FALSE,43,0.433234194168385,7.29269593841123
"44",6.98264289122958,0.0319226557285403,7.16051570970193,-0.209795474200886,1,"subseries 8",FALSE,44,1.7592774662246,7.16051570970193
"45",7.64792891064358,0.259709047980807,7.03524613967939,0.352973722983386,1,"subseries 9",FALSE,45,0.331317590038614,7.03524613967939
"46",7.59212788017343,0.253194626592005,6.94004309083501,0.39889016274641,1,"subseries 10",FALSE,46,0.333767715879651,6.94004309083501
"47",5.67452879260985,-0.424747098872345,6.85968382532105,-0.760407933838853,1,"subseries 11",FALSE,47,1.55364057751159,6.85968382532105
"48",6.57540203270116,-0.200904570803686,6.81995098478575,-0.0436443812809051,1,"subseries 12",FALSE,48,1.1179693441006,6.81995098478575
"49",6.35400844156783,-0.352474332029801,6.81056862683685,-0.10408585323922,1,"subseries 1",FALSE,49,1.52575409220511,6.81056862683685
"50",6.26258299030144,-0.119581996765534,6.82099638694343,-0.438831399876451,1,"subseries 2",FALSE,50,1.453605895502,6.82099638694343
"51",6.38541842814769,-0.00126408805851419,6.85755407769793,-0.470871561491723,1,"subseries 3",FALSE,51,1.49130199914639,6.85755407769793
"52",NA,0.331377368869333,6.87342087707885,NA,1,"subseries 4",TRUE,52,NA,NA
"53",7.05194359860951,0.309985937536065,6.90640190552215,-0.164444244448702,1,"subseries 5",FALSE,53,0.432999986016585,6.90640190552215
"54",7.21300268010308,-0.0270975774011343,6.94485551557627,0.295244741927948,1,"subseries 6",FALSE,54,0.502921986265977,6.94485551557627
"55",7.21206779264897,-0.060119972775736,6.98175528934101,0.290432476083699,1,"subseries 7",FALSE,55,0.382357227548551,6.98175528934101
"56",7.35315710312365,0.0319226557285403,6.9955608879759,0.325673559419212,1,"subseries 8",FALSE,56,0.434191036954523,6.9955608879759
"57",7.2638445604944,0.259709047980807,6.98571545304756,0.0184200594660373,1,"subseries 9",FALSE,57,0.317997521677882,6.98571545304756
"58",7.42934373500195,0.253194626592005,6.96636498456021,0.209784123849738,1,"subseries 10",FALSE,58,1.03359801280579,6.96636498456021
"59",NA,-0.424747098872345,6.93434635268789,NA,1,"subseries 11",TRUE,59,NA,NA
"60",NA,-0.200904570803686,6.90764645433943,NA,1,"subseries 12",TRUE,60,NA,NA
"61",6.93033824189323,-0.352474332029801,6.87573737558884,0.407075198334189,1,"subseries 1",FALSE,61,0.432107700161845,6.87573737558884
"62",6.70868032485019,-0.119581996765534,6.8425298012853,-0.0142674796695728,1,"subseries 2",FALSE,62,0.283087509912998,6.8425298012853
"63",6.96906895640862,-0.00126408805851419,6.8063166283839,0.164016416083231,1,"subseries 3",FALSE,63,0.383819767190107,6.8063166283839
"64",7.06644754845183,0.331377368869333,6.7376325517839,-0.0025623722014041,1,"subseries 4",FALSE,64,0.297914231463273,6.7376325517839
"65",6.40455551466351,0.309985937536065,6.65717978749963,-0.562610210372188,1,"subseries 5",FALSE,65,1.06038778589557,6.65717978749963
"66",NA,-0.0270975774011343,6.64116269570964,NA,1,"subseries 6",TRUE,66,NA,NA
"67",NA,-0.060119972775736,6.62891877068508,NA,1,"subseries 7",TRUE,67,NA,NA
"68",NA,0.0319226557285403,6.70354831189572,NA,1,"subseries 8",TRUE,68,NA,NA
"69",NA,0.259709047980807,6.79679655301551,NA,1,"subseries 9",TRUE,69,NA,NA
"70",NA,0.253194626592005,6.82159819737009,NA,1,"subseries 10",TRUE,70,NA,NA
"71",NA,-0.424747098872345,6.85525533228678,NA,1,"subseries 11",TRUE,71,NA,NA
"72",NA,-0.200904570803686,6.85463687140754,NA,1,"subseries 12",TRUE,72,NA,NA
"73",NA,-0.352474332029801,6.85736453399708,NA,1,"subseries 1",TRUE,73,NA,NA
"74",NA,-0.119581996765534,6.85288819307848,NA,1,"subseries 2",TRUE,74,NA,NA
"75",NA,-0.00126408805851419,6.84970371196675,NA,1,"subseries 3",TRUE,75,NA,NA
"76",NA,0.331377368869333,6.85652727811447,NA,1,"subseries 4",TRUE,76,NA,NA
"77",NA,0.309985937536065,6.86358062423272,NA,1,"subseries 5",TRUE,77,NA,NA
"78",NA,-0.0270975774011343,6.97626442947514,NA,1,"subseries 6",TRUE,78,NA,NA
"79",NA,-0.060119972775736,7.07156421292597,NA,1,"subseries 7",TRUE,79,NA,NA
"80",NA,0.0319226557285403,7.08980469468046,NA,1,"subseries 8",TRUE,80,NA,NA
"81",7.33446789343689,0.259709047980807,7.10077570267946,-0.026016857223377,1,"subseries 9",FALSE,81,0.759495653100247,7.10077570267946
"82",6.84641441321049,0.253194626592005,7.07043649190838,-0.477216705289891,1,"subseries 10",FALSE,82,1.10324538632096,7.07043649190838
"83",7.25200980110944,-0.424747098872345,7.03974419030519,0.637012709676599,1,"subseries 11",FALSE,83,0.939521417872349,7.03974419030519
"84",6.79308762689039,-0.200904570803686,7.00891894720871,-0.0149267495146335,1,"subseries 12",FALSE,84,0.568250446288043,7.00891894720871
"85",6.61484593967765,-0.352474332029801,6.97784969947802,-0.0105294277705674,1,"subseries 1",FALSE,85,0.408918256004463,6.97784969947802
"86",6.78283432255855,-0.119581996765534,6.94802885746494,-0.0456125381408512,1,"subseries 2",FALSE,86,0.379920775699762,6.94802885746494
"87",7.0288065485127,-0.00126408805851419,6.91730279878621,0.112767837785002,1,"subseries 3",FALSE,87,0.442842496067696,6.91730279878621
"88",6.88432208207325,0.331377368869333,6.88495293627798,-0.332008223074066,1,"subseries 4",FALSE,88,0.667080591026444,6.88495293627798
"89",7.36612774360684,0.309985937536065,6.85061044567139,0.205531360399384,1,"subseries 5",FALSE,89,0.508060562005728,6.85061044567139
"90",6.75831522272118,-0.0270975774011343,6.78827301392865,-0.00286021380633894,1,"subseries 6",FALSE,90,0.67616803532992,6.78827301392865
"91",6.69913578065862,-0.060119972775736,6.71373867496889,0.0455170784654682,1,"subseries 7",FALSE,91,0.468038211047032,6.71373867496889
"92",6.72023147310275,0.0319226557285403,6.64750166381091,0.0408071535632946,1,"subseries 8",FALSE,92,0.503957503010471,6.64750166381091
"93",6.81063336922892,0.259709047980807,6.57381520047685,-0.0228908792287372,1,"subseries 9",FALSE,93,0.512207852994833,6.57381520047685
"94",7.44926884114197,0.253194626592005,6.53108057265037,0.664993641899591,1,"subseries 10",FALSE,94,0.774563400655273,6.53108057265037
"95",NA,-0.424747098872345,6.50098200608037,NA,1,"subseries 11",TRUE,95,NA,NA
"96",5.92506246823193,-0.200904570803686,6.46641139800205,-0.340444358966432,1,"subseries 12",FALSE,96,0.89976937270536,6.46641139800205
"97",5.02894986463536,-0.352474332029801,6.44242223702738,-1.06099804036222,1,"subseries 1",FALSE,97,1.22618759094111,6.44242223702738
"98",6.1777846179984,-0.119581996765534,6.45542461896718,-0.158058004203244,1,"subseries 2",FALSE,98,0.653609280520905,6.45542461896718
"99",6.49051607553282,-0.00126408805851419,6.48625131860142,0.0055288449899189,1,"subseries 3",FALSE,99,1.05940934989818,6.48625131860142
"100",6.93747654590884,0.331377368869333,6.48885193816064,0.117247238878869,1,"subseries 4",FALSE,100,1.44901982918722,6.48885193816064
"101",NA,0.309985937536065,6.50407511015597,NA,1,"subseries 5",TRUE,101,NA,NA
"102",6.97519265114105,-0.0270975774011343,6.52471194240687,0.477578286135317,1,"subseries 6",FALSE,102,1.14518857046503,6.52471194240687
"103",5.92618336030694,-0.060119972775736,6.55221547555839,-0.565912142475719,1,"subseries 7",FALSE,103,0.917193712825531,6.55221547555839
"104",NA,0.0319226557285403,6.58245425713444,NA,1,"subseries 8",TRUE,104,NA,NA
"105",NA,0.259709047980807,6.60822673560975,NA,1,"subseries 9",TRUE,105,NA,NA
"106",7.99068626076415,0.253194626592005,6.63517222370306,1.10231941046908,1,"subseries 10",FALSE,106,0.871934508989418,6.63517222370306
"107",5.63550159865511,-0.424747098872345,6.64895540290544,-0.588706705377988,1,"subseries 11",FALSE,107,1.23102931349614,6.64895540290544
"108",NA,-0.200904570803686,6.65539390713203,NA,1,"subseries 12",TRUE,108,NA,NA
"109",NA,-0.352474332029801,6.64908096260056,NA,1,"subseries 1",TRUE,109,NA,NA
"110",NA,-0.119581996765534,6.62907599451788,NA,1,"subseries 2",TRUE,110,NA,NA
"111",6.25916344579951,-0.00126408805851419,6.60783059682409,-0.347403062966066,1,"subseries 3",FALSE,111,0.737975644205161,6.60783059682409
"112",7.40563734506482,0.331377368869333,6.5923599680054,0.481900008190084,1,"subseries 4",FALSE,112,1.22452951556866,6.5923599680054
"113",8.07646860053631,0.309985937536065,6.57757588243299,1.18890678056726,1,"subseries 5",FALSE,113,1.33492738183312,6.57757588243299
"114",5.50939402828258,-0.0270975774011343,6.5624379721172,-1.02594636643349,1,"subseries 6",FALSE,114,0.890434701290344,6.5624379721172
"115",NA,-0.060119972775736,6.54749865576206,NA,1,"subseries 7",TRUE,115,NA,NA
"116",6.27298465528181,0.0319226557285403,6.53036898501215,-0.289306985458885,1,"subseries 8",FALSE,116,0.526278237429028,6.53036898501215
"117",6.60643816506685,0.259709047980807,6.51316202110578,-0.166432904019732,1,"subseries 9",FALSE,117,0.442520339684011,6.51316202110578
"118",6.29198505651025,0.253194626592005,6.49455954501906,-0.455769115100814,1,"subseries 10",FALSE,118,0.661745359056427,6.49455954501906
"119",6.54234035527157,-0.424747098872345,6.47583182052103,0.491255633622882,1,"subseries 11",FALSE,119,0.933463300357296,6.47583182052103
"120",6.45328949850537,-0.200904570803686,6.45712808221727,0.197065987091784,1,"subseries 12",FALSE,120,0.658063692633161,6.45712808221727
