"","raw","seasonal","trend","remainder","weights","sub.labels","interpolated","age","sigma","power"
"1",110.973608835891,-7.45188328520462,131.816077617865,-13.3905854967691,1,"subseries 1",FALSE,1,26.776355001828,131.816077617865
"2",116.2655428674,-4.15703572065808,132.803321482872,-12.3807428948142,1,"subseries 2",FALSE,2,17.2218711736125,132.803321482872
"3",143.036247408825,-0.704259999353683,133.746613680792,9.99389372738653,1,"subseries 3",FALSE,3,21.2839014668326,133.746613680792
"4",145.323236110826,1.83485885447577,134.637062154327,8.85131510202299,1,"subseries 4",FALSE,4,31.2342304052057,134.637062154327
"5",148.653646107052,-0.803975962181369,135.468780108221,13.9888419610121,1,"subseries 5",FALSE,5,33.0720569893446,135.468780108221
"6",137.28852610008,-4.02351497571274,136.414092007609,4.89794906818375,1,"subseries 6",FALSE,6,30.448398041124,136.414092007609
"7",135.9594159096,-3.66495685622104,137.214168889021,2.41020387680049,1,"subseries 7",FALSE,7,30.6301186634635,137.214168889021
"8",136.397883302339,4.35929166103501,138.047899255313,-6.00930761400949,1,"subseries 8",FALSE,8,31.4988701222411,138.047899255313
"9",141.6212797604,4.15465708529382,138.475553169017,-1.00893049391095,1,"subseries 9",FALSE,9,28.6206926699065,138.475553169017
"10",142.110391232012,7.8343560378864,137.901969315595,-3.62593412146975,1,"subseries 10",FALSE,10,29.1829205822438,137.901969315595
"11",142.714377730679,4.6172371214711,137.29908332845,0.798057280757746,1,"subseries 11",FALSE,11,31.8737072225757,137.29908332845
"12",132.651157894099,-1.99477396083056,136.740775371129,-2.09484351619983,1,"subseries 12",FALSE,12,31.0319880939561,136.740775371129
"13",135.06365367723,-7.45188328520462,136.308284357809,6.20725260462555,1,"subseries 1",FALSE,13,28.8044382982625,136.308284357809
"14",137.164996652913,-4.15703572065808,136.082551090416,5.23948128315467,1,"subseries 2",FALSE,14,25.0471803149685,136.082551090416
"15",NA,-0.704259999353683,135.780160161833,NA,1,"subseries 3",TRUE,15,NA,NA
"16",128.538664302824,1.83485885447577,135.187518996574,-8.48371354822613,1,"subseries 4",FALSE,16,24.7760105681617,135.187518996574
"17",133.586346634255,-0.803975962181369,134.291369292705,0.0989533037316335,1,"subseries 5",FALSE,17,29.1216287974307,134.291369292705
"18",132.295205033936,-4.02351497571274,133.188565459486,3.13015455016244,1,"subseries 6",FALSE,18,31.7539298112458,133.188565459486
"19",135.483712718493,-3.66495685622104,131.88034900224,7.26832057247373,1,"subseries 7",FALSE,19,31.7997308314255,131.88034900224
"20",136.865723929466,4.35929166103501,130.665621905342,1.84081036308865,1,"subseries 8",FALSE,20,29.672671881397,130.665621905342
"21",136.812639322,4.15465708529382,129.489102924044,3.1688793126618,1,"subseries 9",FALSE,21,28.9257370901817,129.489102924044
"22",135.443656814316,7.8343560378864,128.268535718525,-0.659234942095054,1,"subseries 10",FALSE,22,30.2997025680004,128.268535718525
"23",119.523741665658,4.6172371214711,126.967012033386,-12.0605074891994,1,"subseries 11",FALSE,23,31.7818380167763,126.967012033386
"24",120.479675201308,-1.99477396083056,125.294204058276,-2.81975489613754,1,"subseries 12",FALSE,24,31.6093076074577,125.294204058276
"25",120.086056752108,-7.45188328520462,123.707450089526,3.83048994778675,1,"subseries 1",FALSE,25,27.3755877188792,123.707450089526
"26",120.050694045398,-4.15703572065808,122.616122729066,1.59160703699041,1,"subseries 2",FALSE,26,23.6268484008268,122.616122729066
"27",127.463222428467,-0.704259999353683,121.91162603636,6.25585639146028,1,"subseries 3",FALSE,27,21.6363811796104,121.91162603636
"28",124.852928360103,1.83485885447577,121.802356638596,1.21571286703079,1,"subseries 4",FALSE,28,21.8347436395074,121.802356638596
"29",110.117658526634,-0.803975962181369,121.970838356395,-11.0492038675796,1,"subseries 5",FALSE,29,27.1580985406042,121.970838356395
"30",100.694661075355,-4.02351497571274,121.97775946797,-17.2595834169027,1,"subseries 6",FALSE,30,26.8584239564822,121.97775946797
"31",129.169438041173,-3.66495685622104,122.23179874284,10.602596154554,1,"subseries 7",FALSE,31,30.1517437072579,122.23179874284
"32",130.211881451304,4.35929166103501,122.482700985493,3.36988880477566,1,"subseries 8",FALSE,32,30.5586121363958,122.482700985493
"33",128.013014927722,4.15465708529382,122.953438188554,0.90491965387433,1,"subseries 9",FALSE,33,27.8206144504423,122.953438188554
"34",129.552885690256,7.8343560378864,123.707967500142,-1.98943784777229,1,"subseries 10",FALSE,34,23.779809030132,123.707967500142
"35",135.911715778512,4.6172371214711,124.169363080106,7.12511557693449,1,"subseries 11",FALSE,35,29.4365158508393,124.169363080106
"36",118.426213439514,-1.99477396083056,124.446851686397,-4.02586428605258,1,"subseries 12",FALSE,36,29.7328159301725,124.446851686397
"37",119.896204834596,-7.45188328520462,124.34833319668,2.99975492312103,1,"subseries 1",FALSE,37,29.4267944659801,124.34833319668
"38",120.077865784252,-4.15703572065808,124.077706751983,0.157194752926699,1,"subseries 2",FALSE,38,24.6415622551367,124.077706751983
"39",128.949612760851,-0.704259999353683,123.825571291376,5.82830146882895,1,"subseries 3",FALSE,39,22.5374673573059,123.825571291376
"40",121.99560241955,1.83485885447577,123.650634670256,-3.48989110518134,1,"subseries 4",FALSE,40,27.9941750114139,123.650634670256
"41",112.54702399092,-0.803975962181369,123.573433981981,-10.2224340288796,1,"subseries 5",FALSE,41,21.485329075398,123.573433981981
"42",124.578561144515,-4.02351497571274,123.305076524283,5.29699959594508,1,"subseries 6",FALSE,42,31.6407729779143,123.305076524283
"43",117.092802244705,-3.66495685622104,123.091840207991,-2.33408110706463,1,"subseries 7",FALSE,43,32.2921507421575,123.091840207991
"44",131.346313741596,4.35929166103501,122.882346786729,4.10467529383223,1,"subseries 8",FALSE,44,28.4904298659243,122.882346786729
"45",123.846362004656,4.15465708529382,122.670546162752,-2.9788412433896,1,"subseries 9",FALSE,45,28.2144606942169,122.670546162752
"46",136.917873682814,7.8343560378864,122.546842904435,6.53667474049266,1,"subseries 10",FALSE,46,25.406282047954,122.546842904435
"47",127.591439214013,4.6172371214711,122.202656631835,0.771545460707301,1,"subseries 11",FALSE,47,29.3788876681963,122.202656631835
"48",115.523885567866,-1.99477396083056,121.646753855705,-4.12809432700836,1,"subseries 12",FALSE,48,32.7638070294184,121.646753855705
"49",114.337309966035,-7.45188328520462,120.902948527411,0.886244723828796,1,"subseries 1",FALSE,49,29.0027386255427,120.902948527411
"50",119.990389883964,-4.15703572065808,119.979458681822,4.16796692279995,1,"subseries 2",FALSE,50,26.9790507508034,119.979458681822
"51",118.075386563359,-0.704259999353683,118.999990620054,-0.220344057341578,1,"subseries 3",FALSE,51,21.3775519510606,118.999990620054
"52",119.233008642385,1.83485885447577,118.12737447664,-0.729224688730952,1,"subseries 4",FALSE,52,12.9854524225485,118.12737447664
"53",113.894411798481,-0.803975962181369,117.296131749854,-2.59774398919198,1,"subseries 5",FALSE,53,20.5763922544056,117.296131749854
"54",115.965040700541,-4.02351497571274,116.436017958874,3.55253771738013,1,"subseries 6",FALSE,54,28.6950313867017,116.436017958874
"55",107.04599090608,-3.66495685622104,115.612606503159,-4.90165874085791,1,"subseries 7",FALSE,55,37.3697874227214,115.612606503159
"56",119.258504488045,4.35929166103501,115.467411458439,-0.568198631428544,1,"subseries 8",FALSE,56,31.6778343443771,115.467411458439
"57",115.423367231482,4.15465708529382,115.645406468691,-4.37669632250299,1,"subseries 9",FALSE,57,29.7599317696253,115.645406468691
"58",126.123956058811,7.8343560378864,116.248289274308,2.041310746617,1,"subseries 10",FALSE,58,26.4773199754506,116.248289274308
"59",NA,4.6172371214711,117.267264868567,NA,1,"subseries 11",TRUE,59,NA,NA
"60",NA,-1.99477396083056,117.967968887455,NA,1,"subseries 12",TRUE,60,NA,NA
"61",NA,-7.45188328520462,118.853015354848,NA,1,"subseries 1",TRUE,61,NA,NA
"62",NA,-4.15703572065808,119.701356940704,NA,1,"subseries 2",TRUE,62,NA,NA
"63",103.261908509533,-0.704259999353683,120.569190600761,-16.6030220918739,1,"subseries 3",FALSE,63,17.4536703507419,120.569190600761
"64",129.580746414595,1.83485885447577,121.488113985194,6.25777357492494,1,"subseries 4",FALSE,64,23.5264164693857,121.488113985194
"65",135.50797668652,-0.803975962181369,122.38653504244,13.9254176062618,1,"subseries 5",FALSE,65,30.1309007295063,122.38653504244
"66",118.096466845597,-4.02351497571274,123.367528685888,-1.24754686457855,1,"subseries 6",FALSE,66,27.2430045542176,123.367528685888
"67",121.524851160959,-3.66495685622104,124.248223993439,0.94158402374056,1,"subseries 7",FALSE,67,31.9015572799751,124.248223993439
"68",130.543199465263,4.35929166103501,124.861076363325,1.32283144090268,1,"subseries 8",FALSE,68,32.4223431162391,124.861076363325
"69",123.532391755404,4.15465708529382,125.213129470024,-5.83539479991425,1,"subseries 9",FALSE,69,30.436302106363,125.213129470024
"70",132.942873832768,7.8343560378864,125.356340050984,-0.247822256102012,1,"subseries 10",FALSE,70,28.7757646610659,125.356340050984
"71",142.014355764955,4.6172371214711,125.267895221716,12.1292234217675,1,"subseries 11",FALSE,71,23.714870909261,125.267895221716
"72",NA,-1.99477396083056,125.086953612277,NA,1,"subseries 12",TRUE,72,NA,NA
"73",117.370384549183,-7.45188328520462,124.761041910652,0.0612259237358046,1,"subseries 1",FALSE,73,28.6516359104895,124.761041910652
"74",122.390140641462,-4.15703572065808,124.691797543138,1.85537881898243,1,"subseries 2",FALSE,74,26.7795177606209,124.691797543138
"75",NA,-0.704259999353683,124.675147722304,NA,1,"subseries 3",TRUE,75,NA,NA
"76",NA,1.83485885447577,124.800068277557,NA,1,"subseries 4",TRUE,76,NA,NA
"77",121.509302266049,-0.803975962181369,125.107110855685,-2.79383262745492,1,"subseries 5",FALSE,77,26.5799826529179,125.107110855685
"78",117.296811309764,-4.02351497571274,125.041378984808,-3.72105269933152,1,"subseries 6",FALSE,78,28.9922710886419,125.041378984808
"79",106.6989665662,-3.66495685622104,125.130970347617,-14.7670469251963,1,"subseries 7",FALSE,79,22.0754739071524,125.130970347617
"80",129.81842052391,4.35929166103501,125.171526304081,0.287602558794475,1,"subseries 8",FALSE,80,31.1676330650643,125.171526304081
"81",135.626000511115,4.15465708529382,125.372146616631,6.09919680919057,1,"subseries 9",FALSE,81,29.5985516598167,125.372146616631
"82",137.369511276873,7.8343560378864,125.800713893652,3.73444134533436,1,"subseries 10",FALSE,82,28.9275573053264,125.800713893652
"83",134.403603825125,4.6172371214711,126.230221770034,3.55614493361998,1,"subseries 11",FALSE,83,26.7667546778924,126.230221770034
"84",128.30501188469,-1.99477396083056,126.792502550378,3.5072832951425,1,"subseries 12",FALSE,84,26.8392742805533,126.792502550378
"85",NA,-7.45188328520462,127.251151551963,NA,1,"subseries 1",TRUE,85,NA,NA
"86",NA,-4.15703572065808,127.91286055121,NA,1,"subseries 2",TRUE,86,NA,NA
"87",123.814887239693,-0.704259999353683,128.391177068751,-3.87202982970453,1,"subseries 3",FALSE,87,24.3415069068291,128.391177068751
"88",128.123449577414,1.83485885447577,128.427005654154,-2.13841493121568,1,"subseries 4",FALSE,88,25.944106790566,128.427005654154
"89",NA,-0.803975962181369,128.448742117581,NA,1,"subseries 5",TRUE,89,NA,NA
"90",130.861540227291,-4.02351497571274,128.477611399793,6.40744380321024,1,"subseries 6",FALSE,90,30.4671903513099,128.477611399793
"91",120.376685279313,-3.66495685622104,128.494442753663,-4.45280061812915,1,"subseries 7",FALSE,91,31.8403959949728,128.494442753663
"92",134.006263821647,4.35929166103501,128.498047734262,1.14892442635036,1,"subseries 8",FALSE,92,31.2508925978704,128.498047734262
"93",136.139234804743,4.15465708529382,128.535365220721,3.44921249872829,1,"subseries 9",FALSE,93,30.2345251810388,128.535365220721
"94",131.630123687046,7.8343560378864,128.493056332427,-4.69728868326746,1,"subseries 10",FALSE,94,30.1747470549177,128.493056332427
"95",135.283005672161,4.6172371214711,128.400920748711,2.26484780197853,1,"subseries 11",FALSE,95,25.7598562454588,128.400920748711
"96",126.357666990985,-1.99477396083056,128.170219961777,0.182220990038417,1,"subseries 12",FALSE,96,28.8007071858073,128.170219961777
"97",NA,-7.45188328520462,127.863810186981,NA,1,"subseries 1",TRUE,97,NA,NA
"98",NA,-4.15703572065808,127.605340078729,NA,1,"subseries 2",TRUE,98,NA,NA
"99",NA,-0.704259999353683,127.323897977044,NA,1,"subseries 3",TRUE,99,NA,NA
"100",NA,1.83485885447577,127.097262168136,NA,1,"subseries 4",TRUE,100,NA,NA
"101",NA,-0.803975962181369,126.866219454034,NA,1,"subseries 5",TRUE,101,NA,NA
"102",123.173833591568,-4.02351497571274,126.645133053456,0.552215513824663,1,"subseries 6",FALSE,102,26.5086284780046,126.645133053456
"103",129.48972589556,-3.66495685622104,126.422338623412,6.73234412836905,1,"subseries 7",FALSE,103,32.1063263620423,126.422338623412
"104",126.40893964569,4.35929166103501,126.196121472657,-4.14647348800234,1,"subseries 8",FALSE,104,30.3379090503942,126.196121472657
"105",131.844605661535,4.15465708529382,125.968261715776,1.72168686046498,1,"subseries 9",FALSE,105,30.6001855293835,125.968261715776
"106",NA,7.8343560378864,125.727672762235,NA,1,"subseries 10",TRUE,106,NA,NA
"107",116.016279394853,4.6172371214711,125.484875840931,-14.0858335675488,1,"subseries 11",FALSE,107,29.0522170544158,125.484875840931
"108",132.980185376602,-1.99477396083056,125.230340844185,9.74461849324774,1,"subseries 12",FALSE,108,26.0676383755299,125.230340844185
