"","raw","seasonal","trend","remainder","weights","sub.labels","interpolated","age","sigma","power"
"1",NA,-4.01202241352546,86.5153192929239,NA,1,"subseries 1",TRUE,1,NA,NA
"2",86.7857819244037,-4.70304268497797,87.6113718196344,3.87745278974727,1,"subseries 2",FALSE,2,5.77909334923778,87.6113718196344
"3",82.2059704892759,-13.3904986859647,88.703742939499,6.89272623574159,1,"subseries 3",FALSE,3,8.18087189093449,88.703742939499
"4",67.6782680131943,-4.37361670112151,89.7807518409313,-17.7288671266155,1,"subseries 4",FALSE,4,4.68820832667966,89.7807518409313
"5",94.6418100687002,2.84523112810241,90.8519522738949,0.94462666670286,1,"subseries 5",FALSE,5,10.1539498915169,90.8519522738949
"6",104.759199093489,7.89265642695492,91.8583196988671,5.00822296766694,1,"subseries 6",FALSE,6,5.15019035719704,91.8583196988671
"7",94.5053044793926,5.52487514132124,92.8678659508495,-3.88743661277813,1,"subseries 7",FALSE,7,5.4330432326533,92.8678659508495
"8",101.702230368113,4.86602189133895,93.8807616743919,2.9554468023822,1,"subseries 8",FALSE,8,6.39632127287296,93.8807616743919
"9",102.607948163919,3.25152610466225,94.8991958194848,4.45722623977196,1,"subseries 9",FALSE,9,6.90099280732279,94.8991958194848
"10",98.0236555990068,2.17422128033097,96.055472549946,-0.206038231270142,1,"subseries 10",FALSE,10,7.44978870503784,96.055472549946
"11",100.324948279614,0.488599929349577,96.9068763089362,2.9294720413282,1,"subseries 11",FALSE,11,7.5296800594209,96.9068763089362
"12",94.5790726570862,-0.563951416470692,97.1778237309892,-2.03479965743232,1,"subseries 12",FALSE,12,6.88409437632263,97.1778237309892
"13",94.5831641048154,-4.01202241352546,97.13842000189,1.45676651645084,1,"subseries 1",FALSE,13,6.30023173451429,97.13842000189
"14",94.1844772138738,-4.70304268497797,96.9602304058235,1.92728949302828,1,"subseries 2",FALSE,14,6.84609565435505,96.9602304058235
"15",90.0138246225218,-13.3904986859647,96.618555764036,6.78576754445041,1,"subseries 3",FALSE,15,4.55160219375322,96.618555764036
"16",86.4208176958655,-4.37361670112151,96.2473682255258,-5.45293382853882,1,"subseries 4",FALSE,16,6.31387664416639,96.2473682255258
"17",99.7621883366793,2.84523112810241,95.8407000602034,1.07625714837346,1,"subseries 5",FALSE,17,4.72198042829742,95.8407000602034
"18",99.1999416225331,7.89265642695492,95.406903492355,-4.0996182967768,1,"subseries 6",FALSE,18,5.35459598183138,95.406903492355
"19",100.853372433187,5.52487514132124,95.0788890061988,0.249608285666952,1,"subseries 7",FALSE,19,5.99129539282524,95.0788890061988
"20",101.248483571932,4.86602189133895,94.9254963171417,1.45696536345136,1,"subseries 8",FALSE,20,5.46794129162991,94.9254963171417
"21",94.7057839817444,3.25152610466225,95.1200143820484,-3.66575650496625,1,"subseries 9",FALSE,21,6.42645415920522,95.1200143820484
"22",97.4293866122818,2.17422128033097,95.7240992253192,-0.468933893368373,1,"subseries 10",FALSE,22,8.52940732055052,95.7240992253192
"23",94.1891255744903,0.488599929349577,96.6747293889656,-2.97420374382487,1,"subseries 11",FALSE,23,6.83815758461002,96.6747293889656
"24",94.1560051432936,-0.563951416470692,97.4710279933503,-2.75107143358606,1,"subseries 12",FALSE,24,6.76452387409925,97.4710279933503
"25",93.3317908206024,-4.01202241352546,98.274802639755,-0.930989405627159,1,"subseries 1",FALSE,25,6.8458626472462,98.274802639755
"26",94.1834492188418,-4.70304268497797,98.8428006651234,0.0436912386963542,1,"subseries 2",FALSE,26,5.51892676602837,98.8428006651234
"27",94.1759186482842,-13.3904986859647,99.0758933986477,8.49052393560119,1,"subseries 3",FALSE,27,7.15201214723761,99.0758933986477
"28",102.396144057099,-4.37361670112151,99.2292568077762,7.54050395044428,1,"subseries 4",FALSE,28,4.15628027155361,99.2292568077762
"29",103.433944881502,2.84523112810241,98.8518319654024,1.73688178799722,1,"subseries 5",FALSE,29,4.63913860503911,98.8518319654024
"30",104.865450798311,7.89265642695492,98.48268529826,-1.50989092690388,1,"subseries 6",FALSE,30,4.40503498389924,98.48268529826
"31",103.655670548873,5.52487514132124,97.8930697600833,0.237725647468437,1,"subseries 7",FALSE,31,4.60462519716751,97.8930697600833
"32",101.737686504061,4.86602189133895,97.2166370779974,-0.344972465275347,1,"subseries 8",FALSE,32,6.58161212732781,97.2166370779974
"33",94.868517517788,3.25152610466225,96.8803847855783,-5.26339337245254,1,"subseries 9",FALSE,33,8.00506195301534,96.8803847855783
"34",89.9889945300942,2.17422128033097,96.4603740623473,-8.64560081258408,1,"subseries 10",FALSE,34,8.86184109119608,96.4603740623473
"35",99.1671878989287,0.488599929349577,96.4458100876428,2.23277788193637,1,"subseries 11",FALSE,35,8.74214122898102,96.4458100876428
"36",94.2366571358823,-0.563951416470692,96.5780229331654,-1.77741438081246,1,"subseries 12",FALSE,36,5.89876503565232,96.5780229331654
"37",94.4856505178947,-4.01202241352546,96.8087939492762,1.68887898214392,1,"subseries 1",FALSE,37,5.94642931245683,96.8087939492762
"38",96.8719607791638,-4.70304268497797,97.2821597466242,4.29284371751756,1,"subseries 2",FALSE,38,5.98914807209533,97.2821597466242
"39",90.0366894463851,-13.3904986859647,97.626352266947,5.80083586540275,1,"subseries 3",FALSE,39,8.03178314935785,97.626352266947
"40",86.898134839321,-4.37361670112151,97.9885052188067,-6.71675367836414,1,"subseries 4",FALSE,40,10.0598733677551,97.9885052188067
"41",104.044375365503,2.84523112810241,98.127880749266,3.07126348813458,1,"subseries 5",FALSE,41,5.33769008812533,98.127880749266
"42",104.927179312974,7.89265642695492,98.0065156571603,-0.971992771141174,1,"subseries 6",FALSE,42,4.82403187263736,98.0065156571603
"43",101.573724467998,5.52487514132124,97.8369439302504,-1.78809460357363,1,"subseries 7",FALSE,43,4.27395341663705,97.8369439302504
"44",105.062171964724,4.86602189133895,97.6659474037232,2.53020266966186,1,"subseries 8",FALSE,44,5.46956552579859,97.6659474037232
"45",100.594999978324,3.25152610466225,97.6170798834933,-0.273606009831568,1,"subseries 9",FALSE,45,6.46271134273268,97.6170798834933
"46",99.2185156591539,2.17422128033097,97.8327732972045,-0.788478918381571,1,"subseries 10",FALSE,46,7.78425642198647,97.8327732972045
"47",96.2731354619687,0.488599929349577,98.2109469186966,-2.42641138607743,1,"subseries 11",FALSE,47,6.74769264918826,98.2109469186966
"48",96.7807221072453,-0.563951416470692,98.5151135089918,-1.17043998527582,1,"subseries 12",FALSE,48,7.81781422471563,98.5151135089918
"49",93.6543350497442,-4.01202241352546,98.9017268589825,-1.23536939571282,1,"subseries 1",FALSE,49,6.22926931035332,98.9017268589825
"50",93.1597378237643,-4.70304268497797,99.1992701850319,-1.33648967628964,1,"subseries 2",FALSE,50,6.12049130120519,99.1992701850319
"51",89.0429247071189,-13.3904986859647,99.4406503424415,2.9927730506421,1,"subseries 3",FALSE,51,6.46382857233109,99.4406503424415
"52",100.342927489122,-4.37361670112151,99.6892261223766,5.02731806786694,1,"subseries 4",FALSE,52,9.20290074012943,99.6892261223766
"53",103.090771390002,2.84523112810241,99.7178798162879,0.527660445611701,1,"subseries 5",FALSE,53,4.84133913738223,99.7178798162879
"54",106.110672648964,7.89265642695492,99.6891525017097,-1.47113627970062,1,"subseries 6",FALSE,54,4.14583190929449,99.6891525017097
"55",107.279370560086,5.52487514132124,99.4477351143049,2.30676030445989,1,"subseries 7",FALSE,55,3.31434188378893,99.4477351143049
"56",103.883403733127,4.86602189133895,99.1533328410661,-0.135950999278066,1,"subseries 8",FALSE,56,5.07532078837069,99.1533328410661
"57",100.967368784148,3.25152610466225,98.9178148772704,-1.20197219778466,1,"subseries 9",FALSE,57,5.58706328756888,98.9178148772704
"58",98.9585681268626,2.17422128033097,98.6942923459369,-1.90994549940523,1,"subseries 10",FALSE,58,8.87016173122599,98.6942923459369
"59",98.0652177155065,0.488599929349577,98.669405590464,-1.09278780430711,1,"subseries 11",FALSE,59,7.57846555371829,98.669405590464
"60",96.6659565656006,-0.563951416470692,98.5871213394148,-1.35721335734357,1,"subseries 12",FALSE,60,8.36461349756994,98.5871213394148
"61",92.2698510383381,-4.01202241352546,98.5472548654016,-2.26538141353802,1,"subseries 1",FALSE,61,7.96181841325656,98.5472548654016
"62",93.2731987154278,-4.70304268497797,98.561178313745,-0.584936913339249,1,"subseries 2",FALSE,62,9.45242190459231,98.561178313745
"63",96.3263817976728,-13.3904986859647,98.5481070360075,11.1687734476299,1,"subseries 3",FALSE,63,6.08523863256923,98.5481070360075
"64",91.149106768272,-4.37361670112151,98.7007684514657,-3.17804498207218,1,"subseries 4",FALSE,64,5.05900918393137,98.7007684514657
"65",98.53694759244,2.84523112810241,98.7828890890599,-3.09117262472229,1,"subseries 5",FALSE,65,5.66847021360659,98.7828890890599
"66",107.052818955236,7.89265642695492,98.6323269513821,0.527835576899008,1,"subseries 6",FALSE,66,2.94451880089324,98.6323269513821
"67",103.787737140215,5.52487514132124,98.2946394119501,-0.031777413056318,1,"subseries 7",FALSE,67,3.96631352327056,98.2946394119501
"68",101.549895255654,4.86602189133895,97.3871877096918,-0.703314345376754,1,"subseries 8",FALSE,68,5.09672778341717,97.3871877096918
"69",104.004130688315,3.25152610466225,96.1498079403593,4.6027966432935,1,"subseries 9",FALSE,69,5.19775000643948,96.1498079403593
"70",101.292082107295,2.17422128033097,95.3863012392229,3.73155958774117,1,"subseries 10",FALSE,70,6.7682527551704,95.3863012392229
"71",97.78358842127,0.488599929349577,94.6683133393515,2.62667515256889,1,"subseries 11",FALSE,71,7.29612688186971,94.6683133393515
"72",97.3283754347245,-0.563951416470692,94.1480446276101,3.74428222358513,1,"subseries 12",FALSE,72,7.92842492161308,94.1480446276101
"73",79.9709780734267,-4.01202241352546,93.8600410081466,-9.87704052119446,1,"subseries 1",FALSE,73,17.936199288234,93.8600410081466
"74",68.2542686270936,-4.70304268497797,93.2401769137815,-20.2828656017099,1,"subseries 2",FALSE,74,4.34802819493122,93.2401769137815
"75",86.0862732951185,-13.3904986859647,92.8852435638713,6.5915284172119,1,"subseries 3",FALSE,75,11.395696862807,92.8852435638713
"76",96.8280244723649,-4.37361670112151,92.6435701385329,8.55807103495349,1,"subseries 4",FALSE,76,6.51272838630837,92.6435701385329
"77",99.4808543845547,2.84523112810241,92.6446855340578,3.99093772239445,1,"subseries 5",FALSE,77,4.1446234455072,92.6446855340578
"78",99.0919237843038,7.89265642695492,93.138888452633,-1.93962109528407,1,"subseries 6",FALSE,78,3.65293725572315,93.138888452633
"79",98.2052645761522,5.52487514132124,93.5041444807464,-0.823755045915433,1,"subseries 7",FALSE,79,3.53394027663018,93.5041444807464
"80",97.1886123281379,4.86602189133895,93.9972659110931,-1.67467547429412,1,"subseries 8",FALSE,80,5.1962671156768,93.9972659110931
"81",96.2432840069515,3.25152610466225,94.4719250385605,-1.48016713627125,1,"subseries 9",FALSE,81,4.41389839293111,94.4719250385605
"82",97.8533387170916,2.17422128033097,94.7369438087191,0.942173628041516,1,"subseries 10",FALSE,82,6.30065033504002,94.7369438087191
"83",94.683311462044,0.488599929349577,95.0252826693505,-0.830571136656118,1,"subseries 11",FALSE,83,6.43289504204478,95.0252826693505
"84",90.9380957987873,-0.563951416470692,94.9932662827832,-3.49121906752518,1,"subseries 12",FALSE,84,6.91596361733398,94.9932662827832
"85",89.9693083159062,-4.01202241352546,94.9016890502618,-0.920358320830161,1,"subseries 1",FALSE,85,8.00067846640875,94.9016890502618
"86",96.1272666569515,-4.70304268497797,94.8574018236966,5.97290751823284,1,"subseries 2",FALSE,86,6.72940599094616,94.8574018236966
"87",94.8390846316848,-13.3904986859647,94.7339276097036,13.4956557079458,1,"subseries 3",FALSE,87,6.6896326189375,94.7339276097036
"88",92.0919795068006,-4.37361670112151,94.4866460801651,1.978950127757,1,"subseries 4",FALSE,88,5.96436474372168,94.4866460801651
"89",83.8260536607563,2.84523112810241,94.0757606988163,-13.0949381661624,1,"subseries 5",FALSE,89,7.67839171976787,94.0757606988163
"90",NA,7.89265642695492,92.7389922996836,NA,1,"subseries 6",TRUE,90,NA,NA
"91",NA,5.52487514132124,90.9875965972025,NA,1,"subseries 7",TRUE,91,NA,NA
"92",NA,4.86602189133895,89.4551037548145,NA,1,"subseries 8",TRUE,92,NA,NA
"93",NA,3.25152610466225,87.6740419806319,NA,1,"subseries 9",TRUE,93,NA,NA
"94",95.614274178213,2.17422128033097,86.2090107118767,7.2310421860053,1,"subseries 10",FALSE,94,7.10181954712647,86.2090107118767
"95",NA,0.488599929349577,84.8256376886177,NA,1,"subseries 11",TRUE,95,NA,NA
"96",93.3780418673325,-0.563951416470692,83.4394559820026,10.5025373018006,1,"subseries 12",FALSE,96,6.52285621409364,83.4394559820026
"97",87.5957266989273,-4.01202241352546,82.393222238433,9.21452687401973,1,"subseries 1",FALSE,97,9.14835423439353,82.393222238433
"98",81.7409003679366,-4.70304268497797,81.6672777603537,4.77666529256085,1,"subseries 2",FALSE,98,7.12416746687148,81.6672777603537
"99",4.68014143263083,-13.3904986859647,81.3135913375288,-63.2429512189333,1,"subseries 3",FALSE,99,0.874784361440518,81.3135913375288
"100",85.7195729699219,-4.37361670112151,80.8505726684457,9.24261700259768,1,"subseries 4",FALSE,100,28.7437881941494,80.8505726684457
"101",88.0436737140069,2.84523112810241,80.7910711073476,4.40737147855687,1,"subseries 5",FALSE,101,3.61440171528953,80.7910711073476
"102",92.8595705369681,7.89265642695492,80.9734402543667,3.99347385564644,1,"subseries 6",FALSE,102,5.47580674612116,80.9734402543667
"103",90.3633723153512,5.52487514132124,81.7494003477631,3.08909682626688,1,"subseries 7",FALSE,103,3.00166618583676,81.7494003477631
"104",83.615049355129,4.86602189133895,83.6306686538633,-4.88164119007328,1,"subseries 8",FALSE,104,5.71958915359149,83.6306686538633
"105",90.7841365198258,3.25152610466225,85.6388629408322,1.89374747433136,1,"subseries 9",FALSE,105,5.20711131177256,85.6388629408322
"106",89.0198650876111,2.17422128033097,87.7467132837754,-0.901069476495309,1,"subseries 10",FALSE,106,6.47812649061599,87.7467132837754
"107",88.7819178366319,0.488599929349577,89.8126416431163,-1.51932373583396,1,"subseries 11",FALSE,107,19.2162773837764,89.8126416431163
"108",88.5178551412876,-0.563951416470692,91.8275367789352,-2.74573022117694,1,"subseries 12",FALSE,108,7.68637649983298,91.8275367789352
"109",91.6620094838547,-4.01202241352546,93.8269035315621,1.84712836581807,1,"subseries 1",FALSE,109,8.02108729684592,93.8269035315621
"110",91.5829429081581,-4.70304268497797,95.8143236450795,0.471661948056564,1,"subseries 2",FALSE,110,9.03455849383189,95.8143236450795
"111",84.6847986040042,-13.3904986859647,97.7954674041594,0.279829885809477,1,"subseries 3",FALSE,111,25.8270910179254,97.7954674041594
"112",95.4890986494962,-4.37361670112151,99.7820549877001,0.0806603629176408,1,"subseries 4",FALSE,112,5.30268809821475,99.7820549877001
