"","raw","seasonal","trend","remainder","weights","sub.labels","interpolated","age","sigma","power"
"1",0.185870944957599,-0.564032698734118,2.73650474910675,-1.98660110541504,1,"subseries 1",FALSE,1,0.0288995406580946,2.73650474910675
"2",NA,-0.317511310864969,2.90656299633984,NA,1,"subseries 2",TRUE,2,NA,NA
"3",3.84278757033725,-0.067124714475005,3.07146844741847,0.838443837393783,1,"subseries 3",FALSE,3,0.262735924219359,3.07146844741847
"4",4.21292221451499,0.137400662208216,3.23292879578619,0.842592756520586,1,"subseries 4",FALSE,4,0.221341068664444,3.23292879578619
"5",4.28331075740418,0.322293317314907,3.3868644082938,0.574153031795476,1,"subseries 5",FALSE,5,0.253689376130578,3.3868644082938
"6",4.29362851400503,0.377331814473136,3.55254896745518,0.363747732076713,1,"subseries 6",FALSE,6,0.198267583089178,3.55254896745518
"7",4.08492151113126,0.239094980432925,3.70079077946341,0.145035751234927,1,"subseries 7",FALSE,7,0.245985475697832,3.70079077946341
"8",4.11374569520908,0.250099702547739,3.8399144826629,0.0237315099984419,1,"subseries 8",FALSE,8,0.447013309776092,3.8399144826629
"9",3.9446093639503,0.129024678137402,3.94395713555969,-0.128372449746788,1,"subseries 9",FALSE,9,0.394187531822126,3.94395713555969
"10",3.83862649817714,-0.0542075661595145,3.96107338130046,-0.0682393169638051,1,"subseries 10",FALSE,10,0.323682596923191,3.96107338130046
"11",3.66747792730983,-0.204149260465552,3.9847334570511,-0.11310626927572,1,"subseries 11",FALSE,11,0.29955749831913,3.9847334570511
"12",3.75330269607187,-0.248219604415166,4.01213526112405,-0.0106129606370153,1,"subseries 12",FALSE,12,0.290365635902007,4.01213526112405
"13",3.74669897481572,-0.564032698734118,4.0385814892716,0.272150184278239,1,"subseries 1",FALSE,13,0.358117152289877,4.0385814892716
"14",3.67645313467686,-0.317511310864969,4.06200676124388,-0.0680423157020544,1,"subseries 2",FALSE,14,0.279245835008721,4.06200676124388
"15",4.11427595299957,-0.067124714475005,4.07204090476305,0.109359762711527,1,"subseries 3",FALSE,15,0.243685349872582,4.07204090476305
"16",4.30786413771465,0.137400662208216,4.07540830250316,0.0950551730032716,1,"subseries 4",FALSE,16,0.210996430865069,4.07540830250316
"17",4.52617512439249,0.322293317314907,4.06374674400503,0.140135063072551,1,"subseries 5",FALSE,17,0.257049165853624,4.06374674400503
"18",4.44184327203943,0.377331814473136,4.04931219953949,0.015199258026799,1,"subseries 6",FALSE,18,0.211477156654189,4.04931219953949
"19",4.22981132836943,0.239094980432925,4.03282359344765,-0.0421072455111418,1,"subseries 7",FALSE,19,0.247040980413544,4.03282359344765
"20",4.22599687413168,0.250099702547739,4.01397266066319,-0.0380754890792461,1,"subseries 8",FALSE,20,0.3044545408649,4.01397266066319
"21",3.96737576812048,0.129024678137402,4.00052288231259,-0.162171792329515,1,"subseries 9",FALSE,21,0.443712166237686,4.00052288231259
"22",3.82801893289742,-0.0542075661595145,3.98193866391919,-0.0997121648622548,1,"subseries 10",FALSE,22,0.336725169647592,3.98193866391919
"23",3.76314655270034,-0.204149260465552,3.96950911042632,-0.00221329726043162,1,"subseries 11",FALSE,23,0.301998579790319,3.96950911042632
"24",3.73586234289091,-0.248219604415166,3.96443039517843,0.0196515521276419,1,"subseries 12",FALSE,24,0.269908606468296,3.96443039517843
"25",3.65938197636467,-0.564032698734118,3.96317308410142,0.260241590997368,1,"subseries 1",FALSE,25,0.450473335521383,3.96317308410142
"26",3.53006599182266,-0.317511310864969,3.97046497986578,-0.122887677178155,1,"subseries 2",FALSE,26,0.218787921885291,3.97046497986578
"27",3.82118661687229,-0.067124714475005,3.97716665548749,-0.0888553241401917,1,"subseries 3",FALSE,27,0.226801057605691,3.97716665548749
"28",4.10913362178826,0.137400662208216,3.98202390387659,-0.010290944296548,1,"subseries 4",FALSE,28,0.197202147164354,3.98202390387659
"29",4.30670474329021,0.322293317314907,3.98715678137131,-0.00274535539600995,1,"subseries 5",FALSE,29,0.218494704082958,3.98715678137131
"30",4.30334145910347,0.377331814473136,3.99146730121156,-0.0654576565812226,1,"subseries 6",FALSE,30,0.225635683214535,3.99146730121156
"31",4.3819518462383,0.239094980432925,4.00069143366624,0.142165432139137,1,"subseries 7",FALSE,31,0.197780184844016,4.00069143366624
"32",4.18978473756481,0.250099702547739,4.01111167317182,-0.0714266381547488,1,"subseries 8",FALSE,32,0.293938025213183,4.01111167317182
"33",4.08251076106007,0.129024678137402,4.01905547923262,-0.0655693963099537,1,"subseries 9",FALSE,33,0.441162510877665,4.01905547923262
"34",4.01030695673726,-0.0542075661595145,4.01805042974413,0.0464640931526406,1,"subseries 10",FALSE,34,0.326305773638419,4.01805042974413
"35",3.8976177086636,-0.204149260465552,4.00787795615797,0.0938890129711858,1,"subseries 11",FALSE,35,0.321030498629244,4.00787795615797
"36",3.77506876329857,-0.248219604415166,3.99853712308802,0.0247512446257114,1,"subseries 12",FALSE,36,0.305339978087205,3.99853712308802
"37",3.68873718385687,-0.564032698734118,3.98470710041543,0.268062782175563,1,"subseries 1",FALSE,37,0.310200581697007,3.98470710041543
"38",3.58417194508043,-0.317511310864969,3.97541877176131,-0.0737355158159159,1,"subseries 2",FALSE,38,0.285346646598634,3.97541877176131
"39",3.70493141321205,-0.067124714475005,3.96706503926621,-0.195008911579158,1,"subseries 3",FALSE,39,0.310002582972054,3.96706503926621
"40",4.00926498461148,0.137400662208216,3.95486275488203,-0.0829984324787678,1,"subseries 4",FALSE,40,0.22356589467686,3.95486275488203
"41",4.17892384559098,0.322293317314907,3.94951309861638,-0.0928825703403078,1,"subseries 5",FALSE,41,0.203895561949522,3.94951309861638
"42",4.32154885123224,0.377331814473136,3.94861936137691,-0.00440232461780621,1,"subseries 6",FALSE,42,0.129423590016546,3.94861936137691
"43",4.2948928922458,0.239094980432925,3.95359063298174,0.102207278831134,1,"subseries 7",FALSE,43,0.158187444641448,3.95359063298174
"44",4.146933343886,0.250099702547739,3.95680228182969,-0.0599686404914257,1,"subseries 8",FALSE,44,0.246214737610557,3.95680228182969
"45",4.09029430694787,0.129024678137402,3.96044207052467,0.00082755828579284,1,"subseries 9",FALSE,45,0.391099016222447,3.96044207052467
"46",3.97936734416908,-0.0542075661595145,3.96106270882316,0.0725122015054329,1,"subseries 10",FALSE,46,0.343986005218462,3.96106270882316
"47",3.83442903502543,-0.204149260465552,3.95277055173435,0.0858077437566314,1,"subseries 11",FALSE,47,0.337034027541476,3.95277055173435
"48",3.66522387623362,-0.248219604415166,3.93677402565109,-0.0233305450023011,1,"subseries 12",FALSE,48,0.291142471415652,3.93677402565109
"49",3.59732740229429,-0.564032698734118,3.91149072497353,0.249869376054875,1,"subseries 1",FALSE,49,0.299213267305935,3.91149072497353
"50",3.5316765612167,-0.317511310864969,3.89283905307057,-0.0436511809888991,1,"subseries 2",FALSE,50,0.432668485315567,3.89283905307057
"51",NA,-0.067124714475005,3.87367980552276,NA,1,"subseries 3",TRUE,51,NA,NA
"52",3.88122443236562,0.137400662208216,3.85729570168306,-0.113471931525653,1,"subseries 4",FALSE,52,0.197462455758192,3.85729570168306
"53",4.18196306434575,0.322293317314907,3.84756353243984,0.0121062145910038,1,"subseries 5",FALSE,53,0.194740135662178,3.84756353243984
"54",4.16960448378333,0.377331814473136,3.83530634192484,-0.0430336726146474,1,"subseries 6",FALSE,54,0.28740796980616,3.83530634192484
"55",3.54138468226946,0.239094980432925,3.83471564668684,-0.532425944850304,1,"subseries 7",FALSE,55,0.666789085115292,3.83471564668684
"56",4.2640555939781,0.250099702547739,3.8337957172199,0.180160174210459,1,"subseries 8",FALSE,56,0.200569879479525,3.8337957172199
"57",4.08748290195485,0.129024678137402,3.83798307006293,0.120475153754513,1,"subseries 9",FALSE,57,0.368833603650015,3.83798307006293
"58",3.77568772691866,-0.0542075661595145,3.84461354193086,-0.0147182488526871,1,"subseries 10",FALSE,58,0.340976188242591,3.84461354193086
"59",3.75160343210845,-0.204149260465552,3.84435895432043,0.111393738253573,1,"subseries 11",FALSE,59,0.34508645443492,3.84435895432043
"60",3.62176255234671,-0.248219604415166,3.85501499489653,0.0149671618653446,1,"subseries 12",FALSE,60,0.316197965549219,3.85501499489653
"61",3.56260167833765,-0.564032698734118,3.85425598528097,0.272378391790795,1,"subseries 1",FALSE,61,0.275328669789154,3.85425598528097
"62",3.62010916363351,-0.317511310864969,3.84682903024264,0.0907914442558351,1,"subseries 2",FALSE,62,0.321621934304423,3.84682903024264
"63",3.61675304394726,-0.067124714475005,3.8382866984137,-0.154408939991439,1,"subseries 3",FALSE,63,0.304170172013332,3.8382866984137
"64",3.82332792044352,0.137400662208216,3.82591496482798,-0.139987706592672,1,"subseries 4",FALSE,64,0.205005231732313,3.82591496482798
"65",3.99868719882759,0.322293317314907,3.81937973323166,-0.142985851718977,1,"subseries 5",FALSE,65,0.199313807785249,3.81937973323166
"66",4.08231355487736,0.377331814473136,3.80597407475472,-0.100992334350499,1,"subseries 6",FALSE,66,0.171464495497564,3.80597407475472
"67",4.16726622780834,0.239094980432925,3.79947805123072,0.128693196144691,1,"subseries 7",FALSE,67,0.192721820289149,3.79947805123072
"68",4.04993776059594,0.250099702547739,3.79974428359808,9.37744501214866e-05,1,"subseries 8",FALSE,68,0.250527851442553,3.79974428359808
"69",4.09558828252594,0.129024678137402,3.7996000428552,0.16696356153334,1,"subseries 9",FALSE,69,0.31968814869605,3.7996000428552
"70",3.78038151697489,-0.0542075661595145,3.79446720864827,0.0401218744861307,1,"subseries 10",FALSE,70,0.357179015366375,3.79446720864827
"71",3.48572837887811,-0.204149260465552,3.77395087532683,-0.0840732359831651,1,"subseries 11",FALSE,71,0.329597338097208,3.77395087532683
"72",3.47125057217622,-0.248219604415166,3.74863917001235,-0.0291689934209654,1,"subseries 12",FALSE,72,0.287641209792574,3.74863917001235
"73",3.49420931883206,-0.564032698734118,3.71645281281514,0.341789204751043,1,"subseries 1",FALSE,73,0.25791127425765,3.71645281281514
"74",3.47102644794471,-0.317511310864969,3.68801139668151,0.100526362128167,1,"subseries 2",FALSE,74,0.299104263906484,3.68801139668151
"75",3.33253328410872,-0.067124714475005,3.66430687316223,-0.264648874578502,1,"subseries 3",FALSE,75,0.163575581643717,3.66430687316223
"76",3.55831272231938,0.137400662208216,3.63827387362904,-0.217361813517878,1,"subseries 4",FALSE,76,0.290378760864882,3.63827387362904
"77",3.80955313509833,0.322293317314907,3.61811065889201,-0.130850841108591,1,"subseries 5",FALSE,77,0.184014081502728,3.61811065889201
"78",4.03271921023178,0.377331814473136,3.59899126618842,0.0563961295702264,1,"subseries 6",FALSE,78,0.201547424765728,3.59899126618842
"79",3.97743886614502,0.239094980432925,3.59126933487932,0.147074550832771,1,"subseries 7",FALSE,79,0.18730162535496,3.59126933487932
"80",3.78542472304547,0.250099702547739,3.59972314316546,-0.0643981226677308,1,"subseries 8",FALSE,80,0.282295256013059,3.59972314316546
"81",3.76551835003868,0.129024678137402,3.61540957998455,0.0210840919167299,1,"subseries 9",FALSE,81,0.317668379753097,3.61540957998455
"82",3.45608655956928,-0.0542075661595145,3.62285138722599,-0.1125572614972,1,"subseries 10",FALSE,82,0.403510508297919,3.62285138722599
"83",3.32404694419253,-0.204149260465552,3.61895887534212,-0.090762670684037,1,"subseries 11",FALSE,83,0.302801767953278,3.61895887534212
"84",3.3802035985013,-0.248219604415166,3.60312582007519,0.0252973828412713,1,"subseries 12",FALSE,84,0.303692456643326,3.60312582007519
"85",3.45638754669592,-0.564032698734118,3.57775907879876,0.442661166631275,1,"subseries 1",FALSE,85,0.273993985193726,3.57775907879876
"86",3.44404254873357,-0.317511310864969,3.56625706188769,0.195296797710853,1,"subseries 2",FALSE,86,0.315635220123806,3.56625706188769
"87",3.37173852225939,-0.067124714475005,3.55377610731512,-0.114912870580723,1,"subseries 3",FALSE,87,0.278187729831329,3.55377610731512
"88",3.44414637748841,0.137400662208216,3.54897843932947,-0.242232724049278,1,"subseries 4",FALSE,88,0.245716188891378,3.54897843932947
"89",3.6270586840524,0.322293317314907,3.55251437604539,-0.2477490093079,1,"subseries 5",FALSE,89,0.210290402112642,3.55251437604539
"90",3.79196468736202,0.377331814473136,3.55072462271979,-0.136091749830904,1,"subseries 6",FALSE,90,0.15659775190622,3.55072462271979
"91",3.75915919703202,0.239094980432925,3.55274902442223,-0.0326848078231374,1,"subseries 7",FALSE,91,0.210803919007777,3.55274902442223
"92",3.86541400881962,0.250099702547739,3.55406494221527,0.0612493640566156,1,"subseries 8",FALSE,92,0.19687818059634,3.55406494221527
"93",3.74751575354846,0.129024678137402,3.55696259668243,0.0615284787286239,1,"subseries 9",FALSE,93,0.305492006367212,3.55696259668243
"94",3.64600056928549,-0.0542075661595145,3.56298624081575,0.137221894629259,1,"subseries 10",FALSE,94,0.391032097769244,3.56298624081575
"95",3.3702274435034,-0.204149260465552,3.57019451927708,0.00418218469187082,1,"subseries 11",FALSE,95,0.316902885013395,3.57019451927708
"96",3.32226930514159,-0.248219604415166,3.57960705390303,-0.00911814434627489,1,"subseries 12",FALSE,96,0.285018302212304,3.57960705390303
