"","raw","seasonal","trend","remainder","weights","sub.labels","interpolated","age","sigma","power"
"1",43.0257259085151,-3.56043166678922,49.0553276929983,-2.46917011769399,1,"subseries 1",FALSE,1,9.5484464594259,49.0553276929983
"2",43.2693352267948,-5.27267784151055,49.2161130499554,-0.674099981650016,1,"subseries 2",FALSE,2,3.09167075325139,49.2161130499554
"3",42.2777495000139,-6.6659536560842,49.3565281561846,-0.412825000086535,1,"subseries 3",FALSE,3,2.03565612799787,49.3565281561846
"4",41.711143326129,-7.01878210277295,49.451788064911,-0.721862636009014,1,"subseries 4",FALSE,4,1.97626270896445,49.451788064911
"5",43.3497214895961,-6.6839713313959,49.5212565807674,0.512436240224595,1,"subseries 5",FALSE,5,2.43560170949419,49.5212565807674
"6",50.6341655714377,-3.17810775903502,49.5957414436241,4.21653188684857,1,"subseries 6",FALSE,6,2.38191890687163,49.5957414436241
"7",54.6348663763053,2.10137050873411,49.6177158761062,2.91577999146494,1,"subseries 7",FALSE,7,2.58629501957305,49.6177158761062
"8",59.5021783587068,7.98667207331881,49.7239534012584,1.79155288412958,1,"subseries 8",FALSE,8,3.20318080522596,49.7239534012584
"9",60.2457305958296,10.8022204273261,49.6675960169345,-0.224085848430953,1,"subseries 9",FALSE,9,2.59720629267359,49.6675960169345
"10",56.1213829051106,8.03883487281679,49.4012213341867,-1.31867330189285,1,"subseries 10",FALSE,10,2.2213986637584,49.4012213341867
"11",51.2949025026707,3.84339632576917,49.1453707782214,-1.69386460131988,1,"subseries 11",FALSE,11,2.35411913558552,49.1453707782214
"12",47.0313408728964,-0.392569850377131,48.7806552965228,-1.35674457324923,1,"subseries 12",FALSE,12,2.48922748882805,48.7806552965228
"13",44.1326557461351,-3.56043166678922,48.5682825871797,-0.875195174255332,1,"subseries 1",FALSE,13,3.03181730457957,48.5682825871797
"14",43.1761495733425,-5.27267784151055,48.4785361711471,-0.0297087562940348,1,"subseries 2",FALSE,14,2.96366240503072,48.4785361711471
"15",42.7485880947025,-6.6659536560842,48.5167263448856,0.89781540590112,1,"subseries 3",FALSE,15,1.83537260768317,48.5167263448856
"16",41.6784932302739,-7.01878210277295,48.6346677689092,0.0626075641377,1,"subseries 4",FALSE,16,1.50171103143232,48.6346677689092
"17",41.0861412702617,-6.6839713313959,48.7322051992611,-0.962092597603494,1,"subseries 5",FALSE,17,1.79968604454436,48.7322051992611
"18",45.3356095326031,-3.17810775903502,48.7920542148652,-0.27833692322708,1,"subseries 6",FALSE,18,4.12497463587527,48.7920542148652
"19",52.683640814555,2.10137050873411,48.7747064733971,1.80756383242376,1,"subseries 7",FALSE,19,3.45776372061134,48.7747064733971
"20",57.8947182510905,7.98667207331881,48.7472525525567,1.16079362521504,1,"subseries 8",FALSE,20,2.19379158604817,48.7472525525567
"21",59.5746221751785,10.8022204273261,48.6806856849781,0.0917160628742835,1,"subseries 9",FALSE,21,2.63443350179741,48.6806856849781
"22",56.5453121111721,8.03883487281679,48.6179514020732,-0.11147416371788,1,"subseries 10",FALSE,22,2.18949818878726,48.6179514020732
"23",50.7994032665055,3.84339632576917,48.5429110211512,-1.5869040804149,1,"subseries 11",FALSE,23,1.90039385755846,48.5429110211512
"24",47.9388594759814,-0.392569850377131,48.5098939229708,-0.178464596612301,1,"subseries 12",FALSE,24,2.93336472178409,48.5098939229708
"25",45.0865257830905,-3.56043166678922,48.5855122482869,0.0614452015927966,1,"subseries 1",FALSE,25,3.80491336691243,48.5855122482869
"26",43.045679872324,-5.27267784151055,48.7292795147558,-0.410921800921258,1,"subseries 2",FALSE,26,2.47987721955963,48.7292795147558
"27",40.9780494353611,-6.6659536560842,49.0085895101972,-1.36458641875189,1,"subseries 3",FALSE,27,1.84415411690073,49.0085895101972
"28",41.1085410378541,-7.01878210277295,49.2423021935435,-1.11497905291645,1,"subseries 4",FALSE,28,1.85914068811298,49.2423021935435
"29",41.7803762595074,-6.6839713313959,49.4466618051762,-0.982314214272883,1,"subseries 5",FALSE,29,1.35892513033537,49.4466618051762
"30",49.0562185947314,-3.17810775903502,49.5536139662203,2.68071238754607,1,"subseries 6",FALSE,30,2.09864952079936,49.5536139662203
"31",54.3237597772143,2.10137050873411,49.5091035717758,2.71328569670442,1,"subseries 7",FALSE,31,1.86202043917182,49.5091035717758
"32",59.0445358378699,7.98667207331881,49.4896793440683,1.56818442048281,1,"subseries 8",FALSE,32,2.47845825777502,49.4896793440683
"33",60.8846032448236,10.8022204273261,49.310749816041,0.771633001456479,1,"subseries 9",FALSE,33,1.9126681158137,49.310749816041
"34",56.6149810743008,8.03883487281679,49.1235121485856,-0.547365947101618,1,"subseries 10",FALSE,34,1.67926828095792,49.1235121485856
"35",52.0519836802202,3.84339632576917,48.897505468119,-0.688918113668024,1,"subseries 11",FALSE,35,2.80117265840232,48.897505468119
"36",46.4299771302285,-0.392569850377131,48.5766857609406,-1.75413878033499,1,"subseries 12",FALSE,36,2.11827348699013,48.5766857609406
"37",43.4280613491433,-3.56043166678922,48.3830854680491,-1.39459245211663,1,"subseries 1",FALSE,37,2.37989537875075,48.3830854680491
"38",42.7358331007806,-5.27267784151055,48.2405204465819,-0.232009504290765,1,"subseries 2",FALSE,38,2.92307998372128,48.2405204465819
"39",41.1028434629578,-6.6659536560842,48.2375057635045,-0.468708644462538,1,"subseries 3",FALSE,39,2.16109735012853,48.2375057635045
"40",41.6689254445873,-7.01878210277295,48.3066155986906,0.381091948669678,1,"subseries 4",FALSE,40,1.59620669631552,48.3066155986906
"41",42.2058458622803,-6.6839713313959,48.3895102491706,0.500306944505546,1,"subseries 5",FALSE,41,1.84426530504962,48.3895102491706
"42",44.9555894239938,-3.17810775903502,48.482576128754,-0.348878945725154,1,"subseries 6",FALSE,42,2.32417344352294,48.482576128754
"43",51.4298208459858,2.10137050873411,48.4951824933767,0.833267843875014,1,"subseries 7",FALSE,43,3.24586483176998,48.4951824933767
"44",58.0236727256969,7.98667207331881,48.5055171743988,1.53148347797927,1,"subseries 8",FALSE,44,2.35200828998427,48.5055171743988
"45",59.1830589292694,10.8022204273261,48.4676698984779,-0.0868313965345777,1,"subseries 9",FALSE,45,2.32265875475985,48.4676698984779
"46",55.9564128201545,8.03883487281679,48.4350798626185,-0.517501915280747,1,"subseries 10",FALSE,46,2.3505962728659,48.4350798626185
"47",52.1186280775677,3.84339632576917,48.4197217964413,-0.144490044642815,1,"subseries 11",FALSE,47,2.12789346206386,48.4197217964413
"48",46.6814964987795,-0.392569850377131,48.3811067997864,-1.30704045062977,1,"subseries 12",FALSE,48,1.97090640402848,48.3811067997864
"49",44.15638225941,-3.56043166678922,48.3942823444317,-0.677468418232451,1,"subseries 1",FALSE,49,2.57896133978322,48.3942823444317
"50",43.5777485024177,-5.27267784151055,48.3702995333827,0.480126810545521,1,"subseries 2",FALSE,50,2.41580912514972,48.3702995333827
"51",41.819664191572,-6.6659536560842,48.3605540178286,0.125063829827575,1,"subseries 3",FALSE,51,2.26013124902317,48.3605540178286
"52",41.7954501491368,-7.01878210277295,48.3605906366666,0.45364161524315,1,"subseries 4",FALSE,52,1.8608150437735,48.3605906366666
"53",42.4457313358869,-6.6839713313959,48.2981044149072,0.831598252375613,1,"subseries 5",FALSE,53,2.39792213354715,48.2981044149072
"54",45.543112223696,-3.17810775903502,48.2589992495006,0.46222073323046,1,"subseries 6",FALSE,54,2.17682265373759,48.2589992495006
"55",51.1782774295934,2.10137050873411,48.1667928425079,0.910114078351342,1,"subseries 7",FALSE,55,1.72320491793744,48.1667928425079
"56",55.6547888733776,7.98667207331881,48.0664385442388,-0.398321744180038,1,"subseries 8",FALSE,56,1.97637070921079,48.0664385442388
"57",57.2730831447635,10.8022204273261,47.9839244567533,-1.51306173931587,1,"subseries 9",FALSE,57,2.33780271272443,47.9839244567533
"58",55.6410511894223,8.03883487281679,47.9094785688551,-0.307262252249537,1,"subseries 10",FALSE,58,2.14196206914481,47.9094785688551
"59",51.4037126129975,3.84339632576917,47.9153516302333,-0.355035343005007,1,"subseries 11",FALSE,59,1.86419751384983,47.9153516302333
"60",47.4115744016981,-0.392569850377131,47.8637839345206,-0.059639682445372,1,"subseries 12",FALSE,60,2.11300130033914,47.8637839345206
"61",43.8630533088738,-3.56043166678922,47.8137716268594,-0.390286651196348,1,"subseries 1",FALSE,61,2.13557020277212,47.8137716268594
"62",42.5377166021664,-5.27267784151055,47.7670315896773,0.0433628539996747,1,"subseries 2",FALSE,62,2.7123467401874,47.7670315896773
"63",42.6216706517126,-6.6659536560842,47.6566978309259,1.63092647687091,1,"subseries 3",FALSE,63,2.37912036703508,47.6566978309259
"64",42.0319423097346,-7.01878210277295,47.7261160512944,1.32460836121317,1,"subseries 4",FALSE,64,1.89619678121458,47.7261160512944
"65",42.3026862793698,-6.6839713313959,47.8606972186361,1.12596039212962,1,"subseries 5",FALSE,65,1.54738401406383,47.8606972186361
"66",42.3322485650891,-3.17810775903502,48.0464166454986,-2.53606032137449,1,"subseries 6",FALSE,66,1.36608262701913,48.0464166454986
"67",46.2726039232547,2.10137050873411,48.3485925553098,-4.17735914078924,1,"subseries 7",FALSE,67,3.83705499606453,48.3485925553098
"68",54.8603269185943,7.98667207331881,48.4737341785538,-1.60007933327826,1,"subseries 8",FALSE,68,2.60136394285946,48.4737341785538
"69",60.1714788919342,10.8022204273261,48.628451746599,0.740806718009068,1,"subseries 9",FALSE,69,2.32245758162955,48.628451746599
"70",59.6540443194206,8.03883487281679,48.7107494057407,2.90446004086311,1,"subseries 10",FALSE,70,2.76351222754281,48.7107494057407
"71",55.5086945223621,3.84339632576917,48.6652346264936,3.00006357009934,1,"subseries 11",FALSE,71,2.13072423387877,48.6652346264936
"72",49.831004922923,-0.392569850377131,48.6527266887257,1.57084808457439,1,"subseries 12",FALSE,72,2.30949720493841,48.6527266887257
"73",46.3104022466549,-3.56043166678922,48.3494085864138,1.52142532703029,1,"subseries 1",FALSE,73,2.56291412670762,48.3494085864138
"74",42.6761736030276,-5.27267784151055,47.9145524489053,0.0342989956328168,1,"subseries 2",FALSE,74,2.12977868018519,47.9145524489053
"75",40.4231406945552,-6.6659536560842,47.322808767642,-0.233714417002616,1,"subseries 3",FALSE,75,2.712579855899,47.322808767642
"76",39.4443307210569,-7.01878210277295,46.6864377850285,-0.223324961198642,1,"subseries 4",FALSE,76,1.83963174579978,46.6864377850285
"77",38.5767373430863,-6.6839713313959,46.1955973866155,-0.934888712133301,1,"subseries 5",FALSE,77,1.26860880388857,46.1955973866155
"78",39.6476068344117,-3.17810775903502,45.999126345334,-3.17341175188727,1,"subseries 6",FALSE,78,2.22985388017008,45.999126345334
"79",47.4756298944144,2.10137050873411,46.0606786976209,-0.686419311940654,1,"subseries 7",FALSE,79,4.61261566972679,46.0606786976209
"80",50.0298711649235,7.98667207331881,46.0969092048368,-4.05371011323214,1,"subseries 8",FALSE,80,6.16573537790444,46.0969092048368
"81",57.3277683294924,10.8022204273261,46.2451321172143,0.280415784952027,1,"subseries 9",FALSE,81,6.34223997475753,46.2451321172143
"82",54.1578474117741,8.03883487281679,46.1536776764348,-0.0346651374774396,1,"subseries 10",FALSE,82,4.26313168064713,46.1536776764348
"83",51.3578221950883,3.84339632576917,45.9853385569028,1.52908731241633,1,"subseries 11",FALSE,83,6.71502907610466,45.9853385569028
"84",48.3997733822631,-0.392569850377131,45.6597121672675,3.13263106537275,1,"subseries 12",FALSE,84,7.14811246831982,45.6597121672675
"85",46.0323688237357,-3.56043166678922,45.2254870960346,4.36731339449034,1,"subseries 1",FALSE,85,9.76438889965626,45.2254870960346
"86",40.7122182934547,-5.27267784151055,44.9276510104902,1.05724512447502,1,"subseries 2",FALSE,86,9.22383872465871,44.9276510104902
"87",NA,-6.6659536560842,44.5916261045518,NA,1,"subseries 3",TRUE,87,NA,NA
"88",NA,-7.01878210277295,44.2716760341582,NA,1,"subseries 4",TRUE,88,NA,NA
"89",NA,-6.6839713313959,43.9301010179917,NA,1,"subseries 5",TRUE,89,NA,NA
"90",39.6790695779715,-3.17810775903502,43.5513631354035,-0.69418579839698,1,"subseries 6",FALSE,90,1.85776051191694,43.5513631354035
"91",41.2554460154575,2.10137050873411,43.1544699060404,-4.00039439931705,1,"subseries 7",FALSE,91,1.79334439147699,43.1544699060404
