"","raw","seasonal","trend","remainder","weights","sub.labels","interpolated","age","sigma","power"
"1",NA,-0.151929701796817,132.295737320046,NA,1,"subseries 1",TRUE,1,NA,NA
"2",109.378023020847,-4.92471617487049,127.104152609288,-12.801413413571,1,"subseries 2",FALSE,2,8.29690193017083,127.104152609288
"3",118.896668114782,-3.62224824459022,121.868453993651,0.650462365720784,1,"subseries 3",FALSE,3,7.0554727222866,121.868453993651
"4",111.1530175969,2.79151746811736,116.452117585271,-8.09061745648819,1,"subseries 4",FALSE,4,6.79952041892046,116.452117585271
"5",NA,6.44165085954455,111.002569205602,NA,1,"subseries 5",TRUE,5,NA,NA
"6",102.195101052935,2.46988800200592,105.510211375702,-5.78499832477274,1,"subseries 6",FALSE,6,22.5530529542451,105.510211375702
"7",128.73473362247,3.87651091341071,99.9887919762914,24.8694307327679,1,"subseries 7",FALSE,7,24.4640631431915,99.9887919762914
"8",114.368390812768,-1.03359443236465,94.755542784005,20.6464424611276,1,"subseries 8",FALSE,8,9.58330799520365,94.755542784005
"9",104.42406177272,-1.377524655427,89.4461142769998,16.3554721511472,1,"subseries 9",FALSE,9,6.67983706453058,89.4461142769998
"10",87.4702887998918,-0.85085482713786,84.4454036755924,3.87573995143731,1,"subseries 10",FALSE,10,4.5883032387413,84.4454036755924
"11",60.6796544324664,-2.55629676088841,79.332320875581,-16.0963696822262,1,"subseries 11",FALSE,11,7.96544681983587,79.332320875581
"12",47.8317786909441,-1.06240244600308,77.2636245184863,-28.3694433815391,1,"subseries 12",FALSE,12,3.73445953057127,77.2636245184863
"13",47.4136282463801,-0.151929701796817,77.9519763201579,-30.386418371981,1,"subseries 1",FALSE,13,4.4360853163938,77.9519763201579
"14",44.8055618747678,-4.92471617487049,78.2876364008511,-28.5573583512128,1,"subseries 2",FALSE,14,4.46553213954915,78.2876364008511
"15",40.5877392296648,-3.62224824459022,81.2479964557736,-37.0380089815186,1,"subseries 3",FALSE,15,4.8147474873911,81.2479964557736
"16",NA,2.79151746811736,84.1667190380518,NA,1,"subseries 4",TRUE,16,NA,NA
"17",115.159713017424,6.44165085954455,88.2564426302626,20.4616195276168,1,"subseries 5",FALSE,17,3.54531308822506,88.2564426302626
"18",116.593033648442,2.46988800200592,94.1239769290729,19.9991687173632,1,"subseries 6",FALSE,18,9.78171266211609,94.1239769290729
"19",119.057128315353,3.87651091341071,99.3491191102118,15.8314982917305,1,"subseries 7",FALSE,19,4.47244305999336,99.3491191102118
"20",119.148793085525,-1.03359443236465,105.238528853725,14.9438586641648,1,"subseries 8",FALSE,20,8.63987247275755,105.238528853725
"21",113.135060625307,-1.377524655427,109.093330371491,5.41925490924329,1,"subseries 9",FALSE,21,7.19667721979584,109.093330371491
"22",105.267781237299,-0.85085482713786,110.942709885211,-4.82407382077375,1,"subseries 10",FALSE,22,6.67879417066725,110.942709885211
"23",111.825423860474,-2.55629676088841,111.354963983178,3.02675663818421,1,"subseries 11",FALSE,23,7.48389974563062,111.354963983178
"24",120.678728377774,-1.06240244600308,110.550545648379,11.1905851753983,1,"subseries 12",FALSE,24,6.0747911337488,110.550545648379
"25",115.034830582545,-0.151929701796817,109.507751907073,5.67900837726911,1,"subseries 1",FALSE,25,7.83556828408717,109.507751907073
"26",105.042187012928,-4.92471617487049,108.454113721755,1.51278946604346,1,"subseries 2",FALSE,26,5.2353635193606,108.454113721755
"27",93.9175145335888,-3.62224824459022,107.56606700822,-10.0263042300408,1,"subseries 3",FALSE,27,4.10121216099091,107.56606700822
"28",92.5811939747542,2.79151746811736,106.103294401811,-16.3136178951737,1,"subseries 4",FALSE,28,2.83448246307501,106.103294401811
"29",111.937473322475,6.44165085954455,104.619124674555,0.876697788375836,1,"subseries 5",FALSE,29,13.0717879810698,104.619124674555
"30",116.499863767915,2.46988800200592,103.503149604364,10.5268261615446,1,"subseries 6",FALSE,30,3.24526567584374,103.503149604364
"31",112.329560617195,3.87651091341071,102.981125741515,5.47192396226932,1,"subseries 7",FALSE,31,3.89684859956576,102.981125741515
"32",103.585228186036,-1.03359443236465,103.74869060689,0.870132011510691,1,"subseries 8",FALSE,32,3.294506144618,103.74869060689
"33",96.7866390421356,-1.377524655427,105.128899158587,-6.96473546102459,1,"subseries 9",FALSE,33,3.20926128284812,105.128899158587
"34",85.3876778430014,-0.85085482713786,105.749684237447,-19.5111515673078,1,"subseries 10",FALSE,34,4.55676331609997,105.749684237447
"35",92.5413529562716,-2.55629676088841,106.126795491942,-11.0291457747819,1,"subseries 11",FALSE,35,18.5246817013713,106.126795491942
"36",124.366885379327,-1.06240244600308,105.195572619652,20.2337152056778,1,"subseries 12",FALSE,36,6.87857371030589,105.195572619652
"37",112.130002376041,-0.151929701796817,103.445110068172,8.83682200966628,1,"subseries 1",FALSE,37,7.88189198822853,103.445110068172
"38",124.22407610426,-4.92471617487049,102.193747931285,26.9550443478457,1,"subseries 2",FALSE,38,4.94894534116348,102.193747931285
"39",105.873547026809,-3.62224824459022,99.8543738907732,9.641421380626,1,"subseries 3",FALSE,39,11.0684423706199,99.8543738907732
"40",93.7519014464941,2.79151746811736,98.4389445408977,-7.47856056252091,1,"subseries 4",FALSE,40,2.74781727004331,98.4389445408977
"41",91.2323460054919,6.44165085954455,97.1113427895971,-12.3206476436497,1,"subseries 5",FALSE,41,5.95274422837206,97.1113427895971
"42",86.410198197995,2.46988800200592,95.5699958213547,-11.6296856253656,1,"subseries 6",FALSE,42,3.20772141186901,95.5699958213547
"43",79.8705697542015,3.87651091341071,95.8108432271048,-19.8167843863141,1,"subseries 7",FALSE,43,2.43638864388244,95.8108432271048
"44",77.0860623812807,-1.03359443236465,96.4117515345796,-18.2920947209342,1,"subseries 8",FALSE,44,3.5290326971949,96.4117515345796
"45",90.1486588914462,-1.377524655427,98.8533983424749,-7.32721479560168,1,"subseries 9",FALSE,45,15.2022851227928,98.8533983424749
"46",115.179025446158,-0.85085482713786,102.019574255598,14.0103060176979,1,"subseries 10",FALSE,46,5.29142940426906,102.019574255598
"47",104.966592200519,-2.55629676088841,105.289935859616,2.23295310179182,1,"subseries 11",FALSE,47,5.75376961234023,105.289935859616
"48",116.039565719038,-1.06240244600308,108.479276670671,8.62269149437026,1,"subseries 12",FALSE,48,5.93380158683591,108.479276670671
"49",120.31286303036,-0.151929701796817,110.1417926091,10.323000123057,1,"subseries 1",FALSE,49,6.70530340842222,110.1417926091
"50",122.15158851718,-4.92471617487049,111.279310687401,15.7969940046498,1,"subseries 2",FALSE,50,5.44866548326801,111.279310687401
"51",116.676730593144,-3.62224824459022,110.866264505318,9.43271433241621,1,"subseries 3",FALSE,51,3.99827217189319,110.866264505318
"52",113.811786289755,2.79151746811736,110.07066133951,0.949607482127249,1,"subseries 4",FALSE,52,9.847905898927,110.07066133951
"53",109.341472061487,6.44165085954455,109.080105105205,-6.18028390326265,1,"subseries 5",FALSE,53,12.4450665459888,109.080105105205
"54",103.074224042694,2.46988800200592,107.710494282424,-7.10615824173611,1,"subseries 6",FALSE,54,3.47880047872888,107.710494282424
"55",94.698445364052,3.87651091341071,106.995743258829,-16.1738088081878,1,"subseries 7",FALSE,55,7.51405682017028,106.995743258829
"56",95.854106763531,-1.03359443236465,106.02360660602,-9.13590541012466,1,"subseries 8",FALSE,56,13.7853035801561,106.02360660602
"57",113.190202822027,-1.377524655427,105.848622569344,8.71910490810953,1,"subseries 9",FALSE,57,4.96721905442057,105.848622569344
"58",105.52322943142,-0.85085482713786,106.241556922883,0.132527335674524,1,"subseries 10",FALSE,58,8.27880751005771,106.241556922883
"59",111.648081320296,-2.55629676088841,106.720407380127,7.48397070105703,1,"subseries 11",FALSE,59,5.22496700429927,106.720407380127
"60",105.822082425735,-1.06240244600308,107.340050468709,-0.455565596971127,1,"subseries 12",FALSE,60,6.63087445352139,107.340050468709
"61",112.805178543677,-0.151929701796817,107.275351781561,5.68175646391259,1,"subseries 1",FALSE,61,5.12628918972779,107.275351781561
"62",98.8983329772154,-4.92471617487049,107.039298097861,-3.2162489457754,1,"subseries 2",FALSE,62,6.79604762353314,107.039298097861
"63",111.751296714599,-3.62224824459022,106.439616580297,8.93392837889238,1,"subseries 3",FALSE,63,6.04478211063007,106.439616580297
"64",110.473709715743,2.79151746811736,105.750353704956,1.93183854266928,1,"subseries 4",FALSE,64,4.78492843495623,105.750353704956
"65",103.981994274678,6.44165085954455,105.249472572549,-7.70912915741587,1,"subseries 5",FALSE,65,8.51113628745104,105.249472572549
"66",95.8609932021407,2.46988800200592,104.835057231249,-11.4439520311145,1,"subseries 6",FALSE,66,3.4189927630816,104.835057231249
"67",109.91294037942,3.87651091341071,104.846620060684,1.18980940532518,1,"subseries 7",FALSE,67,9.44033922926189,104.846620060684
"68",106.294791921762,-1.03359443236465,104.771279015008,2.55710733911829,1,"subseries 8",FALSE,68,4.8560585739322,104.771279015008
"69",99.4284159879654,-1.377524655427,104.966149839206,-4.16020919581396,1,"subseries 9",FALSE,69,5.72630593154873,104.966149839206
"70",105.345237094215,-0.85085482713786,105.35133472565,0.844757195703309,1,"subseries 10",FALSE,70,5.95827366172584,105.35133472565
"71",106.692438941965,-2.55629676088841,105.62082717878,3.62790852407382,1,"subseries 11",FALSE,71,5.80005602098176,105.62082717878
"72",111.762967840733,-1.06240244600308,105.992318638331,6.83305164840539,1,"subseries 12",FALSE,72,4.82674642672242,105.992318638331
"73",106.647926416632,-0.151929701796817,106.017133834506,0.782722283922411,1,"subseries 1",FALSE,73,5.46997773780085,106.017133834506
"74",99.222931138504,-4.92471617487049,105.884645211228,-1.7369978978532,1,"subseries 2",FALSE,74,6.19501864756344,105.884645211228
"75",98.8295391427168,-3.62224824459022,105.624476464392,-3.17268907708484,1,"subseries 3",FALSE,75,7.02143369298382,105.624476464392
"76",110.105079902971,2.79151746811736,105.258657700389,2.05490473446513,1,"subseries 4",FALSE,76,5.53858631552467,105.258657700389
"77",111.333840105712,6.44165085954455,104.983936299662,-0.091747053494089,1,"subseries 5",FALSE,77,3.74846701214152,104.983936299662
"78",106.131305696658,2.46988800200592,104.49859269861,-0.83717500395791,1,"subseries 6",FALSE,78,3.91112259868378,104.49859269861
"79",101.558357221144,3.87651091341071,104.044139097095,-6.36229278936123,1,"subseries 7",FALSE,79,3.06430270107696,104.044139097095
"80",108.55313510082,-1.03359443236465,103.764311334876,5.82241819830837,1,"subseries 8",FALSE,80,12.1529952215637,103.764311334876
"81",104.196033744228,-1.377524655427,103.478162577761,2.09539582189423,1,"subseries 9",FALSE,81,4.81353571569344,103.478162577761
"82",102.03736956721,-0.85085482713786,103.266321855865,-0.378097461517541,1,"subseries 10",FALSE,82,8.45061674518678,103.266321855865
"83",106.973550150394,-2.55629676088841,103.03538808364,6.4944588276428,1,"subseries 11",FALSE,83,6.94818939871696,103.03538808364
"84",88.0895925030609,-1.06240244600308,102.347766325488,-13.1957713764242,1,"subseries 12",FALSE,84,7.08291220863906,102.347766325488
"85",104.250082740901,-0.151929701796817,101.256866459186,3.14514598351208,1,"subseries 1",FALSE,85,5.23743428930743,101.256866459186
"86",99.9267590152694,-4.92471617487049,99.498272800236,5.3532023899039,1,"subseries 2",FALSE,86,5.98470531471208,99.498272800236
"87",102.919084348166,-3.62224824459022,97.1262729730799,9.41505961967633,1,"subseries 3",FALSE,87,6.13215428631002,97.1262729730799
"88",105.237407581066,2.79151746811736,94.7295576326884,7.71633248026021,1,"subseries 4",FALSE,88,3.65391919839115,94.7295576326884
"89",98.2948160128576,6.44165085954455,91.8295855527538,0.023579600559259,1,"subseries 5",FALSE,89,6.91599064432142,91.8295855527538
"90",91.2465158943973,2.46988800200592,89.145053739919,-0.36842584752759,1,"subseries 6",FALSE,90,2.90735770257378,89.145053739919
"91",87.8183389803404,3.87651091341071,86.4765120478426,-2.53468398091287,1,"subseries 7",FALSE,91,3.12821739915895,86.4765120478426
"92",76.2107468096339,-1.03359443236465,83.8073492658593,-6.56300802386072,1,"subseries 8",FALSE,92,6.2713055324284,83.8073492658593
"93",69.6033134789658,-1.377524655427,81.9791330797002,-10.9982949453074,1,"subseries 9",FALSE,93,4.17140771958452,81.9791330797002
"94",73.2997328630302,-0.85085482713786,81.0860134731557,-6.93542578298761,1,"subseries 10",FALSE,94,6.73045239495304,81.0860134731557
"95",80.9963557112451,-2.55629676088841,81.5700958957839,1.98255657634965,1,"subseries 11",FALSE,95,5.28472569467197,81.5700958957839
"96",73.911022719024,-1.06240244600308,82.8129345182538,-7.8395093532267,1,"subseries 12",FALSE,96,5.45216078363478,82.8129345182538
"97",77.2796280323976,-0.151929701796817,84.936845692829,-7.50528795863454,1,"subseries 1",FALSE,97,3.69020805434899,84.936845692829
"98",73.7250422502188,-4.92471617487049,87.2144325599463,-8.56467413485706,1,"subseries 2",FALSE,98,5.3567137288857,87.2144325599463
"99",93.1596300921203,-3.62224824459022,89.4234893791192,7.35838895759133,1,"subseries 3",FALSE,99,22.2555959888784,89.4234893791192
"100",109.638734977861,2.79151746811736,92.2070858272644,14.6401316824793,1,"subseries 4",FALSE,100,6.04093332804138,92.2070858272644
"101",103.138623031171,6.44165085954455,95.0262014045032,1.67077076712326,1,"subseries 5",FALSE,101,4.1906591845335,95.0262014045032
"102",103.254804057319,2.46988800200592,97.955409554445,2.82950650086809,1,"subseries 6",FALSE,102,3.92891734777547,97.955409554445
"103",99.2536247508213,3.87651091341071,100.904876907502,-5.52776307009125,1,"subseries 7",FALSE,103,2.61871089049591,100.904876907502
"104",89.8330043569584,-1.03359443236465,103.757599100056,-12.8910003107326,1,"subseries 8",FALSE,104,7.91810497395799,103.757599100056
"105",100.483228113414,-1.377524655427,106.605825719336,-4.7450729504953,1,"subseries 9",FALSE,105,13.3523826441878,106.605825719336
"106",119.637351639291,-0.85085482713786,109.398230385002,11.0899760814265,1,"subseries 10",FALSE,106,9.09999722757304,109.398230385002
