"","raw","seasonal","trend","remainder","weights","sub.labels","interpolated","age","sigma","power"
"1",NA,-0.995483027648641,46.705759796439,NA,1,"subseries 1",TRUE,1,NA,NA
"2",47.7258818762813,-0.924877791636859,46.8853115433209,1.76544812459724,1,"subseries 2",FALSE,2,13.3812625075003,46.8853115433209
"3",43.1845496546714,-2.77628757128631,47.0648550165675,-1.10401779060977,1,"subseries 3",FALSE,3,11.1129730956322,47.0648550165675
"4",NA,-1.1557944622048,47.2441162353061,NA,1,"subseries 4",TRUE,4,NA,NA
"5",45.6970865742213,0.44302232999438,47.4229269082761,-2.16886266404915,1,"subseries 5",FALSE,5,5.66602886080974,47.4229269082761
"6",51.0169557713256,1.74407706408912,47.589293586191,1.68358512104547,1,"subseries 6",FALSE,6,2.57573414954388,47.589293586191
"7",47.7077572224771,1.33534353804654,47.7568343664811,-1.38442068205055,1,"subseries 7",FALSE,7,3.11599885848585,47.7568343664811
"8",49.4080645465452,1.31316914145405,47.9146365817494,0.180258823341767,1,"subseries 8",FALSE,8,3.35781310593566,47.9146365817494
"9",50.0164977385746,1.0071320489572,48.0765672446197,0.932798444997687,1,"subseries 9",FALSE,9,3.30272035945944,48.0765672446197
"10",48.7429805884017,0.663635061492456,48.2572145948991,-0.177869067989825,1,"subseries 10",FALSE,10,3.40401123557204,48.2572145948991
"11",49.6252240587272,0.249062012340163,48.3968989456996,0.979263100687461,1,"subseries 11",FALSE,11,3.21339979229784,48.3968989456996
"12",47.8360154945078,-0.902998343597301,48.5162670927673,0.222746745337837,1,"subseries 12",FALSE,12,3.15021740567842,48.5162670927673
"13",48.4254924769572,-0.995483027648641,48.5642016740627,0.85677383054319,1,"subseries 1",FALSE,13,2.85023934745701,48.5642016740627
"14",47.8614416220208,-0.924877791636859,48.532216753565,0.254102660092649,1,"subseries 2",FALSE,14,3.55333924044248,48.532216753565
"15",45.8762937436848,-2.77628757128631,48.4503268717447,0.20225444322638,1,"subseries 3",FALSE,15,2.37416553299959,48.4503268717447
"16",45.9399907942638,-1.1557944622048,48.3498289370924,-1.25404368062378,1,"subseries 4",FALSE,16,2.79272307863849,48.3498289370924
"17",50.0769008870037,0.44302232999438,48.2608107093233,1.37306784768602,1,"subseries 5",FALSE,17,2.92864853374132,48.2608107093233
"18",48.570055537591,1.74407706408912,48.2273187068543,-1.4013402333524,1,"subseries 6",FALSE,18,3.02133856718917,48.2273187068543
"19",49.3569941506782,1.33534353804654,48.2845036744195,-0.262853061787879,1,"subseries 7",FALSE,19,3.16841603598237,48.2845036744195
"20",49.6389796253787,1.31316914145405,48.400466198895,-0.0746557149703548,1,"subseries 8",FALSE,20,3.07724768977555,48.400466198895
"21",47.818240134517,1.0071320489572,48.6172574295431,-1.80614934398329,1,"subseries 9",FALSE,21,3.13967022563119,48.6172574295431
"22",48.9267781259007,0.663635061492456,48.8774869278509,-0.614343863442627,1,"subseries 10",FALSE,22,3.69712932917135,48.8774869278509
"23",49.918598362669,0.249062012340163,49.2014247115751,0.468111638753761,1,"subseries 11",FALSE,23,3.53488875217348,49.2014247115751
"24",49.2862670189347,-0.902998343597301,49.5047633054686,0.684502057063384,1,"subseries 12",FALSE,24,3.80247633098235,49.5047633054686
"25",48.8374590859717,-0.995483027648641,49.7651437902433,0.0677983233770831,1,"subseries 1",FALSE,25,3.51498991708966,49.7651437902433
"26",49.3004455425502,-0.924877791636859,49.9603391487392,0.264984185447858,1,"subseries 2",FALSE,26,2.89828311387247,49.9603391487392
"27",48.5738868632879,-2.77628757128631,50.0057445877869,1.34442984678729,1,"subseries 3",FALSE,27,3.60909310314019,50.0057445877869
"28",50.9338320853571,-1.1557944622048,49.9143738652047,2.17525268235722,1,"subseries 4",FALSE,28,2.90463223253763,49.9143738652047
"29",50.3714561019306,0.44302232999438,49.6279684217145,0.300465350221685,1,"subseries 5",FALSE,29,2.68919901553436,49.6279684217145
"30",51.3719164842899,1.74407706408912,49.2613870412915,0.366452378909301,1,"subseries 6",FALSE,30,2.44563337984548,49.2613870412915
"31",50.886384719035,1.33534353804654,48.785264635034,0.765776545954502,1,"subseries 7",FALSE,31,2.83416279540477,48.785264635034
"32",50.1793566491798,1.31316914145405,48.308029537549,0.55815797017673,1,"subseries 8",FALSE,32,2.98035388801311,48.308029537549
"33",47.8804192152382,1.0071320489572,47.8688921029333,-0.995604936652263,1,"subseries 9",FALSE,33,4.25952727327876,47.8688921029333
"34",45.8541015861212,0.663635061492456,47.4367197424599,-2.24625321783114,1,"subseries 10",FALSE,34,3.01543669693308,47.4367197424599
"35",46.6760692292503,0.249062012340163,47.142479579578,-0.715472362667903,1,"subseries 11",FALSE,35,3.30671864975055,47.142479579578
"36",44.9535747662829,-0.902998343597301,46.9676106176168,-1.11103750773656,1,"subseries 12",FALSE,36,2.93114745831451,46.9676106176168
"37",45.7400022898742,-0.995483027648641,46.9755542585731,-0.240068941050239,1,"subseries 1",FALSE,37,2.73700896889502,46.9755542585731
"38",46.2997823793067,-0.924877791636859,47.1001627146594,0.124497456284189,1,"subseries 2",FALSE,38,2.87514730353456,47.1001627146594
"39",44.2133747616007,-2.77628757128631,47.3357237785655,-0.346061445678522,1,"subseries 3",FALSE,39,2.85454898899062,47.3357237785655
"40",43.9504663215316,-1.1557944622048,47.6086307204771,-2.50236993674066,1,"subseries 4",FALSE,40,4.10484299654796,47.6086307204771
"41",50.4504708945682,0.44302232999438,47.8588909508611,2.14855761371272,1,"subseries 5",FALSE,41,2.98651385262889,47.8588909508611
"42",50.8191586376414,1.74407706408912,48.0823311951851,0.992750378367141,1,"subseries 6",FALSE,42,2.76056728910118,48.0823311951851
"43",50.2298182392783,1.33534353804654,48.2332526466518,0.66122205457993,1,"subseries 7",FALSE,43,2.50017570390354,48.2332526466518
"44",50.2708026778306,1.31316914145405,48.3725760544749,0.585057481901657,1,"subseries 8",FALSE,44,3.49476946044429,48.3725760544749
"45",49.6828405389321,1.0071320489572,48.4266862640825,0.249022225892418,1,"subseries 9",FALSE,45,4.57257059629247,48.4266862640825
"46",49.1605048740369,0.663635061492456,48.486572075471,0.0102977370734649,1,"subseries 10",FALSE,46,3.75843891694956,48.486572075471
"47",47.901424932889,0.249062012340163,48.5483232622201,-0.895960341671234,1,"subseries 11",FALSE,47,4.41500178733577,48.5483232622201
"48",47.8596094359892,-0.902998343597301,48.5813862462018,0.181221533384743,1,"subseries 12",FALSE,48,3.33811969217389,48.5813862462018
"49",46.8376458557705,-0.995483027648641,48.6880954241384,-0.854966540719232,1,"subseries 1",FALSE,49,2.59135237645069,48.6880954241384
"50",46.8251042460524,-0.924877791636859,48.7529108694468,-1.00292883175754,1,"subseries 2",FALSE,50,2.85250692380832,48.7529108694468
"51",45.1678142972047,-2.77628757128631,48.8265472599166,-0.882445391425613,1,"subseries 3",FALSE,51,2.75822123139713,48.8265472599166
"52",49.7180540158178,-1.1557944622048,48.9022393929379,1.97160908508467,1,"subseries 4",FALSE,52,3.83481264503518,48.9022393929379
"53",50.7889061411298,0.44302232999438,48.9315158571555,1.41436795397989,1,"subseries 5",FALSE,53,2.43801865661785,48.9315158571555
"54",51.9915154277707,1.74407706408912,48.9826888771674,1.26474948651413,1,"subseries 6",FALSE,54,2.13319910383362,48.9826888771674
"55",48.7120959287206,1.33534353804654,48.9585439679497,-1.58179157727566,1,"subseries 7",FALSE,55,7.08573383534198,48.9585439679497
"56",50.6490776014144,1.31316914145405,48.8946023523697,0.441306107590677,1,"subseries 8",FALSE,56,2.54928521888903,48.8946023523697
"57",49.7596339070801,1.0071320489572,48.7875447598919,-0.0350429017689535,1,"subseries 9",FALSE,57,2.41887189348502,48.7875447598919
"58",48.9714082185025,0.663635061492456,48.6330533290016,-0.325280171991523,1,"subseries 10",FALSE,58,3.21938205693057,48.6330533290016
"59",48.6855452682527,0.249062012340163,48.5280533530871,-0.0915700971745892,1,"subseries 11",FALSE,59,3.32091315484935,48.5280533530871
"60",47.7050552367293,-0.902998343597301,48.5127894328874,0.0952641474391598,1,"subseries 12",FALSE,60,3.4394121556248,48.5127894328874
"61",46.3929652346711,-0.995483027648641,48.5836947941617,-1.19524653184194,1,"subseries 1",FALSE,61,4.46991851035209,48.5836947941617
"62",46.7582827962739,-0.924877791636859,48.6948973518822,-1.01173676397141,1,"subseries 2",FALSE,62,6.36749023557403,48.6948973518822
"63",47.624559413635,-2.77628757128631,48.8709824382424,1.52986454667889,1,"subseries 3",FALSE,63,2.76668744463525,48.8709824382424
"64",45.3213967239667,-1.1557944622048,49.0334209859807,-2.55622979980921,1,"subseries 4",FALSE,64,2.99114500355775,49.0334209859807
"65",50.4190929012593,0.44302232999438,49.199204522654,0.776866048610934,1,"subseries 5",FALSE,65,2.32161050675156,49.199204522654
"66",52.4919782700952,1.74407706408912,49.343926898195,1.4039743078111,1,"subseries 6",FALSE,66,1.5586078406754,49.343926898195
"67",51.6495988277198,1.33534353804654,49.4134042834383,0.900851006234923,1,"subseries 7",FALSE,67,2.13129838403172,49.4134042834383
"68",50.7910484261008,1.31316914145405,49.4241289224479,0.053750362198862,1,"subseries 8",FALSE,68,2.54709252161026,49.4241289224479
"69",51.4643785152254,1.0071320489572,49.3071463846273,1.15010008164094,1,"subseries 9",FALSE,69,2.36871176869469,49.3071463846273
"70",50.2006571523488,0.663635061492456,49.1525736367376,0.384448454118747,1,"subseries 10",FALSE,70,3.19475821627423,49.1525736367376
"71",48.8219090674423,0.249062012340163,48.9241606893478,-0.351313634245656,1,"subseries 11",FALSE,71,4.52318557450123,48.9241606893478
"72",48.6214618381864,-0.902998343597301,48.619803709865,0.904656471918685,1,"subseries 12",FALSE,72,3.46545908753307,48.619803709865
"73",46.8579896773995,-0.995483027648641,48.3081222418624,-0.454649536814308,1,"subseries 1",FALSE,73,3.42049507133031,48.3081222418624
"74",45.4062747397599,-0.924877791636859,47.9634324900327,-1.63227995863598,1,"subseries 2",FALSE,74,2.82913724594411,47.9634324900327
"75",44.9616049346078,-2.77628757128631,47.631076193154,0.106816312740129,1,"subseries 3",FALSE,75,2.69616940966134,47.631076193154
"76",47.1870576224039,-1.1557944622048,47.3343224080954,1.00852967651329,1,"subseries 4",FALSE,76,2.75852161222921,47.3343224080954
"77",48.113014034455,0.44302232999438,47.0799368217982,0.590054882662464,1,"subseries 5",FALSE,77,2.1195446256576,47.0799368217982
"78",47.653165275763,1.74407706408912,46.8571799335861,-0.948091721912235,1,"subseries 6",FALSE,78,1.93251617004371,46.8571799335861
"79",47.2651669630693,1.33534353804654,46.6474902569623,-0.717666831939532,1,"subseries 7",FALSE,79,1.88776742411401,46.6474902569623
"80",47.7009218887575,1.31316914145405,46.4099510602746,-0.0221983129710992,1,"subseries 8",FALSE,80,2.50412745703609,46.4099510602746
"81",47.191514130719,1.0071320489572,46.1496727142008,0.0347093675610068,1,"subseries 9",FALSE,81,2.03616112205799,46.1496727142008
"82",47.5337407910229,0.663635061492456,45.7932220278979,1.07688370163257,1,"subseries 10",FALSE,82,3.13044981622253,45.7932220278979
"83",46.3807247366349,0.249062012340163,45.3765239970968,0.755138727197959,1,"subseries 11",FALSE,83,2.66858334348681,45.3765239970968
"84",44.3914337818415,-0.902998343597301,45.0586583583171,0.235773767121664,1,"subseries 12",FALSE,84,3.27953369415121,45.0586583583171
"85",43.7666258133961,-0.995483027648641,44.7410956203017,0.0210132207429936,1,"subseries 1",FALSE,85,2.38728406784755,44.7410956203017
"86",43.2180369777183,-0.924877791636859,44.6174782324634,-0.474563463108254,1,"subseries 2",FALSE,86,2.35399151289811,44.6174782324634
"87",42.5598277910343,-2.77628757128631,44.5995524769979,0.736562885322741,1,"subseries 3",FALSE,87,2.54035334585695,44.5995524769979
"88",40.6854594097191,-1.1557944622048,44.4884583554191,-2.64720448349523,1,"subseries 4",FALSE,88,2.71587603304112,44.4884583554191
"89",40.7453636815052,0.44302232999438,44.4481193530122,-4.14577800150142,1,"subseries 5",FALSE,89,2.34963056879239,44.4481193530122
"90",NA,1.74407706408912,44.2928960030541,NA,1,"subseries 6",TRUE,90,NA,NA
"91",47.5488958906807,1.33534353804654,44.1469676441984,2.06658470843579,1,"subseries 7",FALSE,91,2.03346199470017,44.1469676441984
"92",45.9145434522975,1.31316914145405,43.9544088928791,0.64696541796431,1,"subseries 8",FALSE,92,1.81793138353326,43.9544088928791
"93",46.7828636754952,1.0071320489572,43.6977233969466,2.07800822959143,1,"subseries 9",FALSE,93,1.84587386057541,43.6977233969466
"94",46.5471988994056,0.663635061492456,43.5197974325936,2.36376640531955,1,"subseries 10",FALSE,94,3.73474207362204,43.5197974325936
"95",NA,0.249062012340163,43.225764934361,NA,1,"subseries 11",TRUE,95,NA,NA
"96",NA,-0.902998343597301,42.9637947691108,NA,1,"subseries 12",TRUE,96,NA,NA
"97",42.1159245475983,-0.995483027648641,42.5924082962103,0.518999279036592,1,"subseries 1",FALSE,97,3.44956009052495,42.5924082962103
"98",40.7856882353691,-0.924877791636859,42.1155194056245,-0.404953378618508,1,"subseries 2",FALSE,98,3.9644003718733,42.1155194056245
"99",37.0790252923649,-2.77628757128631,41.662798732332,-1.80748586868079,1,"subseries 3",FALSE,99,3.19895794693229,41.662798732332
"100",41.8392243425471,-1.1557944622048,41.0942124254887,1.90080637926322,1,"subseries 4",FALSE,100,3.4437737819063,41.0942124254887
"101",40.6164293976784,0.44302232999438,40.6626990748445,-0.489292007160522,1,"subseries 5",FALSE,101,1.74255164963408,40.6626990748445
"102",38.6780225697187,1.74407706408912,40.5448623922658,-3.6109168866362,1,"subseries 6",FALSE,102,1.582230738713,40.5448623922658
"103",41.2222150006383,1.33534353804654,40.6221949673439,-0.735323504752188,1,"subseries 7",FALSE,103,2.48661917301086,40.6221949673439
"104",39.6518139229949,1.31316914145405,41.0626719804906,-2.72402719894976,1,"subseries 8",FALSE,104,2.29257948561852,41.0626719804906
"105",40.6713876590406,1.0071320489572,41.6619422563316,-1.99768664624816,1,"subseries 9",FALSE,105,2.02308521130234,41.6619422563316
"106",42.0415979214969,0.663635061492456,42.2090556808849,-0.831092820880407,1,"subseries 10",FALSE,106,2.72557399013893,42.2090556808849
"107",42.5581047273003,0.249062012340163,42.8074050257596,-0.4983623107995,1,"subseries 11",FALSE,107,2.85163785170399,42.8074050257596
"108",40.9593092947925,-0.902998343597301,43.4142557818692,-1.5519481434794,1,"subseries 12",FALSE,108,2.69831932055487,43.4142557818692
"109",44.0204605248591,-0.995483027648641,44.0460154701788,0.96992808232892,1,"subseries 1",FALSE,109,4.40347496312759,44.0460154701788
"110",45.5755232092238,-0.924877791636859,44.7121358672316,1.78826513362908,1,"subseries 2",FALSE,110,3.03854850729908,44.7121358672316
"111",42.5089267374041,-2.77628757128631,45.395935807357,-0.110721498666571,1,"subseries 3",FALSE,111,9.82811048506145,45.395935807357
"112",46.608084775218,-1.1557944622048,46.110979112327,1.65290012509585,1,"subseries 4",FALSE,112,3.91359956525546,46.110979112327
