"","raw","seasonal","trend","remainder","weights","sub.labels","interpolated","age","sigma","power"
"1",NA,3.39763236656066,132.326070749324,NA,1,"subseries 1",TRUE,1,NA,NA
"2",NA,2.17265208433574,130.588298717033,NA,1,"subseries 2",TRUE,2,NA,NA
"3",NA,0.593709397549231,128.862073828613,NA,1,"subseries 3",TRUE,3,NA,NA
"4",NA,0.507833964351485,127.130467270097,NA,1,"subseries 4",TRUE,4,NA,NA
"5",NA,-0.103819876270241,125.413501420725,NA,1,"subseries 5",TRUE,5,NA,NA
"6",NA,-1.10799411227508,123.693086638737,NA,1,"subseries 6",TRUE,6,NA,NA
"7",NA,-5.7549871612177,121.991589522211,NA,1,"subseries 7",TRUE,7,NA,NA
"8",NA,-6.3140904686227,120.29134228272,NA,1,"subseries 8",TRUE,8,NA,NA
"9",NA,-1.93404204227876,118.61602938329,NA,1,"subseries 9",TRUE,9,NA,NA
"10",NA,2.99379421340613,116.952556739881,NA,1,"subseries 10",TRUE,10,NA,NA
"11",NA,3.31364452827002,115.322563274915,NA,1,"subseries 11",TRUE,11,NA,NA
"12",NA,2.23566710619123,113.727874217187,NA,1,"subseries 12",TRUE,12,NA,NA
"13",116.667367749603,3.39763236656066,112.178617088162,1.09111829488035,1,"subseries 1",FALSE,13,4.50061791652885,112.178617088162
"14",113.099285511365,2.17265208433574,110.713198827836,0.213434599193491,1,"subseries 2",FALSE,14,6.28378914584155,110.713198827836
"15",112.224515205168,0.593709397549231,109.308983019379,2.32182278823944,1,"subseries 3",FALSE,15,6.50787146684677,109.308983019379
"16",112.05562628943,0.507833964351485,108.05683867593,3.49095364914822,1,"subseries 4",FALSE,16,6.4002184672627,108.05683867593
"17",111.352994281063,-0.103819876270242,106.88842066772,4.56839348961286,1,"subseries 5",FALSE,17,5.36868040708889,106.88842066772
"18",109.138399016752,-1.10799411227508,105.875224776504,4.37116835252344,1,"subseries 6",FALSE,18,4.21634524173474,105.875224776504
"19",97.0760056515475,-5.7549871612177,105.005770056803,-2.1747772440375,1,"subseries 7",FALSE,19,13.1777819705004,105.005770056803
"20",72.2447913817716,-6.3140904686227,103.84849562321,-25.289613772816,1,"subseries 8",FALSE,20,5.56728747480909,103.84849562321
"21",84.3901191354468,-1.93404204227876,103.190161886556,-16.8660007088304,1,"subseries 9",FALSE,21,6.38204267955484,103.190161886556
"22",112.863696617139,2.99379421340613,103.07503992819,6.79486247554284,1,"subseries 10",FALSE,22,6.01701352906522,103.07503992819
"23",109.938445296809,3.31364452827002,103.562455006656,3.06234576188338,1,"subseries 11",FALSE,23,9.46756093912664,103.562455006656
"24",113.337018766951,2.23566710619123,104.519259913408,6.58209174735146,1,"subseries 12",FALSE,24,5.93323676439641,104.519259913408
"25",112.918394495502,3.39763236656066,105.355122200817,4.16563992812475,1,"subseries 1",FALSE,25,4.73240842260049,105.355122200817
"26",111.165310494174,2.17265208433574,106.70221702434,2.29044138549801,1,"subseries 2",FALSE,26,6.34302091908211,106.70221702434
"27",109.357750282425,0.593709397549231,107.440707630295,1.32333325458067,1,"subseries 3",FALSE,27,5.20498134865207,107.440707630295
"28",108.611130973214,0.507833964351485,107.62824116023,0.475055848632394,1,"subseries 4",FALSE,28,4.70730239123063,107.62824116023
"29",108.067276245338,-0.103819876270242,107.657443048466,0.513653073142066,1,"subseries 5",FALSE,29,5.05751939953682,107.657443048466
"30",103.120298202413,-1.10799411227508,107.38219382309,-3.15390150840201,1,"subseries 6",FALSE,30,4.89628629588056,107.38219382309
"31",93.4451343311167,-5.7549871612177,107.17333242869,-7.97321093635607,1,"subseries 7",FALSE,31,8.56487659805576,107.17333242869
"32",107.147237896896,-6.3140904686227,107.022385451215,6.43894291430387,1,"subseries 8",FALSE,32,13.0178212377812,107.022385451215
"33",111.522112161582,-1.93404204227876,106.984925346051,6.47122885780979,1,"subseries 9",FALSE,33,6.35757425064342,106.984925346051
"34",104.54210202234,2.99379421340613,107.10854122233,-5.56023341339572,1,"subseries 10",FALSE,34,5.71894173516384,107.10854122233
"35",108.448259363592,3.31364452827002,107.262143523064,-2.127528687742,1,"subseries 11",FALSE,35,7.48764017230593,107.262143523064
"36",110.475936910972,2.23566710619123,107.335960193397,0.904309611384008,1,"subseries 12",FALSE,36,6.56112769753761,107.335960193397
"37",111.369014051059,3.39763236656066,107.286878044847,0.684503639651751,1,"subseries 1",FALSE,37,5.68432949043926,107.286878044847
"38",109.363702178584,2.17265208433574,107.170764720975,0.0202853732730972,1,"subseries 2",FALSE,38,5.38973308101889,107.170764720975
"39",109.997171520889,0.593709397549231,107.102802245628,2.30065987771152,1,"subseries 3",FALSE,39,5.32080203515211,107.102802245628
"40",108.907573349723,0.507833964351485,107.399393075151,1.00034631022092,1,"subseries 4",FALSE,40,6.3083442821955,107.399393075151
"41",105.695099265534,-0.103819876270242,107.855743610985,-2.05682446918034,1,"subseries 5",FALSE,41,5.43691768184265,107.855743610985
"42",103.489101187591,-1.10799411227508,108.325066220356,-3.7279709204898,1,"subseries 6",FALSE,42,4.99856022454259,108.325066220356
"43",98.1808595546233,-5.7549871612177,109.010910214745,-5.07506349890437,1,"subseries 7",FALSE,43,4.65876269831649,109.010910214745
"44",103.974104198026,-6.3140904686227,109.567516794724,0.720677871925034,1,"subseries 8",FALSE,44,6.32524578532177,109.567516794724
"45",108.582551329054,-1.93404204227876,110.215671355168,0.300922016164961,1,"subseries 9",FALSE,45,7.33365706468571,110.215671355168
"46",116.985713380913,2.99379421340613,110.92613766357,3.06578150393686,1,"subseries 10",FALSE,46,5.80350815561627,110.92613766357
"47",118.320193719151,3.31364452827002,111.504330062884,3.5022191279965,1,"subseries 11",FALSE,47,8.8053792039411,111.504330062884
"48",115.950393173228,2.23566710619123,112.215706675448,1.49901939158919,1,"subseries 12",FALSE,48,8.72290574446818,112.215706675448
"49",115.920568865419,3.39763236656066,112.710099849531,-0.187163350672506,1,"subseries 1",FALSE,49,4.76131294004666,112.710099849531
"50",114.838894922999,2.17265208433574,113.200269136934,-0.53402629827049,1,"subseries 2",FALSE,50,5.56597753644436,113.200269136934
"51",113.078611269634,0.593709397549231,113.756885210658,-1.27198333857299,1,"subseries 3",FALSE,51,5.15039793788896,113.756885210658
"52",112.419640378869,0.507833964351485,114.165653439347,-2.25384702482941,1,"subseries 4",FALSE,52,5.20009316347167,114.165653439347
"53",112.477064873837,-0.103819876270242,114.732847745388,-2.15196299528093,1,"subseries 5",FALSE,53,4.9477392148901,114.732847745388
"54",112.348902760239,-1.10799411227508,115.107830881181,-1.65093400866722,1,"subseries 6",FALSE,54,4.17106408845083,115.107830881181
"55",111.171364916821,-5.7549871612177,115.390442270505,1.53590980753353,1,"subseries 7",FALSE,55,4.30117958116996,115.390442270505
"56",114.661758161286,-6.3140904686227,115.596664049012,5.37918458089658,1,"subseries 8",FALSE,56,5.7815330002468,115.596664049012
"57",118.398733750881,-1.93404204227876,115.478224221125,4.85455157203506,1,"subseries 9",FALSE,57,8.89563917049247,115.478224221125
"58",119.000506676853,2.99379421340613,115.379356175761,0.627356287686212,1,"subseries 10",FALSE,58,4.94102553799459,115.379356175761
"59",120.001122074978,3.31364452827002,114.973553501641,1.71392404506713,1,"subseries 11",FALSE,59,3.67584655374445,114.973553501641
"60",115.344775004187,2.23566710619123,114.359401361169,-1.25029346317349,1,"subseries 12",FALSE,60,6.8499184433872,114.359401361169
"61",114.865512189744,3.39763236656066,113.64965215334,-2.1817723301566,1,"subseries 1",FALSE,61,4.01369500688087,113.64965215334
"62",113.215865854536,2.17265208433574,112.775432886016,-1.73221911581528,1,"subseries 2",FALSE,62,4.83739500396296,112.775432886016
"63",112.199127364568,0.593709397549231,112.079799863334,-0.474381896315677,1,"subseries 3",FALSE,63,6.00634849812782,112.079799863334
"64",112.16140414749,0.507833964351485,111.563369896206,0.0902002869329692,1,"subseries 4",FALSE,64,6.09766190724332,111.563369896206
"65",112.02769630121,-0.103819876270242,111.252748158891,0.878768018589184,1,"subseries 5",FALSE,65,4.66851666317603,111.252748158891
"66",106.684445291274,-1.10799411227508,111.04234604783,-3.24990664428107,1,"subseries 6",FALSE,66,4.99199697347496,111.04234604783
"67",105.094642598234,-5.7549871612177,110.881819464743,-0.032189705290989,1,"subseries 7",FALSE,67,3.60203041994555,110.881819464743
"68",103.890397392945,-6.3140904686227,110.725048703371,-0.520560841803729,1,"subseries 8",FALSE,68,5.00978534554702,110.725048703371
"69",111.06666750476,-1.93404204227876,110.542539302965,2.45817024407367,1,"subseries 9",FALSE,69,7.46517704451759,110.542539302965
"70",114.826980221562,2.99379421340613,110.432074324243,1.40111168391239,1,"subseries 10",FALSE,70,5.15267338034914,110.432074324243
"71",113.475238333962,3.31364452827002,110.321595750691,-0.160001944999166,1,"subseries 11",FALSE,71,5.62143066596938,110.321595750691
"72",110.773996251567,2.23566710619123,110.505572353862,-1.967243208486,1,"subseries 12",FALSE,72,8.1902815083801,110.505572353862
"73",113.825797761392,3.39763236656066,110.903584198999,-0.475418804167617,1,"subseries 1",FALSE,73,4.20564411821055,110.903584198999
"74",111.204532747409,2.17265208433574,111.521717547282,-2.48983688420923,1,"subseries 2",FALSE,74,5.14250582112617,111.521717547282
"75",109.530188134386,0.593709397549231,112.56029485457,-3.62381611773293,1,"subseries 3",FALSE,75,5.75065318129591,112.56029485457
"76",110.439738239894,0.507833964351485,113.400689917551,-3.46878564200884,1,"subseries 4",FALSE,76,6.08305768475537,113.400689917551
"77",110.834735961191,-0.103819876270242,114.315397293291,-3.37684145582928,1,"subseries 5",FALSE,77,6.67393016467302,114.315397293291
"78",117.181952650745,-1.10799411227508,115.043515793204,3.24643096981627,1,"subseries 6",FALSE,78,6.99231316400066,115.043515793204
"79",119.227580007331,-5.7549871612177,115.416923383868,9.56564378468049,1,"subseries 7",FALSE,79,5.83596682593722,115.416923383868
"80",115.522119687948,-6.3140904686227,115.6092452099,6.22696494667055,1,"subseries 8",FALSE,80,4.69718899843592,115.6092452099
"81",118.081809475659,-1.93404204227876,115.419953729102,4.59589778883549,1,"subseries 9",FALSE,81,8.46070617131577,115.419953729102
"82",116.277715865226,2.99379421340613,115.467320890532,-2.18339923871169,1,"subseries 10",FALSE,82,5.6383743255218,115.467320890532
"83",114.973920489952,3.31364452827002,115.27994991409,-3.61967395240852,1,"subseries 11",FALSE,83,6.04177215431515,115.27994991409
"84",115.658525689292,2.23566710619123,114.994101766362,-1.57124318326109,1,"subseries 12",FALSE,84,7.43792961537241,114.994101766362
"85",115.310813436955,3.39763236656066,114.862396347139,-2.9492152767447,1,"subseries 1",FALSE,85,5.30418291220762,114.862396347139
"86",115.406279523503,2.17265208433574,114.486646883687,-1.25301944452019,1,"subseries 2",FALSE,86,4.27330708757683,114.486646883687
"87",112.421829700478,0.593709397549231,114.358647781972,-2.53052747904363,1,"subseries 3",FALSE,87,5.63329947684823,114.358647781972
"88",NA,0.507833964351485,114.26439343625,NA,1,"subseries 4",TRUE,88,NA,NA
"89",113.924859115408,-0.103819876270242,114.195163523621,-0.166484531942729,1,"subseries 5",FALSE,89,8.37660932131892,114.195163523621
"90",116.385846568672,-1.10799411227508,114.297977760784,3.19586292016285,1,"subseries 6",FALSE,90,6.02530694748626,114.297977760784
"91",113.35793060145,-5.7549871612177,114.273256467661,4.83966129500705,1,"subseries 7",FALSE,91,7.47356690059531,114.273256467661
"92",110.962740450511,-6.3140904686227,114.316261861854,2.96056905727941,1,"subseries 8",FALSE,92,3.93400725252385,114.316261861854
"93",108.033223470267,-1.93404204227876,114.213219994906,-4.24595448235981,1,"subseries 9",FALSE,93,6.32744063372208,114.213219994906
"94",115.962707849049,2.99379421340613,113.874301290849,-0.905387655205786,1,"subseries 10",FALSE,94,6.59581090653967,113.874301290849
"95",117.395574371164,3.31364452827002,113.409156077763,0.672773765131097,1,"subseries 11",FALSE,95,5.32837486755979,113.409156077763
"96",114.875240124841,2.23566710619123,112.669278358,-0.0297053393501017,1,"subseries 12",FALSE,96,8.12289214931422,112.669278358
"97",114.909352707561,3.39763236656066,111.862672576103,-0.350952235102397,1,"subseries 1",FALSE,97,6.66921327119576,111.862672576103
"98",115.615492312243,2.17265208433574,110.941056289822,2.50178393808496,1,"subseries 2",FALSE,98,4.97544888740159,110.941056289822
"99",114.683934598401,0.593709397549231,109.807772622217,4.282452578635,1,"subseries 3",FALSE,99,5.77091675613664,109.807772622217
"100",108.855985374051,0.507833964351485,108.546222295568,-0.19807088586893,1,"subseries 4",FALSE,100,6.01674398688051,108.546222295568
"101",109.458603318872,-0.103819876270242,106.972857449456,2.58956574568646,1,"subseries 5",FALSE,101,5.22534521119079,106.972857449456
"102",104.290327444548,-1.10799411227508,105.158687207438,0.239634349385497,1,"subseries 6",FALSE,102,4.70639457125289,105.158687207438
"103",94.4099214731585,-5.7549871612177,103.136930971881,-2.97202233750494,1,"subseries 7",FALSE,103,14.6720170842173,103.136930971881
"104",98.158267947595,-6.3140904686227,101.159850432014,3.31250798420331,1,"subseries 8",FALSE,104,10.8471926373253,101.159850432014
"105",99.2056732401135,-1.93404204227876,99.3161494670508,1.82356581534145,1,"subseries 9",FALSE,105,7.07666731612339,99.3161494670508
"106",96.5498359522596,2.99379421340613,97.7046454547393,-4.14860371588584,1,"subseries 10",FALSE,106,5.96687993268452,97.7046454547393
"107",95.6226767495405,3.31364452827002,96.4377299581934,-4.12869773692292,1,"subseries 11",FALSE,107,6.29648315676933,96.4377299581934
"108",92.4507496139001,2.23566710619123,95.6077789931666,-5.39269648545769,1,"subseries 12",FALSE,108,7.04340686549921,95.6077789931666
"109",97.5655718640107,3.39763236656066,95.153030982101,-0.985091484650965,1,"subseries 1",FALSE,109,6.58035562538147,95.153030982101
"110",97.113191891424,2.17265208433574,94.9085341027751,0.0320057043131641,1,"subseries 2",FALSE,110,4.57813295343577,94.9085341027751
"111",92.4999739026893,0.593709397549231,94.8045327798899,-2.89826827474981,1,"subseries 3",FALSE,111,28.061273284514,94.8045327798899
"112",95.9284760303429,0.507833964351485,94.6863508827204,0.734291183270969,1,"subseries 4",FALSE,112,11.9245704757511,94.6863508827204
"113",93.656759945957,-0.103819876270242,94.6196574584261,-0.859077636198819,1,"subseries 5",FALSE,113,8.59332014863397,94.6196574584261
"114",94.3419996947274,-1.10799411227508,94.6085770171661,0.841416789836401,1,"subseries 6",FALSE,114,4.4622984749478,94.6085770171661
"115",91.2350627646124,-5.7549871612177,94.6294354297833,2.36061449604675,1,"subseries 7",FALSE,115,4.59103381589212,94.6294354297833
"116",89.1998860390398,-6.3140904686227,94.7021191438739,0.811857363788619,1,"subseries 8",FALSE,116,3.28781384194694,94.7021191438739
