"","raw","seasonal","trend","remainder","weights","sub.labels","interpolated","age","sigma","power"
"1",30.2890180206018,3.56898257165124,26.3625660511748,0.357469397775802,1,"subseries 1",FALSE,1,1.26387634616234,26.3625660511748
"2",28.9331111445412,2.37869740258982,26.4204549882641,0.133958753687267,1,"subseries 2",FALSE,2,2.78257190323601,26.4204549882641
"3",27.1110042360141,0.377747235704811,26.4814849439234,0.251772056385906,1,"subseries 3",FALSE,3,2.73368204552369,26.4814849439234
"4",25.5369742638322,-1.63626457941929,26.5530637714302,0.62017507182124,1,"subseries 4",FALSE,4,3.20449396941658,26.5530637714302
"5",24.4462485156058,-2.53048835290321,26.6271249060051,0.349611962503889,1,"subseries 5",FALSE,5,3.57578890505949,26.6271249060051
"6",22.7136815299467,-2.16780935932916,26.6946603747084,-1.81316948543257,1,"subseries 6",FALSE,6,3.28695665580016,26.6946603747084
"7",22.2476543291231,-2.69868974032701,26.7655766010597,-1.81923253160956,1,"subseries 7",FALSE,7,2.69471141481862,26.7655766010597
"8",24.6544588147135,-1.95027519577133,26.7977704693637,-0.193036458878876,1,"subseries 8",FALSE,8,2.80550506637326,26.7977704693637
"9",25.7490058228048,-1.16367431680342,26.8435575922858,0.0691225473224257,1,"subseries 9",FALSE,9,2.29842653752285,26.8435575922858
"10",28.9552295353673,0.383699743686447,26.838227818068,1.73330197361283,1,"subseries 10",FALSE,10,2.6129725605504,26.838227818068
"11",31.1994762446301,1.78774097375007,26.7471901462699,2.66454512461015,1,"subseries 11",FALSE,11,1.69579692431674,26.7471901462699
"12",31.3697202145345,3.65033361717102,26.7348190411396,0.984567556223922,1,"subseries 12",FALSE,12,1.74625782634894,26.7348190411396
"13",30.0864059548759,3.56898257165124,26.6225907381663,-0.105167354941628,1,"subseries 1",FALSE,13,1.78891649911096,26.6225907381663
"14",26.831347288204,2.37869740258982,26.4552525110324,-2.00260262541821,1,"subseries 2",FALSE,14,2.80904477449722,26.4552525110324
"15",26.4262277974037,0.377747235704811,26.2918022232429,-0.243321661543987,1,"subseries 3",FALSE,15,2.61223608605405,26.2918022232429
"16",23.4959529821821,-1.63626457941929,26.1275764542029,-0.995358892601466,1,"subseries 4",FALSE,16,3.0978806934952,26.1275764542029
"17",23.475784774344,-2.53048835290321,26.1236369950898,-0.117363867842606,1,"subseries 5",FALSE,17,2.93459014059631,26.1236369950898
"18",23.1640799092048,-2.16780935932916,26.20906429221,-0.877175023676035,1,"subseries 6",FALSE,18,2.52294180726284,26.20906429221
"19",23.3190407792763,-2.69868974032701,26.4112510836828,-0.39352056407953,1,"subseries 7",FALSE,19,2.02559726460771,26.4112510836828
"20",23.4615817769911,-1.95027519577133,26.5782067062227,-1.16634973346032,1,"subseries 8",FALSE,20,2.38539558420984,26.5782067062227
"21",25.9648813341233,-1.16367431680342,26.6858637824366,0.442691868490162,1,"subseries 9",FALSE,21,2.2122848094498,26.6858637824366
"22",28.9071403096639,0.383699743686447,26.7997525492914,1.72368801668606,1,"subseries 10",FALSE,22,1.67323641925136,26.7997525492914
"23",31.2588305738063,1.78774097375007,26.8276946877151,2.64339491234115,1,"subseries 11",FALSE,23,1.7430448500198,26.8276946877151
"24",31.3169705781548,3.65033361717102,26.8747309963194,0.791905964664434,1,"subseries 12",FALSE,24,1.40289603125802,26.8747309963194
"25",29.827245642225,3.56898257165124,26.833376708931,-0.575113638357205,1,"subseries 1",FALSE,25,1.87932240823619,26.833376708931
"26",26.3675211071161,2.37869740258982,26.7058214938629,-2.71699778933659,1,"subseries 2",FALSE,26,2.02626438495731,26.7058214938629
"27",27.3692384343457,0.377747235704811,26.5507739277587,0.440717270882207,1,"subseries 3",FALSE,27,2.40504221575426,26.5507739277587
"28",25.5117619817709,-1.63626457941929,26.3530031748559,0.795023386334293,1,"subseries 4",FALSE,28,2.44464219477587,26.3530031748559
"29",23.8839736206573,-2.53048835290321,26.2403468801741,0.174115093386426,1,"subseries 5",FALSE,29,3.04885085205782,26.2403468801741
"30",23.2536575719573,-2.16780935932916,26.2121084615307,-0.790641530244269,1,"subseries 6",FALSE,30,3.1664194432413,26.2121084615307
"31",22.8344640119394,-2.69868974032701,26.2349667940821,-0.701813041815743,1,"subseries 7",FALSE,31,2.7181604747983,26.2349667940821
"32",24.1368173446273,-1.95027519577133,26.2764707413023,-0.189378200903704,1,"subseries 8",FALSE,32,2.93091162350071,26.2764707413023
"33",24.9860450612677,-1.16367431680342,26.3207856212177,-0.171066243146605,1,"subseries 9",FALSE,33,2.72799352118409,26.3207856212177
"34",27.3088822532007,0.383699743686447,26.3755779314367,0.549604578077513,1,"subseries 10",FALSE,34,1.95427138444588,26.3755779314367
"35",28.8091911681813,1.78774097375007,26.4568360711839,0.564614123247321,1,"subseries 11",FALSE,35,2.07485062224864,26.4568360711839
"36",30.4320575197988,3.65033361717102,26.5361221614007,0.245601741227123,1,"subseries 12",FALSE,36,1.28431601921675,26.5361221614007
"37",29.0158637310875,3.56898257165124,26.5698757157177,-1.12299455628141,1,"subseries 1",FALSE,37,2.00700682861491,26.5698757157177
"38",28.6512770362105,2.37869740258982,26.5436814936626,-0.271101860041945,1,"subseries 2",FALSE,38,2.45982513736426,26.5436814936626
"39",28.6153413656777,0.377747235704811,26.4610747677258,1.77651936224709,1,"subseries 3",FALSE,39,2.1172140316117,26.4610747677258
"40",25.4705210099926,-1.63626457941929,26.3833596894644,0.723425899947532,1,"subseries 4",FALSE,40,2.92283376283623,26.3833596894644
"41",23.8776522016389,-2.53048835290321,26.2959672796125,0.112173274929578,1,"subseries 5",FALSE,41,3.0133433233619,26.2959672796125
"42",23.1485589711116,-2.16780935932916,26.2779913957164,-0.961623065275653,1,"subseries 6",FALSE,42,2.87890831441397,26.2779913957164
"43",22.9913373864365,-2.69868974032701,26.3036924808319,-0.613665354068381,1,"subseries 7",FALSE,43,2.71063350136714,26.3036924808319
"44",24.0446182276102,-1.95027519577133,26.2824039968077,-0.287510573426157,1,"subseries 8",FALSE,44,2.32396307311856,26.2824039968077
"45",23.8872890934619,-1.16367431680342,26.3120503998005,-1.26108698953522,1,"subseries 9",FALSE,45,2.51744369467091,26.3120503998005
"46",26.1600613770187,0.383699743686447,26.3230838441873,-0.546722210855084,1,"subseries 10",FALSE,46,2.28075440445879,26.3230838441873
"47",29.4277376969503,1.78774097375007,26.3517245720145,1.28827215118574,1,"subseries 11",FALSE,47,1.82723593433446,26.3517245720145
"48",31.4017977383239,3.65033361717102,26.4068630395327,1.34460108162014,1,"subseries 12",FALSE,48,1.70346941425133,26.4068630395327
"49",30.4735643877084,3.56898257165124,26.3937935603483,0.51078825570881,1,"subseries 1",FALSE,49,2.06560662544648,26.3937935603483
"50",28.4825104084029,2.37869740258982,26.3343279943801,-0.23051498856703,1,"subseries 2",FALSE,50,2.30911688429321,26.3343279943801
"51",26.5059284774825,0.377747235704811,26.1701733245805,-0.0419920828027855,1,"subseries 3",FALSE,51,2.54139561014804,26.1701733245805
"52",24.918156566481,-1.63626457941929,25.973887698188,0.580533447712245,1,"subseries 4",FALSE,52,2.87709796400795,25.973887698188
"53",24.335276774862,-2.53048835290321,25.7599446824206,1.10582044534457,1,"subseries 5",FALSE,53,2.71422641871722,25.7599446824206
"54",22.3716738957086,-2.16780935932916,25.6068973633664,-1.06741410832869,1,"subseries 6",FALSE,54,3.12781004377557,25.6068973633664
"55",22.0990193694006,-2.69868974032701,25.5538186317798,-0.756109522052238,1,"subseries 7",FALSE,55,2.48635999786607,25.5538186317798
"56",22.2266950727396,-1.95027519577133,25.5296018672609,-1.35263159874996,1,"subseries 8",FALSE,56,2.69444155484866,25.5296018672609
"57",23.0219808178347,-1.16367431680342,25.6012853170261,-1.41563018238799,1,"subseries 9",FALSE,57,2.76313289113035,25.6012853170261
"58",25.8740390818175,0.383699743686447,25.6440350005338,-0.153695662402757,1,"subseries 10",FALSE,58,2.39357053640051,25.6440350005338
"59",27.8089305063763,1.78774097375007,25.7268337080262,0.294355824599982,1,"subseries 11",FALSE,59,1.92210840839125,25.7268337080262
"60",31.2841882151606,3.65033361717102,25.8499552135186,1.78389938447099,1,"subseries 12",FALSE,60,1.66398429872027,25.8499552135186
"61",30.0978978845995,3.56898257165124,25.9120963741474,0.616818938800876,1,"subseries 1",FALSE,61,1.6348987806035,25.9120963741474
"62",28.7195156208293,2.37869740258982,25.9924722219807,0.348345996258825,1,"subseries 2",FALSE,62,2.22204770659101,25.9924722219807
"63",26.786099118263,0.377747235704811,25.9787209107754,0.42963097178276,1,"subseries 3",FALSE,63,2.421942199226,25.9787209107754
"64",24.1708423043802,-1.63626457941929,25.8918797139841,-0.0847728301846082,1,"subseries 4",FALSE,64,2.89409922153993,25.8918797139841
"65",23.0100454818591,-2.53048835290321,25.7650351824378,-0.224501347675481,1,"subseries 5",FALSE,65,2.76361697809358,25.7650351824378
"66",22.8774758597514,-2.16780935932916,25.5993889843183,-0.554103765237791,1,"subseries 6",FALSE,66,3.51972139336834,25.5993889843183
"67",22.8387035290196,-2.69868974032701,25.4661038010576,0.0712894682890024,1,"subseries 7",FALSE,67,2.57924617204936,25.4661038010576
"68",23.455925084281,-1.95027519577133,25.3793198220732,0.0268804579791464,1,"subseries 8",FALSE,68,2.71231842556938,25.3793198220732
"69",24.0420463791601,-1.16367431680342,25.3502811541607,-0.14456045819718,1,"subseries 9",FALSE,69,2.73685577271733,25.3502811541607
"70",24.880134249917,0.383699743686447,25.3683093601049,-0.871874853874317,1,"subseries 10",FALSE,70,2.41677065592268,25.3683093601049
"71",26.950078940176,1.78774097375007,25.4359265254634,-0.273588559037435,1,"subseries 11",FALSE,71,1.85898721638106,25.4359265254634
"72",29.3574629804346,3.65033361717102,25.4695409381577,0.237588425105923,1,"subseries 12",FALSE,72,1.87561456343448,25.4695409381577
"73",28.5602583608107,3.56898257165124,25.4859332810409,-0.494657491881455,1,"subseries 1",FALSE,73,2.0932831643116,25.4859332810409
"74",28.323891857543,2.37869740258982,25.4516275118411,0.493566943112047,1,"subseries 2",FALSE,74,1.82495150731632,25.4516275118411
"75",27.2148686842956,0.377747235704811,25.3388707585414,1.49825069004936,1,"subseries 3",FALSE,75,2.59233843467171,25.3388707585414
"76",24.4382020614446,-1.63626457941929,25.2469716458026,0.827494995061301,1,"subseries 4",FALSE,76,2.98042016444238,25.2469716458026
"77",23.1872221287983,-2.53048835290321,25.0884133801488,0.62929710155273,1,"subseries 5",FALSE,77,2.83375352975556,25.0884133801488
"78",22.4992332222539,-2.16780935932916,24.9475166453242,-0.280474063741099,1,"subseries 6",FALSE,78,2.4343537347813,24.9475166453242
"79",21.0696523257397,-2.69868974032701,24.8213416456747,-1.05299957960801,1,"subseries 7",FALSE,79,2.71972577610097,24.8213416456747
"80",21.7871801985822,-1.95027519577133,24.6724271336996,-0.934971739346054,1,"subseries 8",FALSE,80,2.42543651179303,24.6724271336996
"81",22.5486220660265,-1.16367431680342,24.60919506253,-0.89689867970004,1,"subseries 9",FALSE,81,2.62358892105704,24.60919506253
"82",24.5896452900628,0.383699743686447,24.5860743035737,-0.38012875719733,1,"subseries 10",FALSE,82,2.62584829268698,24.5860743035737
"83",26.5616583638002,1.78774097375007,24.6656430450152,0.108274345034904,1,"subseries 11",FALSE,83,2.39076606019036,24.6656430450152
"84",28.4370617990422,3.65033361717102,24.7987020100883,-0.0119738282171475,1,"subseries 12",FALSE,84,1.78626802270229,24.7987020100883
"85",28.8434499801471,3.56898257165124,24.9400816722344,0.334385736261432,1,"subseries 1",FALSE,85,1.21464676712717,24.9400816722344
"86",27.2966116515475,2.37869740258982,25.0637881956428,-0.145873946685132,1,"subseries 2",FALSE,86,1.81370233325666,25.0637881956428
"87",25.5182362531199,0.377747235704811,25.1138448616428,0.026644155772324,1,"subseries 3",FALSE,87,2.34484241902169,25.1138448616428
"88",25.0226000006798,-1.63626457941929,25.100823402183,1.55804117791605,1,"subseries 4",FALSE,88,2.287062141634,25.100823402183
"89",23.7507742983122,-2.53048835290321,24.9945508805606,1.28671177065486,1,"subseries 5",FALSE,89,2.81192466345766,24.9945508805606
"90",22.1371613638082,-2.16780935932916,24.8978621667694,-0.592891443632055,1,"subseries 6",FALSE,90,2.89782046312186,24.8978621667694
"91",21.8152067681829,-2.69868974032701,24.7719984365039,-0.258101927994041,1,"subseries 7",FALSE,91,2.68777370118923,24.7719984365039
"92",23.1768081455186,-1.95027519577133,24.6350808744048,0.492002466885111,1,"subseries 8",FALSE,92,1.69002609136541,24.6350808744048
"93",22.7109040239425,-1.16367431680342,24.5323869464823,-0.657808605736399,1,"subseries 9",FALSE,93,3.13129420364051,24.5323869464823
"94",22.9045764743101,0.383699743686447,24.4511220093069,-1.93024527868323,1,"subseries 10",FALSE,94,2.61382421828709,24.4511220093069
"95",25.6970991947833,1.78774097375007,24.4774705071392,-0.568112286105979,1,"subseries 11",FALSE,95,2.05139826750971,24.4774705071392
"96",29.129933910811,3.65033361717102,24.5615794379365,0.918020855703531,1,"subseries 12",FALSE,96,1.72071556404694,24.5615794379365
"97",28.5124778966621,3.56898257165124,24.7166433724327,0.226851952578183,1,"subseries 1",FALSE,97,1.76124537189039,24.7166433724327
"98",25.1234789417259,2.37869740258982,24.8564848008116,-2.11170326167553,1,"subseries 2",FALSE,98,1.18882533408978,24.8564848008116
"99",26.3083514402159,0.377747235704811,24.9626781301363,0.967926074374795,1,"subseries 3",FALSE,99,1.95586560290064,24.9626781301363
"100",24.8852295934387,-1.63626457941929,25.0126891697935,1.50880500306452,1,"subseries 4",FALSE,100,2.59924887363946,25.0126891697935
"101",23.4032371116209,-2.53048835290321,24.9331770682854,1.00054839623876,1,"subseries 5",FALSE,101,3.03908248985672,24.9331770682854
"102",23.8026461424005,-2.16780935932916,24.7688401290251,1.20161537270457,1,"subseries 6",FALSE,102,2.48474351818945,24.7688401290251
"103",22.0759963426679,-2.69868974032701,24.4681698403018,0.306516242693057,1,"subseries 7",FALSE,103,3.2760974566686,24.4681698403018
"104",22.5492640280194,-1.95027519577133,24.2389588311351,0.260580392655587,1,"subseries 8",FALSE,104,2.32629398247783,24.2389588311351
"105",22.9722155088192,-1.16367431680342,24.0251213422646,0.110768483358044,1,"subseries 9",FALSE,105,2.90681837804862,24.0251213422646
"106",23.4978499332404,0.383699743686447,23.8942178667866,-0.780067677232598,1,"subseries 10",FALSE,106,2.91568618668752,23.8942178667866
"107",23.271860882686,1.78774097375007,23.9748573107161,-2.49073740178022,1,"subseries 11",FALSE,107,2.73456056303866,23.9748573107161
"108",24.2872295796805,3.65033361717102,24.0927656870512,-3.45586972454171,1,"subseries 12",FALSE,108,3.59335294986278,24.0927656870512
"109",26.7314396292951,3.56898257165124,24.4157877173613,-1.25333065971749,1,"subseries 1",FALSE,109,3.01283590414328,24.4157877173613
"110",27.8363058388048,2.37869740258982,24.7903876984629,0.667220737752103,1,"subseries 2",FALSE,110,1.84934493702626,24.7903876984629
"111",26.4718353816395,0.377747235704811,25.2494317886499,0.844656357284837,1,"subseries 3",FALSE,111,3.61263983253159,25.2494317886499
"112",26.2592180311865,-1.63626457941929,25.7717070356382,2.12377557496759,1,"subseries 4",FALSE,112,5.01763873728211,25.7717070356382
"113",23.8555123521519,-2.53048835290321,26.1640764834469,0.221924221608241,1,"subseries 5",FALSE,113,6.68838320136451,26.1640764834469
"114",25.5184215052577,-2.16780935932916,26.4616045413141,1.22462632327279,1,"subseries 6",FALSE,114,6.693733539273,26.4616045413141
"115",24.3526045813241,-2.69868974032701,26.5244142946759,0.526880026975256,1,"subseries 7",FALSE,115,6.22407803735969,26.5244142946759
"116",25.3359947085145,-1.95027519577133,26.5084698211225,0.777800083163356,1,"subseries 8",FALSE,116,5.9070666003425,26.5084698211225
"117",27.1423799889772,-1.16367431680342,26.4114959089167,1.89455839686389,1,"subseries 9",FALSE,117,6.80765677977765,26.4114959089167
"118",27.94388693627,0.383699743686447,26.1139505377584,1.44623665482514,1,"subseries 10",FALSE,118,5.90971293086285,26.1139505377584
"119",21.7481817380258,1.78774097375007,25.7121287783546,-5.75168801407883,1,"subseries 11",FALSE,119,4.68655709026618,25.7121287783546
"120",29.3469788321513,3.65033361717102,25.259080125914,0.43756508906624,1,"subseries 12",FALSE,120,1.64025599953556,25.259080125914
"121",31.359229403716,3.56898257165124,24.7972173091161,2.99302952294863,1,"subseries 1",FALSE,121,1.78647815097039,24.7972173091161
"122",30.7952248029879,2.37869740258982,24.4758648875435,3.94066251285463,1,"subseries 2",FALSE,122,2.01685422233934,24.4758648875435
"123",22.1048619856567,0.377747235704811,24.2700073664198,-2.54289261646793,1,"subseries 3",FALSE,123,4.36992613025284,24.2700073664198
"124",17.7819908208278,-1.63626457941929,24.0957822086554,-4.67752680840827,1,"subseries 4",FALSE,124,1.47441999029074,24.0957822086554
"125",19.493443760363,-2.53048835290321,23.9677063446511,-1.94377423138485,1,"subseries 5",FALSE,125,4.95674801827734,23.9677063446511
"126",22.9477158324319,-2.16780935932916,23.6447929461675,1.47073224559353,1,"subseries 6",FALSE,126,2.68515898394972,23.6447929461675
"127",22.2888157314616,-2.69868974032701,23.2942393168274,1.6932661549612,1,"subseries 7",FALSE,127,2.91617607925799,23.2942393168274
"128",22.817293691884,-1.95027519577133,23.0012411378608,1.76632774979455,1,"subseries 8",FALSE,128,2.20374387432527,23.0012411378608
"129",23.3416086103571,-1.16367431680342,22.6251732438978,1.88010968326272,1,"subseries 9",FALSE,129,2.17639238196515,22.6251732438978
"130",22.8246371336973,0.383699743686447,22.3334584125243,0.107478977486512,1,"subseries 10",FALSE,130,2.63457251648426,22.3334584125243
"131",25.1275749746773,1.78774097375007,21.8954947536404,1.44433924728683,1,"subseries 11",FALSE,131,2.76192519217437,21.8954947536404
"132",21.6901440759957,3.65033361717102,21.4542148306215,-3.41440437179685,1,"subseries 12",FALSE,132,2.95585896112672,21.4542148306215
"133",22.9800846288868,3.56898257165124,21.1603126396315,-1.74921058239598,1,"subseries 1",FALSE,133,3.42027253680748,21.1603126396315
"134",25.0980182670646,2.37869740258982,21.1328677273998,1.58645313707498,1,"subseries 2",FALSE,134,2.81998388733996,21.1328677273998
"135",18.0279166668748,0.377747235704811,21.3595866118387,-3.70941718066873,1,"subseries 3",FALSE,135,1.25578910788165,21.3595866118387
"136",16.6972595844413,-1.63626457941929,21.589322700005,-3.25579853614443,1,"subseries 4",FALSE,136,1.4745895550967,21.589322700005
"137",16.5481087426366,-2.53048835290321,21.873823658638,-2.79522656309824,1,"subseries 5",FALSE,137,2.204536255509,21.873823658638
"138",22.9062212502842,-2.16780935932916,22.1570869021428,2.91694370747058,1,"subseries 6",FALSE,138,2.80479714657974,22.1570869021428
"139",22.7073633021847,-2.69868974032701,22.4621722352462,2.94388080726555,1,"subseries 7",FALSE,139,2.68280509611706,22.4621722352462
"140",21.6776131639939,-1.95027519577133,22.8192714026353,0.808616957129924,1,"subseries 8",FALSE,140,2.48889323675247,22.8192714026353
"141",22.197089169787,-1.16367431680342,23.1928372954941,0.167926191096349,1,"subseries 9",FALSE,141,2.08374071944918,23.1928372954941
"142",23.0987120161988,0.383699743686447,23.5934567539321,-0.878444481419749,1,"subseries 10",FALSE,142,2.11673770524564,23.5934567539321
