"","raw","seasonal","trend","remainder","weights","sub.labels","interpolated","age","sigma","power"
"1",55.2879606754933,-8.52738946609554,60.5119067537824,3.30344338780645,1,"subseries 1",FALSE,1,3.03992130537636,60.5119067537824
"2",53.1635482205618,-5.5066998577546,59.4525853346843,-0.782337256367938,1,"subseries 2",FALSE,2,3.32322329075005,59.4525853346843
"3",51.930468439314,-1.13212481504338,58.3913397603179,-5.3287465059605,1,"subseries 3",FALSE,3,2.78021678187137,58.3913397603179
"4",56.6436607843543,1.15681803738076,57.3015583541656,-1.81471560719206,1,"subseries 4",FALSE,4,2.51382115088214,57.3015583541656
"5",62.6743517236889,3.84157598734517,56.2147043691927,2.61807136715105,1,"subseries 5",FALSE,5,4.75722247968616,56.2147043691927
"6",62.2015984916073,4.20055478591856,55.1220512959813,2.87899240970746,1,"subseries 6",FALSE,6,6.1147888258903,55.1220512959813
"7",56.8617910299365,3.49634850528078,54.0428970279799,-0.677454503324199,1,"subseries 7",FALSE,7,4.7682653482953,54.0428970279799
"8",56.5520575274885,2.07588680454859,53.100039141246,1.37613158169393,1,"subseries 8",FALSE,8,4.46911799729186,53.100039141246
"9",58.0021087591185,3.65359896185594,52.1239491000079,2.22456069725465,1,"subseries 9",FALSE,9,2.94514359533066,52.1239491000079
"10",50.6323718603481,2.6773995456127,51.1357195532912,-3.18074723855581,1,"subseries 10",FALSE,10,3.98128055426106,51.1357195532912
"11",48.6698796210578,0.124350664031479,50.1932283348649,-1.64769937783855,1,"subseries 11",FALSE,11,3.54021416822367,50.1932283348649
"12",35.7788151260672,-6.06031915308045,49.194262336701,-7.35512805755329,1,"subseries 12",FALSE,12,5.93542846560107,49.194262336701
"13",50.7012602943953,-8.52738946609554,48.354041452442,10.8746083080488,1,"subseries 1",FALSE,13,5.65318523330245,48.354041452442
"14",34.4354507345596,-5.5066998577546,47.6051411783691,-7.66299058605489,1,"subseries 2",FALSE,14,5.99860082593247,47.6051411783691
"15",51.0514751543879,-1.13212481504338,46.9255114153882,5.25808855404304,1,"subseries 3",FALSE,15,2.81881459103039,46.9255114153882
"16",44.4727803367079,1.15681803738076,46.3937654053794,-3.07780310605231,1,"subseries 4",FALSE,16,2.81264001905699,46.3937654053794
"17",49.138000866546,3.84157598734517,45.8488774148374,-0.55245253563654,1,"subseries 5",FALSE,17,3.67159815234977,45.8488774148374
"18",51.475055670536,4.20055478591856,45.3941133873622,1.88038749725522,1,"subseries 6",FALSE,18,2.56647515498523,45.3941133873622
"19",49.6400773551735,3.49634850528078,45.0318128498816,1.11191600001108,1,"subseries 7",FALSE,19,3.19722700835514,45.0318128498816
"20",42.5806606346066,2.07588680454859,44.6916496846309,-4.18687585457291,1,"subseries 8",FALSE,20,6.86803626078856,44.6916496846309
"21",47.4107210696208,3.65359896185594,44.4654848016065,-0.708362693841629,1,"subseries 9",FALSE,21,3.09671330058073,44.4654848016065
"22",43.7944911173419,2.6773995456127,44.4026364449661,-3.28554487323692,1,"subseries 10",FALSE,22,3.98501409023728,44.4026364449661
"23",48.6040855639151,0.124350664031479,44.5308910216125,3.94884387827108,1,"subseries 11",FALSE,23,3.89485614686596,44.5308910216125
"24",39.8011562004144,-6.06031915308045,44.8856671737796,0.975808179715237,1,"subseries 12",FALSE,24,3.36266594020131,44.8856671737796
"25",31.5435061691082,-8.52738946609554,45.4798786495489,-5.40898301434513,1,"subseries 1",FALSE,25,4.39662554663074,45.4798786495489
"26",38.8952923877342,-5.5066998577546,46.1364284244535,-1.73443617896471,1,"subseries 2",FALSE,26,4.89641718499266,46.1364284244535
"27",45.316657445751,-1.13212481504338,46.8429817397733,-0.394199478978869,1,"subseries 3",FALSE,27,3.33642374611641,46.8429817397733
"28",50.3492609738394,1.15681803738076,47.4460780898529,1.74636484660573,1,"subseries 4",FALSE,28,2.96810424674619,47.4460780898529
"29",52.1602060501701,3.84157598734517,48.0009762328517,0.317653829973196,1,"subseries 5",FALSE,29,3.01135780514092,48.0009762328517
"30",55.5966777878376,4.20055478591856,48.6612231611941,2.73489984072494,1,"subseries 6",FALSE,30,2.95992543777244,48.6612231611941
"31",56.3656055135131,3.49634850528078,49.2042079776106,3.66504903062168,1,"subseries 7",FALSE,31,3.75983472113685,49.2042079776106
"32",50.1581230844343,2.07588680454859,49.6185311840777,-1.53629490419201,1,"subseries 8",FALSE,32,4.42325153156753,49.6185311840777
"33",50.2096441091604,3.65359896185594,49.8137479747828,-3.2577028274783,1,"subseries 9",FALSE,33,4.61283058810309,49.8137479747828
"34",54.6613634735489,2.6773995456127,49.7855534191979,2.1984105087383,1,"subseries 10",FALSE,34,4.87575873318063,49.7855534191979
"35",50.2322453363302,0.124350664031479,49.6700565148556,0.437838157443124,1,"subseries 11",FALSE,35,3.82904662757337,49.6700565148556
"36",46.9989830839508,-6.06031915308045,49.5224176821301,3.53688455490111,1,"subseries 12",FALSE,36,6.3279688580601,49.5224176821301
"37",39.97785376683,-8.52738946609554,49.3610394341072,-0.855796201181661,1,"subseries 1",FALSE,37,8.34585102469642,49.3610394341072
"38",42.5505372574468,-5.5066998577546,49.1514454923338,-1.09420837713245,1,"subseries 2",FALSE,38,3.59436015305383,49.1514454923338
"39",44.5376540514404,-1.13212481504338,48.831492336798,-3.16171347031422,1,"subseries 3",FALSE,39,3.37141397645406,48.831492336798
"40",53.0105298430684,1.15681803738076,48.1673128168666,3.68639898882108,1,"subseries 4",FALSE,40,2.89428248549752,48.1673128168666
"41",52.9282262088246,3.84157598734517,47.2793757666286,1.80727445485078,1,"subseries 5",FALSE,41,3.05720218467199,47.2793757666286
"42",52.0235252415094,4.20055478591856,46.1828210874091,1.64014936818172,1,"subseries 6",FALSE,42,3.22253146503309,46.1828210874091
"43",50.2655625691222,3.49634850528078,44.7666012048763,2.00261285896516,1,"subseries 7",FALSE,43,3.8178770052972,44.7666012048763
"44",50.4574641553357,2.07588680454859,43.5106370434836,4.87094030730352,1,"subseries 8",FALSE,44,4.22128074337414,43.5106370434836
"45",44.4653281617571,3.65359896185594,42.1626275242355,-1.35089832433438,1,"subseries 9",FALSE,45,7.38652520468279,42.1626275242355
"46",41.3311507019386,2.6773995456127,40.8919266489166,-2.23817549259073,1,"subseries 10",FALSE,46,4.52744414032858,40.8919266489166
"47",37.2853981391504,0.124350664031479,39.8912775032317,-2.73023002811274,1,"subseries 11",FALSE,47,4.76332633925164,39.8912775032317
"48",27.5515880154998,-6.06031915308045,38.8957986926549,-5.28389152407468,1,"subseries 12",FALSE,48,4.48735865813874,38.8957986926549
"49",21.2443537592515,-8.52738946609554,38.3068574937426,-8.53511426839557,1,"subseries 1",FALSE,49,4.9372782492479,38.3068574937426
"50",37.9103071382404,-5.5066998577546,38.0466917563705,5.37031523962445,1,"subseries 2",FALSE,50,8.76816186499782,38.0466917563705
"51",39.6707465038954,-1.13212481504338,38.2319728318711,2.57089848706767,1,"subseries 3",FALSE,51,3.24619009571934,38.2319728318711
"52",37.7303465933369,1.15681803738076,38.9844886019352,-2.41096004597905,1,"subseries 4",FALSE,52,3.05857879761032,38.9844886019352
"53",40.478384131052,3.84157598734517,40.0199614204045,-3.38315327669768,1,"subseries 5",FALSE,53,4.14629133745098,40.0199614204045
"54",43.4024319570771,4.20055478591856,41.2652931427533,-2.06341597159471,1,"subseries 6",FALSE,54,6.07775221715434,41.2652931427533
"55",44.6736235454966,3.49634850528078,42.655961937791,-1.47868689757521,1,"subseries 7",FALSE,55,3.67932220397609,42.655961937791
"56",45.5119282746015,2.07588680454859,43.8607751796027,-0.424733709549834,1,"subseries 8",FALSE,56,4.95378973681938,43.8607751796027
"57",50.7091290398064,3.65359896185594,45.0874058501775,1.96812422777293,1,"subseries 9",FALSE,57,7.05786026519177,45.0874058501775
"58",51.018431208443,2.6773995456127,46.1657973198447,2.17523434298564,1,"subseries 10",FALSE,58,5.81455723743258,46.1657973198447
"59",47.016321725062,0.124350664031479,46.8657386609569,0.0262324000736172,1,"subseries 11",FALSE,59,4.17124320465578,46.8657386609569
"60",50.1080973316055,-6.06031915308045,47.3376921452018,8.83072433948414,1,"subseries 12",FALSE,60,6.16046025103604,47.3376921452018
"61",37.6044683777618,-8.52738946609554,47.2871665236017,-1.15530867974432,1,"subseries 1",FALSE,61,9.76632992720469,47.2871665236017
"62",48.3441822035454,-5.5066998577546,47.0208633260167,6.83001873528331,1,"subseries 2",FALSE,62,3.01071736548708,47.0208633260167
"63",43.2331003076872,-1.13212481504338,46.4434827079092,-2.0782575851786,1,"subseries 3",FALSE,63,3.66781127340316,46.4434827079092
"64",43.8115057490162,1.15681803738076,45.7341870008734,-3.07949928923797,1,"subseries 4",FALSE,64,2.64091256499803,45.7341870008734
"65",50.3859060583712,3.84157598734517,45.0596049815515,1.48472508947454,1,"subseries 5",FALSE,65,2.02426030769071,45.0596049815515
"66",44.906385755172,4.20055478591856,44.1756758732958,-3.46984490404239,1,"subseries 6",FALSE,66,3.53788758095869,44.1756758732958
"67",44.5874202715401,3.49634850528078,43.4424300388236,-2.35135827256427,1,"subseries 7",FALSE,67,2.84980167073726,43.4424300388236
"68",44.7221686858836,2.07588680454859,42.7127287274509,-0.0664468461158521,1,"subseries 8",FALSE,68,4.16403877641643,42.7127287274509
"69",46.9705052485538,3.65359896185594,42.0330151766515,1.28389111004632,1,"subseries 9",FALSE,69,5.98385733992832,42.0330151766515
"70",48.907381584558,2.6773995456127,41.5502871088936,4.67969493005171,1,"subseries 10",FALSE,70,5.41499415603462,41.5502871088936
"71",40.8200917334044,0.124350664031479,41.0538008348371,-0.358059765464198,1,"subseries 11",FALSE,71,4.50964482772607,41.0538008348371
"72",32.8430008535174,-6.06031915308045,40.5160423063589,-1.61272229976104,1,"subseries 12",FALSE,72,3.77025189918347,40.5160423063589
"73",31.2188262154743,-8.52738946609554,39.9540180112994,-0.207802329729574,1,"subseries 1",FALSE,73,2.335974554199,39.9540180112994
"74",30.9485202523865,-5.5066998577546,39.3729311366295,-2.91771102648842,1,"subseries 2",FALSE,74,4.42915191303303,39.3729311366295
"75",39.2128392584132,-1.13212481504338,38.7812852671365,1.56367880632003,1,"subseries 3",FALSE,75,3.39185057804359,38.7812852671365
"76",43.1034616960973,1.15681803738076,38.1865055727178,3.76013808599868,1,"subseries 4",FALSE,76,2.47164929087171,38.1865055727178
"77",38.4802783051398,3.84157598734517,37.5868013985784,-2.94809908078376,1,"subseries 5",FALSE,77,2.66150402408653,37.5868013985784
"78",41.2732004154741,4.20055478591856,36.983006708194,0.0896389213615691,1,"subseries 6",FALSE,78,2.7284741629365,36.983006708194
"79",NA,3.49634850528078,36.3759915681579,NA,1,"subseries 7",TRUE,79,NA,NA
"80",NA,2.07588680454859,35.7647218166624,NA,1,"subseries 8",TRUE,80,NA,NA
"81",NA,3.65359896185594,35.1509852292326,NA,1,"subseries 9",TRUE,81,NA,NA
"82",NA,2.6773995456127,34.534944445503,NA,1,"subseries 10",TRUE,82,NA,NA
"83",NA,0.124350664031479,33.9169824158057,NA,1,"subseries 11",TRUE,83,NA,NA
"84",NA,-6.06031915308045,33.2976317796714,NA,1,"subseries 12",TRUE,84,NA,NA
"85",NA,-8.52738946609554,32.6767473237672,NA,1,"subseries 1",TRUE,85,NA,NA
"86",NA,-5.5066998577546,32.054963736465,NA,1,"subseries 2",TRUE,86,NA,NA
"87",NA,-1.13212481504338,31.4319270581905,NA,1,"subseries 3",TRUE,87,NA,NA
"88",NA,1.15681803738076,30.8355164052297,NA,1,"subseries 4",TRUE,88,NA,NA
"89",NA,3.84157598734517,30.2394713453831,NA,1,"subseries 5",TRUE,89,NA,NA
"90",NA,4.20055478591856,31.8604144195239,NA,1,"subseries 6",TRUE,90,NA,NA
"91",NA,3.49634850528078,33.6244300582664,NA,1,"subseries 7",TRUE,91,NA,NA
"92",NA,2.07588680454859,34.4272792550546,NA,1,"subseries 8",TRUE,92,NA,NA
"93",NA,3.65359896185594,35.2991115099613,NA,1,"subseries 9",TRUE,93,NA,NA
"94",NA,2.6773995456127,35.3327099462441,NA,1,"subseries 10",TRUE,94,NA,NA
"95",NA,0.124350664031479,35.3787248859285,NA,1,"subseries 11",TRUE,95,NA,NA
"96",NA,-6.06031915308045,35.2849316101478,NA,1,"subseries 12",TRUE,96,NA,NA
"97",NA,-8.52738946609554,35.1952978366516,NA,1,"subseries 1",TRUE,97,NA,NA
"98",NA,-5.5066998577546,35.0732109862789,NA,1,"subseries 2",TRUE,98,NA,NA
"99",NA,-1.13212481504338,34.9533252186022,NA,1,"subseries 3",TRUE,99,NA,NA
"100",NA,1.15681803738076,34.8219422407411,NA,1,"subseries 4",TRUE,100,NA,NA
"101",NA,3.84157598734517,34.6919845143278,NA,1,"subseries 5",TRUE,101,NA,NA
"102",NA,4.20055478591856,34.5570881668339,NA,1,"subseries 6",TRUE,102,NA,NA
"103",NA,3.49634850528078,34.4232193985676,NA,1,"subseries 7",TRUE,103,NA,NA
"104",NA,2.07588680454859,34.2869929488359,NA,1,"subseries 8",TRUE,104,NA,NA
"105",NA,3.65359896185594,34.1515602184386,NA,1,"subseries 9",TRUE,105,NA,NA
"106",NA,2.6773995456127,34.0149503514572,NA,1,"subseries 10",TRUE,106,NA,NA
"107",NA,0.124350664031479,33.8789868410664,NA,1,"subseries 11",TRUE,107,NA,NA
"108",NA,-6.06031915308045,33.742468142463,NA,1,"subseries 12",TRUE,108,NA,NA
"109",NA,-8.52738946609554,33.6065006249573,NA,1,"subseries 1",TRUE,109,NA,NA
"110",NA,-5.5066998577546,33.4703627959044,NA,1,"subseries 2",TRUE,110,NA,NA
"111",NA,-1.13212481504338,33.3347154618116,NA,1,"subseries 3",TRUE,111,NA,NA
"112",NA,1.15681803738076,33.1991805282824,NA,1,"subseries 4",TRUE,112,NA,NA
"113",NA,3.84157598734517,33.0640997138363,NA,1,"subseries 5",TRUE,113,NA,NA
"114",34.2549137459054,4.20055478591856,32.929389308673,-2.87503034868617,1,"subseries 6",FALSE,114,1.70645297343441,32.929389308673
"115",35.5300456680905,3.49634850528078,32.7951149787657,-0.761417815956001,1,"subseries 7",FALSE,115,2.69607101518278,32.7951149787657
"116",36.6127987244375,2.07588680454859,32.6618395960431,1.87507232384586,1,"subseries 8",FALSE,116,3.64921765170322,32.6618395960431
"117",37.7840158556948,3.65359896185594,32.5290036321489,1.60141326168999,1,"subseries 9",FALSE,117,3.54452471956071,32.5290036321489
