"","raw","seasonal","trend","remainder","weights","sub.labels","interpolated","power"
"1",13.7202451204621,-0.0478652163555787,13.5653343908001,0.202775946017615,1,"subseries 1",FALSE,13.5653343908001
"2",13.2222641088062,0.200045909827828,13.6184293293693,-0.596211130390962,1,"subseries 2",FALSE,13.6184293293693
"3",13.8707900269243,-0.00770231540011449,13.6702826949386,0.208209647385772,1,"subseries 3",FALSE,13.6702826949386
"4",14.3679629053303,0.118857018661279,13.7198200881384,0.529285798530589,1,"subseries 4",FALSE,13.7198200881384
"5",13.976902633919,0.486541908952457,13.7674542155329,-0.277093490566372,1,"subseries 5",FALSE,13.7674542155329
"6",13.7632775065874,0.680014688661234,13.8110349272441,-0.727772109317961,1,"subseries 6",FALSE,13.8110349272441
"7",14.193396681567,0.0636327733092468,13.8510645679609,0.278699340296834,1,"subseries 7",FALSE,13.8510645679609
"8",14.2183242263657,0.0769471000710089,13.8900892253543,0.251287900940433,1,"subseries 8",FALSE,13.8900892253543
"9",13.8518206385767,-0.0735963396698785,13.9182546716207,0.00716230662588657,1,"subseries 9",FALSE,13.9182546716207
"10",14.3811819381821,-0.396301545344724,13.9016747278949,0.875808755631933,1,"subseries 10",FALSE,13.9016747278949
"11",13.2252862333715,-0.635683151054493,13.852429890022,0.00853949440400648,1,"subseries 11",FALSE,13.852429890022
"12",13.7319093998674,-0.464890831658265,13.8199825779682,0.376817653557465,1,"subseries 12",FALSE,13.8199825779682
"13",14.0999073326752,-0.0478652163555787,13.7701036051266,0.377668943904132,1,"subseries 1",FALSE,13.7701036051266
"14",13.7306065563486,0.200045909827828,13.7445198588456,-0.213959212324832,1,"subseries 2",FALSE,13.7445198588456
"15",12.7542715256415,-0.00770231540011449,13.7423903758637,-0.980416534822039,1,"subseries 3",FALSE,13.7423903758637
"16",NA,0.118857018661279,13.7349067409563,NA,1,"subseries 4",TRUE,NA
"17",13.8405712591879,0.486541908952457,13.7730793699914,-0.419050019755952,1,"subseries 5",FALSE,13.7730793699914
"18",13.4110294703569,0.680014688661234,13.79448298903,-1.06346820733435,1,"subseries 6",FALSE,13.79448298903
"19",14.2480323993925,0.0636327733092468,13.8472374485001,0.337162177583183,1,"subseries 7",FALSE,13.8472374485001
"20",14.2664558226747,0.0769471000710089,13.905559980313,0.283948742290715,1,"subseries 8",FALSE,13.905559980313
"21",14.1062747902118,-0.0735963396698785,13.945353634894,0.234517494987704,1,"subseries 9",FALSE,13.945353634894
"22",14.2471293473871,-0.396301545344724,13.986509652772,0.656921239959832,1,"subseries 10",FALSE,13.986509652772
"23",14.0073302867961,-0.635683151054493,13.9693327578081,0.673680680042485,1,"subseries 11",FALSE,13.9693327578081
"24",14.0845084269524,-0.464890831658265,13.9683212437067,0.581078014903987,1,"subseries 12",FALSE,13.9683212437067
"25",13.796744026883,-0.0478652163555787,13.9112979283457,-0.0666886851070991,1,"subseries 1",FALSE,13.9112979283457
"26",14.3201275589499,0.200045909827828,13.8166130714935,0.303468577628536,1,"subseries 2",FALSE,13.8166130714935
"27",13.3954440792834,-0.00770231540011449,13.7374444193165,-0.334298024632977,1,"subseries 3",FALSE,13.7374444193165
"28",12.5986729718562,0.118857018661279,13.6686208033554,-1.18880485016046,1,"subseries 4",FALSE,13.6686208033554
"29",13.9314448804375,0.486541908952457,13.6671566755663,-0.222253704081217,1,"subseries 5",FALSE,13.6671566755663
"30",13.8467443653558,0.680014688661234,13.6710347798918,-0.504305103197247,1,"subseries 6",FALSE,13.6710347798918
"31",13.5906800557298,0.0636327733092468,13.7266120634651,-0.19956478104454,1,"subseries 7",FALSE,13.7266120634651
"32",14.0936440033909,0.0769471000710089,13.7841701370236,0.232526766296299,1,"subseries 8",FALSE,13.7841701370236
"33",13.9902540629383,-0.0735963396698785,13.8241447608919,0.239705641716311,1,"subseries 9",FALSE,13.8241447608919
"34",14.2749424398462,-0.396301545344724,13.8605779107071,0.810666074483825,1,"subseries 10",FALSE,13.8605779107071
"35",13.8928969009996,-0.635683151054493,13.8254534089728,0.703126643081303,1,"subseries 11",FALSE,13.8254534089728
"36",13.5967662645489,-0.464890831658265,13.7763555432522,0.285301552954921,1,"subseries 12",FALSE,13.7763555432522
"37",13.6402006077771,-0.0478652163555787,13.6765646693274,0.0115011548052788,1,"subseries 1",FALSE,13.6765646693274
"38",13.6917667413292,0.200045909827828,13.5583155470806,-0.0665947155792335,1,"subseries 2",FALSE,13.5583155470806
"39",13.2277682848447,-0.00770231540011449,13.4480766643039,-0.212606064059125,1,"subseries 3",FALSE,13.4480766643039
"40",12.5210363159735,0.118857018661279,13.3424539265217,-0.940274629209522,1,"subseries 4",FALSE,13.3424539265217
"41",13.732594961901,0.486541908952457,13.2972905492794,-0.0512374963308453,1,"subseries 5",FALSE,13.2972905492794
"42",13.7851164892489,0.680014688661234,13.2621971619319,-0.157095361344252,1,"subseries 6",FALSE,13.2621971619319
"43",12.8353216285607,0.0636327733092468,13.2650354886607,-0.493346633409294,1,"subseries 7",FALSE,13.2650354886607
"44",13.3680413881966,0.0769471000710089,13.2653901576892,0.025704130436397,1,"subseries 8",FALSE,13.2653901576892
"45",13.6362355634684,-0.0735963396698785,13.2462649780564,0.463566925081912,1,"subseries 9",FALSE,13.2462649780564
"46",13.6527924418451,-0.396301545344724,13.2378317697853,0.81126221740449,1,"subseries 10",FALSE,13.2378317697853
"47",12.9581275459298,-0.635683151054493,13.1867796428354,0.407031054148895,1,"subseries 11",FALSE,13.1867796428354
"48",12.6925338653903,-0.464890831658265,13.1268394776591,0.0305852193894687,1,"subseries 12",FALSE,13.1268394776591
"49",12.9336234621581,-0.0478652163555787,13.0335060976327,-0.0520174191190446,1,"subseries 1",FALSE,13.0335060976327
"50",12.9029088439084,0.200045909827828,12.9056491202879,-0.202786186207366,1,"subseries 2",FALSE,12.9056491202879
"51",12.1464510315518,-0.00770231540011449,12.7740538852551,-0.619900538303222,1,"subseries 3",FALSE,12.7740538852551
"52",13.1253890623174,0.118857018661279,12.6186873817037,0.387844661952393,1,"subseries 4",FALSE,12.6186873817037
"53",13.3247015678402,0.486541908952457,12.476763578191,0.361396080696743,1,"subseries 5",FALSE,12.476763578191
"54",12.5191328971145,0.680014688661234,12.3597214630251,-0.520603254571791,1,"subseries 6",FALSE,12.3597214630251
"55",12.4848446844823,0.0636327733092468,12.2511968673835,0.17001504378957,1,"subseries 7",FALSE,12.2511968673835
"56",12.2817790205848,0.0769471000710089,12.1766006758698,0.0282312446440205,1,"subseries 8",FALSE,12.1766006758698
"57",12.1472002385638,-0.0735963396698785,12.1214158756644,0.0993807025693236,1,"subseries 9",FALSE,12.1214158756644
"58",11.2451510402927,-0.396301545344724,12.059086453816,-0.41763386817858,1,"subseries 10",FALSE,12.059086453816
"59",10.768293833428,-0.635683151054493,12.01449640012,-0.610519415637492,1,"subseries 11",FALSE,12.01449640012
"60",11.4712118080003,-0.464890831658265,11.9705669117501,-0.0344642720915775,1,"subseries 12",FALSE,11.9705669117501
"61",12.3606191609957,-0.0478652163555787,11.9321715070156,0.476312870335727,1,"subseries 1",FALSE,11.9321715070156
"62",12.4687390110553,0.200045909827828,11.9020916237665,0.366601477460962,1,"subseries 2",FALSE,11.9020916237665
"63",11.9473439392973,-0.00770231540011449,11.8643088473547,0.0907374073427398,1,"subseries 3",FALSE,11.8643088473547
"64",11.6087779089233,0.118857018661279,11.8164788697451,-0.326557979483086,1,"subseries 4",FALSE,11.8164788697451
"65",12.4828520417839,0.486541908952457,11.7347176112645,0.261592521566948,1,"subseries 5",FALSE,11.7347176112645
"66",12.3383924589838,0.680014688661234,11.6296433041914,0.028734466131203,1,"subseries 6",FALSE,11.6296433041914
"67",11.8561656482266,0.0636327733092468,11.5097788747906,0.282754000126712,1,"subseries 7",FALSE,11.5097788747906
"68",11.7378268909353,0.0769471000710089,11.4105911717503,0.250288619113981,1,"subseries 8",FALSE,11.4105911717503
"69",10.9932056402852,-0.0735963396698785,11.3316297993687,-0.264827819413583,1,"subseries 9",FALSE,11.3316297993687
"70",10.4116797630049,-0.396301545344724,11.2833460628972,-0.475364754547615,1,"subseries 10",FALSE,11.2833460628972
"71",10.0516631693184,-0.635683151054493,11.2764719947742,-0.589125674401311,1,"subseries 11",FALSE,11.2764719947742
"72",10.7192705181717,-0.464890831658265,11.270006549111,-0.0858451992810654,1,"subseries 12",FALSE,11.270006549111
"73",10.7978015447036,-0.0478652163555787,11.3044184656273,-0.458751704568138,1,"subseries 1",FALSE,11.3044184656273
"74",11.6000319533017,0.200045909827828,11.3359575813443,0.0640284621296097,1,"subseries 2",FALSE,11.3359575813443
"75",11.8491583847814,-0.00770231540011449,11.3637006170248,0.493160083156733,1,"subseries 3",FALSE,11.3637006170248
"76",11.6554677129043,0.118857018661279,11.398614448826,0.137996245417044,1,"subseries 4",FALSE,11.398614448826
"77",12.5320692334442,0.486541908952457,11.3902334284741,0.65529389601766,1,"subseries 5",FALSE,11.3902334284741
"78",12.4756959677002,0.680014688661234,11.3763737249801,0.419307554058829,1,"subseries 6",FALSE,11.3763737249801
"79",11.1883274132572,0.0636327733092468,11.3265390826691,-0.201844442721162,1,"subseries 7",FALSE,11.3265390826691
"80",11.2103677933729,0.0769471000710089,11.2709370934042,-0.137516400102346,1,"subseries 8",FALSE,11.2709370934042
"81",11.068663540788,-0.0735963396698785,11.2259612232969,-0.0837013428389799,1,"subseries 9",FALSE,11.2259612232969
"82",10.1380667600854,-0.396301545344724,11.1827440924115,-0.648375786981333,1,"subseries 10",FALSE,11.1827440924115
"83",10.6981249310014,-0.635683151054493,11.183871387455,0.149936694600887,1,"subseries 11",FALSE,11.183871387455
"84",10.1323955813266,-0.464890831658265,11.2150646283891,-0.617778215404277,1,"subseries 12",FALSE,11.2150646283891
"85",10.9082768083195,-0.0478652163555787,11.2940151053744,-0.337873080699307,1,"subseries 1",FALSE,11.2940151053744
"86",11.6613891068024,0.200045909827828,11.3734434711016,0.087899725872937,1,"subseries 2",FALSE,11.3734434711016
"87",12.1184273540354,-0.00770231540011449,11.4485851426176,0.677544526817929,1,"subseries 3",FALSE,11.4485851426176
"88",11.3697795217709,0.118857018661279,11.4908190893546,-0.239896586244974,1,"subseries 4",FALSE,11.4908190893546
"89",11.6839797758704,0.486541908952457,11.4733392474802,-0.275901380562219,1,"subseries 5",FALSE,11.4733392474802
"90",13.9858760988282,0.680014688661234,11.4500571286505,1.85580428151651,1,"subseries 6",FALSE,11.4500571286505
"91",11.9406396720565,0.0636327733092468,11.3739771581046,0.503029740642623,1,"subseries 7",FALSE,11.3739771581046
"92",10.9197635802569,0.0769471000710089,11.3186660745092,-0.475849594323265,1,"subseries 8",FALSE,11.3186660745092
"93",10.9525524919477,-0.0735963396698785,11.2749753539385,-0.248826522320956,1,"subseries 9",FALSE,11.2749753539385
"94",9.9095469936301,-0.396301545344724,11.2475350669563,-0.941686527981494,1,"subseries 10",FALSE,11.2475350669563
"95",9.9478818732713,-0.635683151054493,11.2888620684959,-0.705297044170061,1,"subseries 11",FALSE,11.2888620684959
"96",10.3090147298397,-0.464890831658265,11.3013802564881,-0.527474694990181,1,"subseries 12",FALSE,11.3013802564881
"97",11.1368087292722,-0.0478652163555787,11.3712112071802,-0.186537261552379,1,"subseries 1",FALSE,11.3712112071802
"98",11.8351218837107,0.200045909827828,11.4253851988505,0.209690775032353,1,"subseries 2",FALSE,11.4253851988505
"99",12.0816036416263,-0.00770231540011449,11.4386562133665,0.650649743659924,1,"subseries 3",FALSE,11.4386562133665
"100",13.219115628369,0.118857018661279,11.4455045829493,1.65475402675843,1,"subseries 4",FALSE,11.4455045829493
"101",11.9396800087878,0.486541908952457,11.4216428939903,0.0314952058450757,1,"subseries 5",FALSE,11.4216428939903
"102",12.8898357693425,0.680014688661234,11.4125330683186,0.797288012362657,1,"subseries 6",FALSE,11.4125330683186
"103",10.9453568024315,0.0636327733092468,11.3922029542133,-0.51047892509103,1,"subseries 7",FALSE,11.3922029542133
"104",11.1654598347815,0.0769471000710089,11.3598852858931,-0.271372551182644,1,"subseries 8",FALSE,11.3598852858931
"105",10.9643413960535,-0.0735963396698785,11.3200858558005,-0.282148120077162,1,"subseries 9",FALSE,11.3200858558005
"106",10.3400015633611,-0.396301545344724,11.265756576778,-0.529453468072216,1,"subseries 10",FALSE,11.265756576778
