"","raw","seasonal","trend","remainder","weights","sub.labels","interpolated","age","sigma","power"
"1",47.9997132899367,-0.0129574678195336,48.5963752983721,-0.583704540615834,1,"subseries 1",FALSE,1,2.57766525300378,48.5963752983721
"2",47.8161724578345,0.365666441122222,48.5559398057963,-1.10543378908399,1,"subseries 2",FALSE,2,2.10928860303155,48.5559398057963
"3",47.2018285150412,0.358248783024833,48.5104578669745,-1.66687813495817,1,"subseries 3",FALSE,3,2.06445983630299,48.5104578669745
"4",47.0565640875876,-0.0429705493484382,48.4502198757733,-1.35068523883724,1,"subseries 4",FALSE,4,2.14614374541178,48.4502198757733
"5",55.8971045187198,2.10119472701816,48.3855234368583,5.41038635484337,1,"subseries 5",FALSE,5,9.78137645195953,48.3855234368583
"6",48.8712031055059,-1.81644421902039,48.3424803430014,2.34516698152494,1,"subseries 6",FALSE,6,6.76257322076655,48.3424803430014
"7",49.898263311542,0.683963871371348,48.2882091782938,0.926090261876865,1,"subseries 7",FALSE,7,13.4908570674221,48.2882091782938
"8",46.4233320436299,0.0599102195906273,48.2789960946685,-1.91557427062921,1,"subseries 8",FALSE,8,2.45788596382823,48.2789960946685
"9",46.432382156844,-0.321512371610371,48.2214990555114,-1.46760452705705,1,"subseries 9",FALSE,9,2.82891369271739,48.2214990555114
"10",47.0438915493278,-0.192388942238293,48.0576535923644,-0.821373100798262,1,"subseries 10",FALSE,10,2.97536330732223,48.0576535923644
"11",46.0456787797524,-0.759504980344774,47.9065299207368,-1.10134616063959,1,"subseries 11",FALSE,11,2.86720678122425,47.9065299207368
"12",47.8162247931315,-0.423205511745386,47.6855967066728,0.553833598204093,1,"subseries 12",FALSE,12,2.21288082817539,47.6855967066728
"13",48.0121416699238,-0.0129574678195336,47.5217636653028,0.503335472440554,1,"subseries 1",FALSE,13,2.36685030724874,47.5217636653028
"14",48.3423240786164,0.365666441122222,47.4512963221256,0.525361315368578,1,"subseries 2",FALSE,14,2.09075292417429,47.4512963221256
"15",48.5957306750885,0.358248783024833,47.375715715761,0.861766176302652,1,"subseries 3",FALSE,15,5.34749511765811,47.375715715761
"16",NA,-0.0429705493484382,47.3763762651064,NA,1,"subseries 4",TRUE,16,NA,NA
"17",49.5102267533152,2.10119472701816,47.3701885375596,0.03884348873747,1,"subseries 5",FALSE,17,3.15208574898405,47.3701885375596
"18",43.921326481651,-1.81644421902039,47.3530461530137,-1.61527545234227,1,"subseries 6",FALSE,18,10.1297285531387,47.3530461530137
"19",48.1384444874289,0.683963871371348,47.3789487477356,0.0755318683219741,1,"subseries 7",FALSE,19,2.17662344800463,47.3789487477356
"20",46.749957934988,0.0599102195906273,47.3807152861564,-0.690667570759004,1,"subseries 8",FALSE,20,2.53916118873124,47.3807152861564
"21",46.6305541021999,-0.321512371610371,47.4482198259689,-0.496153352158586,1,"subseries 9",FALSE,21,2.88483075454103,47.4482198259689
"22",46.5932033752816,-0.192388942238293,47.5723739537422,-0.786781636222273,1,"subseries 10",FALSE,22,2.85582503523362,47.5723739537422
"23",47.6751786202768,-0.759504980344774,47.7434289774291,0.691254623192485,1,"subseries 11",FALSE,23,2.78659743646219,47.7434289774291
"24",47.995848748199,-0.423205511745386,48.0446265744246,0.374427685519748,1,"subseries 12",FALSE,24,2.50532199088042,48.0446265744246
"25",48.1964686843318,-0.0129574678195336,48.3977809316843,-0.188354779532986,1,"subseries 1",FALSE,25,2.4279454162989,48.3977809316843
"26",48.3812524229686,0.365666441122222,48.7141182039201,-0.698532222073752,1,"subseries 2",FALSE,26,3.03905663584577,48.7141182039201
"27",50.8551715542926,0.358248783024833,49.026159790579,1.47076298068876,1,"subseries 3",FALSE,27,2.21901727315236,49.026159790579
"28",45.2816863842214,-0.0429705493484382,49.2851906874029,-3.96053375383306,1,"subseries 4",FALSE,28,8.34603272032834,49.2851906874029
"29",NA,2.10119472701816,49.5085491212398,NA,1,"subseries 5",TRUE,29,NA,NA
"30",52.9383222326213,-1.81644421902039,49.7540314138026,5.00073503783906,1,"subseries 6",FALSE,30,7.59638070922692,49.7540314138026
"31",50.773285886914,0.683963871371348,49.985277872196,0.104044143346655,1,"subseries 7",FALSE,31,2.1080397593353,49.985277872196
"32",49.8685358263272,0.0599102195906273,50.2417293016283,-0.433103694891706,1,"subseries 8",FALSE,32,2.60402586421014,50.2417293016283
"33",49.4271170362767,-0.321512371610371,50.483347613482,-0.734718205594952,1,"subseries 9",FALSE,33,2.90163427702576,50.483347613482
"34",49.3935543558963,-0.192388942238293,50.654618065879,-1.06867476774443,1,"subseries 10",FALSE,34,3.28894321199135,50.654618065879
"35",49.9497087565292,-0.759504980344774,50.7632525168954,-0.0540387800214432,1,"subseries 11",FALSE,35,2.69968465978523,50.7632525168954
"36",50.7224354236585,-0.423205511745386,50.7384015557559,0.407239379647969,1,"subseries 12",FALSE,36,2.77690555668994,50.7384015557559
"37",51.5106753367306,-0.0129574678195336,50.6502944749183,0.873338329631814,1,"subseries 1",FALSE,37,1.87811318268942,50.6502944749183
"38",52.6633377261826,0.365666441122222,50.5799301699299,1.71774111513043,1,"subseries 2",FALSE,38,1.77775326050909,50.5799301699299
"39",52.3633170345681,0.358248783024833,50.4603297593709,1.54473849217239,1,"subseries 3",FALSE,39,1.90634279,50.4603297593709
"40",NA,-0.0429705493484382,50.2240508234317,NA,1,"subseries 4",TRUE,40,NA,NA
"41",50.8630113786207,2.10119472701816,49.847233084143,-1.08541643254047,1,"subseries 5",FALSE,41,3.05038336164101,49.847233084143
"42",NA,-1.8164442190204,49.3491410013903,NA,1,"subseries 6",TRUE,42,NA,NA
"43",50.1775177729989,0.683963871371348,48.7092958824816,0.784258019145909,1,"subseries 7",FALSE,43,2.0098631520592,48.7092958824816
"44",49.4632397190337,0.0599102195906273,48.0213725296796,1.38195696976345,1,"subseries 8",FALSE,44,2.34483485933284,48.0213725296796
"45",49.1650208213565,-0.321512371610371,47.3147555020165,2.17177769095034,1,"subseries 9",FALSE,45,3.59442884159252,47.3147555020165
"46",48.3479001873942,-0.192388942238293,46.6792762519996,1.86101287763286,1,"subseries 10",FALSE,46,2.79199654613525,46.6792762519996
"47",41.9011593088785,-0.759504980344774,46.0941713166197,-3.43350702739644,1,"subseries 11",FALSE,47,5.62758018520716,46.0941713166197
"48",42.3806350969981,-0.423205511745386,45.6527846560036,-2.84894404726008,1,"subseries 12",FALSE,48,2.52397152348148,45.6527846560036
"49",43.9704302620653,-0.0129574678195336,45.3527232375057,-1.3693355076209,1,"subseries 1",FALSE,49,2.17252633263243,45.3527232375057
"50",42.5699007670027,0.365666441122222,45.0764172216476,-2.87218289576709,1,"subseries 2",FALSE,50,1.77343911157099,45.0764172216476
"51",44.4795216993109,0.358248783024833,44.9349786435056,-0.81370572721957,1,"subseries 3",FALSE,51,2.54994680134622,44.9349786435056
"52",45.9023123804023,-0.0429705493484382,44.7256764998676,1.21960642988316,1,"subseries 4",FALSE,52,5.36310509778521,44.7256764998676
"53",NA,2.10119472701816,44.6505326524699,NA,1,"subseries 5",TRUE,53,NA,NA
"54",NA,-1.81644421902039,44.8174562992301,NA,1,"subseries 6",TRUE,54,NA,NA
"55",47.7771412575738,0.683963871371348,44.9761332273375,2.11704415886495,1,"subseries 7",FALSE,55,14.4790515072052,44.9761332273375
"56",45.128025450221,0.0599102195906273,45.1478312422558,-0.0797160116254503,1,"subseries 8",FALSE,56,2.15024091042747,45.1478312422558
"57",43.246564813963,-0.321512371610371,45.2250845572029,-1.65700737162953,1,"subseries 9",FALSE,57,2.60621072497883,45.2250845572029
"58",44.6037887726318,-0.192388942238293,45.2028510736016,-0.406673358731467,1,"subseries 10",FALSE,58,3.94261928201854,45.2028510736016
"59",45.275967324842,-0.759504980344774,45.1286468171097,0.906825488077068,1,"subseries 11",FALSE,59,3.69099850210456,45.1286468171097
"60",46.0710049408753,-0.423205511745386,45.0324005150384,1.46180993758232,1,"subseries 12",FALSE,60,9.12665015432423,45.0324005150384
"61",45.6974059348386,-0.0129574678195336,44.974888446378,0.735474956280122,1,"subseries 1",FALSE,61,2.11803721330907,44.974888446378
"62",45.6880140940849,0.365666441122222,44.9477268238527,0.374620829109936,1,"subseries 2",FALSE,62,2.12117846338225,44.9477268238527
"63",40.9055957836255,0.358248783024833,44.931155005064,-4.38380800446334,1,"subseries 3",FALSE,63,9.52566457378471,44.931155005064
"64",45.3741272788624,-0.0429705493484382,44.8664490580274,0.550648770183429,1,"subseries 4",FALSE,64,1.79842200244441,44.8664490580274
"65",45.6666587012472,2.10119472701816,44.8253638796351,-1.25989990540607,1,"subseries 5",FALSE,65,1.90181650135011,44.8253638796351
"66",46.6799120086864,-1.81644421902039,44.801371120201,3.69498510750584,1,"subseries 6",FALSE,66,2.90839218737071,44.801371120201
"67",45.2254715454463,0.683963871371348,44.818084189796,-0.276576515721004,1,"subseries 7",FALSE,67,2.35931920402217,44.818084189796
"68",44.0604268078455,0.0599102195906273,44.9169295548918,-0.916412966636919,1,"subseries 8",FALSE,68,2.79016518476006,44.9169295548918
"69",44.3230295103985,-0.321512371610371,44.9738385457319,-0.329296663723028,1,"subseries 9",FALSE,69,2.8511060190224,44.9738385457319
"70",44.9467198730094,-0.192388942238293,44.9632899132084,0.175818902039317,1,"subseries 10",FALSE,70,3.2058465291517,44.9632899132084
"71",44.5155405113199,-0.759504980344774,44.9131340747832,0.361911416881455,1,"subseries 11",FALSE,71,2.72321572133577,44.9131340747832
"72",44.5292704068565,-0.423205511745386,44.7559852147261,0.196490703875753,1,"subseries 12",FALSE,72,3.04117102610032,44.7559852147261
"73",45.1057380679396,-0.0129574678195336,44.5503584372002,0.568337098558914,1,"subseries 1",FALSE,73,2.5851083975134,44.5503584372002
"74",45.1638803196334,0.365666441122222,44.40701813155,0.391195746961209,1,"subseries 2",FALSE,74,3.00269187303938,44.40701813155
"75",44.6925440138119,0.358248783024833,44.2294408829716,0.104854347815504,1,"subseries 3",FALSE,75,4.14824086729086,44.2294408829716
"76",44.3462912307007,-0.0429705493484382,44.0785839596474,0.310677820401693,1,"subseries 4",FALSE,76,6.72326175593256,44.0785839596474
"77",47.6001919797308,2.10119472701816,43.972003744107,1.52699350860568,1,"subseries 5",FALSE,77,5.52828575613939,43.972003744107
"78",36.2147994048242,-1.81644421902039,43.8521861477491,-5.82094252390451,1,"subseries 6",FALSE,78,7.66341949005776,43.8521861477491
"79",46.1597812294977,0.683963871371348,43.7972903112072,1.67852704691915,1,"subseries 7",FALSE,79,3.47879688593547,43.7972903112072
"80",43.8279263115489,0.0599102195906273,43.7565461730235,0.0114699189347789,1,"subseries 8",FALSE,80,4.87879690084831,43.7565461730235
"81",43.8473328138096,-0.321512371610371,43.7831111764367,0.385734008983228,1,"subseries 9",FALSE,81,2.61856696582682,43.7831111764367
"82",43.3749098893678,-0.192388942238293,43.8754418217195,-0.308142990113438,1,"subseries 10",FALSE,82,2.88504391321873,43.8754418217195
"83",44.4093542487772,-0.759504980344774,43.9676614104059,1.20119781871603,1,"subseries 11",FALSE,83,3.69395088451597,43.9676614104059
"84",43.0375187114709,-0.423205511745386,43.9226095629849,-0.461885339768621,1,"subseries 12",FALSE,84,3.33675327090938,43.9226095629849
"85",43.3055629517074,-0.0129574678195336,43.6937558001618,-0.375235380634905,1,"subseries 1",FALSE,85,3.00044081939104,43.6937558001618
"86",44.9354426269303,0.365666441122222,43.4617252809492,1.1080509048589,1,"subseries 2",FALSE,86,2.48734239205256,43.4617252809492
"87",46.1970868738724,0.358248783024833,43.1897632574765,2.64907483337111,1,"subseries 3",FALSE,87,2.18099835446789,43.1897632574765
"88",46.2574816498417,-0.0429705493484382,43.1227541546426,3.17769804454754,1,"subseries 4",FALSE,88,2.32624347259582,43.1227541546426
"89",40.4947337680323,2.10119472701816,43.1923155191099,-4.79877647809577,1,"subseries 5",FALSE,89,5.3843142699193,43.1923155191099
"90",37.8216150053544,-1.81644421902039,43.3168732531974,-3.67881402882262,1,"subseries 6",FALSE,90,6.84689348999484,43.3168732531974
"91",38.6560139101622,0.683963871371348,43.578121442137,-5.60607140334613,1,"subseries 7",FALSE,91,12.2896265038141,43.578121442137
"92",46.2945119604605,0.0599102195906273,43.8245441811543,2.41005755971554,1,"subseries 8",FALSE,92,2.17998753188976,43.8245441811543
"93",45.6104185952952,-0.321512371610371,44.1107611759387,1.82116979096685,1,"subseries 9",FALSE,93,3.12056309735237,44.1107611759387
"94",45.1951730610011,-0.192388942238293,44.4304033198213,0.957158683418115,1,"subseries 10",FALSE,94,3.06484871089098,44.4304033198213
"95",44.998880421085,-0.759504980344774,44.7692557150146,0.98912968641514,1,"subseries 11",FALSE,95,2.96404460919115,44.7692557150146
"96",44.590190812463,-0.423205511745386,45.1425319947812,-0.129135670572829,1,"subseries 12",FALSE,96,4.17399280490353,45.1425319947812
"97",44.9280348824897,-0.0129574678195336,45.5283078393917,-0.587315489082485,1,"subseries 1",FALSE,97,3.19748013300392,45.5283078393917
"98",46.443446566846,0.365666441122222,45.9274977514266,0.150282374297227,1,"subseries 2",FALSE,98,2.21431109158091,45.9274977514266
