"","raw","seasonal","trend","remainder","weights","sub.labels","interpolated","age","sigma","power"
"1",105.742185380386,-2.41386003090965,107.155074373474,1.00097103782139,1,"subseries 1",FALSE,1,8.18755649299654,107.155074373474
"2",104.629158527467,-2.59922482652701,107.580926733237,-0.352543379242547,1,"subseries 2",FALSE,2,9.42372235805549,107.580926733237
"3",106.109557205183,-2.72796989639562,108.007513255311,0.830013846267491,1,"subseries 3",FALSE,3,6.6375950634179,108.007513255311
"4",103.573575628456,-2.84612696757166,108.428184147908,-2.00848155188037,1,"subseries 4",FALSE,4,8.03831304951188,108.428184147908
"5",100.448046768166,-5.46839685625086,108.851280871359,-2.93483724694252,1,"subseries 5",FALSE,5,6.43685581444921,108.851280871359
"6",105.715744899736,-5.3824915183901,109.264101475023,1.83413494310309,1,"subseries 6",FALSE,6,7.74306747429078,109.264101475023
"7",115.302711958835,1.60325446817452,109.687225012485,4.01223247817526,1,"subseries 7",FALSE,7,7.3037709852483,109.687225012485
"8",115.345025572914,5.91307763347284,110.160077590422,-0.728129650980534,1,"subseries 8",FALSE,8,6.14901297574032,110.160077590422
"9",116.974382593327,7.34934917501787,110.643637079007,-1.01860366069776,1,"subseries 9",FALSE,9,6.8686683143963,110.643637079007
"10",114.802880899601,5.57655268275854,111.167605463888,-1.94127724704575,1,"subseries 10",FALSE,10,6.8010557520214,111.167605463888
"11",113.977818489316,1.63691944378026,111.686201476493,0.654697569042824,1,"subseries 11",FALSE,11,8.63229180081154,111.686201476493
"12",110.224940510481,-0.641083307159124,112.178363058472,-1.31233924083163,1,"subseries 12",FALSE,12,9.08333589610814,112.178363058472
"13",110.555538518895,-2.41386003090965,112.784775970808,0.184622578997121,1,"subseries 1",FALSE,13,9.27842896563039,112.784775970808
"14",111.948671256036,-2.59922482652701,113.480413007125,1.06748307543782,1,"subseries 2",FALSE,14,7.72579433844823,113.480413007125
"15",111.230433136105,-2.72796989639562,114.219309126998,-0.260906094496917,1,"subseries 3",FALSE,15,7.92058210686152,114.219309126998
"16",110.610983028518,-2.84612696757166,114.799455747067,-1.34234575097723,1,"subseries 4",FALSE,16,7.44550778637608,114.799455747067
"17",108.751213982906,-5.46839685625086,115.205013573683,-0.98540273452582,1,"subseries 5",FALSE,17,7.72520781580434,115.205013573683
"18",113.669715869691,-5.3824915183901,115.369249297585,3.68295809049563,1,"subseries 6",FALSE,18,7.27113230748706,115.369249297585
"19",121.523880925124,1.60325446817452,115.238629978992,4.68199647795781,1,"subseries 7",FALSE,19,7.09557357483846,115.238629978992
"20",122.29028187481,5.91307763347284,115.068690554057,1.30851368728061,1,"subseries 8",FALSE,20,6.60490795440963,115.068690554057
"21",123.41520219088,7.34934917501787,114.662605036659,1.40324797920309,1,"subseries 9",FALSE,21,5.66344841331259,114.662605036659
"22",119.590619896624,5.57655268275854,114.215349159277,-0.20128194541202,1,"subseries 10",FALSE,22,5.25625974297135,114.215349159277
"23",113.699021729286,1.63691944378026,113.700975910933,-1.63887362542745,1,"subseries 11",FALSE,23,6.3350612428809,113.700975910933
"24",110.015364459847,-0.641083307159124,113.024906593704,-2.36845882669746,1,"subseries 12",FALSE,24,7.68392379078075,113.024906593704
"25",108.11433714073,-2.41386003090965,112.50365834597,-1.97546117433053,1,"subseries 1",FALSE,25,9.01014271353437,112.50365834597
"26",109.901617035085,-2.59922482652701,112.089594277701,0.411247583911376,1,"subseries 2",FALSE,26,9.35085068440475,112.089594277701
"27",109.0543201936,-2.72796989639562,111.886005677546,-0.103715587549914,1,"subseries 3",FALSE,27,8.05174077444311,111.886005677546
"28",108.854538209343,-2.84612696757166,111.86995195681,-0.169286779895216,1,"subseries 4",FALSE,28,8.80454495014627,111.86995195681
"29",105.918664120478,-5.46839685625086,111.956869672355,-0.569808695626406,1,"subseries 5",FALSE,29,6.77822727766942,111.956869672355
"30",105.470504270593,-5.3824915183901,112.068882631989,-1.21588684300572,1,"subseries 6",FALSE,30,6.13044137059358,112.068882631989
"31",114.348474487292,1.60325446817452,112.148039761774,0.597180257343126,1,"subseries 7",FALSE,31,7.68287273239116,112.148039761774
"32",118.667352145082,5.91307763347284,112.161033764984,0.593240746625199,1,"subseries 8",FALSE,32,6.93578509279783,112.161033764984
"33",121.327477836346,7.34934917501787,112.103479114857,1.87464954647069,1,"subseries 9",FALSE,33,5.97201628205194,112.103479114857
"34",117.741574221888,5.57655268275854,112.12175331847,0.0432682206599537,1,"subseries 10",FALSE,34,6.7262898057657,112.12175331847
"35",114.532754747316,1.63691944378026,112.113646171578,0.782189131958106,1,"subseries 11",FALSE,35,7.27301568718049,112.113646171578
"36",111.18443265603,-0.641083307159124,112.171625050118,-0.346109086928536,1,"subseries 12",FALSE,36,8.00978528091553,112.171625050118
"37",107.498574345781,-2.41386003090965,112.298511929086,-2.38607755239529,1,"subseries 1",FALSE,37,8.56995953669142,112.298511929086
"38",108.527045178703,-2.59922482652701,112.264400795168,-1.13813078993796,1,"subseries 2",FALSE,38,8.10729618814452,112.264400795168
"39",109.073439356813,-2.72796989639562,112.249522781308,-0.448113528099839,1,"subseries 3",FALSE,39,9.06810105908023,112.249522781308
"40",109.209811321497,-2.84612696757166,112.113944550943,-0.058006261874155,1,"subseries 4",FALSE,40,7.56077539026501,112.113944550943
"41",108.88651650937,-5.46839685625086,111.861830469971,2.49308289565029,1,"subseries 5",FALSE,41,8.42403886460551,111.861830469971
"42",110.809571742211,-5.3824915183901,111.679890802365,4.51217245823571,1,"subseries 6",FALSE,42,7.11696083860036,111.679890802365
"43",113.217915047726,1.60325446817452,111.335507692274,0.279152887277121,1,"subseries 7",FALSE,43,7.27392018944679,111.335507692274
"44",117.169062277128,5.91307763347284,110.932951357541,0.323033286113898,1,"subseries 8",FALSE,44,6.79495475323517,110.932951357541
"45",115.524840849261,7.34934917501787,110.394196669711,-2.21870499546829,1,"subseries 9",FALSE,45,6.56580666324793,110.394196669711
"46",114.501544708613,5.57655268275854,109.605312601633,-0.680320575778268,1,"subseries 10",FALSE,46,6.82924244658629,109.605312601633
"47",110.33037573169,1.63691944378026,108.7634640448,-0.0700077568898365,1,"subseries 11",FALSE,47,7.02594851689121,108.7634640448
"48",108.539013680312,-0.641083307159124,107.717769715275,1.46232727219578,1,"subseries 12",FALSE,48,6.86576714383815,107.717769715275
"49",106.140888533579,-2.41386003090965,106.562514699116,1.99223386537305,1,"subseries 1",FALSE,49,7.84568233091199,106.562514699116
"50",103.622632122849,-2.59922482652701,105.560660512474,0.661196436902301,1,"subseries 2",FALSE,50,8.09690082837604,105.560660512474
"51",102.351946519482,-2.72796989639562,104.502844064914,0.577072350963249,1,"subseries 3",FALSE,51,8.50172080711599,104.502844064914
"52",101.325633469673,-2.84612696757166,103.704698513324,0.467061923920753,1,"subseries 4",FALSE,52,6.48464935615245,103.704698513324
"53",97.4770894298733,-5.46839685625086,103.131147537074,-0.185661250950332,1,"subseries 5",FALSE,53,6.46556085630753,103.131147537074
"54",91.0004442688723,-5.3824915183901,102.613975078423,-6.23103929116107,1,"subseries 6",FALSE,54,5.45342011583605,102.613975078423
"55",95.8240865314333,1.60325446817452,102.456399227906,-8.23556716464756,1,"subseries 7",FALSE,55,8.91225280562478,102.456399227906
"56",110.353149259253,5.91307763347284,102.331539875833,2.10853174994747,1,"subseries 8",FALSE,56,6.76914218075607,102.331539875833
"57",110.913160443639,7.34934917501787,102.465232959135,1.0985783094861,1,"subseries 9",FALSE,57,6.69594530998756,102.465232959135
"58",110.55374848412,5.57655268275854,102.854657388392,2.12253841296931,1,"subseries 10",FALSE,58,7.57216637483828,102.854657388392
"59",105.103464172411,1.63691944378026,103.298242867632,0.16830186099844,1,"subseries 11",FALSE,59,7.1426805467977,103.298242867632
"60",104.713316608327,-0.641083307159124,103.915720721242,1.43867919424459,1,"subseries 12",FALSE,60,7.76536262281452,103.915720721242
"61",102.153932857297,-2.41386003090965,104.357307169497,0.210485718709165,1,"subseries 1",FALSE,61,8.72388162640989,104.357307169497
"62",100.912601106342,-2.59922482652701,104.477209528888,-0.965383596019166,1,"subseries 2",FALSE,62,8.04366822043609,104.477209528888
"63",101.671941628427,-2.72796989639562,104.408071894485,-0.00816036966244837,1,"subseries 3",FALSE,63,8.22809883189915,104.408071894485
"64",103.247897324744,-2.84612696757166,104.256360810775,1.83766348154076,1,"subseries 4",FALSE,64,7.01649626707461,104.256360810775
"65",100.850416749158,-5.46839685625086,104.027787797114,2.29102580829449,1,"subseries 5",FALSE,65,6.43493449622864,104.027787797114
"66",100.064048138266,-5.3824915183901,103.906494658676,1.54004499798039,1,"subseries 6",FALSE,66,7.22299694395632,103.906494658676
"67",103.679723238954,1.60325446817452,103.814067579606,-1.73759880882687,1,"subseries 7",FALSE,67,6.85149529432019,103.814067579606
"68",105.883686514948,5.91307763347284,103.707454543463,-3.73684566198828,1,"subseries 8",FALSE,68,6.32056544565907,103.707454543463
"69",109.695839537042,7.34934917501787,103.689565164133,-1.34307480210879,1,"subseries 9",FALSE,69,6.67237326565145,103.689565164133
"70",109.558349445056,5.57655268275854,103.600583592771,0.381213169526347,1,"subseries 10",FALSE,70,6.22911905783652,103.600583592771
"71",105.148506611946,1.63691944378026,103.630678192047,-0.119091023881154,1,"subseries 11",FALSE,71,7.70055831410245,103.630678192047
"72",104.03806182589,-0.641083307159124,103.678490004271,1.00065512877762,1,"subseries 12",FALSE,72,7.4166475559928,103.678490004271
"73",102.483967616953,-2.41386003090965,103.661873131844,1.23595451601867,1,"subseries 1",FALSE,73,7.29838005292449,103.661873131844
"74",101.840555105759,-2.59922482652701,103.694117399657,0.745662532629396,1,"subseries 2",FALSE,74,7.9398266559099,103.694117399657
"75",100.919410882316,-2.72796989639562,103.708241024971,-0.0608602462598498,1,"subseries 3",FALSE,75,7.5163101938159,103.708241024971
"76",102.727883936502,-2.84612696757166,103.730151398524,1.84385950555004,1,"subseries 4",FALSE,76,6.89901896648065,103.730151398524
"77",98.6575848354127,-5.46839685625086,103.743380873268,0.382600818395659,1,"subseries 5",FALSE,77,6.30401186564479,103.743380873268
"78",94.6381049746946,-5.3824915183901,103.7356875804,-3.71509108731546,1,"subseries 6",FALSE,78,5.47553266577971,103.7356875804
"79",106.010614583343,1.60325446817452,103.720092532798,0.687267582370325,1,"subseries 7",FALSE,79,5.92022171973722,103.720092532798
