"","raw","seasonal","trend","remainder","weights","sub.labels","interpolated","age","sigma","power"
"1",142.556257011026,6.84179943442733,130.157854998009,5.55660257859,1,"subseries 1",FALSE,1,9.499732099846,130.157854998009
"2",137.237813042423,11.0081222105228,129.590929214651,-3.36123838275121,1,"subseries 2",FALSE,2,8.38174981946567,129.590929214651
"3",135.609984686491,7.03636836148819,129.044908106382,-0.471291781379648,1,"subseries 3",FALSE,3,5.98156980817843,129.044908106382
"4",132.595413258947,3.15642291677207,128.529027330598,0.909963011577048,1,"subseries 4",FALSE,4,5.66541515127734,128.529027330598
"5",121.740136376801,-3.98157277925581,128.044461308604,-2.32275215254748,1,"subseries 5",FALSE,5,4.32724002637306,128.044461308604
"6",121.32872241419,-7.52217808498122,127.568190707596,1.28270979157475,1,"subseries 6",FALSE,6,4.85812351667278,127.568190707596
"7",120.538145454788,-5.19210797909575,127.15864374095,-1.42839030706583,1,"subseries 7",FALSE,7,6.63204598052378,127.15864374095
"8",121.581313336022,-2.39487523567106,126.763072854139,-2.78688428244553,1,"subseries 8",FALSE,8,5.93411247812144,126.763072854139
"9",124.209144231327,0.201555723740595,126.521386459205,-2.51379795161878,1,"subseries 9",FALSE,9,7.34624353654273,126.521386459205
"10",123.015196688222,-3.36102429120438,126.45707444363,-0.0808534642032299,1,"subseries 10",FALSE,10,6.41634904150156,126.45707444363
"11",122.226269865585,-4.62977071000393,126.455074307275,0.400966268314079,1,"subseries 11",FALSE,11,6.37820714210152,126.455074307275
"12",126.687435714366,-1.16273956673884,126.449252981451,1.40092229965421,1,"subseries 12",FALSE,12,6.46261556189153,126.449252981451
"13",132.326074668564,6.84179943442733,126.361708730713,-0.8774334965766,1,"subseries 1",FALSE,13,5.35718222568693,126.361708730713
"14",142.182839874549,11.0081222105228,126.419020400802,4.75569726322394,1,"subseries 2",FALSE,14,7.92479475271738,126.419020400802
"15",134.394757440983,7.03636836148819,126.383533154947,0.974855924547924,1,"subseries 3",FALSE,15,13.0310900391161,126.383533154947
"16",127.664529977837,3.15642291677207,126.278114835109,-1.77000777404405,1,"subseries 4",FALSE,16,4.23208852600085,126.278114835109
"17",119.384219623507,-3.98157277925581,126.140015960676,-2.77422355791312,1,"subseries 5",FALSE,17,5.00815603116965,126.140015960676
"18",117.940512617746,-7.52217808498122,125.831363635594,-0.368672932866474,1,"subseries 6",FALSE,18,5.66876549951952,125.831363635594
"19",119.516040621243,-5.19210797909575,125.526337938651,-0.818189338312706,1,"subseries 7",FALSE,19,6.36057946235183,125.526337938651
"20",126.978934495069,-2.39487523567106,125.257289425443,4.11652030529734,1,"subseries 8",FALSE,20,7.45413756480649,125.257289425443
"21",123.820711242824,0.201555723740595,125.041801620478,-1.42264610139475,1,"subseries 9",FALSE,21,6.68223745139242,125.041801620478
"22",122.917999819325,-3.36102429120438,124.960957985602,1.31806612492699,1,"subseries 10",FALSE,22,8.05675513998572,124.960957985602
"23",118.972042590921,-4.62977071000393,124.858046033103,-1.2562327321783,1,"subseries 11",FALSE,23,5.01009510438069,124.858046033103
"24",122.71269581328,-1.16273956673884,124.734434357259,-0.858998977239722,1,"subseries 12",FALSE,24,7.48858674233574,124.734434357259
"25",129.02407309428,6.84179943442733,124.655341568506,-2.47306790865319,1,"subseries 1",FALSE,25,8.80438197794585,124.655341568506
"26",138.442435089249,11.0081222105228,124.577620289195,2.85669258953115,1,"subseries 2",FALSE,26,9.04107491383978,124.577620289195
"27",131.360785439729,7.03636836148819,124.599087859813,-0.2746707815718,1,"subseries 3",FALSE,27,6.87304520535362,124.599087859813
"28",125.907226516071,3.15642291677207,124.670008864035,-1.91920526473619,1,"subseries 4",FALSE,28,5.39919238272902,124.670008864035
"29",120.309738523115,-3.98157277925581,124.747504801476,-0.456193499105609,1,"subseries 5",FALSE,29,5.08708287141948,124.747504801476
"30",118.545290123596,-7.52217808498122,124.808994852623,1.25847335595452,1,"subseries 6",FALSE,30,5.46036200662235,124.808994852623
"31",120.932221856969,-5.19210797909575,124.810852026283,1.31347780978172,1,"subseries 7",FALSE,31,7.65140367607764,124.810852026283
"32",122.607985408701,-2.39487523567106,124.735111475116,0.267749169256035,1,"subseries 8",FALSE,32,6.86222128457634,124.735111475116
"33",124.867563109643,0.201555723740595,124.566370231394,0.0996371545086134,1,"subseries 9",FALSE,33,8.01085187702958,124.566370231394
"34",121.530850000409,-3.36102429120438,124.383683423537,0.508190868076639,1,"subseries 10",FALSE,34,7.19266610111242,124.383683423537
"35",119.906718625428,-4.62977071000393,124.115830706078,0.420658629354335,1,"subseries 11",FALSE,35,7.90841633254865,124.115830706078
"36",123.942201689549,-1.16273956673884,123.941196507932,1.16374474835575,1,"subseries 12",FALSE,36,4.62681561940987,123.941196507932
"37",128.687222507049,6.84179943442733,123.887330683637,-2.04190761101495,1,"subseries 1",FALSE,37,6.17743974526365,123.887330683637
"38",133.776851917292,11.0081222105228,123.8207726421,-1.05204293533119,1,"subseries 2",FALSE,38,7.83292885870533,123.8207726421
"39",129.446225159689,7.03636836148819,123.855831448984,-1.44597465078333,1,"subseries 3",FALSE,39,7.79832745517273,123.855831448984
"40",124.366021061097,3.15642291677207,123.783639768517,-2.57404162419245,1,"subseries 4",FALSE,40,5.33363910658822,123.783639768517
"41",119.303193333804,-3.98157277925581,123.710371789699,-0.425605676638767,1,"subseries 5",FALSE,41,4.20035355331273,123.710371789699
"42",123.315794567731,-7.52217808498122,123.727123283569,7.11084936914274,1,"subseries 6",FALSE,42,17.3306461088171,123.727123283569
"43",119.261450660749,-5.19210797909575,123.689262280131,0.764296359713285,1,"subseries 7",FALSE,43,15.2478899402439,123.689262280131
"44",119.669165131933,-2.39487523567106,123.711359934388,-1.6473195667844,1,"subseries 8",FALSE,44,9.32104084218719,123.711359934388
"45",124.006540723331,0.201555723740595,123.61886741819,0.186117581400012,1,"subseries 9",FALSE,45,6.50294812049037,123.61886741819
"46",117.861289782257,-3.36102429120438,123.468635151095,-2.24632107763361,1,"subseries 10",FALSE,46,7.49623692451609,123.468635151095
"47",119.216443979299,-4.62977071000393,123.349110507982,0.497104181321291,1,"subseries 11",FALSE,47,6.37980719595191,123.349110507982
"48",122.187194577977,-1.16273956673884,123.205514656696,0.144419488020091,1,"subseries 12",FALSE,48,5.33845057049772,123.205514656696
"49",130.231006952039,6.84179943442733,123.222104365719,0.167103151892817,1,"subseries 1",FALSE,49,6.02162582729145,123.222104365719
"50",131.469251155283,11.0081222105228,123.330791925765,-2.86966298100511,1,"subseries 2",FALSE,50,7.29524480169711,123.330791925765
"51",129.638152893151,7.03636836148819,123.478664852972,-0.876880321308775,1,"subseries 3",FALSE,51,7.41050121716855,123.478664852972
"52",128.554202222973,3.15642291677207,123.648721421828,1.74905788437313,1,"subseries 4",FALSE,52,8.86923198582754,123.648721421828
"53",121.385283881922,-3.98157277925581,123.822249446003,1.54460721517519,1,"subseries 5",FALSE,53,4.8899792430891,123.822249446003
"54",116.71614453139,-7.52217808498122,123.959050918203,0.279271698167932,1,"subseries 6",FALSE,54,6.21599916977301,123.959050918203
"55",118.117421385474,-5.19210797909575,124.009700905758,-0.700171541188084,1,"subseries 7",FALSE,55,4.59453097041295,124.009700905758
"56",120.903808329627,-2.39487523567106,124.022800285581,-0.724116720283263,1,"subseries 8",FALSE,56,6.57992171685112,124.022800285581
"57",126.718397157704,0.201555723740595,123.928118389839,2.58872304412483,1,"subseries 9",FALSE,57,6.96185205484552,123.928118389839
"58",121.14134296439,-3.36102429120438,123.854327172536,0.648040083058518,1,"subseries 10",FALSE,58,7.44971144182147,123.854327172536
"59",119.142185679343,-4.62977071000393,123.826475089808,-0.0545187004606333,1,"subseries 11",FALSE,59,12.2267015674326,123.826475089808
"60",120.556919726999,-1.16273956673884,123.689144068717,-1.96948477497878,1,"subseries 12",FALSE,60,6.60801769280837,123.689144068717
"61",129.420431317776,6.84179943442733,123.501555545975,-0.922923662625905,1,"subseries 1",FALSE,61,6.31174688687393,123.501555545975
"62",133.324592365387,11.0081222105228,123.278255971871,-0.961785817006529,1,"subseries 2",FALSE,62,7.1107971448706,123.278255971871
"63",131.61728224574,7.03636836148819,123.053142175888,1.52777170836401,1,"subseries 3",FALSE,63,7.99880146695092,123.053142175888
"64",129.169861713777,3.15642291677207,122.911960815282,3.10147798172288,1,"subseries 4",FALSE,64,10.4231727958619,122.911960815282
"65",122.895583507594,-3.98157277925581,122.786032032341,4.09112425450927,1,"subseries 5",FALSE,65,12.4454125919034,122.786032032341
"66",105.410685961196,-7.52217808498122,122.649275511858,-9.71641146568058,1,"subseries 6",FALSE,66,31.5657466730573,122.649275511858
"67",118.232340540727,-5.19210797909575,122.516515299331,0.907933220492012,1,"subseries 7",FALSE,67,10.242706880939,122.516515299331
"68",120.968262922037,-2.39487523567106,122.371107887267,0.992030270440722,1,"subseries 8",FALSE,68,8.03060087406699,122.371107887267
"69",123.76333552504,0.201555723740595,122.226691599867,1.33508820143251,1,"subseries 9",FALSE,69,6.03646236855582,122.226691599867
