"","raw","seasonal","trend","remainder","weights","sub.labels","interpolated","age","sigma","power"
"1",34.5272275357437,0.670220667271698,33.4645723012302,0.392434567241843,1,"subseries 1",FALSE,1,2.41080302061486,33.4645723012302
"2",34.497519160821,0.357563739228441,33.2134851648149,0.92647025677762,1,"subseries 2",FALSE,2,3.32971011777437,33.2134851648149
"3",33.1274701638596,-0.0421945263325688,32.964696945173,0.204967745019161,1,"subseries 3",FALSE,3,3.52350702169503,32.964696945173
"4",30.9257978185327,-1.19092595229736,32.7208202879183,-0.60409651708828,1,"subseries 4",FALSE,4,2.93780148775622,32.7208202879183
"5",29.6379558763387,-1.31521604176516,32.4789095917547,-1.5257376736508,1,"subseries 5",FALSE,5,2.84636494446358,32.4789095917547
"6",31.7533929195299,-0.510072248924206,32.2210830571927,0.0423821112613822,1,"subseries 6",FALSE,6,3.45704102922141,32.2210830571927
"7",30.1518516589072,-0.326082136188496,31.9694720591274,-1.4915382640317,1,"subseries 7",FALSE,7,3.31150031007371,31.9694720591274
"8",31.3859171996419,-0.893457174381949,31.7057019423155,0.573672431708353,1,"subseries 8",FALSE,8,3.64912188286802,31.7057019423155
"9",33.0881048096741,-0.067390212004072,31.4584343098814,1.69706071179676,1,"subseries 9",FALSE,9,3.17053325737079,31.4584343098814
"10",32.5171366609117,1.15593147373613,31.2076125714921,0.153592615683493,1,"subseries 10",FALSE,10,3.0447445535423,31.2076125714921
"11",32.6728017721402,1.183843476605,30.8699138065972,0.619044488938016,1,"subseries 11",FALSE,11,3.43702168673759,30.8699138065972
"12",32.3643906772728,0.977778935052548,30.6172057683018,0.769405973918463,1,"subseries 12",FALSE,12,3.4261437181323,30.6172057683018
"13",30.9399188002093,0.670220667271698,30.3746488620899,-0.104950729152289,1,"subseries 1",FALSE,13,2.78073182476333,30.3746488620899
"14",29.3127042201807,0.357563739228441,30.1720657974231,-1.21692531647082,1,"subseries 2",FALSE,14,3.14286520332719,30.1720657974231
"15",29.0095657732926,-0.0421945263325688,30.1009529368741,-1.04919263724891,1,"subseries 3",FALSE,15,2.73516034419967,30.1009529368741
"16",25.7048224273727,-1.19092595229736,30.0359994785521,-3.14025109888202,1,"subseries 4",FALSE,16,2.85340874417039,30.0359994785521
"17",27.8839374795558,-1.31521604176516,30.1111099896067,-0.911956468285773,1,"subseries 5",FALSE,17,3.54820248044448,30.1111099896067
"18",31.9648098184627,-0.510072248924206,30.2274212851736,2.24746078221331,1,"subseries 6",FALSE,18,3.4862534762395,30.2274212851736
"19",29.4935242344651,-0.326082136188496,30.3986013865617,-0.57899501590806,1,"subseries 7",FALSE,19,3.79570024935395,30.3986013865617
"20",30.6475429731934,-0.893457174381949,30.6469933178661,0.894006829709237,1,"subseries 8",FALSE,20,3.43033929437063,30.6469933178661
"21",31.8399272740735,-0.067390212004072,30.8289243484908,1.07839313758681,1,"subseries 9",FALSE,21,3.14568538715525,30.8289243484908
"22",32.321896161098,1.15593147373613,31.043994491555,0.121970195806863,1,"subseries 10",FALSE,22,2.75473751353059,31.043994491555
"23",31.9336264674501,1.183843476605,31.2018646959209,-0.452081705075837,1,"subseries 11",FALSE,23,3.20273259042178,31.2018646959209
"24",32.8615439090175,0.977778935052548,31.2744575408436,0.609307433121348,1,"subseries 12",FALSE,24,3.16414143844757,31.2744575408436
"25",31.4484379015903,0.670220667271698,31.3410794064169,-0.562862172098281,1,"subseries 1",FALSE,25,2.79165188857069,31.3410794064169
"26",30.0420405490075,0.357563739228441,31.2599564815915,-1.57547967181241,1,"subseries 2",FALSE,26,2.96518638720545,31.2599564815915
"27",32.4455399629002,-0.0421945263325688,31.0937830128757,1.39395147635707,1,"subseries 3",FALSE,27,2.90845950007152,31.0937830128757
"28",30.471165517194,-1.19092595229736,30.9225878135823,0.739503655909061,1,"subseries 4",FALSE,28,3.34532621120142,30.9225878135823
"29",31.8817424947162,-1.31521604176516,30.6809141791577,2.51604435732365,1,"subseries 5",FALSE,29,3.25594899040925,30.6809141791577
"30",31.1084357146388,-0.510072248924206,30.553658329628,1.06484963393499,1,"subseries 6",FALSE,30,3.19593552579642,30.553658329628
"31",28.7289103168251,-0.326082136188496,30.4443962176676,-1.38940376465401,1,"subseries 7",FALSE,31,3.61992924192981,30.4443962176676
"32",27.1858730875167,-0.893457174381949,30.3047629719325,-2.22543271003384,1,"subseries 8",FALSE,32,3.70515705918116,30.3047629719325
"33",27.5769262528154,-0.067390212004072,30.2276160373648,-2.58329957254537,1,"subseries 9",FALSE,33,4.6280926720967,30.2276160373648
"34",31.6835701518062,1.15593147373613,29.9601472983631,0.567491379706926,1,"subseries 10",FALSE,34,2.76621473512193,29.9601472983631
"35",31.6214372918162,1.183843476605,29.6924769118864,0.745116903324753,1,"subseries 11",FALSE,35,2.82755789876438,29.6924769118864
"36",31.4991214757485,0.977778935052548,29.3823068796424,1.13903566105354,1,"subseries 12",FALSE,36,2.18853986715528,29.3823068796424
"37",32.7356218898677,0.670220667271698,28.9086989103012,3.15670231229482,1,"subseries 1",FALSE,37,2.64646298435986,28.9086989103012
"38",31.1928974736479,0.357563739228441,28.6109306536254,2.22440308079405,1,"subseries 2",FALSE,38,2.78422811686479,28.6109306536254
"39",27.4825474834312,-0.0421945263325688,28.223908997303,-0.699166987539254,1,"subseries 3",FALSE,39,2.76785544181916,28.223908997303
"40",26.5298323579496,-1.19092595229736,27.9195881455758,-0.198829835328826,1,"subseries 4",FALSE,40,2.57717483561871,27.9195881455758
"41",23.7060857270263,-1.31521604176516,27.7834291768198,-2.76212740802836,1,"subseries 5",FALSE,41,2.65025397667355,27.7834291768198
"42",22.0684241105005,-0.510072248924206,27.5879116521639,-5.00941529273917,1,"subseries 6",FALSE,42,2.39717059180422,27.5879116521639
"43",24.6423292585599,-0.326082136188496,27.6527476123231,-2.68433621757471,1,"subseries 7",FALSE,43,3.95906679886534,27.6527476123231
"44",27.9831827206985,-0.893457174381949,27.7382729520825,1.13836694299795,1,"subseries 8",FALSE,44,4.17467171671707,27.7382729520825
"45",29.8306585344491,-0.067390212004072,27.9508622404023,1.94718650605083,1,"subseries 9",FALSE,45,3.5941330320381,27.9508622404023
"46",30.8952323237307,1.15593147373613,28.3480159001335,1.3912849498611,1,"subseries 10",FALSE,46,3.65948989353399,28.3480159001335
"47",31.0354000580531,1.183843476605,28.6606134821554,1.1909430992927,1,"subseries 11",FALSE,47,3.04644536830741,28.6606134821554
"48",31.1006729276331,0.977778935052548,28.992317807218,1.13057618536259,1,"subseries 12",FALSE,48,2.86053754984997,28.992317807218
"49",29.4945821751223,0.670220667271698,29.2406696229316,-0.416308115081033,1,"subseries 1",FALSE,49,2.31846450921528,29.2406696229316
"50",29.083643481157,0.357563739228441,29.3888370647556,-0.662757322827012,1,"subseries 2",FALSE,50,2.18666329953729,29.3888370647556
"51",29.1145168850341,-0.0421945263325688,29.4508726116754,-0.294161200308725,1,"subseries 3",FALSE,51,2.9470784153694,29.4508726116754
"52",26.5978346596984,-1.19092595229736,29.3181568349769,-1.5293962229811,1,"subseries 4",FALSE,52,3.38911505503984,29.3181568349769
"53",30.1301559836379,-1.31521604176516,29.1205267137735,2.32484531162956,1,"subseries 5",FALSE,53,3.62242555442946,29.1205267137735
"54",29.5470712888556,-0.510072248924206,28.9475889689401,1.10955456883967,1,"subseries 6",FALSE,54,2.91387359371636,28.9475889689401
"55",30.0990909459224,-0.326082136188496,28.7306763700522,1.69449671205872,1,"subseries 7",FALSE,55,2.76924789610742,28.7306763700522
"56",NA,-0.893457174381949,28.5882497720325,NA,1,"subseries 8",TRUE,56,NA,NA
"57",27.844935655122,-0.067390212004072,28.4231985995126,-0.510872732386517,1,"subseries 9",FALSE,57,3.46634424982842,28.4231985995126
"58",28.3904390584503,1.15593147373613,28.1910315233568,-0.956523938642658,1,"subseries 10",FALSE,58,3.03596961759629,28.1910315233568
"59",27.887405247661,1.183843476605,27.949041204997,-1.24547943394104,1,"subseries 11",FALSE,59,3.02755603813566,27.949041204997
"60",27.6041462197793,0.977778935052548,27.6268480134843,-1.00048072875753,1,"subseries 12",FALSE,60,3.06342871521179,27.6268480134843
"61",28.9045349747705,0.670220667271698,27.353658346646,0.880655960852803,1,"subseries 1",FALSE,61,2.86821069464626,27.353658346646
"62",28.4566366857369,0.357563739228441,27.191302472615,0.907770473893457,1,"subseries 2",FALSE,62,2.77376209966179,27.191302472615
"63",27.253726248893,-0.0421945263325688,27.0977750901653,0.198145685060275,1,"subseries 3",FALSE,63,2.6179614515049,27.0977750901653
"64",26.3191185066909,-1.19092595229736,27.0931224322677,0.416922026720584,1,"subseries 4",FALSE,64,2.55163476436532,27.0931224322677
"65",23.7389973716978,-1.31521604176516,27.1247544344931,-2.07054102103011,1,"subseries 5",FALSE,65,2.34051406376169,27.1247544344931
"66",24.5227754043908,-0.510072248924206,27.1588755688459,-2.12602791553088,1,"subseries 6",FALSE,66,3.18368249751336,27.1588755688459
"67",27.9855423873285,-0.326082136188496,27.2539389847259,1.05768553879107,1,"subseries 7",FALSE,67,3.0779274181263,27.2539389847259
"68",25.9610707597435,-0.893457174381949,27.3607571081203,-0.5062291739948,1,"subseries 8",FALSE,68,4.00445116058345,27.3607571081203
"69",27.8009153457805,-0.067390212004072,27.5287231654301,0.339582392354501,1,"subseries 9",FALSE,69,3.7634523348258,27.5287231654301
"70",30.0008867385027,1.15593147373613,27.7922978162339,1.05265744853263,1,"subseries 10",FALSE,70,3.0026783311559,27.7922978162339
"71",29.0625924760585,1.183843476605,28.0504157870006,-0.171666787547117,1,"subseries 11",FALSE,71,2.81112087632156,28.0504157870006
"72",29.1040107074042,0.977778935052548,28.2820688331881,-0.155837060836401,1,"subseries 12",FALSE,72,3.2147132959724,28.2820688331881
"73",28.2414339089793,0.670220667271698,28.4586743566528,-0.887461114945214,1,"subseries 1",FALSE,73,2.67813087532406,28.4586743566528
"74",29.6449965341845,0.357563739228441,28.579198180402,0.70823461455403,1,"subseries 2",FALSE,74,2.9475975500806,28.579198180402
"75",29.5796550288096,-0.0421945263325688,28.6783125515574,0.943537003584765,1,"subseries 3",FALSE,75,2.97122192598748,28.6783125515574
"76",27.8104748561825,-1.19092595229736,28.8210975332405,0.180303275239353,1,"subseries 4",FALSE,76,2.87418000086037,28.8210975332405
"77",27.5319444354336,-1.31521604176516,28.9826767776247,-0.135516300425909,1,"subseries 5",FALSE,77,2.64397873128457,28.9826767776247
"78",27.8564687408521,-0.510072248924206,29.1298424913325,-0.763301501556153,1,"subseries 6",FALSE,78,3.60705837424694,29.1298424913325
"79",28.4248407601499,-0.326082136188496,29.2726358222965,-0.521712925958141,1,"subseries 7",FALSE,79,3.43806833932114,29.2726358222965
"80",27.870411983122,-0.893457174381949,29.3505105053615,-0.58664134785753,1,"subseries 8",FALSE,80,3.83861451793813,29.3505105053615
"81",30.0486941759576,-0.067390212004072,29.4220128782815,0.694071509680125,1,"subseries 9",FALSE,81,3.70572951893337,29.4220128782815
"82",32.0951653007836,1.15593147373613,29.5169800054665,1.42225382158095,1,"subseries 10",FALSE,82,2.95303579073241,29.5169800054665
"83",31.1617519142809,1.183843476605,29.5896579655966,0.388250472079331,1,"subseries 11",FALSE,83,3.53266434667999,29.5896579655966
"84",30.0972600918249,0.977778935052548,29.6876471679357,-0.56816601116336,1,"subseries 12",FALSE,84,3.28273201632357,29.6876471679357
"85",30.2339300943557,0.670220667271698,29.7532065018464,-0.189497074762407,1,"subseries 1",FALSE,85,2.94760157087481,29.7532065018464
"86",29.9259191522088,0.357563739228441,29.7326166318952,-0.164261218914881,1,"subseries 2",FALSE,86,2.48527912078509,29.7326166318952
"87",29.7555664976934,-0.0421945263325688,29.6790667203537,0.118694303672306,1,"subseries 3",FALSE,87,2.82925666632504,29.6790667203537
"88",28.7396821715599,-1.19092595229736,29.5642500922086,0.366358031648677,1,"subseries 4",FALSE,88,3.12581946075931,29.5642500922086
"89",27.7046734949063,-1.31521604176516,29.417117817153,-0.397228280481496,1,"subseries 5",FALSE,89,3.07144604195821,29.417117817153
"90",30.7001714775226,-0.510072248924206,29.3023802900902,1.90786343635661,1,"subseries 6",FALSE,90,2.73973510850724,29.3023802900902
"91",29.1076438182564,-0.326082136188496,29.1525571115215,0.2811688429234,1,"subseries 7",FALSE,91,3.73075158708426,29.1525571115215
"92",27.1638435031018,-0.893457174381949,28.9885931323991,-0.931292454915322,1,"subseries 8",FALSE,92,3.96208317380444,28.9885931323991
"93",28.5640060774063,-0.067390212004072,28.8129959674114,-0.181599678001017,1,"subseries 9",FALSE,93,3.70244823741207,28.8129959674114
"94",28.7623959494088,1.15593147373613,28.6029429640516,-0.996478488378916,1,"subseries 10",FALSE,94,3.66302951198352,28.6029429640516
"95",30.49665895382,1.183843476605,28.4121643543612,0.900651122853777,1,"subseries 11",FALSE,95,3.08108185325668,28.4121643543612
"96",28.9526285821564,0.977778935052548,28.2618675657456,-0.287017918641798,1,"subseries 12",FALSE,96,3.23383769372633,28.2618675657456
"97",28.7189175640034,0.670220667271698,28.1738888830444,-0.125191986312675,1,"subseries 1",FALSE,97,3.12559319030161,28.1738888830444
"98",28.4807299877222,0.357563739228441,28.1467136228899,-0.0235473743961343,1,"subseries 2",FALSE,98,2.83904278653844,28.1467136228899
"99",27.4089504704989,-0.0421945263325688,28.1477140308268,-0.696569033995335,1,"subseries 3",FALSE,99,2.99097040816361,28.1477140308268
"100",26.8620751534012,-1.19092595229736,28.1007905035714,-0.0477893978728012,1,"subseries 4",FALSE,100,2.90888354799042,28.1007905035714
"101",25.6975245277937,-1.31521604176516,28.0399765159562,-1.02723594639732,1,"subseries 5",FALSE,101,2.63021852044436,28.0399765159562
"102",28.5844983265305,-0.510072248924206,27.9991262572007,1.095444318254,1,"subseries 6",FALSE,102,3.22123635414791,27.9991262572007
"103",29.6389283030586,-0.326082136188496,27.9534065420164,2.01160389723074,1,"subseries 7",FALSE,103,3.05799119999481,27.9534065420164
"104",26.9189967880491,-0.893457174381949,27.9948432901503,-0.182389327719292,1,"subseries 8",FALSE,104,3.98453142074714,27.9948432901503
"105",26.1503443263833,-0.067390212004072,28.0630927042311,-1.8453581658437,1,"subseries 9",FALSE,105,3.64344742481181,28.0630927042311
"106",29.2353187884235,1.15593147373613,28.1608134388538,-0.0814261241664767,1,"subseries 10",FALSE,106,3.38373366338582,28.1608134388538
"107",28.3051428941556,1.183843476605,28.3314711548638,-1.21017173731315,1,"subseries 11",FALSE,107,3.37990142666751,28.3314711548638
"108",28.661302317512,0.977778935052548,28.4872948964308,-0.803771513971331,1,"subseries 12",FALSE,108,3.12906247382742,28.4872948964308
"109",29.8318031224539,0.670220667271698,28.7343318332622,0.427250621919974,1,"subseries 1",FALSE,109,2.79992092071401,28.7343318332622
"110",29.4136890026117,0.357563739228441,29.0525724428718,0.00355282051147654,1,"subseries 2",FALSE,110,2.73435450538187,29.0525724428718
"111",28.8022842984292,-0.0421945263325688,29.3942745960606,-0.549795771298829,1,"subseries 3",FALSE,111,3.09053505983552,29.3942745960606
"112",30.1192667062012,-1.19092595229736,29.6996237633704,1.61056889512815,1,"subseries 4",FALSE,112,3.21016973192978,29.6996237633704
"113",28.5319283398514,-1.31521604176516,29.9091235788591,-0.0619791972425681,1,"subseries 5",FALSE,113,3.00887209731228,29.9091235788591
"114",29.8405437059988,-0.510072248924206,30.0051438030953,0.345472151827703,1,"subseries 6",FALSE,114,2.72219189586541,30.0051438030953
"115",30.3717907996533,-0.326082136188496,29.9511161386662,0.746756797175575,1,"subseries 7",FALSE,115,3.37766002320225,29.9511161386662
"116",30.8623851309034,-0.893457174381949,29.865859437038,1.88998286824731,1,"subseries 8",FALSE,116,3.2355472598302,29.865859437038
"117",30.8503216863432,-0.067390212004072,29.6955483263854,1.22216357196184,1,"subseries 9",FALSE,117,3.95948398301629,29.6955483263854
"118",30.1663666394686,1.15593147373613,29.5314157069288,-0.520980541196302,1,"subseries 10",FALSE,118,3.76069936509563,29.5314157069288
"119",28.3382482146376,1.183843476605,29.3834316927298,-2.22902695469722,1,"subseries 11",FALSE,119,3.36317158562427,29.3834316927298
"120",29.7684602682081,0.977778935052548,29.1587505459833,-0.368069212827795,1,"subseries 12",FALSE,120,2.69977571574547,29.1587505459833
"121",28.9100393995392,0.670220667271698,28.9797651772663,-0.739946444998839,1,"subseries 1",FALSE,121,3.19312936203832,28.9797651772663
"122",28.940164656377,0.357563739228441,28.7352777945584,-0.152676877409821,1,"subseries 2",FALSE,122,2.5792124216238,28.7352777945584
"123",29.2662028789924,-0.0421945263325688,28.4968336168673,0.811563788457661,1,"subseries 3",FALSE,123,3.21861065321817,28.4968336168673
"124",28.7854566627307,-1.19092595229736,28.2908345386584,1.68554807636969,1,"subseries 4",FALSE,124,3.14601332380984,28.2908345386584
"125",27.4866672301369,-1.31521604176516,27.9916814050682,0.810201866833818,1,"subseries 5",FALSE,125,3.05492221565115,27.9916814050682
"126",26.9296118498103,-0.510072248924206,27.7259923076302,-0.286308208895697,1,"subseries 6",FALSE,126,2.91653111615517,27.7259923076302
"127",27.897390629623,-0.326082136188496,27.4019731696113,0.82149959620018,1,"subseries 7",FALSE,127,3.12423720086291,27.4019731696113
"128",26.1185161595585,-0.893457174381949,27.0345823594112,-0.0226090254707429,1,"subseries 8",FALSE,128,3.36864358172115,27.0345823594112
"129",24.8145936781267,-0.067390212004072,26.6945408477232,-1.81255695759242,1,"subseries 9",FALSE,129,3.81344725146868,26.6945408477232
"130",25.4996137518654,1.15593147373613,26.4974520653374,-2.15376978720817,1,"subseries 10",FALSE,130,3.13166000391683,26.4974520653374
"131",29.0002431277417,1.183843476605,26.447324511767,1.36907513936968,1,"subseries 11",FALSE,131,2.88670208632497,26.447324511767
"132",26.8906383810799,0.977778935052548,26.5176382370712,-0.60477879104382,1,"subseries 12",FALSE,132,3.33222427237216,26.5176382370712
"133",25.199431824443,0.670220667271698,26.6628538488566,-2.13364269168526,1,"subseries 1",FALSE,133,3.13920977794833,26.6628538488566
"134",25.8158895576569,0.357563739228441,26.7751925060369,-1.31686668760848,1,"subseries 2",FALSE,134,3.14073491636007,26.7751925060369
"135",26.1377911276696,-0.0421945263325688,26.9123052317205,-0.732319577718343,1,"subseries 3",FALSE,135,2.41958120620791,26.9123052317205
"136",26.0210154989734,-1.19092595229736,27.0687813232637,0.143160128007061,1,"subseries 4",FALSE,136,2.77014509876708,27.0687813232637
"137",28.8358188055484,-1.31521604176516,27.2406130777208,2.91042176959272,1,"subseries 5",FALSE,137,2.89088125495114,27.2406130777208
"138",27.0847903126133,-0.510072248924206,27.4434692867648,0.15139327477274,1,"subseries 6",FALSE,138,2.81836538214684,27.4434692867648
