"","raw","seasonal","trend","remainder","weights","sub.labels","interpolated","age","sigma","power"
"1",142.797835119955,-6.09229101862791,150.527442215902,-1.63731607731876,1,"subseries 1",FALSE,1,13.6950352539895,150.527442215902
"2",144.20047033077,-5.64921443553598,150.26562198692,-0.415937220614069,1,"subseries 2",FALSE,2,8.83724651845864,150.26562198692
"3",144.890255630114,-5.22093177066278,150.001465003495,0.109722397281331,1,"subseries 3",FALSE,3,7.17521053826718,150.001465003495
"4",146.053624953429,-4.7279718953894,149.738534373553,1.04306247526506,1,"subseries 4",FALSE,4,8.87993863614379,149.738534373553
"5",148.886910313248,-2.74889731726025,149.472794318323,2.16301331218537,1,"subseries 5",FALSE,5,6.29590411919221,149.472794318323
"6",157.792894475813,6.22610128097473,149.237779031711,2.32901416312686,1,"subseries 6",FALSE,6,6.01681340496429,149.237779031711
"7",153.848701314397,6.14866465618865,148.990449872768,-1.29041321455952,1,"subseries 7",FALSE,7,5.56998246503218,148.990449872768
"8",154.110460887649,7.44950548134699,148.720640716861,-2.05968531055916,1,"subseries 8",FALSE,8,5.62432918622866,148.720640716861
"9",155.722414176651,8.58511091120725,148.432368212735,-1.29506494729145,1,"subseries 9",FALSE,9,6.4226524444497,148.432368212735
"10",152.879732578192,4.11814959080903,148.131099752281,0.630483235101536,1,"subseries 10",FALSE,10,5.08836639092858,148.131099752281
"11",144.864904286349,-0.570905952158736,147.958191827676,-2.52238158916782,1,"subseries 11",FALSE,11,8.17705756863492,147.958191827676
"12",143.166431221517,-7.5173195308916,147.83740119224,2.84634956016899,1,"subseries 12",FALSE,12,8.70316155634317,147.83740119224
"13",140.892924423206,-6.09229101862791,147.774968784744,-0.789753342910387,1,"subseries 1",FALSE,13,10.0869460663515,147.774968784744
"14",141.198774732308,-5.64921443553598,147.820741160531,-0.972751992686597,1,"subseries 2",FALSE,14,8.65763720169942,147.820741160531
"15",141.81193937765,-5.22093177066278,147.858448880199,-0.825577731886682,1,"subseries 3",FALSE,15,8.01603861160846,147.858448880199
"16",146.372038291399,-4.7279718953894,147.878461028579,3.22154915820911,1,"subseries 4",FALSE,16,16.8195223947198,147.878461028579
"17",144.99898530107,-2.74889731726025,147.895440018739,-0.147557400408402,1,"subseries 5",FALSE,17,11.5697576987549,147.895440018739
"18",150.783071694469,6.22610128097473,147.85795394565,-3.30098353215601,1,"subseries 6",FALSE,18,10.501387277841,147.85795394565
"19",155.185700436875,6.14866465618865,147.783318092504,1.25371768818252,1,"subseries 7",FALSE,19,6.5380017157263,147.783318092504
"20",156.44937001794,7.44950548134699,147.450675824024,1.54918871256902,1,"subseries 8",FALSE,20,6.69632324650288,147.450675824024
"21",157.116015077449,8.58511091120725,146.976090780609,1.55481338563308,1,"subseries 9",FALSE,21,4.96495405617887,146.976090780609
"22",150.687564214421,4.11814959080903,146.487023922199,0.0823907014128622,1,"subseries 10",FALSE,22,7.1368954611213,146.487023922199
"23",147.754413964999,-0.570905952158736,145.883687017918,2.44163289923972,1,"subseries 11",FALSE,23,6.97216050206212,145.883687017918
"24",NA,-7.5173195308916,145.50506949328,NA,1,"subseries 12",TRUE,24,NA,NA
"25",NA,-6.09229101862791,145.142531402402,NA,1,"subseries 1",TRUE,25,NA,NA
"26",NA,-5.64921443553598,144.833827064702,NA,1,"subseries 2",TRUE,26,NA,NA
"27",136.840480125428,-5.22093177066278,144.635201845093,-2.57378994900211,1,"subseries 3",FALSE,27,9.13885074440216,144.635201845093
"28",137.119315451168,-4.7279718953894,144.197663407711,-2.35037606115364,1,"subseries 4",FALSE,28,17.8721984461385,144.197663407711
"29",139.773632592044,-2.74889731726025,143.921726153454,-1.39919624414964,1,"subseries 5",FALSE,29,6.1918098866247,143.921726153454
"30",144.810044919364,6.22610128097473,143.689949417803,-5.10600577941383,1,"subseries 6",FALSE,30,6.90540177654904,143.689949417803
"31",151.986639353953,6.14866465618865,143.59298494371,2.24498975405476,1,"subseries 7",FALSE,31,6.59404854348412,143.59298494371
"32",152.891302949192,7.44950548134699,143.835102919453,1.60669454839228,1,"subseries 8",FALSE,32,6.49011060373311,143.835102919453
"33",155.676376192698,8.58511091120725,144.113933766167,2.9773315153241,1,"subseries 9",FALSE,33,7.28542078082648,144.113933766167
"34",150.410856064004,4.11814959080903,144.566124762491,1.72658171070367,1,"subseries 10",FALSE,34,7.00409467179257,144.566124762491
"35",145.600526932557,-0.570905952158736,144.972897222462,1.19853566225331,1,"subseries 11",FALSE,35,7.00099540510292,144.972897222462
"36",130.119420812769,-7.5173195308916,145.421560461208,-7.78482011754704,1,"subseries 12",FALSE,36,37.1454817211878,145.421560461208
"37",140.817014539375,-6.09229101862791,145.961585931673,0.947719626329757,1,"subseries 1",FALSE,37,12.0050665566238,145.961585931673
"38",139.57293215459,-5.64921443553598,146.208530094318,-0.986383504192503,1,"subseries 2",FALSE,38,9.22498155036483,146.208530094318
"39",141.042535316209,-5.22093177066278,146.486460280011,-0.222993193139217,1,"subseries 3",FALSE,39,8.13797252093545,146.486460280011
"40",141.872978407718,-4.7279718953894,146.711485321496,-0.110535018388191,1,"subseries 4",FALSE,40,6.51685107134828,146.711485321496
"41",148.458660266225,-2.74889731726025,146.770944116394,4.43661346709112,1,"subseries 5",FALSE,41,17.5826192089496,146.770944116394
"42",159.473103155791,6.22610128097473,147.033972406844,6.21302946797232,1,"subseries 6",FALSE,42,31.6860470698527,147.033972406844
"43",151.262010586435,6.14866465618865,147.127657827595,-2.01431189734859,1,"subseries 7",FALSE,43,8.31291068161071,147.127657827595
"44",153.711034744631,7.44950548134699,147.135287057103,-0.873757793818811,1,"subseries 8",FALSE,44,7.68066655158305,147.135287057103
"45",152.688810362851,8.58511091120725,147.119883919742,-3.01618446809812,1,"subseries 9",FALSE,45,7.98778287359423,147.119883919742
"46",148.606842572536,4.11814959080903,146.737369496262,-2.24867651453459,1,"subseries 10",FALSE,46,8.385997276969,146.737369496262
"47",144.760915052841,-0.570905952158736,146.27386718777,-0.942046182769872,1,"subseries 11",FALSE,47,7.06341157175873,146.27386718777
"48",143.262912872795,-7.5173195308916,145.748441915429,5.03179048825803,1,"subseries 12",FALSE,48,7.48421155676558,145.748441915429
"49",140.474384119415,-6.09229101862791,145.176866275733,1.38980886231033,1,"subseries 1",FALSE,49,8.2175584100588,145.176866275733
"50",141.335691799514,-5.64921443553598,144.662258034719,2.32264820033109,1,"subseries 2",FALSE,50,8.83847914526899,144.662258034719
"51",142.520627125847,-5.22093177066278,144.132282494283,3.60927640222724,1,"subseries 3",FALSE,51,7.785754535091,144.132282494283
"52",137.211936229394,-4.7279718953894,143.601140512937,-1.66123238815314,1,"subseries 4",FALSE,52,8.20172694143185,143.601140512937
"53",135.465640973999,-2.74889731726025,143.05956720516,-4.84502891390105,1,"subseries 5",FALSE,53,5.94048351323407,143.05956720516
