"","raw","seasonal","trend","remainder","weights","sub.labels","interpolated","age","sigma","power"
"1",168.228970449793,3.2886925737817,162.870829564813,2.06944831119867,1,"subseries 1",FALSE,1,32.5049202180857,162.870829564813
"2",166.968200204636,1.75096644883684,163.297978349869,1.9192554059303,1,"subseries 2",FALSE,2,31.3764021861011,163.297978349869
"3",155.945076233923,0.845674503469706,163.693635943884,-8.59423421343021,1,"subseries 3",FALSE,3,29.6927655618737,163.693635943884
"4",139.893001737547,-11.8519333473964,163.979022939852,-12.2340878549085,1,"subseries 4",FALSE,4,30.8568725173994,163.979022939852
"5",156.997463072968,-12.2115814286406,164.22945383859,4.97959066301826,1,"subseries 5",FALSE,5,31.4282255961416,164.22945383859
"6",169.651546657013,-9.76650634515548,164.435014325029,14.9830386771393,1,"subseries 6",FALSE,6,31.187331504545,164.435014325029
"7",162.018669127956,-3.78901125365384,164.584208032155,1.22347234945485,1,"subseries 7",FALSE,7,29.4784818441874,164.584208032155
"8",172.382763739627,0.559517858182097,165.083379437549,6.73986644389541,1,"subseries 8",FALSE,8,27.2367213374856,165.083379437549
"9",164.146514878011,6.75853161660357,165.231599306412,-7.84361604500455,1,"subseries 9",FALSE,9,27.2343738939928,165.231599306412
"10",176.126315441718,9.80363239072908,164.324962531128,1.99772051986088,1,"subseries 10",FALSE,10,31.6066037566546,164.324962531128
"11",172.625947498036,9.39737941516638,162.838506794412,0.390061288458071,1,"subseries 11",FALSE,11,34.585927375234,162.838506794412
"12",173.526813283279,5.21463756807691,161.553119223054,6.75905649214772,1,"subseries 12",FALSE,12,35.4384333347128,161.553119223054
"13",166.44564608877,3.2886925737817,160.645729572699,2.51122394228975,1,"subseries 1",FALSE,13,32.5401717334481,160.645729572699
"14",162.869493154603,1.75096644883684,160.4096178702,0.708908835565666,1,"subseries 2",FALSE,14,34.7629157983531,160.4096178702
"15",145.917689932728,0.845674503469706,160.805046953882,-15.7330315246234,1,"subseries 3",FALSE,15,30.2322509656105,160.805046953882
"16",127.499376802444,-11.8519333473964,160.941881363383,-21.5905712135431,1,"subseries 4",FALSE,16,30.0460051523722,160.941881363383
"17",157.235075793236,-12.2115814286406,161.533090237026,7.9135669848506,1,"subseries 5",FALSE,17,30.6123822499242,161.533090237026
"18",158.964709495111,-9.76650634515548,161.841254263402,6.88996157686449,1,"subseries 6",FALSE,18,30.1525221486608,161.841254263402
"19",162.864079320441,-3.78901125365384,162.086235269312,4.56685530478285,1,"subseries 7",FALSE,19,30.4854647663768,162.086235269312
"20",166.708865475021,0.559517858182097,162.667766307561,3.48158130927777,1,"subseries 8",FALSE,20,26.3692286700221,162.667766307561
"21",183.6035187718,6.75853161660357,162.461576534797,14.3834106203991,1,"subseries 9",FALSE,21,26.4682580939218,162.461576534797
"22",172.778452077327,9.80363239072908,162.333327904125,0.641491782472912,1,"subseries 10",FALSE,22,30.0667960100995,162.333327904125
"23",165.080455581485,9.39737941516638,161.725094322662,-6.04201815634337,1,"subseries 11",FALSE,23,33.7533857827808,161.725094322662
"24",165.735074214224,5.21463756807691,160.728102288519,-0.207665642372092,1,"subseries 12",FALSE,24,35.8796844774471,160.728102288519
"25",160.322757284366,3.2886925737817,160.052309257936,-3.01824454735197,1,"subseries 1",FALSE,25,34.3642489097791,160.052309257936
"26",152.318483803988,1.75096644883684,158.732259986599,-8.16474263144747,1,"subseries 2",FALSE,26,36.7394267277211,158.732259986599
"27",150.66928098133,0.845674503469706,157.485865673659,-7.66225919579884,1,"subseries 3",FALSE,27,31.2438793711979,157.485865673659
"28",154.82995687104,-11.8519333473964,156.437655763958,10.2442344544781,1,"subseries 4",FALSE,28,31.6267134660987,156.437655763958
"29",151.848557130181,-12.2115814286406,155.335608675306,8.72452988351606,1,"subseries 5",FALSE,29,30.8218310337314,155.335608675306
"30",155.849606917667,-9.76650634515548,154.807481537002,10.80863172582,1,"subseries 6",FALSE,30,30.0890182147908,154.807481537002
"31",145.958089595271,-3.78901125365384,154.167907681584,-4.42080683265871,1,"subseries 7",FALSE,31,30.3641809745502,154.167907681584
"32",138.939394128294,0.559517858182097,153.347281155715,-14.9674048856033,1,"subseries 8",FALSE,32,27.1957075511295,153.347281155715
"33",156.435762829277,6.75853161660357,152.446921519549,-2.76969030687553,1,"subseries 9",FALSE,33,23.9257180800913,152.446921519549
"34",161.644969029555,9.80363239072908,151.233544572422,0.607792066404357,1,"subseries 10",FALSE,34,24.9000451673738,151.233544572422
"35",168.30138451333,9.39737941516638,150.445979561751,8.45802553641218,1,"subseries 11",FALSE,35,29.026641183386,150.445979561751
"36",152.762461920441,5.21463756807691,150.217608828287,-2.669784475923,1,"subseries 12",FALSE,36,33.0585710685145,150.217608828287
"37",149.688570896121,3.2886925737817,150.308276150017,-3.90839782767759,1,"subseries 1",FALSE,37,34.8287036508332,150.308276150017
"38",150.179199744702,1.75096644883684,150.348785400027,-1.9205521041622,1,"subseries 2",FALSE,38,32.9239427878192,150.348785400027
"39",149.814510350731,0.845674503469706,150.100942862008,-1.13210701474645,1,"subseries 3",FALSE,39,30.421978166865,150.100942862008
"40",136.39477386307,-11.8519333473964,149.399105374563,-1.15239816409675,1,"subseries 4",FALSE,40,27.8125769504553,149.399105374563
"41",149.377830760886,-12.2115814286406,148.447060337224,13.1423518523024,1,"subseries 5",FALSE,41,29.1193512906938,148.447060337224
"42",143.141871973537,-9.76650634515548,147.725247683665,5.18313063502779,1,"subseries 6",FALSE,42,31.6940791847028,147.725247683665
"43",139.727879203032,-3.78901125365384,146.755486524814,-3.23859606812778,1,"subseries 7",FALSE,43,29.7368067404386,146.755486524814
"44",145.677595424043,0.559517858182097,145.911144561182,-0.79306699532097,1,"subseries 8",FALSE,44,28.3394091154581,145.911144561182
"45",144.520576941618,6.75853161660357,145.139054174702,-7.37700884968717,1,"subseries 9",FALSE,45,22.2959091710869,145.139054174702
"46",154.21717214433,9.80363239072908,144.191976670891,0.221563082709707,1,"subseries 10",FALSE,46,26.2102895177942,144.191976670891
"47",150.249565474402,9.39737941516638,143.660970680462,-2.80878462122629,1,"subseries 11",FALSE,47,32.1536043362925,143.660970680462
"48",144.119144541645,5.21463756807691,142.989727147715,-4.08522017414697,1,"subseries 12",FALSE,48,32.4502484011978,142.989727147715
"49",145.624750126133,3.2886925737817,142.447763738424,-0.111706186072382,1,"subseries 1",FALSE,49,34.2237867238463,142.447763738424
"50",146.721751817344,1.75096644883684,142.589617185298,2.38116818320898,1,"subseries 2",FALSE,50,33.9178760866766,142.589617185298
"51",151.919814551625,0.845674503469706,142.920135493653,8.154004554502,1,"subseries 3",FALSE,51,30.0658070159756,142.920135493653
"52",134.227376932464,-11.8519333473964,143.858895746684,2.22041453317678,1,"subseries 4",FALSE,52,30.3427933993478,143.858895746684
"53",122.320141827905,-12.2115814286406,145.209147538811,-10.6774242822659,1,"subseries 5",FALSE,53,31.7023445404636,145.209147538811
"54",121.528229317458,-9.76650634515548,146.382830918321,-15.0880952557073,1,"subseries 6",FALSE,54,29.6015306509456,146.382830918321
"55",143.186060520978,-3.78901125365384,147.853681622085,-0.878609847453447,1,"subseries 7",FALSE,55,30.0166224525979,147.853681622085
"56",151.620191015677,0.559517858182097,149.250283368535,1.8103897889595,1,"subseries 8",FALSE,56,29.3724050088382,149.250283368535
"57",168.20594533712,6.75853161660357,150.921600708457,10.5258130120593,1,"subseries 9",FALSE,57,24.3747543584306,150.921600708457
"58",162.90321052041,9.80363239072908,152.963287025216,0.136291104464846,1,"subseries 10",FALSE,58,24.1598208109152,152.963287025216
"59",168.111527109204,9.39737941516638,154.703323286141,4.01082440789668,1,"subseries 11",FALSE,59,29.3708303738343,154.703323286141
"60",156.485852070735,5.21463756807691,156.003115783018,-4.73190128036003,1,"subseries 12",FALSE,60,33.4942342502199,156.003115783018
"61",162.710223056217,3.2886925737817,156.517588039169,2.9039424432664,1,"subseries 1",FALSE,61,33.2523807589019,156.517588039169
"62",161.596482411444,1.75096644883684,156.545392878016,3.30012308459115,1,"subseries 2",FALSE,62,31.3149628437644,156.545392878016
"63",168.852279207044,0.845674503469706,156.272705595937,11.7338991076376,1,"subseries 3",FALSE,63,28.8576969812036,156.272705595937
"64",147.24437641827,-11.8519333473964,155.999755076804,3.09655468886282,1,"subseries 4",FALSE,64,31.0953820023511,155.999755076804
"65",129.620640985167,-12.2115814286406,155.610747130683,-13.7785247168752,1,"subseries 5",FALSE,65,28.9339571539478,155.610747130683
"66",143.806103832994,-9.76650634515548,155.10363449835,-1.53102432020071,1,"subseries 6",FALSE,66,30.4932488625743,155.10363449835
"67",150.199165929306,-3.78901125365384,154.708030755199,-0.719853572239174,1,"subseries 7",FALSE,67,29.9420906049421,154.708030755199
"68",158.913661811769,0.559517858182097,154.247941695516,4.10620225807071,1,"subseries 8",FALSE,68,29.1201658927727,154.247941695516
"69",157.731596951566,6.75853161660357,154.178480484022,-3.20541514905941,1,"subseries 9",FALSE,69,23.1971076865379,154.178480484022
"70",160.566959944726,9.80363239072908,154.577782533383,-3.81445497938574,1,"subseries 10",FALSE,70,24.9424891749573,154.577782533383
"71",165.297858883958,9.39737941516638,155.181596613679,0.718882855112753,1,"subseries 11",FALSE,71,29.9404234005765,155.181596613679
"72",163.271029553224,5.21463756807691,155.319158978724,2.7372330064232,1,"subseries 12",FALSE,72,33.7014880903252,155.319158978724
"73",155.435726475267,3.2886925737817,155.133146295442,-2.98611239395626,1,"subseries 1",FALSE,73,33.3173442693899,155.133146295442
"74",157.191666561682,1.75096644883684,154.995870462688,0.444829650156834,1,"subseries 2",FALSE,74,32.982126974748,154.995870462688
"75",164.978126856656,0.845674503469706,154.664113572543,9.46833878064348,1,"subseries 3",FALSE,75,29.4153877768519,154.664113572543
"76",152.647158794376,-11.8519333473964,154.41087526376,10.0882168780126,1,"subseries 4",FALSE,76,28.6352258714751,154.41087526376
"77",140.30078090711,-12.2115814286406,153.987371398332,-1.47500906258128,1,"subseries 5",FALSE,77,28.6683247346384,153.987371398332
"78",124.177524339475,-9.76650634515548,153.5661804429,-19.6221497582696,1,"subseries 6",FALSE,78,27.7854558639564,153.5661804429
"79",158.002449196345,-3.78901125365384,153.166057267534,8.62540318246496,1,"subseries 7",FALSE,79,31.5789160655795,153.166057267534
"80",NA,0.559517858182097,152.67696627241,NA,1,"subseries 8",TRUE,80,NA,NA
"81",155.916074075649,6.75853161660357,152.415544327651,-3.25800186860567,1,"subseries 9",FALSE,81,24.417560346744,152.415544327651
"82",162.3127437901,9.80363239072908,152.005319130083,0.503792269287516,1,"subseries 10",FALSE,82,22.7381454766204,152.005319130083
"83",156.618615649783,9.39737941516638,151.76826955795,-4.54703332333375,1,"subseries 11",FALSE,83,26.3508226194494,151.76826955795
"84",159.11781429506,5.21463756807691,151.500973859539,2.40220286744449,1,"subseries 12",FALSE,84,31.1301588072417,151.500973859539
"85",157.150354134785,3.2886925737817,151.037445629655,2.82421593134816,1,"subseries 1",FALSE,85,31.8420491721953,151.037445629655
"86",154.180319507493,1.75096644883684,150.643278337474,1.78607472118199,1,"subseries 2",FALSE,86,32.5698699085531,150.643278337474
"87",155.386209426316,0.845674503469706,150.182757147748,4.3577777750979,1,"subseries 3",FALSE,87,28.7409239965507,150.182757147748
"88",147.834271823062,-11.8519333473964,149.742723122765,9.94348204769301,1,"subseries 4",FALSE,88,31.5145703505352,149.742723122765
"89",128.826648791373,-12.2115814286406,149.270792386687,-8.23256216667295,1,"subseries 5",FALSE,89,28.7047085095988,149.270792386687
"90",138.02678553387,-9.76650634515548,148.742119337312,-0.948827458286132,1,"subseries 6",FALSE,90,30.0264642939719,148.742119337312
"91",139.979619352594,-3.78901125365384,148.187056280792,-4.41842567454458,1,"subseries 7",FALSE,91,26.1800283631874,148.187056280792
