"","raw","seasonal","trend","remainder","weights","sub.labels","interpolated","age","sigma","power"
"1",128.866695516223,11.3644487837714,114.692789467884,2.80945726456794,1,"subseries 1",FALSE,1,5.5885765731976,114.692789467884
"2",119.018818378981,6.15352773329617,114.478182272721,-1.61289162703663,1,"subseries 2",FALSE,2,19.1629806188811,114.478182272721
"3",122.524561140461,4.15884090044916,114.307566002491,4.05815423752077,1,"subseries 3",FALSE,3,7.25784855520742,114.307566002491
"4",117.613883195607,0.673877185703377,114.245655462079,2.69435054782508,1,"subseries 4",FALSE,4,6.0960814551892,114.245655462079
"5",110.671543003632,-3.77136925234468,114.241425277142,0.201486978834751,1,"subseries 5",FALSE,5,5.06751703707282,114.241425277142
"6",106.813064168571,-6.48793042545931,114.304479334685,-1.0034847406547,1,"subseries 6",FALSE,6,3.77486120518146,114.304479334685
"7",102.850120317781,-6.08804481754265,114.471016136534,-5.53285100121036,1,"subseries 7",FALSE,7,3.75820244673809,114.471016136534
"8",97.929239020045,-8.31045487922727,114.425466325537,-8.18577242626428,1,"subseries 8",FALSE,8,2.66549043621217,114.425466325537
"9",93.5643236612506,-10.7016151056817,114.730366416417,-10.4644276494847,1,"subseries 9",FALSE,9,3.34813121363686,114.730366416417
"10",112.311882496126,-3.54831081776511,115.328646341876,0.531546972015349,1,"subseries 10",FALSE,10,10.5147461893869,115.328646341876
"11",130.41362951634,4.66864330862743,116.098944534255,9.64604167345713,1,"subseries 11",FALSE,11,4.28161960277908,116.098944534255
"12",132.832202819372,11.8883873861731,117.238078221662,3.70573721153704,1,"subseries 12",FALSE,12,4.41439945087339,117.238078221662
"13",130.933616710777,11.3644487837714,118.171221415192,1.39794651181313,1,"subseries 1",FALSE,13,4.9140556247652,118.171221415192
"14",128.19794195323,6.15352773329617,119.248422656491,2.79599156344285,1,"subseries 2",FALSE,14,5.37392483856424,119.248422656491
"15",123.078465095599,4.15884090044916,119.950143982829,-1.03051978767886,1,"subseries 3",FALSE,15,6.04791292757043,119.950143982829
"16",118.957125848298,0.673877185703377,120.109320730152,-1.82607206755773,1,"subseries 4",FALSE,16,6.31054502884933,120.109320730152
"17",113.835137346851,-3.77136925234468,120.106234517443,-2.49972791824715,1,"subseries 5",FALSE,17,5.7405284188635,120.106234517443
"18",116.543162985982,-6.48793042545931,119.761876760687,3.26921665075419,1,"subseries 6",FALSE,18,6.21717922734929,119.761876760687
"19",114.872940999452,-6.08804481754265,119.298702313255,1.66228350373959,1,"subseries 7",FALSE,19,6.55639787541986,119.298702313255
"20",112.471411216812,-8.31045487922727,118.970895422676,1.81097067336374,1,"subseries 8",FALSE,20,5.04834870508107,118.970895422676
"21",109.824980657035,-10.7016151056817,118.551393780384,1.97520198233248,1,"subseries 9",FALSE,21,4.68951109761097,118.551393780384
"22",116.43397171532,-3.54831081776511,118.253648629119,1.72863390396607,1,"subseries 10",FALSE,22,4.90904788559556,118.253648629119
"23",116.979709434044,4.66864330862743,117.982345136678,-5.67127901126162,1,"subseries 11",FALSE,23,3.55726778110653,117.982345136678
"24",127.504002844344,11.8883873861731,117.553555221402,-1.93793976323147,1,"subseries 12",FALSE,24,5.27812484278369,117.553555221402
"25",126.184153607978,11.3644487837714,117.274726515425,-2.45502169121795,1,"subseries 1",FALSE,25,4.23098509191855,117.274726515425
"26",124.662026697429,6.15352773329617,117.010175396566,1.49832356756649,1,"subseries 2",FALSE,26,5.20145598883323,117.010175396566
"27",121.604902370739,4.15884090044916,116.885392181843,0.560669288447201,1,"subseries 3",FALSE,27,6.30469329622219,116.885392181843
"28",119.518814749935,0.673877185703377,117.029542960951,1.8153946032805,1,"subseries 4",FALSE,28,7.38213653549423,117.029542960951
"29",112.99706838656,-3.77136925234468,117.231853725848,-0.463416086943042,1,"subseries 5",FALSE,29,6.83772735514224,117.231853725848
"30",108.891581880997,-6.48793042545931,117.420213832466,-2.04070152601005,1,"subseries 6",FALSE,30,6.34018770340905,117.420213832466
"31",113.246655795961,-6.08804481754265,117.516940598578,1.81776001492575,1,"subseries 7",FALSE,31,7.07637695267309,117.516940598578
"32",107.85826156713,-8.31045487922727,117.354156381576,-1.18543993521862,1,"subseries 8",FALSE,32,5.03989923434792,117.354156381576
"33",104.315493497126,-10.7016151056817,117.052538509005,-2.03542990619718,1,"subseries 9",FALSE,33,4.3947601519756,117.052538509005
"34",119.784393003884,-3.54831081776511,116.759348726047,6.57335509560174,1,"subseries 10",FALSE,34,4.69518865642585,116.759348726047
"35",124.19971847676,4.66864330862743,116.360098295922,3.17097687221091,1,"subseries 11",FALSE,35,4.77061340801919,116.360098295922
"36",125.792539264473,11.8883873861731,116.095334200771,-2.19118232247143,1,"subseries 12",FALSE,36,4.50610599479971,116.095334200771
"37",124.831229811909,11.3644487837714,115.836408648239,-2.3696276201013,1,"subseries 1",FALSE,37,4.63928464540317,115.836408648239
"38",120.224368572704,6.15352773329617,115.569106403584,-1.49826556417634,1,"subseries 2",FALSE,38,5.25756478008243,115.569106403584
"39",117.733223643833,4.15884090044916,115.476275984754,-1.90189324136975,1,"subseries 3",FALSE,39,5.98700941857452,115.476275984754
"40",114.32181397295,0.673877185703377,115.484617263887,-1.83668047664058,1,"subseries 4",FALSE,40,6.87651996741891,115.484617263887
"41",111.590538353377,-3.77136925234468,115.832113675373,-0.470206069651212,1,"subseries 5",FALSE,41,6.22637126818534,115.832113675373
"42",109.340238402435,-6.48793042545931,116.262656996967,-0.434488169072225,1,"subseries 6",FALSE,42,6.84496648803072,116.262656996967
"43",111.026548786967,-6.08804481754265,116.712375644931,0.402217959578977,1,"subseries 7",FALSE,43,5.99351289204576,116.712375644931
"44",107.1916616944,-8.31045487922727,116.983640782912,-1.48152420928504,1,"subseries 8",FALSE,44,5.32670669006916,116.983640782912
"45",108.44992265271,-10.7016151056817,116.965711947893,2.18582581049853,1,"subseries 9",FALSE,45,6.29396149940105,116.965711947893
"46",120.704918281388,-3.54831081776511,116.93677442838,7.31645467077352,1,"subseries 10",FALSE,46,7.24930171306032,116.93677442838
"47",125.620932959234,4.66864330862743,116.639211251892,4.31307839871482,1,"subseries 11",FALSE,47,5.18754690550105,116.639211251892
"48",125.95050571393,11.8883873861731,116.331495078046,-2.26937675028898,1,"subseries 12",FALSE,48,5.04281507653313,116.331495078046
"49",124.007959431735,11.3644487837714,115.896868933981,-3.25335828601749,1,"subseries 1",FALSE,49,4.34395186980426,115.896868933981
"50",120.028637056032,6.15352773329617,115.086284372515,-1.21117504977933,1,"subseries 2",FALSE,50,4.87985310915791,115.086284372515
"51",116.524619978977,4.15884090044916,114.198603427583,-1.83282434905543,1,"subseries 3",FALSE,51,6.53130882863064,114.198603427583
"52",114.864653897624,0.673877185703377,112.813861364029,1.37691534789117,1,"subseries 4",FALSE,52,7.84871565167986,112.813861364029
"53",111.909285005279,-3.77136925234468,111.179747543496,4.50090671412781,1,"subseries 5",FALSE,53,6.30986310190907,111.179747543496
"54",107.424366787957,-6.48793042545931,109.725553322601,4.18674389081553,1,"subseries 6",FALSE,54,5.45215500435406,109.725553322601
"55",104.725509980506,-6.08804481754265,108.004557995346,2.8089968027025,1,"subseries 7",FALSE,55,8.8457597623332,108.004557995346
"56",99.8564134630017,-8.31045487922727,106.745346458742,1.42152188348732,1,"subseries 8",FALSE,56,4.86769966281179,106.745346458742
"57",94.5195252886019,-10.7016151056817,105.722265928816,-0.501125534532051,1,"subseries 9",FALSE,57,3.9739385492154,105.722265928816
"58",91.9654090911067,-3.54831081776511,104.695057569209,-9.18133766033733,1,"subseries 10",FALSE,58,2.95307274463676,104.695057569209
"59",93.8078595357605,4.66864330862743,104.233133632048,-15.0939174049148,1,"subseries 11",FALSE,59,8.01129522464955,104.233133632048
"60",114.976707577066,11.8883873861731,103.821087014567,-0.732766823673899,1,"subseries 12",FALSE,60,4.60704602065235,103.821087014567
"61",119.634470390957,11.3644487837714,104.01059287208,4.25942873510532,1,"subseries 1",FALSE,61,4.49000660811762,104.01059287208
"62",113.80898457112,6.15352773329617,104.900309955962,2.75514688186155,1,"subseries 2",FALSE,62,4.57257176724958,104.900309955962
"63",109.934838623671,4.15884090044916,106.182881309601,-0.406883586379138,1,"subseries 3",FALSE,63,5.56809957418498,106.182881309601
"64",106.429521369269,0.673877185703377,108.04649842679,-2.29085424322389,1,"subseries 4",FALSE,64,6.57868056809626,108.04649842679
"65",104.805748567201,-3.77136925234468,109.958903856661,-1.38178603711533,1,"subseries 5",FALSE,65,8.36951553806864,109.958903856661
"66",102.364441723424,-6.48793042545931,111.616871471302,-2.76449932241897,1,"subseries 6",FALSE,66,7.30652567466924,111.616871471302
"67",104.86869088619,-6.08804481754265,113.295894981632,-2.3391592778993,1,"subseries 7",FALSE,67,8.12276624779177,113.295894981632
"68",109.753640845535,-8.31045487922727,114.716565089717,3.34753063504535,1,"subseries 8",FALSE,68,5.54407739674609,114.716565089717
"69",110.259003422294,-10.7016151056817,115.960153057692,5.00046547028327,1,"subseries 9",FALSE,69,6.30698950588607,115.960153057692
"70",114.03065542162,-3.54831081776511,117.180227960441,0.398738278944577,1,"subseries 10",FALSE,70,5.15488428215828,117.180227960441
"71",126.546270171163,4.66864330862743,117.988601674577,3.88902518795825,1,"subseries 11",FALSE,71,5.9254021204182,117.988601674577
"72",134.194451257564,11.8883873861731,118.604887871158,3.70117600023295,1,"subseries 12",FALSE,72,5.24363868171719,118.604887871158
"73",130.044792711631,11.3644487837714,118.861365857371,-0.18102192951126,1,"subseries 1",FALSE,73,4.92680694418031,118.861365857371
"74",122.403360306968,6.15352773329617,118.83274501866,-2.58291244498794,1,"subseries 2",FALSE,74,4.94803610804148,118.83274501866
"75",123.519089522247,4.15884090044916,118.744596123792,0.615652498005403,1,"subseries 3",FALSE,75,7.54476937997069,118.744596123792
"76",119.112547752174,0.673877185703377,118.381280021934,0.0573905445367586,1,"subseries 4",FALSE,76,6.66022651461655,118.381280021934
"77",114.262645557495,-3.77136925234468,117.955161028136,0.0788537817037991,1,"subseries 5",FALSE,77,7.6885706307005,117.955161028136
"78",109.768746593248,-6.48793042545931,117.520839410039,-1.26416239133178,1,"subseries 6",FALSE,78,7.19123845286661,117.520839410039
"79",112.14607557145,-6.08804481754265,117.060131061733,1.17398932725992,1,"subseries 7",FALSE,79,7.28277771941106,117.060131061733
"80",112.627268997008,-8.31045487922727,116.624181725652,4.31354215058344,1,"subseries 8",FALSE,80,7.4385868218213,116.624181725652
"81",109.429370936636,-10.7016151056817,116.178030499172,3.95295554314569,1,"subseries 9",FALSE,81,4.88268130763742,116.178030499172
"82",105.008230048035,-3.54831081776511,115.732224323986,-7.17568345818549,1,"subseries 10",FALSE,82,4.36280156904108,115.732224323986
