"","raw","seasonal","trend","remainder","weights","sub.labels","interpolated","age","sigma","power"
"1",113.100528834885,0.410565955016802,111.87863869251,0.811324187357727,1,"subseries 1",FALSE,1,5.27446356496386,111.87863869251
"2",112.581888357897,-1.58755490120054,111.61611249295,2.55333076614731,1,"subseries 2",FALSE,2,5.7007133071798,111.61611249295
"3",108.410260783905,-3.26267721750459,111.376962620405,0.295975381004325,1,"subseries 3",FALSE,3,14.2554552314216,111.376962620405
"4",107.011420169954,-4.38214992786265,111.196260161647,0.197309936169972,1,"subseries 4",FALSE,4,16.5271954675169,111.196260161647
"5",105.206247292132,-6.30507380431638,111.044623993196,0.466697103251988,1,"subseries 5",FALSE,5,5.51412737340185,111.044623993196
"6",105.338049315297,-6.38552156400396,110.909089003679,0.814481875622292,1,"subseries 6",FALSE,6,4.56190337915996,110.909089003679
"7",98.9030310317379,-4.01462391784799,110.827808883146,-7.91015393356052,1,"subseries 7",FALSE,7,6.25520038572387,110.827808883146
"8",105.626553156756,1.41353093455399,110.609263606106,-6.39624138390352,1,"subseries 8",FALSE,8,7.28023191492714,110.609263606106
"9",122.189759110283,8.61173016540454,110.580938401521,2.9970905433571,1,"subseries 9",FALSE,9,2.91234616836278,110.580938401521
"10",120.444209601539,7.50050675172784,110.768561418472,2.17514143133873,1,"subseries 10",FALSE,10,5.37957392158064,110.768561418472
"11",116.396206491295,5.11636006525504,110.990194570196,0.289651855844312,1,"subseries 11",FALSE,11,5.00514145842312,110.990194570196
"12",117.905512958892,2.88490746077789,111.382524552011,3.63808094610268,1,"subseries 12",FALSE,12,5.03428205252987,111.382524552011
"13",112.103702615435,0.410565955016802,111.597963361332,0.0951732990865253,1,"subseries 1",FALSE,13,6.4241603341018,111.597963361332
"14",110.195861716031,-1.58755490120054,111.731064794691,0.0523518225404871,1,"subseries 2",FALSE,14,6.8803686950762,111.731064794691
"15",108.87794493762,-3.26267721750459,111.669663670616,0.470958484508728,1,"subseries 3",FALSE,15,7.26972901430632,111.669663670616
"16",106.274367673414,-4.38214992786265,111.404242454617,-0.747724853340813,1,"subseries 4",FALSE,16,5.92759555006873,111.404242454617
"17",104.953651735258,-6.30507380431638,111.124208386372,0.134517153202509,1,"subseries 5",FALSE,17,5.21307787077016,111.124208386372
"18",104.782597173717,-6.38552156400396,110.819207946381,0.348910791339591,1,"subseries 6",FALSE,18,8.08664951181656,110.819207946381
"19",106.326504688884,-4.01462391784799,110.532882803705,-0.191754196972752,1,"subseries 7",FALSE,19,3.6887814284066,110.532882803705
"20",111.652079769504,1.41353093455399,110.282535269236,-0.0439864342858272,1,"subseries 8",FALSE,20,6.09285109080445,110.282535269236
"21",117.944367522301,8.61173016540454,110.05251406085,-0.719876703953318,1,"subseries 9",FALSE,21,4.10186318987127,110.05251406085
"22",117.523295223915,7.50050675172784,109.891924638594,0.130863833593466,1,"subseries 10",FALSE,22,4.07140338373365,109.891924638594
"23",115.610285418836,5.11636006525504,109.802164281911,0.691761071670243,1,"subseries 11",FALSE,23,4.05791340443229,109.802164281911
"24",111.091424447433,2.88490746077789,109.843472710454,-1.63695572379915,1,"subseries 12",FALSE,24,5.24332395192268,109.843472710454
"25",109.405388706659,0.410565955016802,110.039124793655,-1.04430204201232,1,"subseries 1",FALSE,25,7.64269462646681,110.039124793655
"26",107.807550065105,-1.58755490120054,110.310848145324,-0.915743179018364,1,"subseries 2",FALSE,26,6.43709856995603,110.310848145324
"27",106.425617938553,-3.26267721750459,110.706631124323,-1.01833596826579,1,"subseries 3",FALSE,27,7.95121624116032,110.706631124323
"28",106.148372014716,-4.38214992786265,110.932397391189,-0.401875448610099,1,"subseries 4",FALSE,28,5.82421554633089,110.932397391189
"29",104.872275657921,-6.30507380431638,111.05938679267,0.117962669567504,1,"subseries 5",FALSE,29,5.51391232853713,111.05938679267
"30",106.229580321288,-6.38552156400396,111.126138166771,1.48896371852049,1,"subseries 6",FALSE,30,5.01090199921004,111.126138166771
"31",112.587132677809,-4.01462391784799,110.952912133486,5.64884446217133,1,"subseries 7",FALSE,31,5.1614112581595,110.952912133486
"32",115.58719985675,1.41353093455399,110.676814062082,3.49685486011376,1,"subseries 8",FALSE,32,4.18949682522321,110.676814062082
"33",117.058548893632,8.61173016540454,110.097293476301,-1.65047474807328,1,"subseries 9",FALSE,33,3.58740985395657,110.097293476301
"34",115.267653814249,7.50050675172784,109.333807757886,-1.56666069536494,1,"subseries 10",FALSE,34,5.74610393807461,109.333807757886
"35",114.538038571396,5.11636006525504,108.407505168329,1.01417333781178,1,"subseries 11",FALSE,35,4.30811486058176,108.407505168329
"36",111.161381527108,2.88490746077789,107.453559806338,0.822914259992459,1,"subseries 12",FALSE,36,5.19168595426925,107.453559806338
"37",107.17500284827,0.410565955016802,106.662607578397,0.101829314855905,1,"subseries 1",FALSE,37,5.99470911200925,106.662607578397
"38",101.801866843307,-1.58755490120054,106.166886381711,-2.77746463720318,1,"subseries 2",FALSE,38,9.85314488765336,106.166886381711
"39",98.1586039769965,-3.26267721750459,106.056342948371,-4.63506175387027,1,"subseries 3",FALSE,39,5.7145485693409,106.056342948371
"40",99.0890438403706,-4.38214992786265,106.262266201405,-2.79107243317186,1,"subseries 4",FALSE,40,5.61238430453514,106.262266201405
"41",100.375855753378,-6.30507380431638,106.915622707782,-0.234693150087438,1,"subseries 5",FALSE,41,5.30933732730631,106.915622707782
"42",98.5199420676366,-6.38552156400396,107.541328708667,-2.63586507702671,1,"subseries 6",FALSE,42,5.30250956725905,107.541328708667
"43",100.660244064978,-4.01462391784799,108.306437480571,-3.63156949774474,1,"subseries 7",FALSE,43,3.83401157642394,108.306437480571
"44",114.930764391583,1.41353093455399,108.977868924201,4.5393645328277,1,"subseries 8",FALSE,44,7.07424461020707,108.977868924201
"45",121.289546175206,8.61173016540454,109.323837152336,3.35397885746514,1,"subseries 9",FALSE,45,3.68547723617509,109.323837152336
"46",123.383216551963,7.50050675172784,109.699441745704,6.18326805453123,1,"subseries 10",FALSE,46,3.61921173091704,109.699441745704
"47",120.603704006801,5.11636006525504,109.687387972721,5.79995596882533,1,"subseries 11",FALSE,47,6.94723447272962,109.687387972721
"48",110.672681611076,2.88490746077789,109.660346312628,-1.87257216232987,1,"subseries 12",FALSE,48,5.24561762792973,109.660346312628
"49",105.536495765341,0.410565955016802,109.458956647528,-4.3330268372043,1,"subseries 1",FALSE,49,6.77107676995377,109.458956647528
"50",105.220675285263,-1.58755490120054,108.980202310172,-2.1719721237086,1,"subseries 2",FALSE,50,7.15515909028471,108.980202310172
"51",104.002040770828,-3.26267721750459,108.657136826951,-1.39241883861797,1,"subseries 3",FALSE,51,8.00967277138408,108.657136826951
"52",102.384599049613,-4.38214992786265,108.235015164014,-1.46826618653867,1,"subseries 4",FALSE,52,7.17135440995141,108.235015164014
"53",102.230547821596,-6.30507380431638,108.032689197015,0.502932428897878,1,"subseries 5",FALSE,53,8.07919895557462,108.032689197015
"54",102.028625898148,-6.38552156400396,108.055096558768,0.359050903383775,1,"subseries 6",FALSE,54,5.5327637027014,108.055096558768
"55",105.436711322913,-4.01462391784799,108.068127827601,1.38320741316024,1,"subseries 7",FALSE,55,5.45669851745358,108.068127827601
"56",112.294433657375,1.41353093455399,108.12150519838,2.75939752444084,1,"subseries 8",FALSE,56,4.97722747994673,108.12150519838
"57",114.125906405034,8.61173016540454,108.053273839122,-2.53909759949269,1,"subseries 9",FALSE,57,3.41631275341259,108.053273839122
"58",116.345634693606,7.50050675172784,107.87433352186,0.970794420018549,1,"subseries 10",FALSE,58,2.73683087739649,107.87433352186
"59",113.435721682885,5.11636006525504,107.577846340681,0.741515276949414,1,"subseries 11",FALSE,59,3.70519503828785,107.577846340681
"60",110.551843064271,2.88490746077789,106.883578656709,0.78335694678438,1,"subseries 12",FALSE,60,4.49949037595441,106.883578656709
"61",106.714556499305,0.410565955016802,105.900649788218,0.403340756070463,1,"subseries 1",FALSE,61,6.02117973776212,105.900649788218
"62",104.230231687845,-1.58755490120054,104.863904640714,0.953881948331571,1,"subseries 2",FALSE,62,7.55865263327046,104.863904640714
"63",104.439401858038,-3.26267721750459,103.637402069252,4.06467700629061,1,"subseries 3",FALSE,63,6.95917947640351,103.637402069252
"64",103.942779190743,-4.38214992786265,102.732685647837,5.59224347076831,1,"subseries 4",FALSE,64,7.4690356198576,102.732685647837
"65",91.7966033544032,-6.30507380431638,101.998554103984,-3.89687694526458,1,"subseries 5",FALSE,65,12.4661208486452,101.998554103984
"66",85.4836859337156,-6.38552156400396,101.369711635743,-9.50050413802363,1,"subseries 6",FALSE,66,5.5250577673664,101.369711635743
"67",92.7919419876631,-4.01462391784799,101.140768357596,-4.33420245208464,1,"subseries 7",FALSE,67,7.79346409180425,101.140768357596
"68",99.1748980951451,1.41353093455399,100.907025377514,-3.14565821692266,1,"subseries 8",FALSE,68,5.25642370543387,100.907025377514
"69",109.51217477897,8.61173016540454,101.118855628742,-0.218411015176329,1,"subseries 9",FALSE,69,3.93946481261401,101.118855628742
"70",112.695511231203,7.50050675172784,101.676678276697,3.51832620277862,1,"subseries 10",FALSE,70,3.37915404990692,101.676678276697
"71",107.205349687283,5.11636006525504,102.445187687162,-0.356198065133725,1,"subseries 11",FALSE,71,3.67579455365583,102.445187687162
"72",107.192790884852,2.88490746077789,103.498760336032,0.809123088041829,1,"subseries 12",FALSE,72,5.11164184885126,103.498760336032
"73",105.270207614696,0.410565955016802,104.373470507928,0.486171151751307,1,"subseries 1",FALSE,73,5.51138277619938,104.373470507928
"74",102.821795701852,-1.58755490120054,104.925259497766,-0.515908894713363,1,"subseries 2",FALSE,74,6.26960853307771,104.925259497766
"75",104.109159308097,-3.26267721750459,105.200330870831,2.17150565477097,1,"subseries 3",FALSE,75,6.41186268865881,105.200330870831
"76",101.644398154314,-4.38214992786265,105.157621577632,0.868926504545115,1,"subseries 4",FALSE,76,6.94497290590612,105.157621577632
"77",102.436167704052,-6.30507380431638,104.810349115716,3.93089239265207,1,"subseries 5",FALSE,77,6.43332424296506,104.810349115716
"78",100.552226302466,-6.38552156400396,104.496403205014,2.44134466145594,1,"subseries 6",FALSE,78,5.85850358485481,104.496403205014
"79",99.5080000139898,-4.01462391784799,104.038275343701,-0.515651411863004,1,"subseries 7",FALSE,79,5.79475891998131,104.038275343701
"80",105.337488388177,1.41353093455399,103.641336442272,0.282621011350571,1,"subseries 8",FALSE,80,4.17845931511875,103.641336442272
"81",109.485619067683,8.61173016540454,103.369652848453,-2.49576394617408,1,"subseries 9",FALSE,81,3.61815079311889,103.369652848453
"82",104.882526544438,7.50050675172784,102.953358090675,-5.57133829796521,1,"subseries 10",FALSE,82,3.08844209494757,102.953358090675
"83",105.920215636276,5.11636006525504,102.739113966735,-1.93525839571424,1,"subseries 11",FALSE,83,4.14535732564308,102.739113966735
"84",106.011539479715,2.88490746077789,102.530425781203,0.596206237734521,1,"subseries 12",FALSE,84,4.16018649193361,102.530425781203
"85",105.605577478907,0.410565955016802,102.433067752929,2.76194377096135,1,"subseries 1",FALSE,85,5.09638919728524,102.433067752929
"86",103.064208592507,-1.58755490120054,102.529784387699,2.12197910600877,1,"subseries 2",FALSE,86,7.4549750421068,102.529784387699
"87",100.349584378509,-3.26267721750459,102.539176341075,1.07308525493816,1,"subseries 3",FALSE,87,8.47295158943713,102.539176341075
"88",98.7790850662453,-4.38214992786265,102.59123516297,0.569999831138304,1,"subseries 4",FALSE,88,7.08489686104059,102.59123516297
"89",92.4614393714245,-6.30507380431638,102.500405820783,-3.73389264504243,1,"subseries 5",FALSE,89,7.80172669673161,102.500405820783
"90",98.1296142913532,-6.38552156400396,102.240286217188,2.27484963816916,1,"subseries 6",FALSE,90,6.11936096594834,102.240286217188
"91",98.9485167470508,-4.01462391784799,101.984254887702,0.978885777196567,1,"subseries 7",FALSE,91,4.8885982963239,101.984254887702
"92",101.884261073228,1.41353093455399,101.655071145918,-1.18434100724414,1,"subseries 8",FALSE,92,4.87771233399131,101.655071145918
"93",107.733978904892,8.61173016540454,101.327048569307,-2.20479982981969,1,"subseries 9",FALSE,93,3.66865249849331,101.327048569307
"94",110.754130533232,7.50050675172784,100.962620342356,2.29100343914789,1,"subseries 10",FALSE,94,3.26388656494293,100.962620342356
"95",107.36733843699,5.11636006525504,100.507613513362,1.74336485837253,1,"subseries 11",FALSE,95,3.71296350142525,100.507613513362
"96",102.3524939229,2.88490746077789,100.110312613857,-0.642726151734792,1,"subseries 12",FALSE,96,4.79489536583373,100.110312613857
"97",101.509383581836,0.410565955016802,99.7204021565473,1.37841547027186,1,"subseries 1",FALSE,97,5.75794545570111,99.7204021565473
"98",97.7456840979971,-1.58755490120054,99.4511893327064,-0.117950333508773,1,"subseries 2",FALSE,98,7.08583589980095,99.4511893327064
"99",93.4488775869366,-3.26267721750459,99.2586313157055,-2.54707651126427,1,"subseries 3",FALSE,99,6.72594692877675,99.2586313157055
"100",92.4259245264047,-4.38214992786265,98.5786216869526,-1.77054723268525,1,"subseries 4",FALSE,100,6.07276098885984,98.5786216869526
"101",91.4149410692248,-6.30507380431638,97.6592899988104,0.0607248747307523,1,"subseries 5",FALSE,101,5.40796983890117,97.6592899988104
"102",91.1296660085892,-6.38552156400396,96.4255045736987,1.08968299889446,1,"subseries 6",FALSE,102,4.96258977835751,96.4255045736987
"103",99.3869545843699,-4.01462391784799,94.766548438599,8.63503006361887,1,"subseries 7",FALSE,103,8.41182234985162,94.766548438599
"104",102.386724417969,1.41353093455399,93.3898657784554,7.58332770495961,1,"subseries 8",FALSE,104,4.87111071757397,93.3898657784554
"105",104.179238537129,8.61173016540454,91.8175639961599,3.74994437556458,1,"subseries 9",FALSE,105,5.8103278152195,91.8175639961599
"106",89.4094299279934,7.50050675172784,90.3352221440323,-8.42629896776675,1,"subseries 10",FALSE,106,3.0014919663099,90.3352221440323
"107",85.3668591925575,5.11636006525504,88.9974524631732,-8.74695333587076,1,"subseries 11",FALSE,107,3.22950877897626,88.9974524631732
"108",86.8939185674203,2.88490746077789,87.682928129667,-3.67391702302457,1,"subseries 12",FALSE,108,5.07880650966642,87.682928129667
"109",85.3391591783208,0.410565955016802,86.7282375494007,-1.79964432609673,1,"subseries 1",FALSE,109,6.30287226129757,86.7282375494007
"110",84.2222175461925,-1.58755490120054,85.6694381721918,0.140334275201198,1,"subseries 2",FALSE,110,6.38683477368313,85.6694381721918
"111",83.0117259075764,-3.26267721750459,84.6386020849846,1.6358010400964,1,"subseries 3",FALSE,111,6.44353631148793,84.6386020849846
"112",79.986517124851,-4.38214992786265,83.6693245816581,0.699342471055601,1,"subseries 4",FALSE,112,6.30078517868359,83.6693245816581
"113",80.1753871023049,-6.30507380431638,82.7122520530091,3.76820885361214,1,"subseries 5",FALSE,113,6.14989068901296,82.7122520530091
"114",80.1914443496558,-6.38552156400396,81.8399431266765,4.73702278698326,1,"subseries 6",FALSE,114,5.18393941857555,81.8399431266765
"115",78.2647587722851,-4.01462391784799,80.9803219636009,1.29906072653219,1,"subseries 7",FALSE,115,4.997977456411,80.9803219636009
"116",75.0793536320266,1.41353093455399,80.1378827722366,-6.47206007476395,1,"subseries 8",FALSE,116,4.47730153659169,80.1378827722366
