"","raw","seasonal","trend","remainder","weights","sub.labels","interpolated","age","sigma","power"
"1",43.288571388283,-0.0826742575462812,43.7967039639494,-0.425458318120114,1,"subseries 1",FALSE,1,3.13196207183516,43.7967039639494
"2",44.317456996883,0.155956492035812,43.9369810128898,0.22451949195743,1,"subseries 2",FALSE,2,2.1573200400523,43.9369810128898
"3",45.2632774843167,0.871342616612219,44.0756258180264,0.31630904967809,1,"subseries 3",FALSE,3,2.0218260603616,44.0756258180264
"4",45.7124545015282,1.97171133575641,44.213015247462,-0.472272081690193,1,"subseries 4",FALSE,4,2.66238999443858,44.213015247462
"5",45.5223094242019,0.613171765686085,44.347454925572,0.561682732943858,1,"subseries 5",FALSE,5,2.18422229729814,44.347454925572
"6",45.0081389757182,0.46686678914166,44.4802134022784,0.0610587842981829,1,"subseries 6",FALSE,6,2.44019578616826,44.4802134022784
"7",44.6513219860564,0.125271137217633,44.6058947070335,-0.0798438581947138,1,"subseries 7",FALSE,7,2.34287616164884,44.6058947070335
"8",43.5155528992287,-0.323724685953672,44.7226819507018,-0.883404365519432,1,"subseries 8",FALSE,8,2.18903232954842,44.7226819507018
"9",43.6668509298765,-1.14169524677481,44.8200225764585,-0.0114763998071936,1,"subseries 9",FALSE,9,2.09053657145469,44.8200225764585
"10",45.5116439749939,-0.923734565508502,44.8444768699382,1.59090167056417,1,"subseries 10",FALSE,10,2.15658431219653,44.8444768699382
"11",43.6837998164559,-1.07824223994537,44.818992662708,-0.0569506063067422,1,"subseries 11",FALSE,11,2.00426389966447,44.818992662708
"12",46.0362195882146,-0.654249140721175,44.8130758990614,1.87739282987435,1,"subseries 12",FALSE,12,1.7957093299867,44.8130758990614
"13",43.6477529596775,-0.0826742575462812,44.7694246812689,-1.03899746404508,1,"subseries 1",FALSE,13,2.22878741731794,44.7694246812689
"14",44.2786227356411,0.155956492035812,44.6807650838237,-0.558098840218427,1,"subseries 2",FALSE,14,2.37929719016176,44.6807650838237
"15",45.431737003823,0.871342616612219,44.5647441901962,-0.00434980298538079,1,"subseries 3",FALSE,15,1.9380145722988,44.5647441901962
"16",45.6068946360405,1.97171133575641,44.4250164644975,-0.789833164213391,1,"subseries 4",FALSE,16,1.91004999054688,44.4250164644975
"17",45.9518767890817,0.613171765686085,44.3289481917298,1.00975683166586,1,"subseries 5",FALSE,17,1.95713805746241,44.3289481917298
"18",44.8403357094496,0.46686678914166,44.2767591189918,0.0967098013161518,1,"subseries 6",FALSE,18,2.52009042578621,44.2767591189918
"19",43.8386775092847,0.125271137217633,44.2617267543698,-0.548320382302776,1,"subseries 7",FALSE,19,2.16330894267476,44.2617267543698
"20",43.0832270986023,-0.323724685953672,44.2498129937814,-0.842861209225404,1,"subseries 8",FALSE,20,2.32728746830057,44.2498129937814
"21",42.7201852178753,-1.14169524677481,44.2306625533983,-0.368782088748219,1,"subseries 9",FALSE,21,1.97099655069714,44.2306625533983
"22",44.3746660992532,-0.923734565508502,44.2242391849359,1.07416147982584,1,"subseries 10",FALSE,22,2.4302918988234,44.2242391849359
"23",43.7421978710607,-1.07824223994537,44.2374209448308,0.583019166175319,1,"subseries 11",FALSE,23,1.90579604748532,44.2374209448308
"24",43.1768788125519,-0.654249140721175,44.3171981747812,-0.486070221508129,1,"subseries 12",FALSE,24,1.64044693041563,44.3171981747812
"25",44.1483941470998,-0.0826742575462812,44.4324502536305,-0.20138184898444,1,"subseries 1",FALSE,25,1.85419348884301,44.4324502536305
"26",44.0111423763219,0.155956492035812,44.5462081359326,-0.691022251646558,1,"subseries 2",FALSE,26,2.37424691685066,44.5462081359326
"27",44.2988532776333,0.871342616612219,44.6782090184358,-1.25069835741474,1,"subseries 3",FALSE,27,2.13358665738022,44.6782090184358
"28",47.5178821900886,1.97171133575641,44.7210381032336,0.825132751098636,1,"subseries 4",FALSE,28,1.8000197301426,44.7210381032336
"29",45.8779118031366,0.613171765686085,44.7311914774373,0.533548560013244,1,"subseries 5",FALSE,29,1.97164014149751,44.7311914774373
"30",45.8511284165933,0.46686678914166,44.6828121642449,0.701449463206764,1,"subseries 6",FALSE,30,2.47637319103101,44.6828121642449
"31",45.8159727082238,0.125271137217633,44.5055868187811,1.18511475222512,1,"subseries 7",FALSE,31,2.46706950783745,44.5055868187811
"32",45.0338802038541,-0.323724685953672,44.3606266963466,0.996978193461203,1,"subseries 8",FALSE,32,2.14564713784713,44.3606266963466
"33",43.994336218133,-1.14169524677481,44.1383224102941,0.997709054613743,1,"subseries 9",FALSE,33,2.0918230826217,44.1383224102941
"34",43.0075635914332,-0.923734565508502,43.939485448184,-0.00818729124225825,1,"subseries 10",FALSE,34,2.21142362034989,43.939485448184
"35",40.7252466484857,-1.07824223994537,43.7965547270586,-1.99306583862755,1,"subseries 11",FALSE,35,2.56630156449014,43.7965547270586
"36",40.5575381552332,-0.654249140721175,43.6125183398101,-2.40073104385574,1,"subseries 12",FALSE,36,2.95712959554287,43.6125183398101
"37",43.0644685895614,-0.0826742575462812,43.5381693342297,-0.391026487122048,1,"subseries 1",FALSE,37,2.06073149180328,43.5381693342297
"38",43.2145884924406,0.155956492035812,43.4367938269298,-0.378161826525009,1,"subseries 2",FALSE,38,2.02725247427008,43.4367938269298
"39",45.460600300059,0.871342616612219,43.3878469343421,1.20141074910472,1,"subseries 3",FALSE,39,1.39992799483904,43.3878469343421
"40",46.0789003390886,1.97171133575641,43.4228291481163,0.684359855215888,1,"subseries 4",FALSE,40,1.57845941514673,43.4228291481163
"41",44.8309971790116,0.613171765686085,43.4087181928584,0.809107220467119,1,"subseries 5",FALSE,41,1.98714988604823,43.4087181928584
"42",44.9062321987633,0.46686678914166,43.4894101392562,0.949955270365408,1,"subseries 6",FALSE,42,2.60193625932672,43.4894101392562
"43",42.878873046559,0.125271137217633,43.5447831231551,-0.791181213813772,1,"subseries 7",FALSE,43,2.90115699331126,43.5447831231551
"44",42.7531533740787,-0.323724685953672,43.5629749768542,-0.486096916821786,1,"subseries 8",FALSE,44,2.55663361269391,43.5629749768542
"45",41.4342165385404,-1.14169524677481,43.6325335689451,-1.05662178362989,1,"subseries 9",FALSE,45,2.00360610704794,43.6325335689451
"46",40.7585754828679,-0.923734565508502,43.6385096731759,-1.95619962479953,1,"subseries 10",FALSE,46,1.91190577306212,43.6385096731759
"47",43.5416972258706,-1.07824223994537,43.6929940544681,0.926945411347845,1,"subseries 11",FALSE,47,2.35401550550297,43.6929940544681
"48",43.7301263561968,-0.654249140721175,43.8177843710004,0.566591125917618,1,"subseries 12",FALSE,48,1.89577226849368,43.8177843710004
"49",45.0331776747585,-0.0826742575462812,43.9700628574659,1.14578907483888,1,"subseries 1",FALSE,49,2.29824217501774,43.9700628574659
"50",44.7788399145456,0.155956492035812,44.1889098565326,0.433973565977226,1,"subseries 2",FALSE,50,1.79432862758942,44.1889098565326
"51",44.2929496846747,0.871342616612219,44.3806997100155,-0.959092641953042,1,"subseries 3",FALSE,51,1.95460621512161,44.3806997100155
"52",44.9811670482591,1.97171133575641,44.4825957095687,-1.47313999706597,1,"subseries 4",FALSE,52,2.0014874912085,44.4825957095687
"53",46.6360386417046,0.613171765686085,44.5224228060801,1.50044406993844,1,"subseries 5",FALSE,53,2.29684484874102,44.5224228060801
"54",45.3768793027006,0.46686678914166,44.4783730481202,0.431639465438714,1,"subseries 6",FALSE,54,2.56998130606308,44.4783730481202
"55",44.9104410183609,0.125271137217633,44.3869348647665,0.398235016376788,1,"subseries 7",FALSE,55,2.77178438904566,44.3869348647665
"56",45.2283860999798,-0.323724685953672,44.3060005181013,1.24611026783214,1,"subseries 8",FALSE,56,2.70357011725622,44.3060005181013
"57",43.4130250075415,-1.14169524677481,44.1565686956116,0.398151558704747,1,"subseries 9",FALSE,57,2.80917444212364,44.1565686956116
"58",42.0963675926028,-0.923734565508502,43.8188675242998,-0.798765366188498,1,"subseries 10",FALSE,58,2.69513538892235,43.8188675242998
"59",42.7950192732353,-1.07824223994537,43.3560156795097,0.517245833670998,1,"subseries 11",FALSE,59,2.21226331837129,43.3560156795097
"60",42.6181809116562,-0.654249140721175,42.697921066837,0.574508985540376,1,"subseries 12",FALSE,60,2.31734202405403,42.697921066837
"61",43.3559729917422,-0.0826742575462812,41.9527174349345,1.48592981435394,1,"subseries 1",FALSE,61,1.8370995994426,41.9527174349345
"62",43.1035831480463,0.155956492035812,41.2504149440779,1.6972117119326,1,"subseries 2",FALSE,62,2.00206346952687,41.2504149440779
"63",42.873314718144,0.871342616612219,40.5193266743368,1.48264542719496,1,"subseries 3",FALSE,63,2.04593848049236,40.5193266743368
"64",43.7842196940858,1.97171133575641,39.783220808456,2.02928754987342,1,"subseries 4",FALSE,64,2.18228616767581,39.783220808456
"65",35.9569409642024,0.613171765686085,39.0309980851697,-3.6872288866534,1,"subseries 5",FALSE,65,12.4754535985961,39.0309980851697
"66",37.1603740836162,0.46686678914166,38.2472276778832,-1.5537203834087,1,"subseries 6",FALSE,66,7.85554237748436,38.2472276778832
