"","raw","seasonal","trend","remainder","weights","sub.labels","interpolated","age","sigma","power"
"1",124.748381934703,5.24329200305271,116.463456276671,3.04163365497966,1,"subseries 1",FALSE,1,10.8124044381518,116.463456276671
"2",139.8902911562,17.8349880513693,115.778800371367,6.27650273346337,1,"subseries 2",FALSE,2,13.8706666763172,115.778800371367
"3",137.045648909167,24.6218629007239,115.13412662988,-2.71034062143661,1,"subseries 3",FALSE,3,17.1329907824801,115.13412662988
"4",135.19304810495,19.7630277993278,114.568575468906,0.861444836716032,1,"subseries 4",FALSE,4,7.71649648220575,114.568575468906
"5",118.792670237358,12.5298438674088,114.057237659676,-7.79441128972674,1,"subseries 5",FALSE,5,26.4418730676592,114.057237659676
"6",119.137302336099,4.80196432618581,113.542742238768,0.792595771145585,1,"subseries 6",FALSE,6,9.93096269922746,113.542742238768
"7",103.553818950276,-7.07201737433541,113.146533981865,-2.52069765725381,1,"subseries 7",FALSE,7,9.02319341307688,113.146533981865
"8",98.2622710631269,-11.896599007042,112.661279456433,-2.50240938626384,1,"subseries 8",FALSE,8,10.8598217845245,112.661279456433
"9",90.9273570112227,-18.3261042414338,112.538379707593,-3.28491845493701,1,"subseries 9",FALSE,9,8.20078196244134,112.538379707593
"10",90.6374407609263,-22.3229759123886,112.991498330756,-0.031081657440879,1,"subseries 10",FALSE,10,7.75444780126047,112.991498330756
"11",92.9977675140205,-16.7307767262801,113.553064192633,-3.82451995233203,1,"subseries 11",FALSE,11,8.64722215881619,113.553064192633
"12",108.656883604961,-8.44650568658846,114.086073541577,3.01731574997277,1,"subseries 12",FALSE,12,8.51830207005571,114.086073541577
"13",123.02300676975,5.24329200305271,114.497037158669,3.28267760802856,1,"subseries 1",FALSE,13,9.13936169259571,114.497037158669
"14",134.026317810376,17.8349880513693,114.903788224417,1.28754153458948,1,"subseries 2",FALSE,14,7.91672886599724,114.903788224417
"15",148.695147271425,24.6218629007239,115.02492189234,9.04836247836153,1,"subseries 3",FALSE,15,23.1395428423557,115.02492189234
"16",122.442548928151,19.7630277993278,115.077176890183,-12.3976557613598,1,"subseries 4",FALSE,16,25.3117501499451,115.077176890183
"17",137.927311573897,12.5298438674088,114.926663477872,10.470804228616,1,"subseries 5",FALSE,17,19.9906026876623,114.926663477872
"18",116.127136544613,4.80196432618581,114.694909093062,-3.36973687463471,1,"subseries 6",FALSE,18,9.18907921029453,114.694909093062
"19",104.871090058225,-7.07201737433541,114.532596109514,-2.58948867695405,1,"subseries 7",FALSE,19,10.2328741598935,114.532596109514
"20",100.032628222089,-11.896599007042,114.29914652784,-2.36991929870879,1,"subseries 8",FALSE,20,8.30172512352889,114.29914652784
"21",97.6942767158088,-18.3261042414338,114.192908427715,1.82747252952744,1,"subseries 9",FALSE,21,6.75514207828559,114.192908427715
"22",88.8294070700001,-22.3229759123886,114.151195390296,-2.99881240790715,1,"subseries 10",FALSE,22,8.31744267268617,114.151195390296
"23",98.2169291446564,-16.7307767262801,114.199504512417,0.748201358519026,1,"subseries 11",FALSE,23,8.27179521883674,114.199504512417
"24",106.37577267568,-8.44650568658846,114.082714882824,0.739563479444712,1,"subseries 12",FALSE,24,9.9107112727158,114.082714882824
"25",119.495951463007,5.24329200305271,113.871361110026,0.381298349928514,1,"subseries 1",FALSE,25,6.9109261491021,113.871361110026
"26",133.277867103755,17.8349880513693,113.656032837477,1.78684621490835,1,"subseries 2",FALSE,26,6.30581843791716,113.656032837477
"27",NA,24.6218629007239,113.276867314408,NA,1,"subseries 3",TRUE,27,NA,NA
"28",136.854084327968,19.7630277993278,113.002073083998,4.08898344464171,1,"subseries 4",FALSE,28,9.30267814361509,113.002073083998
"29",NA,12.5298438674088,112.656211102477,NA,1,"subseries 5",TRUE,29,NA,NA
"30",114.657210705938,4.80196432618581,112.297105046579,-2.44185866682704,1,"subseries 6",FALSE,30,9.04845085617857,112.297105046579
"31",103.909582100754,-7.07201737433541,111.978221079493,-0.99662160440343,1,"subseries 7",FALSE,31,9.35671799281319,111.978221079493
"32",98.3922527173185,-11.896599007042,111.574783795022,-1.28593207066125,1,"subseries 8",FALSE,32,11.1542510870015,111.574783795022
"33",90.7342586189484,-18.3261042414338,111.260763537668,-2.20040067728597,1,"subseries 9",FALSE,33,9.12970731826522,111.260763537668
"34",88.6196526752939,-22.3229759123886,111.004146016087,-0.0615174284048692,1,"subseries 10",FALSE,34,9.56627381120954,111.004146016087
"35",95.381950584299,-16.7307767262801,110.889565417271,1.22316189330773,1,"subseries 11",FALSE,35,7.38495845547976,110.889565417271
"36",100.786411426895,-8.44650568658846,110.925288444397,-1.69237133091356,1,"subseries 12",FALSE,36,10.2059246603153,110.925288444397
"37",114.889860813888,5.24329200305271,111.058727743473,-1.41215893263761,1,"subseries 1",FALSE,37,9.08441493502895,111.058727743473
"38",129.2732810501,17.8349880513693,111.30153974537,0.136753253360737,1,"subseries 2",FALSE,38,9.1662730146625,111.30153974537
"39",137.973887617669,24.6218629007239,111.58015099929,1.7718737176552,1,"subseries 3",FALSE,39,6.9973243551905,111.58015099929
"40",NA,19.7630277993278,111.838460245682,NA,1,"subseries 4",TRUE,40,NA,NA
"41",120.969848658163,12.5298438674088,112.093195855495,-3.65319106474047,1,"subseries 5",FALSE,41,24.4557993110515,112.093195855495
"42",118.278819011302,4.80196432618581,112.308824049073,1.16803063604287,1,"subseries 6",FALSE,42,14.9569453497068,112.308824049073
"43",109.187946170735,-7.07201737433541,112.463066061081,3.79689748398955,1,"subseries 7",FALSE,43,8.87147853399437,112.463066061081
"44",99.4186453527986,-11.896599007042,112.618859978379,-1.30361561853879,1,"subseries 8",FALSE,44,7.75727630436922,112.618859978379
"45",95.8331962276126,-18.3261042414338,112.704009992131,1.45529047691586,1,"subseries 9",FALSE,45,7.82948408054474,112.704009992131
"46",89.7464393962688,-22.3229759123886,112.903255975688,-0.833840667030216,1,"subseries 10",FALSE,46,8.2728891209256,112.903255975688
"47",96.915432759689,-16.7307767262801,113.184913185613,0.461296300356324,1,"subseries 11",FALSE,47,8.06010376644377,113.184913185613
"48",105.420029368497,-8.44650568658846,113.403682446369,0.462852608716673,1,"subseries 12",FALSE,48,8.07206570519882,113.403682446369
"49",115.969945139695,5.24329200305271,113.737415085204,-3.01076194856192,1,"subseries 1",FALSE,49,8.10338199345364,113.737415085204
"50",128.257226215074,17.8349880513693,114.069447956416,-3.64720979271139,1,"subseries 2",FALSE,50,17.1438663172031,114.069447956416
"51",136.286099018128,24.6218629007239,114.479408763726,-2.8151726463218,1,"subseries 3",FALSE,51,7.12199955109766,114.479408763726
"52",137.425885068467,19.7630277993278,114.860856672388,2.80200059675079,1,"subseries 4",FALSE,52,7.12136531493128,114.860856672388
"53",135.085901226112,12.5298438674088,115.191560007623,7.36449735108043,1,"subseries 5",FALSE,53,11.3473668880572,115.191560007623
"54",119.131763968073,4.80196432618581,115.453464449325,-1.12366480743758,1,"subseries 6",FALSE,54,9.16670095306036,115.453464449325
"55",108.480851634052,-7.07201737433541,115.399755263457,0.153113744929996,1,"subseries 7",FALSE,55,10.228293242364,115.399755263457
"56",104.476408376702,-11.896599007042,115.065506871841,1.30750051190329,1,"subseries 8",FALSE,56,8.10297563211214,115.065506871841
"57",97.9523668855324,-18.3261042414338,114.303746532566,1.97472459440064,1,"subseries 9",FALSE,57,8.41707581330803,114.303746532566
"58",94.870161130917,-22.3229759123886,113.422274116446,3.77086292685915,1,"subseries 10",FALSE,58,8.69656163609909,113.422274116446
"59",96.9302981292479,-16.7307767262801,112.489468595807,1.17160625972079,1,"subseries 11",FALSE,59,7.31857605488059,112.489468595807
"60",100.694399039807,-8.44650568658846,111.949958538411,-2.80905381201548,1,"subseries 12",FALSE,60,7.66934207457885,111.949958538411
"61",113.830249385043,5.24329200305271,111.734035121207,-3.14707773921712,1,"subseries 1",FALSE,61,9.33017014697812,111.734035121207
"62",122.805074366294,17.8349880513693,111.758678662767,-6.78859234784235,1,"subseries 2",FALSE,62,12.4881296986851,111.758678662767
"63",130.431519612948,24.6218629007239,112.005258156347,-6.19560144412324,1,"subseries 3",FALSE,63,13.8371679749231,112.005258156347
"64",135.616391145685,19.7630277993278,112.150909230211,3.70245411614665,1,"subseries 4",FALSE,64,10.0301596250582,112.150909230211
"65",117.626908916411,12.5298438674088,112.376804836181,-7.27973978717861,1,"subseries 5",FALSE,65,20.3251015831824,112.376804836181
"66",121.531275173004,4.80196432618581,112.659098631095,4.07021221572363,1,"subseries 6",FALSE,66,10.7372203067624,112.659098631095
"67",107.299233306667,-7.07201737433541,112.991316636593,1.37993404440932,1,"subseries 7",FALSE,67,23.104840729976,112.991316636593
"68",107.021049563082,-11.896599007042,113.417800548956,5.49984802116772,1,"subseries 8",FALSE,68,17.2527177540445,113.417800548956
