"","raw","seasonal","trend","remainder","weights","sub.labels","interpolated","age","sigma","power"
"1",61.1885524536861,0.560221242509226,70.5138990575517,-9.88556784637481,1,"subseries 1",FALSE,1,3.67964899197304,70.5138990575517
"2",68.9135309482429,0.773918161616174,71.455858243376,-3.31624545674931,1,"subseries 2",FALSE,2,12.1799158208158,71.455858243376
"3",71.4693506796798,-3.74478547670097,72.3421285716081,2.87200758477267,1,"subseries 3",FALSE,3,20.4768045408528,72.3421285716081
"4",60.369799385532,-8.68922479384967,73.1252877156281,-4.06626353624645,1,"subseries 4",FALSE,4,4.69639942195733,73.1252877156281
"5",78.892594380346,-5.57817426890725,73.8357694112564,10.6349992379968,1,"subseries 5",FALSE,5,10.7255870888232,73.8357694112564
"6",82.3935587121092,-4.99250146487245,74.6194818346008,12.7665783423809,1,"subseries 6",FALSE,6,4.21241292629858,74.6194818346008
"7",79.4426027639553,0.278497336911424,75.2377047069542,3.9264007200897,1,"subseries 7",FALSE,7,3.9740183843923,75.2377047069542
"8",79.6827508122572,7.15036915448219,75.9737413455686,-3.44135968779361,1,"subseries 8",FALSE,8,3.47098663102385,75.9737413455686
"9",79.6975509576985,4.54029589694095,76.244253153432,-1.08699809267446,1,"subseries 9",FALSE,9,4.50633649389205,76.244253153432
"10",79.7588817753636,3.97089472307955,75.6084083467663,0.179578705517784,1,"subseries 10",FALSE,10,7.27314153766025,75.6084083467663
"11",74.4145097702978,2.86573496799489,74.9704740953274,-3.42169929302447,1,"subseries 11",FALSE,11,6.56044560081642,74.9704740953274
"12",75.4252667531737,2.86475452079594,74.2774978345885,-1.71698560221076,1,"subseries 12",FALSE,12,6.5201290020849,74.2774978345885
"13",78.0792088593721,0.560221242509226,73.8591336189501,3.6598539979128,1,"subseries 1",FALSE,13,6.92342449469768,73.8591336189501
"14",75.7625035967117,0.773918161616174,73.6533271753114,1.33525825978414,1,"subseries 2",FALSE,14,5.1896620832875,73.6533271753114
"15",64.9427572927089,-3.74478547670097,73.4562494955836,-4.76870672617376,1,"subseries 3",FALSE,15,12.4039451478169,73.4562494955836
"16",62.4337981815174,-8.68922479384967,73.1316192183478,-2.00859624298073,1,"subseries 4",FALSE,16,9.64460854064254,73.1316192183478
"17",72.7229228407842,-5.57817426890725,72.6784817647047,5.62261534498673,1,"subseries 5",FALSE,17,4.50278909040371,72.6784817647047
"18",66.7985743218766,-4.99250146487245,72.2992029095429,-0.508127122793866,1,"subseries 6",FALSE,18,4.27844052428961,72.2992029095429
"19",77.286714573772,0.278497336911424,71.9025931454324,5.10562409142814,1,"subseries 7",FALSE,19,4.54659662953039,71.9025931454324
"20",76.3317441791228,7.15036915448219,71.614880491429,-2.43350546678845,1,"subseries 8",FALSE,20,4.82128867319499,71.614880491429
"21",71.9406443772246,4.54029589694095,71.3477535575882,-3.94740507730457,1,"subseries 9",FALSE,21,4.23674395877865,71.3477535575882
"22",73.4586521191145,3.97089472307955,70.9402542912959,-1.45249689526091,1,"subseries 10",FALSE,22,5.62689628721638,70.9402542912959
"23",72.4455847056592,2.86573496799489,70.6122498150188,-1.03240007735452,1,"subseries 11",FALSE,23,6.59980447936689,70.6122498150188
"24",73.2894328099378,2.86475452079594,70.5019230561322,-0.0772447669903045,1,"subseries 12",FALSE,24,5.73913714124729,70.5019230561322
"25",75.4520514391457,0.560221242509226,70.6718063821759,4.22002381446053,1,"subseries 1",FALSE,25,8.07648789456914,70.6718063821759
"26",71.1744015859554,0.773918161616174,70.9641280581083,-0.563644633769044,1,"subseries 2",FALSE,26,4.76292726745433,70.9641280581083
"27",61.0353314810901,-3.74478547670097,71.2823727889077,-6.50225583111663,1,"subseries 3",FALSE,27,5.19065906761026,71.2823727889077
"28",56.2874251263325,-8.68922479384967,71.3714086402535,-6.39475872007134,1,"subseries 4",FALSE,28,5.22399615158013,71.3714086402535
"29",78.6545282867726,-5.57817426890725,71.2826126628024,12.9500898928774,1,"subseries 5",FALSE,29,5.51619864762652,71.2826126628024
"30",69.1130328730707,-4.99250146487245,71.1471488648836,2.95838547305951,1,"subseries 6",FALSE,30,3.8597670633257,71.1471488648836
"31",69.636858684894,0.278497336911424,70.8408838575824,-1.48252250959983,1,"subseries 7",FALSE,31,5.01673293835248,70.8408838575824
"32",79.5160414550307,7.15036915448219,70.5486925334634,1.81697976708507,1,"subseries 8",FALSE,32,4.39217846272554,70.5486925334634
"33",75.3805109968666,4.54029589694095,70.0080952534521,0.832119846473603,1,"subseries 9",FALSE,33,4.45652817955787,70.0080952534521
"34",70.5083279446819,3.97089472307955,69.405247967074,-2.86781474547169,1,"subseries 10",FALSE,34,5.5188560361069,69.405247967074
"35",69.5297772639483,2.86573496799489,68.9052233979162,-2.24118110196278,1,"subseries 11",FALSE,35,5.88000704504604,68.9052233979162
"36",73.1406606241549,2.86475452079594,68.5045567936516,1.77134930970732,1,"subseries 12",FALSE,36,6.21378946085193,68.5045567936516
"37",68.6814509373827,0.560221242509226,68.4609025725473,-0.33967287767382,1,"subseries 1",FALSE,37,5.20738765792237,68.4609025725473
"38",61.6222871787742,0.773918161616174,68.4700823523975,-7.62171333523946,1,"subseries 2",FALSE,38,4.69006912155405,68.4700823523975
"39",61.104307824264,-3.74478547670097,68.618778124639,-3.76968482367403,1,"subseries 3",FALSE,39,5.08290043733115,68.618778124639
"40",67.6985263391342,-8.68922479384967,68.6349806076863,7.75277052529762,1,"subseries 4",FALSE,40,7.5923876498606,68.6349806076863
"41",63.171453662619,-5.57817426890725,68.4822140671245,0.267413864401732,1,"subseries 5",FALSE,41,6.14632625423276,68.4822140671245
"42",69.1384895446301,-4.99250146487245,68.207117531962,5.92387347754054,1,"subseries 6",FALSE,42,2.99959900794686,68.207117531962
"43",67.3518345936874,0.278497336911424,67.5181733496915,-0.444836092915551,1,"subseries 7",FALSE,43,4.12930571135364,67.5181733496915
"44",79.2002600435297,7.15036915448219,66.6925950625416,5.35729582650589,1,"subseries 8",FALSE,44,4.52533408000655,66.6925950625416
"45",69.9593376706975,4.54029589694095,65.4195788758063,-0.000537102049719351,1,"subseries 9",FALSE,45,4.27882908043244,65.4195788758063
"46",68.2308566127264,3.97089472307955,63.7533738455855,0.506588044061388,1,"subseries 10",FALSE,46,4.95619138516101,63.7533738455855
"47",64.3230906870069,2.86573496799489,61.9224318092357,-0.465076090223654,1,"subseries 11",FALSE,47,5.17080629292884,61.9224318092357
"48",61.4585500179411,2.86475452079594,60.1339333185303,-1.54013782138513,1,"subseries 12",FALSE,48,5.64509465585043,60.1339333185303
"49",58.8149409344186,0.560221242509226,58.550958894431,-0.296239202521662,1,"subseries 1",FALSE,49,4.04569010769563,58.550958894431
"50",56.6207585722167,0.773918161616174,57.6570860814399,-1.81024567083937,1,"subseries 2",FALSE,50,3.30519078504359,57.6570860814399
"51",50.5958939275017,-3.74478547670097,57.5295292481901,-3.18884984398746,1,"subseries 3",FALSE,51,4.36359470351236,57.5295292481901
"52",44.0164045534716,-8.68922479384967,57.8032406677344,-5.09761132041317,1,"subseries 4",FALSE,52,2.76487512792156,57.8032406677344
"53",40.9653727898777,-5.57817426890725,58.8045933972075,-12.2610463384226,1,"subseries 5",FALSE,53,1.95942250709196,58.8045933972075
"54",46.8708096439616,-4.99250146487245,59.7073928164055,-7.84408170757141,1,"subseries 6",FALSE,54,9.9358010327344,59.7073928164055
"55",70.4846129151252,0.278497336911424,60.8295139526057,9.37660162560805,1,"subseries 7",FALSE,55,2.73122486603492,60.8295139526057
"56",75.2666136050161,7.15036915448219,62.1594238356805,5.95682061485341,1,"subseries 8",FALSE,56,2.74998939817461,62.1594238356805
"57",73.7246242318253,4.54029589694095,63.2242027478378,5.96012558704656,1,"subseries 9",FALSE,57,4.22902744972381,63.2242027478378
"58",74.1734501237761,3.97089472307955,64.3873877610014,5.8151676396951,1,"subseries 10",FALSE,58,5.11349522398634,64.3873877610014
"59",66.2740427080285,2.86573496799489,64.8726894818075,-1.46438174177391,1,"subseries 11",FALSE,59,5.60050064302112,64.8726894818075
"60",67.0129493128072,2.86475452079594,64.7997785960854,-0.651583804074178,1,"subseries 12",FALSE,60,7.63591036653384,64.7997785960854
"61",64.5619647561834,0.560221242509226,64.2906618348467,-0.288918321172488,1,"subseries 1",FALSE,61,5.04099237544237,64.2906618348467
"62",66.9336684686144,0.773918161616174,63.5602999417752,2.59945036522302,1,"subseries 2",FALSE,62,5.33555511211343,63.5602999417752
"63",60.7060904698003,-3.74478547670097,62.9965748465777,1.45430109992357,1,"subseries 3",FALSE,63,4.40981014777161,62.9965748465777
"64",53.0936532132427,-8.68922479384967,62.5524722033842,-0.769594196291827,1,"subseries 4",FALSE,64,4.19136256571015,62.5524722033842
"65",46.123452340534,-5.57817426890725,62.3099296201961,-10.6083030107548,1,"subseries 5",FALSE,65,3.31632085840334,62.3099296201961
"66",58.1874777596142,-4.99250146487245,61.9572233193971,1.22275590508951,1,"subseries 6",FALSE,66,10.7755923153233,61.9572233193971
"67",62.6908885075801,0.278497336911424,61.6622384780849,0.750152692583789,1,"subseries 7",FALSE,67,3.60523693935997,61.6622384780849
"68",71.9266582031702,7.15036915448219,61.3817413218259,3.39454772686207,1,"subseries 8",FALSE,68,4.22786686968664,61.3817413218259
"69",68.4977194497978,4.54029589694095,61.0759059511143,2.88151760174251,1,"subseries 9",FALSE,69,3.020954232239,61.0759059511143
"70",65.786699894976,3.97089472307955,60.9055832320395,0.91022193985691,1,"subseries 10",FALSE,70,4.73663951863642,60.9055832320395
"71",62.9440199436573,2.86573496799489,60.4982294822442,-0.419944506581771,1,"subseries 11",FALSE,71,6.7116488691937,60.4982294822442
"72",61.7357658592771,2.86475452079594,59.8991628353807,-1.02815149689951,1,"subseries 12",FALSE,72,6.49151941153681,59.8991628353807
"73",61.0110835923825,0.560221242509226,59.1712151990278,1.27964715084544,1,"subseries 1",FALSE,73,5.63544274204775,59.1712151990278
"74",58.8905977414309,0.773918161616174,58.4618837960801,-0.345204216265394,1,"subseries 2",FALSE,74,4.34561274216011,58.4618837960801
"75",54.4327216308073,-3.74478547670097,57.9149746005827,0.262532506925524,1,"subseries 3",FALSE,75,3.66467578730315,57.9149746005827
"76",48.5800066076047,-8.68922479384967,57.474661683871,-0.205430282416678,1,"subseries 4",FALSE,76,3.1055517729243,57.474661683871
"77",45.470566983141,-5.57817426890725,57.1949954474379,-6.14625419538964,1,"subseries 5",FALSE,77,2.26189343440141,57.1949954474379
"78",51.3202055329306,-4.99250146487245,56.8834347824326,-0.57072778462954,1,"subseries 6",FALSE,78,3.78255239257698,56.8834347824326
"79",58.5701731123471,0.278497336911424,56.652072374137,1.63960340129872,1,"subseries 7",FALSE,79,4.17357313759962,56.652072374137
"80",65.4057862979216,7.15036915448219,56.5949491729639,1.66046797047554,1,"subseries 8",FALSE,80,3.56089130422923,56.5949491729639
"81",62.3729860310683,4.54029589694095,56.6375051893299,1.19518494479741,1,"subseries 9",FALSE,81,3.47920812295761,56.6375051893299
"82",59.8600673813932,3.97089472307955,56.8621484325722,-0.972975774258543,1,"subseries 10",FALSE,82,4.40553764988047,56.8621484325722
"83",59.4010035958464,2.86573496799489,57.0899167452518,-0.55464811740034,1,"subseries 11",FALSE,83,4.92645401795159,57.0899167452518
"84",57.7653704561804,2.86475452079594,57.0744368244835,-2.17382088909902,1,"subseries 12",FALSE,84,5.49614458256355,57.0744368244835
"85",55.7727654314892,0.560221242509226,56.9527663825482,-1.74022219356827,1,"subseries 1",FALSE,85,4.99625432018695,56.9527663825482
"86",59.9519471159132,0.773918161616174,56.6471902811606,2.53083867313644,1,"subseries 2",FALSE,86,4.67140669650948,56.6471902811606
"87",58.6612650729773,-3.74478547670097,56.1824023635491,6.22364818612918,1,"subseries 3",FALSE,87,4.21761015910964,56.1824023635491
"88",50.0552102261347,-8.68922479384967,55.8178847192333,2.92655030075105,1,"subseries 4",FALSE,88,3.85141998898044,55.8178847192333
"89",44.4538835507877,-5.57817426890725,55.293332659606,-5.2612748399111,1,"subseries 5",FALSE,89,2.77049588905255,55.293332659606
"90",52.6771707233104,-4.99250146487245,54.9060892397288,2.7635829484541,1,"subseries 6",FALSE,90,8.52559322727204,54.9060892397288
"91",53.7791543917289,0.278497336911424,54.6180617545652,-1.11740469974771,1,"subseries 7",FALSE,91,3.42731362112748,54.6180617545652
"92",57.2051820979168,7.15036915448219,54.2299828608801,-4.17516991744548,1,"subseries 8",FALSE,92,3.35860314592328,54.2299828608801
"93",55.4946715998993,4.54029589694095,54.126113436256,-3.17173773329762,1,"subseries 9",FALSE,93,9.48698435272155,54.126113436256
"94",55.0885897585396,3.97089472307955,54.0232877341447,-2.90559269868469,1,"subseries 10",FALSE,94,12.2420231404784,54.0232877341447
"95",58.7152802245875,2.86573496799489,54.0413433444588,1.80820191213386,1,"subseries 11",FALSE,95,14.7022737588274,54.0413433444588
"96",61.1866995702896,2.86475452079594,53.9314086775773,4.3905363719164,1,"subseries 12",FALSE,96,15.3803990399866,53.9314086775773
"97",56.4714943910893,0.560221242509226,53.5497682553468,2.36150489323323,1,"subseries 1",FALSE,97,8.65392694577899,53.5497682553468
"98",54.5906372211153,0.773918161616174,53.0568376367707,0.759881422728434,1,"subseries 2",FALSE,98,8.48474689846014,53.0568376367707
"99",52.8166210931018,-3.74478547670097,52.4401224355706,4.12128413423217,1,"subseries 3",FALSE,99,9.00635356601444,52.4401224355706
"100",45.9427631481007,-8.68922479384967,52.0370899003584,2.59489804159197,1,"subseries 4",FALSE,100,6.90118863428607,52.0370899003584
"101",46.2140181640065,-5.57817426890725,51.5855001519094,0.206692281004386,1,"subseries 5",FALSE,101,7.85797669681405,51.5855001519094
"102",34.4590605885532,-4.99250146487245,51.2315041704794,-11.7799421170537,1,"subseries 6",FALSE,102,5.64207342872763,51.2315041704794
"103",49.5106683398067,0.278497336911424,50.922426455457,-1.69025545256171,1,"subseries 7",FALSE,103,11.3357259196643,50.922426455457
"104",58.4497489913589,7.15036915448219,50.8208272900371,0.47855254683958,1,"subseries 8",FALSE,104,11.6254407285054,50.8208272900371
"105",57.6060194181523,4.54029589694095,50.9197339738002,2.14598954741119,1,"subseries 9",FALSE,105,9.14951446895159,50.9197339738002
"106",NA,3.97089472307955,50.4244128999738,NA,1,"subseries 10",TRUE,106,NA,NA
"107",NA,2.86573496799489,49.9173962311102,NA,1,"subseries 11",TRUE,107,NA,NA
"108",NA,2.86475452079594,49.4295970438863,NA,1,"subseries 12",TRUE,108,NA,NA
"109",NA,0.560221242509226,48.8246065728004,NA,1,"subseries 1",TRUE,109,NA,NA
"110",NA,0.773918161616174,48.5472381968418,NA,1,"subseries 2",TRUE,110,NA,NA
"111",47.7194114566052,-3.74478547670097,48.2365918226362,3.22760511066992,1,"subseries 3",FALSE,111,6.68062769899371,48.2365918226362
"112",45.1823935412813,-8.68922479384967,48.0667821050648,5.80483623006614,1,"subseries 4",FALSE,112,5.45087459302338,48.0667821050648
"113",48.118856136385,-5.57817426890725,48.0098648183993,5.68716558689297,1,"subseries 5",FALSE,113,5.86818213489582,48.0098648183993
"114",39.6382998949011,-4.99250146487245,47.9984541745241,-3.36765281475052,1,"subseries 6",FALSE,114,5.52516442820054,47.9984541745241
"115",33.78830559055,0.278497336911424,48.0549542073847,-14.5451459537461,1,"subseries 7",FALSE,115,5.17302275699905,48.0549542073847
"116",47.8106446493729,7.15036915448219,48.0779777035617,-7.41770220867095,1,"subseries 8",FALSE,116,7.39527951433005,48.0779777035617
"117",48.4101802580965,4.54029589694095,48.1356215041727,-4.26573714301716,1,"subseries 9",FALSE,117,2.69064747752285,48.1356215041727
"118",52.6740627007914,3.97089472307955,48.2001707284646,0.502997249247287,1,"subseries 10",FALSE,118,5.23656215254023,48.2001707284646
"119",58.3677279858601,2.86573496799489,48.2884684800084,7.21352453785683,1,"subseries 11",FALSE,119,4.3577565049509,48.2884684800084
"120",NA,2.86475452079594,48.4322035731515,NA,1,"subseries 12",TRUE,120,NA,NA
"121",NA,0.560221242509226,48.5981223925663,NA,1,"subseries 1",TRUE,121,NA,NA
"122",55.2600445419131,0.773918161616174,48.8248417392001,5.66128464109679,1,"subseries 2",FALSE,122,3.96844308092486,48.8248417392001
