"","raw","seasonal","trend","remainder","weights","sub.labels","interpolated","age","sigma","operating","power"
"1",305.03264795663,-5.35124924694002,244.615937041814,65.7679601617562,1,"subseries 1",FALSE,1,41.388070323246,1,244.615937041814
"2",197.2287243051,-11.6286307911747,236.874471302016,-28.017116205741,1,"subseries 2",FALSE,2,53.0548313814459,2,236.874471302016
"3",211.606140423314,-11.3628537211488,229.255791582437,-6.28679743797429,1,"subseries 3",FALSE,3,26.3097709007444,3,229.255791582437
"4",193.957264188083,0.360742355234562,221.668274460706,-28.0717526278571,1,"subseries 4",FALSE,4,23.3321746986726,4,221.668274460706
"5",188.907043171157,-2.94773284401275,214.271444991934,-22.416668976764,1,"subseries 5",FALSE,5,24.2913999562488,5,214.271444991934
"6",195.680924226202,-0.648046572117327,206.475313775682,-10.1463429773627,1,"subseries 6",FALSE,6,16.5602085265261,6,206.475313775682
"7",203.080587252174,0.110521786800815,199.184372497383,3.78569296799034,1,"subseries 7",FALSE,7,14.2114725920959,7,199.184372497383
"8",189.760533994136,-4.08844232043247,192.660032381332,1.18894393323683,1,"subseries 8",FALSE,8,10.7266477620332,8,192.660032381332
"9",195.580384486293,2.45025491130186,186.879099234712,6.25103034027899,1,"subseries 9",FALSE,9,10.7762062045343,9,186.879099234712
"10",193.195995105792,3.68309919710846,184.037145970461,5.47574993822229,1,"subseries 10",FALSE,10,14.777685989514,10,184.037145970461
"11",201.368638825028,7.27008302192928,181.753915914327,12.3446398887721,1,"subseries 11",FALSE,11,7.88716996986422,11,181.753915914327
"12",211.679055773112,22.1522542234511,180.116212847294,9.41058870236725,1,"subseries 12",FALSE,12,7.0311834065857,12,180.116212847294
"13",104.515713200481,-5.35124924694002,179.736576142822,-69.8696136954012,1,"subseries 1",FALSE,13,34.4994874415892,13,179.736576142822
"14",142.449914927425,-11.6286307911747,178.74181529066,-24.6632695720598,1,"subseries 2",FALSE,14,70.3570629828259,14,178.74181529066
"15",192.744799967269,-11.3628537211488,178.961621708335,25.1460319800827,1,"subseries 3",FALSE,15,45.4787646934932,15,178.961621708335
"16",190.396472440201,0.360742355234562,179.705139355954,10.330590729012,1,"subseries 4",FALSE,16,14.6788331153711,16,179.705139355954
"17",186.583682461167,-2.94773284401275,180.966027093805,8.56538821137519,1,"subseries 5",FALSE,17,11.9332405155326,17,180.966027093805
"18",187.681585308269,-0.648046572117327,183.73279298527,4.59683889511589,1,"subseries 6",FALSE,18,20.1340125195425,18,183.73279298527
"19",184.710461454041,0.110521786800815,185.806852420312,-1.20691275307226,1,"subseries 7",FALSE,19,27.2225652213763,19,185.806852420312
"20",183.146635849435,-4.08844232043247,188.026468499645,-0.791390329777357,1,"subseries 8",FALSE,20,23.1596155413003,20,188.026468499645
"21",190.083366825467,2.45025491130186,190.134985259898,-2.50187334573317,1,"subseries 9",FALSE,21,14.3255059404092,21,190.134985259898
"22",195.645171767423,3.68309919710846,191.121475268441,0.840597301873942,1,"subseries 10",FALSE,22,9.66343397931653,22,191.121475268441
"23",182.049578144938,7.27008302192928,192.436473498022,-17.6569783750131,1,"subseries 11",FALSE,23,40.5753655207777,23,192.436473498022
"24",207.357157473504,22.1522542234511,193.332536139505,-8.12763288945229,1,"subseries 12",FALSE,24,8.79335329318729,24,193.332536139505
"25",211.105496152944,-5.35124924694002,193.854590731174,22.6021546687096,1,"subseries 1",FALSE,25,8.77978906785054,25,193.854590731174
"26",198.209170402031,-11.6286307911747,194.570132684742,15.2676685084637,1,"subseries 2",FALSE,26,14.1228374576664,26,194.570132684742
"27",189.641511671211,-11.3628537211488,194.674733465811,6.32963192654881,1,"subseries 3",FALSE,27,12.2915693041227,27,194.674733465811
"28",191.101268607806,0.360742355234562,194.832622911252,-4.09209665868016,1,"subseries 4",FALSE,28,14.0576290611894,28,194.832622911252
"29",186.266245169007,-2.94773284401275,194.359000581124,-5.14502256810465,1,"subseries 5",FALSE,29,12.1831657763259,29,194.359000581124
"30",189.123781461191,-0.648046572117327,193.170542746458,-3.39871471314999,1,"subseries 6",FALSE,30,13.4223848283894,30,193.170542746458
"31",193.099618155667,0.110521786800815,192.022920677625,0.966175691241119,1,"subseries 7",FALSE,31,12.4550973661637,31,192.022920677625
"32",183.936995131924,-4.08844232043247,190.76230393449,-2.73686648213402,1,"subseries 8",FALSE,32,15.3429245797072,32,190.76230393449
"33",194.930981260504,2.45025491130186,190.005709493737,2.47501685546484,1,"subseries 9",FALSE,33,11.6508919084564,33,190.005709493737
"34",190.246295033532,3.68309919710846,189.403849302634,-2.8406534662108,1,"subseries 10",FALSE,34,10.8363305312058,34,189.403849302634
"35",193.901448016579,7.27008302192928,188.678427488299,-2.04706249364892,1,"subseries 11",FALSE,35,21.7497061624066,35,188.678427488299
"36",206.336958897181,22.1522542234511,187.844270449787,-3.65956577605729,1,"subseries 12",FALSE,36,28.1748941132096,36,187.844270449787
"37",196.871464455236,-5.35124924694002,186.752941298362,15.4697724038142,1,"subseries 1",FALSE,37,15.2766132169378,37,186.752941298362
"38",182.036735166871,-11.6286307911747,185.649962566825,8.0154033912211,1,"subseries 2",FALSE,38,27.9766776942405,38,185.649962566825
"39",159.397418219913,-11.3628537211488,184.2922031295,-13.5319311884387,1,"subseries 3",FALSE,39,42.2931714874806,39,184.2922031295
"40",183.807209388871,0.360742355234562,182.846761713053,0.599705320583666,1,"subseries 4",FALSE,40,20.0846137679039,40,182.846761713053
"41",183.098213710188,-2.94773284401275,181.272480289296,4.7734662649043,1,"subseries 5",FALSE,41,10.1135558255313,41,181.272480289296
"42",177.508650168779,-0.648046572117327,179.209683812507,-1.05298707161106,1,"subseries 6",FALSE,42,10.7558722813796,42,179.209683812507
"43",172.966171463251,0.110521786800815,177.049545093602,-4.19389541715194,1,"subseries 7",FALSE,43,10.1944477870928,43,177.049545093602
"44",175.010750595796,-4.08844232043247,174.826778422703,4.27241449352513,1,"subseries 8",FALSE,44,10.0589491379097,44,174.826778422703
"45",174.363892680796,2.45025491130186,172.494485163572,-0.58084739407812,1,"subseries 9",FALSE,45,8.65573464508707,45,172.494485163572
"46",177.318095900415,3.68309919710846,170.908540641792,2.72645606151426,1,"subseries 10",FALSE,46,8.12999734401069,46,170.908540641792
"47",183.431701989624,7.27008302192928,169.74713540231,6.41448356538456,1,"subseries 11",FALSE,47,6.10379408646519,47,169.74713540231
"48",191.43466084666,22.1522542234511,169.131821569599,0.150585053610143,1,"subseries 12",FALSE,48,6.48046080473538,48,169.131821569599
"49",121.231100935512,-5.35124924694002,169.302189241143,-42.719839058691,1,"subseries 1",FALSE,49,52.4902390609546,49,169.302189241143
"50",178.101391747732,-11.6286307911747,169.46290859446,20.267113944447,1,"subseries 2",FALSE,50,32.8408245805313,50,169.46290859446
"51",138.474346034326,-11.3628537211488,169.930682158415,-20.0934824029402,1,"subseries 3",FALSE,51,46.3691768087981,51,169.930682158415
"52",184.374149700129,0.360742355234562,170.415154961024,13.5982523838707,1,"subseries 4",FALSE,52,7.46092545779364,52,170.415154961024
"53",176.475002760247,-2.94773284401275,170.862755790281,8.55997981397854,1,"subseries 5",FALSE,53,26.9298321022981,53,170.862755790281
"54",177.607374829024,-0.648046572117327,171.515064535382,6.74035686575957,1,"subseries 6",FALSE,54,10.3120852840961,54,171.515064535382
"55",172.135481386619,0.110521786800815,172.165792145454,-0.140832545635902,1,"subseries 7",FALSE,55,10.6353457413169,55,172.165792145454
"56",168.27240866948,-4.08844232043247,172.861801597049,-0.500950607136474,1,"subseries 8",FALSE,56,21.2848004165441,56,172.861801597049
"57",172.630551938229,2.45025491130186,173.55452464627,-3.37422761934317,1,"subseries 9",FALSE,57,10.121892515037,57,173.55452464627
"58",174.050096119902,3.68309919710846,174.201752695353,-3.83475577255905,1,"subseries 10",FALSE,58,7.42652449737404,58,174.201752695353
