"","raw","seasonal","trend","remainder","weights","sub.labels","interpolated","age","sigma","operating","power"
"1",131.033449015134,-1.02311439631215,121.095171983841,10.9613914276049,1,"subseries 1",FALSE,1,15.5805324061852,1,121.095171983841
"2",139.825940612376,14.9445390375518,120.624680245783,4.25672132904155,1,"subseries 2",FALSE,2,13.3784648315455,2,120.624680245783
"3",147.518946891402,29.6011869169401,120.194296529266,-2.27653655480388,1,"subseries 3",FALSE,3,12.2210024865964,3,120.194296529266
"4",138.367123640652,29.3020869327201,119.810866717479,-10.7458300095468,1,"subseries 4",FALSE,4,13.4680289848334,4,119.810866717479
"5",135.002043840673,20.5431682683469,119.482200200515,-5.02332462818846,1,"subseries 5",FALSE,5,18.0183716117486,5,119.482200200515
"6",121.184792572563,6.60197584315459,119.043126240021,-4.46030951061283,1,"subseries 6",FALSE,6,18.8492704361816,6,119.043126240021
"7",112.955518634538,-2.56361842378196,118.744038605256,-3.22490154693654,1,"subseries 7",FALSE,7,11.9553414777642,7,118.744038605256
"8",106.112621801441,-14.0362095230445,118.50555696953,1.6432743549553,1,"subseries 8",FALSE,8,14.6620700537244,8,118.50555696953
"9",105.770545398468,-19.411534694215,118.561760892864,6.62031919981898,1,"subseries 9",FALSE,9,9.54299810296167,9,118.561760892864
"10",96.7016170669537,-21.4174047936711,118.835837242452,-0.716815381826805,1,"subseries 10",FALSE,10,9.29969708312717,10,118.835837242452
"11",94.3092532266866,-23.2932611898365,118.590772746537,-0.988258330013949,1,"subseries 11",FALSE,11,8.73356109556281,11,118.590772746537
"12",104.549096052532,-19.2478139778522,118.280000973512,5.51690905687201,1,"subseries 12",FALSE,12,15.4127649702512,12,118.280000973512
"13",123.892413383339,-1.02311439631215,117.650225771982,7.26530200766936,1,"subseries 1",FALSE,13,12.6126545675237,13,117.650225771982
"14",131.497386061079,14.9445390375518,116.929139020278,-0.376291996750879,1,"subseries 2",FALSE,14,12.4682746670477,14,116.929139020278
"15",142.112842956847,29.6011869169401,116.20567358942,-3.69401754951311,1,"subseries 3",FALSE,15,12.3020163926595,15,116.20567358942
"16",134.471021753785,29.3020869327201,115.337270625182,-10.1683358041166,1,"subseries 4",FALSE,16,12.967398938795,16,115.337270625182
"17",134.917510696875,20.5431682683469,114.628351842147,-0.254009413618803,1,"subseries 5",FALSE,17,13.7775086804635,17,114.628351842147
"18",124.699613004253,6.60197584315459,113.892648663693,4.20498849740513,1,"subseries 6",FALSE,18,18.0120195496822,18,113.892648663693
"19",112.674679822148,-2.56361842378196,113.428120881754,1.81017736417597,1,"subseries 7",FALSE,19,22.3716318340137,19,113.428120881754
"20",96.3056640571685,-14.0362095230445,112.933816664188,-2.59194308397547,1,"subseries 8",FALSE,20,13.9387727803932,20,112.933816664188
"21",93.3143479658837,-19.411534694215,112.167313871513,0.558568788585546,1,"subseries 9",FALSE,21,11.8228548332471,21,112.167313871513
"22",92.3878469779486,-21.4174047936711,110.990366079877,2.81488569174276,1,"subseries 10",FALSE,22,12.5024742287525,22,110.990366079877
"23",89.6356225914563,-23.2932611898365,109.16078297756,3.76810080373298,1,"subseries 11",FALSE,23,9.52958400127567,23,109.16078297756
"24",97.0811684644584,-19.2478139778522,107.620376749606,8.70860569270414,1,"subseries 12",FALSE,24,11.8016605467643,24,107.620376749606
"25",108.841470720929,-1.02311439631215,106.131056512665,3.73352860457638,1,"subseries 1",FALSE,25,12.6618500215245,25,106.131056512665
"26",115.167636219678,14.9445390375518,105.487650156945,-5.26455297481877,1,"subseries 2",FALSE,26,12.9279353127426,26,105.487650156945
"27",122.226949991876,29.6011869169401,105.68683644592,-13.0610733709836,1,"subseries 3",FALSE,27,9.92328447015222,27,105.68683644592
"28",118.94558132694,29.3020869327201,106.112910915268,-16.4694165210484,1,"subseries 4",FALSE,28,8.26360697950192,28,106.112910915268
"29",117.978020481823,20.5431682683469,107.809391544507,-10.3745393310308,1,"subseries 5",FALSE,29,10.695542617505,29,107.809391544507
"30",115.377290907163,6.60197584315459,109.561719022791,-0.786403958782458,1,"subseries 6",FALSE,30,16.5133253719166,30,109.561719022791
"31",111.561211162749,-2.56361842378196,112.00324516291,2.12158442362083,1,"subseries 7",FALSE,31,21.923439854556,31,112.00324516291
"32",108.878662194994,-14.0362095230445,114.700759140697,8.21411257734165,1,"subseries 8",FALSE,32,25.4432304365762,32,114.700759140697
"33",100.316290536336,-19.411534694215,116.725302142632,3.00252308791906,1,"subseries 9",FALSE,33,14.7231842878609,33,116.725302142632
"34",111.159662181479,-21.4174047936711,118.616155718163,13.960911256987,1,"subseries 10",FALSE,34,9.60871773715745,34,118.616155718163
"35",105.870046862435,-23.2932611898365,119.241148254197,9.92215979807479,1,"subseries 11",FALSE,35,11.0761178418737,35,119.241148254197
"36",101.759731215294,-19.2478139778522,119.572276498257,1.43526869488971,1,"subseries 12",FALSE,36,10.2831521449509,36,119.572276498257
"37",116.650931032569,-1.02311439631215,119.438892100366,-1.76484667148478,1,"subseries 1",FALSE,37,14.6071466963003,37,119.438892100366
"38",130.613557491126,14.9445390375518,119.260340295016,-3.59132184144141,1,"subseries 2",FALSE,38,13.3114367448801,38,119.260340295016
"39",139.84738338264,29.6011869169401,119.672686288527,-9.42648982282732,1,"subseries 3",FALSE,39,8.23447665396887,39,119.672686288527
"40",139.346623523197,29.3020869327201,120.065107706117,-10.0205711156402,1,"subseries 4",FALSE,40,12.1945399514937,40,120.065107706117
"41",135.389044492147,20.5431682683469,121.426289721129,-6.58041349732869,1,"subseries 5",FALSE,41,15.3809023784562,41,121.426289721129
"42",128.061126246986,6.60197584315459,122.908125049349,-1.44897464551717,1,"subseries 6",FALSE,42,13.8928707024676,42,122.908125049349
"43",125.853026909037,-2.56361842378196,124.6732896998,3.74335563301884,1,"subseries 7",FALSE,43,13.1637060683547,43,124.6732896998
"44",117.895228911945,-14.0362095230445,126.413300483065,5.51813795192432,1,"subseries 8",FALSE,44,11.8737010721902,44,126.413300483065
"45",116.032527047516,-19.411534694215,127.421018826056,8.02304291567501,1,"subseries 9",FALSE,45,13.1548534372504,45,127.421018826056
"46",114.357685175874,-21.4174047936711,127.864894452624,7.91019551692094,1,"subseries 10",FALSE,46,11.0018721724947,46,127.864894452624
"47",112.569322996737,-23.2932611898365,126.951559474849,8.91102471172445,1,"subseries 11",FALSE,47,10.5226847689311,47,126.951559474849
"48",109.006298775886,-19.2478139778522,125.485278429736,2.76883432400176,1,"subseries 12",FALSE,48,10.4058353569556,48,125.485278429736
"49",125.89846388611,-1.02311439631215,123.251396073182,3.67018220924051,1,"subseries 1",FALSE,49,14.7135031703165,49,123.251396073182
"50",136.70688194812,14.9445390375518,121.30509570174,0.457247208827908,1,"subseries 2",FALSE,50,12.8512518730422,50,121.30509570174
"51",145.850053248271,29.6011869169401,119.944178898845,-3.69531256751371,1,"subseries 3",FALSE,51,12.2517514293631,51,119.944178898845
"52",133.139541493918,29.3020869327201,118.919881004032,-15.0824264428337,1,"subseries 4",FALSE,52,13.5849610373878,52,118.919881004032
"53",121.964761021291,20.5431682683469,119.192781080314,-17.7711883273699,1,"subseries 5",FALSE,53,12.9009118838056,53,119.192781080314
"54",121.044791891109,6.60197584315459,120.00891905086,-5.56610300290524,1,"subseries 6",FALSE,54,12.3647286216182,54,120.00891905086
"55",113.090862571156,-2.56361842378196,122.139472952228,-6.48499195728995,1,"subseries 7",FALSE,55,12.5713913701755,55,122.139472952228
"56",120.045248438679,-14.0362095230445,125.504861195768,8.57659676595551,1,"subseries 8",FALSE,56,25.3013426998942,56,125.504861195768
"57",110.815904144493,-19.411534694215,129.813407061041,0.414031777666821,1,"subseries 9",FALSE,57,28.2573645108414,57,129.813407061041
"58",109.110333888563,-21.4174047936711,135.758842133789,-5.23110345155482,1,"subseries 10",FALSE,58,22.818613708005,58,135.758842133789
"59",110.456559978009,-23.2932611898365,142.415482587072,-8.66566141922689,1,"subseries 11",FALSE,59,17.3963556839628,59,142.415482587072
"60",130.377987241488,-19.2478139778522,148.319278121804,1.30652309753594,1,"subseries 12",FALSE,60,25.9280534747583,60,148.319278121804
"61",146.0168856202,-1.02311439631215,153.920919421751,-6.88091940523927,1,"subseries 1",FALSE,61,24.3192281973435,61,153.920919421751
"62",171.681952610168,14.9445390375518,157.399341972484,-0.661928399867321,1,"subseries 2",FALSE,62,26.3453406916426,62,157.399341972484
"63",200.245306277572,29.6011869169401,158.984282911508,11.659836449124,1,"subseries 3",FALSE,63,26.2182500631495,63,158.984282911508
"64",234.177684563773,29.3020869327201,159.988452689462,44.8871449415913,1,"subseries 4",FALSE,64,24.6853890498329,64,159.988452689462
"65",205.342401365367,20.5431682683469,158.619561579687,26.1796715173335,1,"subseries 5",FALSE,65,23.2373633995072,65,158.619561579687
"66",168.012027770841,6.60197584315459,156.922869943413,4.48718198427326,1,"subseries 6",FALSE,66,27.7800454455706,66,156.922869943413
"67",143.087865441743,-2.56361842378196,153.710472232798,-8.05898836727306,1,"subseries 7",FALSE,67,29.3397031415392,67,153.710472232798
"68",116.092320435198,-14.0362095230445,149.863768845221,-19.7352388869786,1,"subseries 8",FALSE,68,26.4578847201805,68,149.863768845221
"69",116.208646449074,-19.411534694215,146.784329468157,-11.1641483248677,1,"subseries 9",FALSE,69,25.5419270757776,69,146.784329468157
"70",114.392888620559,-21.4174047936711,143.926960762327,-8.1166673480966,1,"subseries 10",FALSE,70,25.048613562981,70,143.926960762327
"71",113.419769295312,-23.2932611898365,143.655522010894,-6.94249152574517,1,"subseries 11",FALSE,71,18.9035504099861,71,143.655522010894
"72",103.924979303305,-19.2478139778522,144.377071045012,-21.2042777638549,1,"subseries 12",FALSE,72,19.7266230389793,72,144.377071045012
"73",134.545376308898,-1.02311439631215,146.305102354519,-10.7366116493089,1,"subseries 1",FALSE,73,26.6744907106688,73,146.305102354519
"74",169.743506577307,14.9445390375518,148.20472082711,6.59424671264557,1,"subseries 2",FALSE,74,22.7118711035636,74,148.20472082711
"75",200.703261911296,29.6011869169401,149.341494300684,21.7605806936721,1,"subseries 3",FALSE,75,31.8542504775573,75,149.341494300684
"76",198.049577896792,29.3020869327201,150.079166496058,18.668324468014,1,"subseries 4",FALSE,76,18.7589575503366,76,150.079166496058
"77",184.34801509426,20.5431682683469,148.955554759034,14.8492920668791,1,"subseries 5",FALSE,77,22.0642432740253,77,148.955554759034
"78",156.850970825928,6.60197584315459,145.663178280694,4.58581670207991,1,"subseries 6",FALSE,78,24.9557051651414,78,145.663178280694
"79",150.202961232367,-2.56361842378196,141.421170670937,11.345408985212,1,"subseries 7",FALSE,79,24.6822017486662,79,141.421170670937
"80",123.442065834296,-14.0362095230445,137.463617731276,0.0146576260643485,1,"subseries 8",FALSE,80,28.4052676088491,80,137.463617731276
"81",108.430324268003,-19.411534694215,133.239014827746,-5.39715586552805,1,"subseries 9",FALSE,81,25.0507708531697,81,133.239014827746
"82",99.0918471319796,-21.4174047936711,128.764318190738,-8.25506626508682,1,"subseries 10",FALSE,82,20.6646088084121,82,128.764318190738
"83",97.2682052277123,-23.2932611898365,124.148117468975,-3.58665105142661,1,"subseries 11",FALSE,83,19.3664443600906,83,124.148117468975
"84",103.946716550646,-19.2478139778522,119.321693526559,3.87283700193876,1,"subseries 12",FALSE,84,18.7427676355907,84,119.321693526559
"85",109.504537238394,-1.02311439631215,114.399852038744,-3.87220040403771,1,"subseries 1",FALSE,85,20.6761064294249,85,114.399852038744
