"","raw","seasonal","trend","remainder","weights","sub.labels","interpolated","age","sigma","operating","power"
"1",90.5999674871205,-10.6438053786564,108.094477323596,-6.85070445781859,1,"subseries 1",FALSE,1,9.1764026925343,1,108.094477323596
"2",91.925044046998,-10.3332839563642,108.588203499629,-6.3298754962665,1,"subseries 2",FALSE,2,10.162089196893,2,108.588203499629
"3",104.508460792587,-2.47264295039894,109.01348237808,-2.03237863509447,1,"subseries 3",FALSE,3,5.60601695133531,3,109.01348237808
"4",122.627041227295,3.10293200520875,109.306165248751,10.2179439733357,1,"subseries 4",FALSE,4,4.85794818189726,4,109.306165248751
"5",116.940933959701,6.95197435949258,109.505538464912,0.483421135296425,1,"subseries 5",FALSE,5,5.70832354375183,5,109.505538464912
"6",115.56696726416,5.06649511714008,109.7004561302,0.800016016819839,1,"subseries 6",FALSE,6,7.65370492492891,6,109.7004561302
"7",125.689671305761,5.3134603341558,109.695301007234,10.6809099643708,1,"subseries 7",FALSE,7,5.43982143415995,7,109.695301007234
"8",112.297287001702,3.1803772520001,109.828357411871,-0.71144766216878,1,"subseries 8",FALSE,8,5.79123874257658,8,109.828357411871
"9",117.746088961666,2.91123851885508,109.376219421054,5.45863102175673,1,"subseries 9",FALSE,9,9.47495183031024,9,109.376219421054
"10",117.006425157599,1.97787885330097,108.234759445858,6.79378685843967,1,"subseries 10",FALSE,10,9.69430891471349,10,108.234759445858
"11",108.362220845461,-0.792381815762527,107.093156541854,2.06144611936951,1,"subseries 11",FALSE,11,6.60227457944063,11,107.093156541854
"12",90.4634427359319,-4.26224233897123,106.130710569695,-11.4050254947919,1,"subseries 12",FALSE,12,0.0114691440689833,12,106.130710569695
"13",85.6212354231328,-10.6438053786564,105.639649939045,-9.37460913725531,1,"subseries 1",FALSE,13,2.82325690365672,13,105.639649939045
"14",91.3065589658314,-10.3332839563642,105.110282517216,-3.47043959502064,1,"subseries 2",FALSE,14,5.3209687700111,14,105.110282517216
"15",99.2155521390982,-2.47264295039894,105.234848228346,-3.54665313884921,1,"subseries 3",FALSE,15,6.64341359312681,15,105.234848228346
"16",110.589190806082,3.10293200520875,105.564247100321,1.92201170055253,1,"subseries 4",FALSE,16,6.35291601341117,16,105.564247100321
"17",115.035094693589,6.95197435949258,106.193538255166,1.88958207893047,1,"subseries 5",FALSE,17,6.61830200663571,17,106.193538255166
"18",114.580363471895,5.06649511714007,107.482299228732,2.03156912602336,1,"subseries 6",FALSE,18,7.75531146199043,18,107.482299228732
"19",115.409842331949,5.3134603341558,108.701363940759,1.39501805703405,1,"subseries 7",FALSE,19,7.88185395307251,19,108.701363940759
"20",114.723761160986,3.1803772520001,110.053672178327,1.48971173065867,1,"subseries 8",FALSE,20,8.57868691703712,20,110.053672178327
"21",113.747678858093,2.91123851885508,111.393709595824,-0.557269256586508,1,"subseries 9",FALSE,21,8.0838704879905,21,111.393709595824
"22",110.09625681374,1.97787885330097,112.15260794222,-4.03422998178061,1,"subseries 10",FALSE,22,7.64983078565693,22,112.15260794222
"23",103.262476770037,-0.792381815762527,112.689713230451,-8.63485464465107,1,"subseries 11",FALSE,23,6.28391907138232,23,112.689713230451
"24",118.828750922955,-4.26224233897123,112.804163385518,10.2868298764084,1,"subseries 12",FALSE,24,7.30979463979065,24,112.804163385518
"25",109.580753731138,-10.6438053786564,112.510508850196,7.71405025959831,1,"subseries 1",FALSE,25,6.65583615490521,25,112.510508850196
"26",108.903977754587,-10.3332839563642,112.29492546812,6.94233624283098,1,"subseries 2",FALSE,26,6.46689690852937,26,112.29492546812
"27",112.093287764801,-2.47264295039894,111.661597495692,2.90433321950761,1,"subseries 3",FALSE,27,5.34560377345613,27,111.661597495692
"28",108.179130300928,3.10293200520875,111.117261590849,-6.0410632951301,1,"subseries 4",FALSE,28,5.75778139439215,28,111.117261590849
"29",115.813956453379,6.95197435949258,110.465628734107,-1.60364664022022,1,"subseries 5",FALSE,29,5.43974596944894,29,110.465628734107
"30",111.782313543992,5.06649511714007,109.497932657768,-2.78211423091604,1,"subseries 6",FALSE,30,6.34289524458999,30,109.497932657768
"31",110.351226081788,5.3134603341558,108.926090176299,-3.88832442866679,1,"subseries 7",FALSE,31,9.75783224395238,31,108.926090176299
"32",108.491981650352,3.1803772520001,108.203292370285,-2.89168797193283,1,"subseries 8",FALSE,32,7.99503555408972,32,108.203292370285
"33",109.738594055111,2.91123851885508,107.659407900812,-0.832052364556191,1,"subseries 9",FALSE,33,8.44944958890095,33,107.659407900812
"34",113.812602925568,1.97787885330097,107.477715337273,4.35700873499431,1,"subseries 10",FALSE,34,9.15893858876968,34,107.477715337273
"35",109.766882153336,-0.792381815762527,107.249396435251,3.30986753384731,1,"subseries 11",FALSE,35,6.14401128785269,35,107.249396435251
"36",107.374433722041,-4.26224233897123,107.286838850373,4.34983721063931,1,"subseries 12",FALSE,36,5.95482911883476,36,107.286838850373
"37",97.5398969580516,-10.6438053786564,107.280494866204,0.903207470504242,1,"subseries 1",FALSE,37,6.53064725026082,37,107.280494866204
"38",84.6153282574909,-10.3332839563642,107.19903112274,-12.2504189088851,1,"subseries 2",FALSE,38,6.8082460224039,38,107.19903112274
"39",103.729047970397,-2.47264295039894,107.174634164708,-0.972943243912169,1,"subseries 3",FALSE,39,11.8446890401461,39,107.174634164708
"40",114.925708155831,3.10293200520875,107.027912598028,4.79486355259432,1,"subseries 4",FALSE,40,5.61283527491578,40,107.027912598028
"41",111.925644188479,6.95197435949258,107.123739273638,-2.15006944465192,1,"subseries 5",FALSE,41,5.16282936670171,41,107.123739273638
"42",113.130686407234,5.06649511714007,107.37940712582,0.684784164273978,1,"subseries 6",FALSE,42,6.80384915102845,42,107.37940712582
"43",112.467685152304,5.3134603341558,107.684371126524,-0.530146308375336,1,"subseries 7",FALSE,43,7.87082134869949,43,107.684371126524
"44",111.413860984609,3.1803772520001,107.965572893406,0.267910839202756,1,"subseries 8",FALSE,44,10.6248909499463,44,107.965572893406
"45",112.294626883977,2.91123851885508,107.994660843254,1.38872752186808,1,"subseries 9",FALSE,45,8.90904909736601,45,107.994660843254
"46",111.334302585858,1.97787885330097,107.945144002001,1.41127973055612,1,"subseries 10",FALSE,46,7.66524177906007,46,107.945144002001
"47",110.683576930889,-0.792381815762527,107.822900505536,3.65305824111535,1,"subseries 11",FALSE,47,7.44191000060739,47,107.822900505536
"48",102.537670637657,-4.26224233897123,107.723018354317,-0.923105377689126,1,"subseries 12",FALSE,48,7.01582365228205,48,107.723018354317
"49",97.4697177010734,-10.6438053786564,107.571876841988,0.541646237742,1,"subseries 1",FALSE,49,5.80165211491353,49,107.571876841988
"50",87.5137178442366,-10.3332839563642,107.239127001726,-9.39212520112565,1,"subseries 2",FALSE,50,9.42876382801881,50,107.239127001726
"51",110.456748328927,-2.47264295039894,106.8945148001,6.03487647922549,1,"subseries 3",FALSE,51,5.79160931858729,51,106.8945148001
"52",110.897658392224,3.10293200520875,106.434817674037,1.3599087129784,1,"subseries 4",FALSE,52,5.64691810445637,52,106.434817674037
"53",112.56538152242,6.95197435949258,105.953830188573,-0.340423025645947,1,"subseries 5",FALSE,53,5.14423533845983,53,105.953830188573
"54",112.132026558992,5.06649511714007,105.539225034198,1.52630640765389,1,"subseries 6",FALSE,54,5.50387179140503,54,105.539225034198
"55",110.427449436498,5.3134603341558,105.007447774922,0.106541327420615,1,"subseries 7",FALSE,55,6.8347680252433,55,105.007447774922
"56",108.601514949367,3.1803772520001,104.72153242429,0.699605273077253,1,"subseries 8",FALSE,56,8.81091600021633,56,104.72153242429
"57",106.739015505253,2.91123851885508,104.576622435906,-0.748845449508337,1,"subseries 9",FALSE,57,10.7613183570117,57,104.576622435906
"58",103.847250166522,1.97787885330097,104.499334418531,-2.6299631053096,1,"subseries 10",FALSE,58,7.73327778327646,58,104.499334418531
"59",101.51264062626,-0.792381815762527,104.73698960673,-2.43196716470716,1,"subseries 11",FALSE,59,6.47831476259803,59,104.73698960673
"60",95.7862872847216,-4.26224233897123,104.729733153607,-4.68120352991401,1,"subseries 12",FALSE,60,5.75929177166959,60,104.729733153607
"61",89.1557081600619,-10.6438053786564,104.716818743138,-4.91730520441936,1,"subseries 1",FALSE,61,5.44139619437071,61,104.716818743138
"62",104.689664139945,-10.3332839563642,104.60423649537,10.4187116009389,1,"subseries 2",FALSE,62,11.2354025065187,62,104.60423649537
"63",108.104299300864,-2.47264295039894,104.235432974352,6.3415092769114,1,"subseries 3",FALSE,63,6.92151980003433,63,104.235432974352
"64",109.394860878306,3.10293200520875,104.14448679937,2.14744207372753,1,"subseries 4",FALSE,64,5.66932291636415,64,104.14448679937
"65",113.091174098015,6.95197435949258,103.804905793401,2.33429394512177,1,"subseries 5",FALSE,65,5.10587779686632,65,103.804905793401
"66",104.355052225406,5.06649511714007,103.636696393337,-4.34813928507077,1,"subseries 6",FALSE,66,5.37082168821038,66,103.636696393337
"67",103.657357567647,5.3134603341558,103.621177479677,-5.27728024618617,1,"subseries 7",FALSE,67,7.14025750941306,67,103.621177479677
"68",103.937785963865,3.1803772520001,103.396570938814,-2.63916222694888,1,"subseries 8",FALSE,68,8.1609652624906,68,103.396570938814
"69",102.018529425556,2.91123851885508,103.666952870555,-4.55966196385397,1,"subseries 9",FALSE,69,8.55944773442275,69,103.666952870555
"70",102.302685257617,1.97787885330097,103.829935464144,-3.50512905982795,1,"subseries 10",FALSE,70,7.86515601418503,70,103.829935464144
"71",106.444086165128,-0.792381815762527,104.072472308446,3.1639956724441,1,"subseries 11",FALSE,71,7.90842486580369,71,104.072472308446
"72",103.419519123863,-4.26224233897123,104.301678450798,3.38008301203577,1,"subseries 12",FALSE,72,6.8385341153198,72,104.301678450798
"73",102.609322787229,-10.6438053786564,104.069813987462,9.18331417842333,1,"subseries 1",FALSE,73,7.45879806901144,73,104.069813987462
"74",96.4538899772677,-10.3332839563642,103.860533907369,2.92664002626297,1,"subseries 2",FALSE,74,5.97393851257155,74,103.860533907369
"75",103.911773656843,-2.47264295039894,103.135902607654,3.24851399958834,1,"subseries 3",FALSE,75,5.71458338941753,75,103.135902607654
"76",104.784202555862,3.10293200520875,102.19136296524,-0.510092414587191,1,"subseries 4",FALSE,76,5.67014364917852,76,102.19136296524
"77",103.758007244236,6.95197435949258,101.055948546236,-4.24991566149295,1,"subseries 5",FALSE,77,5.19578910802569,77,101.055948546236
"78",102.888311070902,5.06649511714007,99.6504516834768,-1.82863572971483,1,"subseries 6",FALSE,78,5.55711811356621,78,99.6504516834768
"79",100.752970914872,5.3134603341558,98.4979528314325,-3.05844225071627,1,"subseries 7",FALSE,79,6.39224855100877,79,98.4979528314325
"80",100.986012754996,3.1803772520001,97.3272779321646,0.478357570831292,1,"subseries 8",FALSE,80,10.5323304158506,80,97.3272779321646
"81",99.3625321807799,2.91123851885508,96.3553658864862,0.095927775438625,1,"subseries 9",FALSE,81,13.6750510499084,81,96.3553658864862
"82",96.4490994648447,1.97787885330097,95.5298468781224,-1.0586262665787,1,"subseries 10",FALSE,82,7.40348719390563,82,95.5298468781224
"83",94.6565261941521,-0.792381815762527,94.6876139048056,0.761294105108988,1,"subseries 11",FALSE,83,6.63840960729827,83,94.6876139048056
"84",91.808945249273,-4.26224233897123,94.2773057104229,1.79388187782131,1,"subseries 12",FALSE,84,5.61380986569517,84,94.2773057104229
"85",87.8442943655215,-10.6438053786564,94.0330154038962,4.4550843402818,1,"subseries 1",FALSE,85,5.28392373873109,85,94.0330154038962
"86",81.2146645038812,-10.3332839563642,93.8914129031481,-2.34346444290267,1,"subseries 2",FALSE,86,3.46954757088279,86,93.8914129031481
"87",78.2405140583626,-2.47264295039894,93.9791106736026,-13.265953664841,1,"subseries 3",FALSE,87,8.32620626955793,87,93.9791106736026
"88",94.5526551821612,3.10293200520875,93.8550695983749,-2.40534642142248,1,"subseries 4",FALSE,88,5.82610446661067,88,93.8550695983749
"89",106.361997984849,6.95197435949258,93.8313290758029,5.57869454955353,1,"subseries 5",FALSE,89,5.82867671853386,89,93.8313290758029
"90",103.059590319942,5.06649511714007,93.8228723802101,4.1702228225918,1,"subseries 6",FALSE,90,6.19412343978539,90,93.8228723802101
"91",99.7550150847967,5.3134603341558,93.772950253664,0.668604496976869,1,"subseries 7",FALSE,91,6.35243178122938,91,93.772950253664
"92",100.512853673658,3.1803772520001,94.1957284059258,3.13674801573207,1,"subseries 8",FALSE,92,6.92617699800521,92,94.1957284059258
"93",96.9110863225037,2.91123851885508,94.5170007742535,-0.517152970604897,1,"subseries 9",FALSE,93,7.43369053372399,93,94.5170007742535
"94",94.6162602656286,1.97787885330097,94.2306217410985,-1.59224032877088,1,"subseries 10",FALSE,94,8.10162513039947,94,94.2306217410985
"95",91.1367406248879,-0.792381815762527,93.7754772963695,-1.84635485571907,1,"subseries 11",FALSE,95,5.88197971568457,95,93.7754772963695
"96",86.6363781012449,-4.26224233897123,93.2363408965989,-2.33772045638275,1,"subseries 12",FALSE,96,5.53495080382707,96,93.2363408965989
"97",81.3978141314391,-10.6438053786564,92.6290351047482,-0.587415594652612,1,"subseries 1",FALSE,97,10.7964895707738,97,92.6290351047482
"98",96.5118365699114,-10.3332839563642,92.07613265199,14.7689878742856,1,"subseries 2",FALSE,98,6.00195473675823,98,92.07613265199
"99",91.5418000757913,-2.47264295039894,91.5010864371039,2.51335658908634,1,"subseries 3",FALSE,99,5.11400341445897,99,91.5010864371039
"100",83.7011651159914,3.10293200520875,90.9197736464078,-10.3215405356252,1,"subseries 4",FALSE,100,5.06924509110948,100,90.9197736464078
"101",96.3018598716343,6.95197435949258,90.3240215897596,-0.974136077617885,1,"subseries 5",FALSE,101,5.24604672868434,101,90.3240215897596
