"","raw","seasonal","trend","remainder","weights","sub.labels","interpolated","age","sigma","operating","power"
"1",165.765525220962,9.13390636582769,146.312755808399,10.3188630467356,1,"subseries 1",FALSE,1,28.0083949332785,1,146.312755808399
"2",158.868136374493,9.46164846695217,147.37694448725,2.02954342029034,1,"subseries 2",FALSE,2,29.9024932953878,2,147.37694448725
"3",155.474197820798,12.6819975809662,148.46487766113,-5.67267742129812,1,"subseries 3",FALSE,3,33.2707960591149,3,148.46487766113
"4",153.500333979882,10.8266042354327,149.566803728304,-6.89307398385463,1,"subseries 4",FALSE,4,36.2912791065272,4,149.566803728304
"5",151.349486968442,4.82807784775405,150.701148140041,-4.17973901935292,1,"subseries 5",FALSE,5,36.7490712489282,5,150.701148140041
"6",156.244692836884,3.08375354716139,151.740004477018,1.42093481270422,1,"subseries 6",FALSE,6,37.3577426339735,6,151.740004477018
"7",154.15225832816,-0.890104080964851,152.864092905617,2.17826950350798,1,"subseries 7",FALSE,7,29.5682454494093,7,152.864092905617
"8",137.316398859549,-4.48738001531892,154.080178587451,-12.2763997125829,1,"subseries 8",FALSE,8,27.697698901523,8,154.080178587451
"9",137.591137756995,-18.2932737155064,155.389298807753,0.49511266474866,1,"subseries 9",FALSE,9,34.0291362070783,9,155.389298807753
"10",155.376633766679,-14.4123770485406,156.545331065027,13.243679750193,1,"subseries 10",FALSE,10,34.7204698942294,10,156.545331065027
"11",159.34711215645,-8.91849750706675,157.179953873356,11.0856557901606,1,"subseries 11",FALSE,11,34.5324779512511,11,157.179953873356
"12",154.883752031393,-3.01435567669658,157.731951699505,0.166156008584863,1,"subseries 12",FALSE,12,29.357686836664,12,157.731951699505
"13",163.60557416151,9.13390636582769,157.784300867537,-3.31263307185472,1,"subseries 1",FALSE,13,28.0678243698226,13,157.784300867537
"14",169.786885244262,9.46164846695217,157.282649451579,3.04258732573061,1,"subseries 2",FALSE,14,29.0047616300779,14,157.282649451579
"15",162.9093272695,12.6819975809662,156.332993345501,-6.10566365696681,1,"subseries 3",FALSE,15,33.0214033617207,15,156.332993345501
"16",168.096947563068,10.8266042354327,155.479798641279,1.79054468635644,1,"subseries 4",FALSE,16,36.5838189369363,16,155.479798641279
"17",163.680701442969,4.82807784775405,155.171756818965,3.68086677624967,1,"subseries 5",FALSE,17,36.905435975006,17,155.171756818965
"18",158.166106199133,3.08375354716139,155.380361826175,-0.298009174203798,1,"subseries 6",FALSE,18,35.4100592346873,18,155.380361826175
"19",148.274320607578,-0.890104080964851,156.152044246663,-6.98761955812051,1,"subseries 7",FALSE,19,27.427810527244,19,156.152044246663
"20",128.369749899588,-4.48738001531892,156.720160656081,-23.8630307411744,1,"subseries 8",FALSE,20,27.2540097830957,20,156.720160656081
"21",145.789196935779,-18.2932737155064,157.463126761687,6.61934388959864,1,"subseries 9",FALSE,21,29.8751895366298,21,157.463126761687
"22",157.405871978576,-14.4123770485406,157.960396256224,13.8578527708922,1,"subseries 10",FALSE,22,31.1117473344425,22,157.960396256224
"23",158.494647877826,-8.91849750706675,158.202964790391,9.21018059450137,1,"subseries 11",FALSE,23,30.51315525234,23,158.202964790391
"24",154.031128828915,-3.01435567669658,158.759622306253,-1.71413780064117,1,"subseries 12",FALSE,24,29.7164088073509,24,158.759622306253
"25",170.690779457394,9.13390636582769,158.694994701525,2.8618783900412,1,"subseries 1",FALSE,25,27.7282682903711,25,158.694994701525
"26",172.766093224664,9.46164846695217,158.620011373561,4.68443338415054,1,"subseries 2",FALSE,26,28.5273413453729,26,158.620011373561
"27",170.228902520426,12.6819975809662,158.289192866176,-0.742287926716273,1,"subseries 3",FALSE,27,32.5906324519051,27,158.289192866176
"28",155.540960468124,10.8266042354327,157.733386965117,-13.0190307324261,1,"subseries 4",FALSE,28,33.1741563021165,28,157.733386965117
"29",165.443706382335,4.82807784775405,157.780420471624,2.83520806295672,1,"subseries 5",FALSE,29,36.8477384233909,29,157.780420471624
"30",158.897403313382,3.08375354716139,157.841890762232,-2.02824099601102,1,"subseries 6",FALSE,30,31.242600372527,30,157.841890762232
"31",142.277214058605,-0.890104080964851,158.262120222299,-15.0948020827295,1,"subseries 7",FALSE,31,30.2882451761405,31,158.262120222299
"32",159.257257648526,-4.48738001531892,158.962379810366,4.78225785347882,1,"subseries 8",FALSE,32,30.7779944639344,32,158.962379810366
"33",153.487529001019,-18.2932737155064,159.914044581897,11.8667581346285,1,"subseries 9",FALSE,33,32.8098908685743,33,159.914044581897
"34",146.249248337869,-14.4123770485406,161.48638795273,-0.824762566320146,1,"subseries 10",FALSE,34,31.0121993604494,34,161.48638795273
"35",155.631813305264,-8.91849750706675,163.096803977504,1.45350683482641,1,"subseries 11",FALSE,35,32.018163796151,35,163.096803977504
"36",154.657908122859,-3.01435567669658,164.235359697935,-6.56309589837963,1,"subseries 12",FALSE,36,31.2949487650165,36,164.235359697935
"37",166.290212206042,9.13390636582769,164.975893900722,-7.81958806050758,1,"subseries 1",FALSE,37,29.9651644204775,37,164.975893900722
"38",178.270146070206,9.46164846695217,165.378745495697,3.42975210755728,1,"subseries 2",FALSE,38,26.801845501149,38,165.378745495697
"39",196.323231308126,12.6819975809662,165.641383405212,17.9998503219483,1,"subseries 3",FALSE,39,27.2583185452487,39,165.641383405212
"40",181.177266374896,10.8266042354327,166.277155347703,4.07350679175985,1,"subseries 4",FALSE,40,32.8366528766804,40,166.277155347703
"41",163.760015815254,4.82807784775405,166.885274589954,-7.95333662245361,1,"subseries 5",FALSE,41,34.2346031753432,41,166.885274589954
"42",162.948042194513,3.08375354716139,167.030422615207,-7.16613396785522,1,"subseries 6",FALSE,42,34.9552290423294,42,167.030422615207
"43",161.008267286875,-0.890104080964851,166.767837980142,-4.86946661230198,1,"subseries 7",FALSE,43,33.0119508228567,43,166.767837980142
"44",169.895513923497,-4.48738001531892,165.636138249083,8.74675568973325,1,"subseries 8",FALSE,44,29.9294923574159,44,165.636138249083
"45",149.721489858229,-18.2932737155064,164.173849726106,3.84091384762968,1,"subseries 9",FALSE,45,29.370252524461,45,164.173849726106
"46",161.925016763564,-14.4123770485406,163.050824781447,13.2865690306578,1,"subseries 10",FALSE,46,30.7699504731019,46,163.050824781447
"47",152.696878955726,-8.91849750706675,161.652943440386,-0.0375669775928316,1,"subseries 11",FALSE,47,32.3746680979979,47,161.652943440386
"48",152.90208645204,-3.01435567669658,160.571118758362,-4.65467662962547,1,"subseries 12",FALSE,48,30.1172609004757,48,160.571118758362
"49",165.290345920638,9.13390636582769,159.486503225225,-3.33006367041506,1,"subseries 1",FALSE,49,31.8436058713628,49,159.486503225225
"50",161.075372404376,9.46164846695217,158.077267787131,-6.46354384970692,1,"subseries 2",FALSE,50,27.1193019590308,50,158.077267787131
"51",161.971497975318,12.6819975809662,157.218104173548,-7.92860377919661,1,"subseries 3",FALSE,51,29.6234094731817,51,157.218104173548
"52",169.358327616693,10.8266042354327,156.164089837381,2.36763354387895,1,"subseries 4",FALSE,52,33.6646200667246,52,156.164089837381
"53",159.180675021697,4.82807784775405,155.334812581189,-0.9822154072464,1,"subseries 5",FALSE,53,34.4763605530203,53,155.334812581189
"54",161.718398305758,3.08375354716139,155.023091259472,3.61155349912499,1,"subseries 6",FALSE,54,33.7705299942732,54,155.023091259472
"55",159.5552705576,-0.890104080964851,154.645293314077,5.80008132448748,1,"subseries 7",FALSE,55,33.6384750450904,55,154.645293314077
"56",151.839556735159,-4.48738001531892,154.962534100594,1.36440264988357,1,"subseries 8",FALSE,56,32.6098360465901,56,154.962534100594
"57",142.826212004934,-18.2932737155064,155.467317973072,5.65216774736871,1,"subseries 9",FALSE,57,32.8977542092567,57,155.467317973072
"58",126.281855880151,-14.4123770485406,155.852144893441,-15.1579119647493,1,"subseries 10",FALSE,58,31.5558645225635,58,155.852144893441
"59",132.007695041865,-8.91849750706675,156.555761749662,-15.6295692007304,1,"subseries 11",FALSE,59,29.5383820054412,59,156.555761749662
"60",157.754978897928,-3.01435567669658,156.90043294438,3.86890163024492,1,"subseries 12",FALSE,60,29.8160683705609,60,156.90043294438
"61",174.407747977938,9.13390636582769,157.499716086619,7.77412552549089,1,"subseries 1",FALSE,61,27.6183694579487,61,157.499716086619
"62",171.685059912385,9.46164846695217,158.46388773315,3.75952371228317,1,"subseries 2",FALSE,62,26.7029637178923,62,158.46388773315
"63",173.126548305913,12.6819975809662,159.361482357772,1.08306836717534,1,"subseries 3",FALSE,63,27.5490272054294,63,159.361482357772
"64",177.685591758221,10.8266042354327,160.077484970742,6.78150255204611,1,"subseries 4",FALSE,64,31.6831399715129,64,160.077484970742
"65",159.410185802118,4.82807784775405,159.982449084854,-5.40034113048992,1,"subseries 5",FALSE,65,33.7741672042907,65,159.982449084854
"66",162.296307521005,3.08375354716139,159.332057644798,-0.119503670954799,1,"subseries 6",FALSE,66,32.4690851359575,66,159.332057644798
"67",166.353690041709,-0.890104080964851,158.269470605713,8.97432351696111,1,"subseries 7",FALSE,67,29.0386100606591,67,158.269470605713
"68",164.46576328774,-4.48738001531892,157.121062022632,11.8320812804271,1,"subseries 8",FALSE,68,28.1533030254355,68,157.121062022632
"69",130.012490006136,-18.2932737155064,155.912397360746,-7.60663363910314,1,"subseries 9",FALSE,69,30.4285997546846,69,155.912397360746
"70",127.204632362245,-14.4123770485406,154.944147238848,-13.327137828062,1,"subseries 10",FALSE,70,28.8743125792315,70,154.944147238848
"71",144.200484453929,-8.91849750706675,154.311352607651,-1.19237064665538,1,"subseries 11",FALSE,71,30.1308209306763,71,154.311352607651
"72",157.060662656689,-3.01435567669658,153.74948850926,6.32552982412517,1,"subseries 12",FALSE,72,30.3757047138894,72,153.74948850926
"73",156.140196142833,9.13390636582769,153.79268792346,-6.78639814645425,1,"subseries 1",FALSE,73,27.530295318277,73,153.79268792346
"74",156.069104968957,9.46164846695217,153.886069175375,-7.27861267337062,1,"subseries 2",FALSE,74,25.8073591915869,74,153.886069175375
"75",163.694403536603,12.6819975809662,154.162309061059,-3.14990310542203,1,"subseries 3",FALSE,75,29.5480766507767,75,154.162309061059
"76",176.733231059929,10.8266042354327,154.402844316146,11.5037825083498,1,"subseries 4",FALSE,76,31.5210709399261,76,154.402844316146
"77",162.524658749258,4.82807784775405,154.197434300355,3.49914660114928,1,"subseries 5",FALSE,77,33.6973524678555,77,154.197434300355
"78",161.470594557477,3.08375354716139,154.263274710319,4.12356629999678,1,"subseries 6",FALSE,78,33.2109706846554,78,154.263274710319
"79",156.187883314195,-0.890104080964851,154.154529153977,2.92345824118306,1,"subseries 7",FALSE,79,33.3720424269214,79,154.154529153977
"80",152.97445826642,-4.48738001531892,154.131809521411,3.33002876032751,1,"subseries 8",FALSE,80,29.6121400137236,80,154.131809521411
"81",122.464175174033,-18.2932737155064,154.087789496282,-13.3303406067422,1,"subseries 9",FALSE,81,25.9463993549508,81,154.087789496282
"82",132.832242108435,-14.4123770485406,153.513110521767,-6.26849136479115,1,"subseries 10",FALSE,82,29.7367901539258,82,153.513110521767
"83",141.541384363672,-8.91849750706675,153.20089388953,-2.74101201879114,1,"subseries 11",FALSE,83,30.7798752631863,83,153.20089388953
"84",160.385270862315,-3.01435567669658,153.028685307338,10.3709412316734,1,"subseries 12",FALSE,84,32.0807415975355,84,153.028685307338
"85",163.307083741648,9.13390636582769,153.05438542193,1.11879195389056,1,"subseries 1",FALSE,85,28.6346536234794,85,153.05438542193
"86",160.19521455269,9.46164846695217,153.336540679642,-2.60297459390424,1,"subseries 2",FALSE,86,27.6421296042445,86,153.336540679642
"87",171.064116711895,12.6819975809662,153.377853156564,5.00426597436493,1,"subseries 3",FALSE,87,25.580574782683,87,153.377853156564
"88",157.173149945058,10.8266042354327,152.577475926265,-6.23093021663942,1,"subseries 4",FALSE,88,27.996560302542,88,152.577475926265
"89",165.056019209371,4.82807784775405,151.178393086436,9.0495482751806,1,"subseries 5",FALSE,89,32.1929389142728,89,151.178393086436
"90",153.762776080251,3.08375354716139,149.364102251955,1.31492028113442,1,"subseries 6",FALSE,90,31.6557182386404,90,149.364102251955
"91",154.829195497481,-0.890104080964851,147.298325416584,8.42097416186175,1,"subseries 7",FALSE,91,32.9567605438937,91,147.298325416584
"92",148.763099318001,-4.48738001531892,145.349457098017,7.90102223530263,1,"subseries 8",FALSE,92,29.4349917284073,92,145.349457098017
"93",119.599412393459,-18.2932737155064,143.31291962791,-5.4202335189442,1,"subseries 9",FALSE,93,29.7112933805199,93,143.31291962791
"94",124.265546944091,-14.4123770485406,141.202310325776,-2.52438633314398,1,"subseries 10",FALSE,94,29.4471868833784,94,141.202310325776
"95",130.142934575933,-8.91849750706675,139.036127697622,0.0253043853775239,1,"subseries 11",FALSE,95,30.3997167639259,95,139.036127697622
"96",128.053223494444,-3.01435567669658,136.76717520686,-5.69959603571974,1,"subseries 12",FALSE,96,28.8842826105849,96,136.76717520686
