"","raw","seasonal","trend","remainder","weights","sub.labels","interpolated","age","sigma","operating","power"
"1",279.160322426253,-8.5751819488863,288.978805374071,-1.2433009989316,1,"subseries 1",FALSE,1,36.5657580107812,1,288.978805374071
"2",275.183093855548,-11.052848156281,288.67656554488,-2.44062353305111,1,"subseries 2",FALSE,2,42.3090509306008,2,288.67656554488
"3",278.769708721279,-13.359397741947,288.370874786775,3.75823167645098,1,"subseries 3",FALSE,3,10.1400024854085,3,288.370874786775
"4",279.532363765601,-9.00494600817658,288.063207218583,0.474102555195088,1,"subseries 4",FALSE,4,25.790734270875,4,288.063207218583
"5",282.206724320007,-3.67577189136922,287.751490194174,-1.86899398279735,1,"subseries 5",FALSE,5,10.9559590991223,5,287.751490194174
"6",288.357194599244,-0.352545849367037,287.459428519092,1.25031192951906,1,"subseries 6",FALSE,6,12.1140173583482,6,287.459428519092
"7",298.401049068431,9.58565783172022,287.156743172373,1.65864806433768,1,"subseries 7",FALSE,7,13.9855315046276,7,287.156743172373
"8",313.499490619448,22.0320195589353,286.855761932395,4.61170912811775,1,"subseries 8",FALSE,8,26.1244975111827,8,286.855761932395
"9",293.971245390366,13.7656765490622,286.54850411967,-6.34293527836644,1,"subseries 9",FALSE,9,12.2600556139607,9,286.54850411967
"10",292.163212949435,7.12837495034194,286.323854547267,-1.28901654817349,1,"subseries 10",FALSE,10,11.509539813725,10,286.323854547267
"11",283.273243916123,-1.10313680229026,286.248507056368,-1.8721263379544,1,"subseries 11",FALSE,11,12.1045627579806,11,286.248507056368
"12",281.121274247253,-5.38790049174225,286.175537845308,0.333636893687071,1,"subseries 12",FALSE,12,12.8343389799293,12,286.175537845308
"13",276.650097200193,-8.5751819488863,286.269908368322,-1.04462921924244,1,"subseries 1",FALSE,13,12.175383859145,13,286.269908368322
"14",276.402244959901,-11.052848156281,286.411684167435,1.04340894874667,1,"subseries 2",FALSE,14,11.2930710402699,14,286.411684167435
"15",273.44342731934,-13.359397741947,286.535701004909,0.267124056378236,1,"subseries 3",FALSE,15,9.98545578013664,15,286.535701004909
"16",278.367114691993,-9.00494600817658,286.630726017176,0.741334682993397,1,"subseries 4",FALSE,16,11.4196689138856,16,286.630726017176
"17",285.025956364151,-3.67577189136922,286.524057723923,2.17767053159702,1,"subseries 5",FALSE,17,10.6510881041048,17,286.524057723923
"18",285.154622104792,-0.352545849367037,286.428422859065,-0.921254904905538,1,"subseries 6",FALSE,18,40.5706918030029,18,286.428422859065
"19",301.531350755908,9.58565783172022,286.259165198325,5.6865277258629,1,"subseries 7",FALSE,19,12.5839552847512,19,286.259165198325
"20",305.003420781822,22.0320195589353,286.042420096517,-3.0710188736299,1,"subseries 8",FALSE,20,10.7925099189387,20,286.042420096517
"21",296.19011322768,13.7656765490622,285.813210430748,-3.38877375213059,1,"subseries 9",FALSE,21,9.94377120213985,21,285.813210430748
"22",291.381029176931,7.12837495034194,285.420779174437,-1.16812494784801,1,"subseries 10",FALSE,22,15.9867206362808,22,285.420779174437
"23",284.648174313355,-1.10313680229026,285.048704543023,0.702606572622074,1,"subseries 11",FALSE,23,9.80520368616554,23,285.048704543023
"24",281.217140436945,-5.38790049174225,284.755304305969,1.84973662271818,1,"subseries 12",FALSE,24,9.96209206018833,24,284.755304305969
"25",277.144032962664,-8.5751819488863,284.535475915397,1.18373899615295,1,"subseries 1",FALSE,25,10.5264265711584,25,284.535475915397
"26",275.829556097018,-11.052848156281,284.425348275026,2.45705597827293,1,"subseries 2",FALSE,26,13.5479062666083,26,284.425348275026
"27",263.889608818683,-13.359397741947,284.288877701316,-7.0398711406865,1,"subseries 3",FALSE,27,17.8606959381807,27,284.288877701316
"28",275.684429293882,-9.00494600817658,284.114320752273,0.575054549785079,1,"subseries 4",FALSE,28,10.6506283654791,28,284.114320752273
"29",283.501622900012,-3.67577189136922,283.957943403335,3.21945138804648,1,"subseries 5",FALSE,29,15.5174702141969,29,283.957943403335
"30",283.956995693325,-0.352545849367037,283.803385777774,0.506155764918333,1,"subseries 6",FALSE,30,12.1658589340124,30,283.803385777774
"31",291.112826683989,9.58565783172022,283.732053126962,-2.2048842746928,1,"subseries 7",FALSE,31,12.1292210717542,31,283.732053126962
"32",302.605508265493,22.0320195589353,283.861058306962,-3.28756960040465,1,"subseries 8",FALSE,32,9.46593659471017,32,283.861058306962
"33",303.186578077737,13.7656765490622,284.09866549663,5.32223603204454,1,"subseries 9",FALSE,33,12.9851700555814,33,284.09866549663
"34",287.63617043251,7.12837495034194,284.402716147753,-3.89492066558449,1,"subseries 10",FALSE,34,12.8080196587902,34,284.402716147753
"35",282.628222106432,-1.10313680229026,284.846538360345,-1.11517945162291,1,"subseries 11",FALSE,35,12.4535505482739,35,284.846538360345
"36",278.752695199668,-5.38790049174225,285.22554223038,-1.08494653896986,1,"subseries 12",FALSE,36,12.0800263461613,36,285.22554223038
"37",276.011134719594,-8.5751819488863,285.607914442727,-1.02159777424657,1,"subseries 1",FALSE,37,12.1135635872485,37,285.607914442727
"38",276.556441359117,-11.052848156281,286.054267196146,1.55502231925192,1,"subseries 2",FALSE,38,12.7204235822512,38,286.054267196146
"39",277.452389710487,-13.359397741947,286.481354654941,4.33043279749302,1,"subseries 3",FALSE,39,15.0396964809951,39,286.481354654941
"40",278.053923273936,-9.00494600817658,287.138706932414,-0.0798376503017266,1,"subseries 4",FALSE,40,12.6314108338944,40,287.138706932414
"41",282.639691677194,-3.67577189136922,287.84830232922,-1.53283876065672,1,"subseries 5",FALSE,41,19.6156908110605,41,287.84830232922
"42",286.564882827331,-0.352545849367037,288.3409951199,-1.42356644320165,1,"subseries 6",FALSE,42,18.6771589116315,42,288.3409951199
"43",293.383973011003,9.58565783172022,288.751586350024,-4.95327117074117,1,"subseries 7",FALSE,43,20.2071735873568,43,288.751586350024
"44",312.74732222807,22.0320195589353,288.795762753434,1.9195399157008,1,"subseries 8",FALSE,44,12.4354709010042,44,288.795762753434
"45",306.966237600118,13.7656765490622,288.640180008739,4.56038104231692,1,"subseries 9",FALSE,45,13.2617940225568,45,288.640180008739
"46",301.839642422677,7.12837495034194,288.25883565194,6.45243182039536,1,"subseries 10",FALSE,46,23.4692014476666,46,288.25883565194
"47",288.867518974915,-1.10313680229026,287.586403980456,2.38425179674925,1,"subseries 11",FALSE,47,11.3755942351821,47,287.586403980456
"48",280.574572156815,-5.38790049174225,286.880963485789,-0.918490837231957,1,"subseries 12",FALSE,48,10.4988431524604,48,286.880963485789
"49",279.938906350028,-8.5751819488863,286.082485255193,2.43160304372157,1,"subseries 1",FALSE,49,10.7002136274017,49,286.082485255193
"50",271.999805706386,-11.052848156281,285.272463811763,-2.21980994909649,1,"subseries 2",FALSE,50,18.004026481222,50,285.272463811763
"51",270.187249141816,-13.359397741947,284.42606860569,-0.879421721927542,1,"subseries 3",FALSE,51,15.5057983444984,51,284.42606860569
"52",273.24146819499,-9.00494600817658,283.516368369871,-1.26995416670394,1,"subseries 4",FALSE,52,14.035007005776,52,283.516368369871
"53",277.338111754885,-3.67577189136922,282.582092329504,-1.56820868325019,1,"subseries 5",FALSE,53,11.2148323843332,53,282.582092329504
"54",282.316326529749,-0.352545849367037,281.60929630899,1.05957607012562,1,"subseries 6",FALSE,54,9.65231582938439,54,281.60929630899
