"","raw","seasonal","trend","remainder","weights","sub.labels","interpolated","age","sigma","operating","power"
"1",113.228098000447,5.65555186010324,106.885996024282,0.686550116062236,1,"subseries 1",FALSE,1,41.0832387828637,1,106.885996024282
"2",97.7931721723597,6.57537446304917,113.319263576815,-22.1014658675049,1,"subseries 2",FALSE,2,43.5857831569579,2,113.319263576815
"3",131.029274483515,10.8443443019905,119.67367484146,0.511255340064409,1,"subseries 3",FALSE,3,46.4267636730695,3,119.67367484146
"4",142.289950484074,4.52550803634055,125.856400608545,11.9080418391882,1,"subseries 4",FALSE,4,44.83443401232,4,125.856400608545
"5",146.384616932773,-0.851884019400411,131.936197480864,15.3003034713097,1,"subseries 5",FALSE,5,38.7364925892709,5,131.936197480864
"6",106.838181971837,-13.4245493190376,138.019923667631,-17.757192376756,1,"subseries 6",FALSE,6,8.07726417774982,6,138.019923667631
"7",148.712732568683,-9.07356019632026,143.878375814423,13.90791695058,1,"subseries 7",FALSE,7,29.4969927444527,7,143.878375814423
"8",151.454531664227,-7.34206496144804,150.002856527168,8.7937400985071,1,"subseries 8",FALSE,8,20.9136272711516,8,150.002856527168
"9",162.226883791058,-6.31705781707098,155.374686696397,13.1692549117321,1,"subseries 9",FALSE,9,19.501238873154,9,155.374686696397
"10",153.56966582649,4.25523206352601,158.97757731376,-9.66314355079615,1,"subseries 10",FALSE,10,23.2496701041259,10,158.97757731376
"11",167.267732317208,1.58684097230398,161.92110493026,3.75978641464403,1,"subseries 11",FALSE,11,9.25721591340666,11,161.92110493026
"12",171.356870666052,3.56626461596387,164.393687976702,3.39691807338579,1,"subseries 12",FALSE,12,9.85196600295268,12,164.393687976702
"13",173.078358685167,5.65555186010324,166.30924979943,1.11355702563395,1,"subseries 1",FALSE,13,13.2900181404347,13,166.30924979943
"14",180.879514231622,6.57537446304917,167.50471897536,6.79942079321299,1,"subseries 2",FALSE,14,13.1304968466983,14,167.50471897536
"15",176.906137234006,10.8443443019905,168.343129120573,-2.28133618855753,1,"subseries 3",FALSE,15,12.6334454528303,15,168.343129120573
"16",172.884610706967,4.52550803634055,168.697230962769,-0.338128292142585,1,"subseries 4",FALSE,16,9.66500403367915,16,168.697230962769
"17",171.338192906117,-0.851884019400411,168.419414081008,3.77066284450976,1,"subseries 5",FALSE,17,23.2956231606146,17,168.419414081008
"18",160.47715348917,-13.4245493190376,167.961622390295,5.94008041791247,1,"subseries 6",FALSE,18,12.3750935319887,18,167.961622390295
"19",161.223432009501,-9.07356019632026,167.291366240689,3.00562596513237,1,"subseries 7",FALSE,19,13.7608090820268,19,167.291366240689
"20",160.779406006133,-7.34206496144804,166.968776702216,1.15269426536457,1,"subseries 8",FALSE,20,11.6693819834606,20,166.968776702216
"21",156.234575507633,-6.31705781707098,166.925731269962,-4.37409794525811,1,"subseries 9",FALSE,21,11.0314419132173,21,166.925731269962
"22",158.801725667532,4.25523206352601,166.648545703717,-12.1020520997114,1,"subseries 10",FALSE,22,9.81854889118952,22,166.648545703717
"23",163.389814116585,1.58684097230398,166.666070433796,-4.86309728951451,1,"subseries 11",FALSE,23,9.97497900255575,23,166.666070433796
"24",169.314805288682,3.56626461596387,166.458498095065,-0.709957422346804,1,"subseries 12",FALSE,24,12.9636845385547,24,166.458498095065
"25",179.220249974329,5.65555186010324,166.428139687462,7.13655842676417,1,"subseries 1",FALSE,25,11.721070946234,25,166.428139687462
"26",180.933375622839,6.57537446304917,166.499812140261,7.8581890195284,1,"subseries 2",FALSE,26,14.1932674793824,26,166.499812140261
"27",179.575711257063,10.8443443019905,166.09574358892,2.63562336615249,1,"subseries 3",FALSE,27,10.2849079002456,27,166.09574358892
"28",171.001010720079,4.52550803634055,165.325352248796,1.15015043494242,1,"subseries 4",FALSE,28,8.03148477235275,28,165.325352248796
"29",161.858574392767,-0.851884019400411,163.653398832065,-0.942940419897241,1,"subseries 5",FALSE,29,13.8908658195295,29,163.653398832065
"30",157.990440740938,-13.4245493190376,161.893992186312,9.52099787366345,1,"subseries 6",FALSE,30,14.4341293815901,30,161.893992186312
"31",153.810245358345,-9.07356019632026,160.075364924491,2.80844063017429,1,"subseries 7",FALSE,31,13.5440627578548,31,160.075364924491
"32",153.544028523817,-7.34206496144804,158.570606015975,2.31548746928968,1,"subseries 8",FALSE,32,17.844730594933,32,158.570606015975
"33",129.598330887211,-6.31705781707098,157.675307094505,-21.7599183902232,1,"subseries 9",FALSE,33,34.294343013966,33,157.675307094505
"34",152.548998642681,4.25523206352601,156.708327253305,-8.41456067414958,1,"subseries 10",FALSE,34,13.2577106706226,34,156.708327253305
"35",155.142426740131,1.58684097230398,156.359193673008,-2.80360790518145,1,"subseries 11",FALSE,35,12.8198534412753,35,156.359193673008
"36",163.654611058532,3.56626461596387,156.158230165154,3.93011627741438,1,"subseries 12",FALSE,36,9.27029007208575,36,156.158230165154
"37",163.575184713385,5.65555186010324,156.413939403388,1.50569344989404,1,"subseries 1",FALSE,37,10.6183556887541,37,156.413939403388
"38",172.7559897033,6.57537446304917,157.228527951384,8.95208728886635,1,"subseries 2",FALSE,38,11.6681598805278,38,157.228527951384
"39",165.144678336414,10.8443443019905,157.775032578719,-3.47469854429553,1,"subseries 3",FALSE,39,11.6263303613843,39,157.775032578719
"40",163.095275374785,4.52550803634055,158.096920363522,0.472846974922902,1,"subseries 4",FALSE,40,9.09305611706749,40,158.096920363522
"41",158.948676289324,-0.851884019400411,157.838110186266,1.96245012245879,1,"subseries 5",FALSE,41,15.8401567747376,41,157.838110186266
"42",149.232970143911,-13.4245493190376,157.210627712574,5.44689175037465,1,"subseries 6",FALSE,42,11.5260239132677,42,157.210627712574
"43",147.589737418159,-9.07356019632026,156.42159867755,0.241698936929026,1,"subseries 7",FALSE,43,12.9749300470723,43,156.42159867755
"44",147.46928485972,-7.34206496144804,155.862681201897,-1.05133138072915,1,"subseries 8",FALSE,44,12.3340627149593,44,155.862681201897
"45",149.344966913755,-6.31705781707098,155.524755816239,0.137268914587452,1,"subseries 9",FALSE,45,12.516606415371,45,155.524755816239
"46",151.123855690646,4.25523206352601,155.264831563697,-8.39620793657713,1,"subseries 10",FALSE,46,12.0331059549909,46,155.264831563697
"47",154.387080150465,1.58684097230398,155.360594545784,-2.56035536762329,1,"subseries 11",FALSE,47,10.9410240531093,47,155.360594545784
"48",156.077046353904,3.56626461596387,155.472262925685,-2.9614811877444,1,"subseries 12",FALSE,48,8.06461267007222,48,155.472262925685
"49",160.394129638177,5.65555186010324,155.932762891704,-1.19418511363045,1,"subseries 1",FALSE,49,8.08471286212205,49,155.932762891704
"50",168.021692214798,6.57537446304917,156.578909093926,4.86740865782281,1,"subseries 2",FALSE,50,12.4770863132624,50,156.578909093926
"51",170.247217388335,10.8443443019905,157.199396462402,2.20347662394266,1,"subseries 3",FALSE,51,12.1048411466913,51,157.199396462402
"52",162.370587700452,4.52550803634055,157.777541146823,0.0675385172883978,1,"subseries 4",FALSE,52,9.41246087492254,52,157.777541146823
"53",156.059669057521,-0.851884019400411,157.943741609799,-1.03218853287777,1,"subseries 5",FALSE,53,11.4313134847013,53,157.943741609799
"54",151.888093753288,-13.4245493190376,157.834277319279,7.47836575304626,1,"subseries 6",FALSE,54,11.5445970662457,54,157.834277319279
"55",149.20950273083,-9.07356019632026,157.361885090495,0.92117783665492,1,"subseries 7",FALSE,55,11.2946650087469,55,157.361885090495
"56",148.424418634853,-7.34206496144804,156.987284422299,-1.22080082599783,1,"subseries 8",FALSE,56,11.9555608769817,56,156.987284422299
"57",153.66362861546,-6.31705781707098,156.714007699081,3.26667873345045,1,"subseries 9",FALSE,57,12.1072087665237,57,156.714007699081
"58",155.618368420056,4.25523206352601,156.584217724476,-5.22108136794569,1,"subseries 10",FALSE,58,11.9686106933439,58,156.584217724476
"59",151.745311375177,1.58684097230398,156.787324143145,-6.62885374027181,1,"subseries 11",FALSE,59,11.3317102710559,59,156.787324143145
"60",156.769265932518,3.56626461596387,156.877459867947,-3.67445855139289,1,"subseries 12",FALSE,60,8.74226170112054,60,156.877459867947
"61",160.252274960691,5.65555186010324,157.314559178314,-2.71783607772656,1,"subseries 1",FALSE,61,8.81965502286439,61,157.314559178314
"62",166.346280396723,6.57537446304917,158.425352486908,1.34555344676556,1,"subseries 2",FALSE,62,13.153349495392,62,158.425352486908
"63",178.744640940817,10.8443443019905,160.104723454419,7.79557318440735,1,"subseries 3",FALSE,63,13.717912239917,63,160.104723454419
"64",162.716783706568,4.52550803634055,165.093144981324,-6.90186931109642,1,"subseries 4",FALSE,64,10.1663220458817,64,165.093144981324
"65",154.981743622256,-0.851884019400411,171.524514550312,-15.6908869086557,1,"subseries 5",FALSE,65,9.94990032257007,65,171.524514550312
"66",153.02297920756,-13.4245493190376,177.403519324514,-10.9559907979168,1,"subseries 6",FALSE,66,11.7147226183863,66,177.403519324514
"67",149.785593006446,-9.07356019632026,183.717526881072,-24.8583736783056,1,"subseries 7",FALSE,67,12.1339630227668,67,183.717526881072
"68",165.62135384198,-7.34206496144804,189.880336291714,-16.9169174882861,1,"subseries 8",FALSE,68,18.7107146416528,68,189.880336291714
"69",191.639198852942,-6.31705781707098,196.234289894768,1.72196677524511,1,"subseries 9",FALSE,69,12.5932354193577,69,196.234289894768
"70",242.976582646417,4.25523206352601,202.916265790661,35.8050847922296,1,"subseries 10",FALSE,70,27.5032934564598,70,202.916265790661
"71",217.75591542454,1.58684097230398,209.750314122953,6.41876032928272,1,"subseries 11",FALSE,71,24.6427747031506,71,209.750314122953
