"","raw","seasonal","trend","remainder","weights","sub.labels","interpolated","age","sigma","operating","power"
"1",80.9844722874458,-1.59590212603843,81.4511404859822,1.12923392750199,1,"subseries 1",FALSE,1,4.91451598196312,1,81.4511404859822
"2",79.7215362247616,-0.209813155204174,79.5631464348284,0.368202945137384,1,"subseries 2",FALSE,2,7.3358372417996,2,79.5631464348284
"3",82.3991796616276,0.722199783457085,77.7200905444296,3.95688933374088,1,"subseries 3",FALSE,3,4.93604068591091,3,77.7200905444296
"4",78.1483038687389,-0.011618254421155,75.9795790985437,2.18034302461639,1,"subseries 4",FALSE,4,6.08823365591707,4,75.9795790985437
"5",71.9524675876463,-4.18999212130973,74.303121049146,1.83933865981001,1,"subseries 5",FALSE,5,4.69622727705217,5,74.303121049146
"6",63.970024270674,-1.32552530940947,72.7014337555669,-7.40588417548342,1,"subseries 6",FALSE,6,7.45214694015572,6,72.7014337555669
"7",60.8888751009241,-2.0130613466126,71.2285870566931,-8.32665060915642,1,"subseries 7",FALSE,7,21.684904059934,7,71.2285870566931
"8",79.2733368971599,4.82942185708021,69.5833045990386,4.86061044104112,1,"subseries 8",FALSE,8,4.8168499950734,8,69.5833045990386
"9",74.2064972917889,2.73569953143045,68.4370419072496,3.03375585310886,1,"subseries 9",FALSE,9,5.13625669626989,9,68.4370419072496
"10",64.9778460842734,3.65338194145064,68.419397208875,-7.09493306605221,1,"subseries 10",FALSE,10,5.54806728470084,10,68.419397208875
"11",51.941826488914,1.44149174815451,69.0694396216421,-18.5691048808826,1,"subseries 11",FALSE,11,4.67560102577203,11,69.0694396216421
"12",49.6486282748154,-4.03628254857734,69.8106429937532,-16.1257321703604,1,"subseries 12",FALSE,12,4.12644758101705,12,69.8106429937532
"13",89.4389091540753,-1.59590212603843,70.8598869504024,20.1749243297113,1,"subseries 1",FALSE,13,3.38684084405089,13,70.8598869504024
"14",84.4442823888845,-0.209813155204174,72.1395838489466,12.514511695142,1,"subseries 2",FALSE,14,4.9813836735804,14,72.1395838489466
"15",75.1529163225062,0.722199783457085,73.3586061013558,1.07211043769334,1,"subseries 3",FALSE,15,3.98152838411572,15,73.3586061013558
"16",69.291364916433,-0.011618254421155,74.8633430478191,-5.56035987696494,1,"subseries 4",FALSE,16,4.74840403204489,16,74.8633430478191
"17",67.078435554382,-4.18999212130973,75.7720790493463,-4.50365137365453,1,"subseries 5",FALSE,17,5.73054911741811,17,75.7720790493463
"18",80.4350605254792,-1.32552530940947,76.2581927409238,5.50239309396487,1,"subseries 6",FALSE,18,9.0796344163733,18,76.2581927409238
"19",86.9393987509553,-2.0130613466126,76.5644387652589,12.388021332309,1,"subseries 7",FALSE,19,7.70833373342527,19,76.5644387652589
"20",73.8054844655641,4.82942185708021,76.8358766211831,-7.85981401269923,1,"subseries 8",FALSE,20,8.96951742065,20,76.8358766211831
"21",67.6799547877047,2.73569953143045,77.4470191762347,-12.5027639199605,1,"subseries 9",FALSE,21,12.9603590743151,21,77.4470191762347
"22",86.801107228799,3.65338194145064,78.3411162121781,4.80660907517031,1,"subseries 10",FALSE,22,4.7177988207282,22,78.3411162121781
"23",80.4250637653506,1.44149174815451,79.453027378903,-0.469455361706892,1,"subseries 11",FALSE,23,4.08525279099631,23,79.453027378903
"24",73.9553712523481,-4.03628254857734,79.7887769909376,-1.79712319001221,1,"subseries 12",FALSE,24,2.99867192208323,24,79.7887769909376
"25",75.0237195122629,-1.59590212603843,79.8051229151917,-3.18550127689036,1,"subseries 1",FALSE,25,4.08956531663804,25,79.8051229151917
"26",87.9598354011985,-0.209813155204174,79.6215212963486,8.54812726005412,1,"subseries 2",FALSE,26,4.44761990713821,26,79.6215212963486
"27",88.6789877600264,0.722199783457085,78.6507610610959,9.30602691547344,1,"subseries 3",FALSE,27,3.15498962629309,27,78.6507610610959
"28",93.0080939705382,-0.011618254421155,78.0457324689539,14.9739797560055,1,"subseries 4",FALSE,28,3.76353065617,28,78.0457324689539
"29",72.5857663454218,-4.18999212130973,77.1542647931949,-0.378506326463324,1,"subseries 5",FALSE,29,3.77518951180844,29,77.1542647931949
"30",73.5481967764114,-1.32552530940947,76.0957685883949,-1.22204650257403,1,"subseries 6",FALSE,30,3.18349072457444,30,76.0957685883949
"31",40.0146250768359,-2.0130613466126,75.1484168585765,-33.120730435128,1,"subseries 7",FALSE,31,7.1922732297491,31,75.1484168585765
"32",80.7475105676623,4.82942185708021,73.8624668782202,2.05562183236188,1,"subseries 8",FALSE,32,22.924942686059,32,73.8624668782202
"33",87.7097854525724,2.73569953143045,73.3015727925304,11.6725131286116,1,"subseries 9",FALSE,33,3.36624447265491,33,73.3015727925304
"34",75.8170393762132,3.65338194145064,73.044407353734,-0.880749918971475,1,"subseries 10",FALSE,34,4.36211025863416,34,73.044407353734
"35",70.2170137029284,1.44149174815451,73.2178469272306,-4.44232497245666,1,"subseries 11",FALSE,35,3.56953799929988,35,73.2178469272306
"36",65.4817552792097,-4.03628254857734,73.603407491469,-4.08536966368193,1,"subseries 12",FALSE,36,3.84523700672201,36,73.603407491469
"37",78.2787571170011,-1.59590212603843,73.4028441086756,6.47181513436389,1,"subseries 1",FALSE,37,9.47654994661077,37,73.4028441086756
"38",81.8349848978547,-0.209813155204174,72.9290018851697,9.11579616788921,1,"subseries 2",FALSE,38,3.63436299983203,38,72.9290018851697
"39",76.8948337552387,0.722199783457085,72.0698839021524,4.1027500696292,1,"subseries 3",FALSE,39,4.32003364936804,39,72.0698839021524
"40",71.6833915490391,-0.011618254421155,71.6769570396584,0.0180527638018333,1,"subseries 4",FALSE,40,3.80458276738252,40,71.6769570396584
"41",67.3626937935366,-4.18999212130973,71.4731209825463,0.0795649323000589,1,"subseries 5",FALSE,41,6.63628268926413,41,71.4731209825463
"42",60.4171498907851,-1.32552530940947,71.3508872128267,-9.60821201263214,1,"subseries 6",FALSE,42,4.70785496130604,42,71.3508872128267
"43",53.6823641743516,-2.0130613466126,71.7765026340255,-16.0810771130613,1,"subseries 7",FALSE,43,5.81976182733829,43,71.7765026340255
"44",76.6618288007235,4.82942185708021,71.8248958908173,0.00751105282598985,1,"subseries 8",FALSE,44,11.1830297125693,44,71.8248958908173
"45",79.5712839778123,2.73569953143045,72.3271744074042,4.50841003897767,1,"subseries 9",FALSE,45,5.65646813217752,45,72.3271744074042
"46",76.7001427327161,3.65338194145064,73.0763779865821,-0.0296171953165896,1,"subseries 10",FALSE,46,4.02261514053135,46,73.0763779865821
"47",81.6104205656235,1.44149174815451,73.6738965119513,6.49503230551768,1,"subseries 11",FALSE,47,5.00366044782432,47,73.6738965119513
"48",78.8148863891274,-4.03628254857734,74.860361366053,7.99080757165171,1,"subseries 12",FALSE,48,4.50353655863035,48,74.860361366053
"49",75.4987207225101,-1.59590212603843,75.6994272580147,1.39519559053385,1,"subseries 1",FALSE,49,4.07203149686634,49,75.6994272580147
"50",73.8701734900793,-0.209813155204174,76.1583713086013,-2.07838466331779,1,"subseries 2",FALSE,50,4.08245032799259,50,76.1583713086013
"51",70.6865256727276,0.722199783457085,76.4221107227635,-6.45778483349302,1,"subseries 3",FALSE,51,5.73299854483695,51,76.4221107227635
"52",69.7857364104611,-0.011618254421155,76.2333881255735,-6.43603346069128,1,"subseries 4",FALSE,52,5.28331245078805,52,76.2333881255735
"53",77.251356206098,-4.18999212130973,76.0986784884964,5.34266983891132,1,"subseries 5",FALSE,53,19.7709186867013,53,76.0986784884964
"54",80.1936944340013,-1.32552530940947,75.8556008411113,5.6636189022995,1,"subseries 6",FALSE,54,3.17098767246657,54,75.8556008411113
"55",77.6965473527609,-2.0130613466126,75.54489129683,4.16471740254354,1,"subseries 7",FALSE,55,2.90006741934112,55,75.54489129683
"56",72.876444856973,4.82942185708021,75.24720685022,-7.20018385032719,1,"subseries 8",FALSE,56,3.17660355988347,56,75.24720685022
"57",82.0641386136605,2.73569953143045,74.5447218410813,4.78371724114878,1,"subseries 9",FALSE,57,4.75205211275909,57,74.5447218410813
"58",80.9492998349643,3.65338194145064,73.9883657125902,3.30755218092348,1,"subseries 10",FALSE,58,3.03709754720068,58,73.9883657125902
"59",76.0546512549878,1.44149174815451,73.4980503001016,1.11510920673166,1,"subseries 11",FALSE,59,4.60505943170242,59,73.4980503001016
"60",67.7822466091793,-4.03628254857734,73.1194835661055,-1.30095440834886,1,"subseries 12",FALSE,60,3.96322280045651,60,73.1194835661055
"61",63.470584971735,-1.59590212603843,73.1354722647411,-8.06898516696762,1,"subseries 1",FALSE,61,4.16739397992956,61,73.1354722647411
"62",63.673962245437,-0.209813155204174,72.6972223899088,-8.81344698926767,1,"subseries 2",FALSE,62,3.73160225441878,62,72.6972223899088
"63",72.4378850575737,0.722199783457085,72.1866939225905,-0.471008648473855,1,"subseries 3",FALSE,63,10.2447150997081,63,72.1866939225905
"64",79.255586679933,-0.011618254421155,71.7629914991639,7.50421343519027,1,"subseries 4",FALSE,64,3.92235513073472,64,71.7629914991639
"65",77.8827584233846,-4.18999212130973,71.3507655600611,10.7219849846332,1,"subseries 5",FALSE,65,3.53305280845209,65,71.3507655600611
"66",74.5201272712711,-1.32552530940947,71.9304791459788,3.91517343470181,1,"subseries 6",FALSE,66,3.37541425536568,66,71.9304791459788
"67",69.215874716233,-2.0130613466126,72.7077222232152,-1.47878616036964,1,"subseries 7",FALSE,67,3.12264690422253,67,72.7077222232152
"68",62.9453956025888,4.82942185708021,73.2460028645236,-15.130029119015,1,"subseries 8",FALSE,68,4.03950254262733,68,73.2460028645236
"69",64.000389265259,2.73569953143045,73.9378399503302,-12.6731502165016,1,"subseries 9",FALSE,69,3.87522313327033,69,73.9378399503302
"70",76.2914162549743,3.65338194145064,74.218586544861,-1.58055223133732,1,"subseries 10",FALSE,70,11.6899950553591,70,74.218586544861
"71",89.6022710388779,1.44149174815451,74.9219469160722,13.2388323746512,1,"subseries 11",FALSE,71,3.2654675712596,71,74.9219469160722
"72",79.0049835441666,-4.03628254857734,76.1296139063233,6.91165218642062,1,"subseries 12",FALSE,72,3.60087279889689,72,76.1296139063233
"73",72.986706046495,-1.59590212603843,77.3074900929408,-2.72488192040737,1,"subseries 1",FALSE,73,2.38214511516735,73,77.3074900929408
"74",76.3347353729606,-0.209813155204174,78.2492119493528,-1.70466342118807,1,"subseries 2",FALSE,74,3.0908463895301,74,78.2492119493528
"75",76.9102319104763,0.722199783457085,78.3418275523417,-2.15379542532247,1,"subseries 3",FALSE,75,2.62592451233504,75,78.3418275523417
"76",85.0448438411615,-0.011618254421155,77.661691010515,7.39477108506766,1,"subseries 4",FALSE,76,4.11187233207861,76,77.661691010515
"77",83.2269220276576,-4.18999212130973,76.4496120501953,10.967302098772,1,"subseries 5",FALSE,77,4.53359157035334,77,76.4496120501953
"78",76.7796838197213,-1.32552530940947,75.3805794082314,2.72462972089937,1,"subseries 6",FALSE,78,4.23551188188483,78,75.3805794082314
"79",72.559780853677,-2.0130613466126,74.2012496841247,0.371592516164867,1,"subseries 7",FALSE,79,5.32299270640486,79,74.2012496841247
"80",69.7486846844386,4.82942185708021,72.7791722582775,-7.85990943091913,1,"subseries 8",FALSE,80,3.25025555665375,80,72.7791722582775
"81",64.9505693236902,2.73569953143045,71.2666450145583,-9.05177522229855,1,"subseries 9",FALSE,81,5.24193134356545,81,71.2666450145583
"82",75.0729662061264,3.65338194145064,69.0796878558648,2.33989640881097,1,"subseries 10",FALSE,82,2.43514182828026,82,69.0796878558648
"83",70.9311470267804,1.44149174815451,66.9136999831591,2.57595529546683,1,"subseries 11",FALSE,83,4.09280081671349,83,66.9136999831591
"84",70.2308995786572,-4.03628254857734,65.0182035260717,9.24897860116283,1,"subseries 12",FALSE,84,3.79848295550851,84,65.0182035260717
"85",61.1253601233251,-1.59590212603843,63.075640975127,-0.354378725763517,1,"subseries 1",FALSE,85,3.15488773252735,85,63.075640975127
"86",61.5231800591629,-0.209813155204174,62.1484441126034,-0.415450898236358,1,"subseries 2",FALSE,86,3.13524885293619,86,62.1484441126034
"87",61.6380942221943,0.722199783457085,61.6192070023005,-0.703312563563316,1,"subseries 3",FALSE,87,4.53256728044492,87,61.6192070023005
"88",52.2021523959814,-0.011618254421155,60.9257479080186,-8.711977257616,1,"subseries 4",FALSE,88,4.6702779699777,88,60.9257479080186
"89",45.4051204825257,-4.18999212130973,60.7824425173948,-11.1873299135593,1,"subseries 5",FALSE,89,2.68089851368688,89,60.7824425173948
"90",47.4615303144467,-1.32552530940947,59.8808176113478,-11.0937619874916,1,"subseries 6",FALSE,90,3.13922416368172,90,59.8808176113478
"91",62.8602322237035,-2.0130613466126,58.9146477438381,5.958645826478,1,"subseries 7",FALSE,91,17.3432872961434,91,58.9146477438381
"92",82.3013508913373,4.82942185708021,58.1611734633128,19.3107555709442,1,"subseries 8",FALSE,92,8.27711263154782,92,58.1611734633128
"93",73.8785097786042,2.73569953143045,56.8458671440863,14.2969431030875,1,"subseries 9",FALSE,93,4.45474971712714,93,56.8458671440863
"94",62.7869764799355,3.65338194145064,56.1389977843375,2.99459675414731,1,"subseries 10",FALSE,94,5.4783396643686,94,56.1389977843375
"95",50.1984656344511,1.44149174815451,54.8965650536198,-6.13959116732318,1,"subseries 11",FALSE,95,4.05129608327782,95,54.8965650536198
"96",43.2816887372473,-4.03628254857734,53.6142061600396,-6.29623487421497,1,"subseries 12",FALSE,96,4.20625889655724,96,53.6142061600396
"97",40.6924847636894,-1.59590212603843,52.7980753119185,-10.5096884221907,1,"subseries 1",FALSE,97,3.21035481338925,97,52.7980753119185
"98",46.9183361322436,-0.209813155204174,52.1339688774773,-5.00581959002953,1,"subseries 2",FALSE,98,3.67775531405983,98,52.1339688774773
"99",47.7111409654571,0.722199783457085,52.9172820520211,-5.92834087002112,1,"subseries 3",FALSE,99,4.1621060690775,99,52.9172820520211
"100",47.9232656855833,-0.011618254421155,53.8879661199754,-5.95308217997098,1,"subseries 4",FALSE,100,3.86503407433811,100,53.8879661199754
"101",44.2117885587927,-4.18999212130973,55.279715365113,-6.8779346850106,1,"subseries 5",FALSE,101,4.40832122840293,101,55.279715365113
"102",54.6825687917118,-1.32552530940947,56.9816824513522,-0.973588350230948,1,"subseries 6",FALSE,102,27.5657409490813,102,56.9816824513522
"103",79.2480232257026,-2.0130613466126,58.3476614768554,22.9134230954598,1,"subseries 7",FALSE,103,4.23001256360006,103,58.3476614768554
"104",76.0967176745021,4.82942185708021,60.2472702657444,11.0200255516775,1,"subseries 8",FALSE,104,4.78345611727235,104,60.2472702657444
"105",66.9412407984887,2.73569953143045,61.7393141322505,2.46622713480773,1,"subseries 9",FALSE,105,4.77769536267098,105,61.7393141322505
"106",51.5368715944345,3.65338194145064,62.9798959535923,-15.0964063006084,1,"subseries 10",FALSE,106,6.15671706934095,106,62.9798959535923
"107",56.4956883458571,1.44149174815451,63.914412110453,-8.86021551275041,1,"subseries 11",FALSE,107,13.597029451491,107,63.914412110453
"108",63.5340009236228,-4.03628254857734,64.5035933448503,3.06669012734979,1,"subseries 12",FALSE,108,11.9903853208277,108,64.5035933448503
"109",67.663841439697,-1.59590212603843,65.6627157559071,3.5970278098283,1,"subseries 1",FALSE,109,3.89855656685108,109,65.6627157559071
"110",65.9898863983995,-0.209813155204174,67.2333540280864,-1.03365447448273,1,"subseries 2",FALSE,110,3.33953515553456,110,67.2333540280864
"111",66.0522428032099,0.722199783457085,69.3838249540901,-4.05378193433728,1,"subseries 3",FALSE,111,3.09562089536068,111,69.3838249540901
"112",65.0967013419736,-0.011618254421155,71.8086346913054,-6.70031509491062,1,"subseries 4",FALSE,112,3.58345626287411,112,71.8086346913054
"113",62.9989047644788,-4.18999212130973,74.1584940709676,-6.9695971851791,1,"subseries 5",FALSE,113,8.97325009192273,113,74.1584940709676
"114",86.5850751001268,-1.32552530940947,75.908309003623,12.0022914059133,1,"subseries 6",FALSE,114,5.4098311454192,114,75.908309003623
"115",88.379447352753,-2.0130613466126,77.2423911252416,13.150117574124,1,"subseries 7",FALSE,115,5.76648915544135,115,77.2423911252416
"116",83.649750485675,4.82942185708021,77.8520695393784,0.968259089216417,1,"subseries 8",FALSE,116,5.17451188965631,116,77.8520695393784
"117",74.2916952737435,2.73569953143045,78.0137148891169,-6.4577191468039,1,"subseries 9",FALSE,117,4.93145650874678,117,78.0137148891169
"118",93.168695951596,3.65338194145064,78.3465391941611,11.1687748159842,1,"subseries 10",FALSE,118,15.5033638608456,118,78.3465391941611
"119",94.6532541400358,1.44149174815451,78.5193440770747,14.6924183148066,1,"subseries 11",FALSE,119,4.21137369283433,119,78.5193440770747
"120",76.4376770447746,-4.03628254857734,78.6575019926713,1.81645760068068,1,"subseries 12",FALSE,120,4.37462831221521,120,78.6575019926713
"121",67.9342645058823,-1.59590212603843,78.7053802777119,-9.17521364579117,1,"subseries 1",FALSE,121,2.33267664929104,121,78.7053802777119
"122",65.3832051801518,-0.209813155204174,78.5884361680658,-12.9954178327098,1,"subseries 2",FALSE,122,2.20457586199523,122,78.5884361680658
