"","raw","seasonal","trend","remainder","weights","sub.labels","interpolated","age","sigma","operating","power"
"1",46.4940586664826,-5.6546470394264,67.3699690239162,-15.2212633180072,1,"subseries 1",FALSE,1,14.591747377086,1,67.3699690239162
"2",72.3123905611879,1.05043226354601,67.284656620961,3.97730167668087,1,"subseries 2",FALSE,2,14.6662610436657,2,67.284656620961
"3",75.1948298949071,2.9671860861269,67.2048904455739,5.02275336320626,1,"subseries 3",FALSE,3,12.1301139798407,3,67.2048904455739
"4",80.9403159100384,5.16755674186586,67.2121086872304,8.56065048094213,1,"subseries 4",FALSE,4,4.78926819537691,4,67.2121086872304
"5",84.8349071292375,6.32073197062057,67.2205608497776,11.2936143088394,1,"subseries 5",FALSE,5,3.35967313828107,5,67.2205608497776
"6",82.1820710019133,4.45519827742632,67.439925139533,10.286947584954,1,"subseries 6",FALSE,6,4.06695688177901,6,67.439925139533
"7",49.718078239224,-5.53636084402248,67.6095569508084,-12.3551178675619,1,"subseries 7",FALSE,7,9.28105834559617,7,67.6095569508084
"8",45.1864714281437,-8.2108184711421,67.3749143717021,-13.9776244724164,1,"subseries 8",FALSE,8,2.37303232881742,8,67.3749143717021
"9",43.8375718028289,-9.22664592867892,67.2272391599519,-14.1630214284441,1,"subseries 9",FALSE,9,2.35618192053362,9,67.2272391599519
"10",73.9400141187252,2.91686718354347,66.9818340919581,4.04131284322359,1,"subseries 10",FALSE,10,9.82792467396061,10,66.9818340919581
"11",76.0398557598591,3.84072398016878,67.3274159558218,4.87171582386856,1,"subseries 11",FALSE,11,3.52505483829731,11,67.3274159558218
"12",73.8709390408868,1.90977577997199,68.2490052840004,3.71215797691444,1,"subseries 12",FALSE,12,3.25531188400952,12,68.2490052840004
"13",68.5827678209218,-5.6546470394264,69.2007044918185,5.03671036852974,1,"subseries 1",FALSE,13,2.95271680716078,13,69.2007044918185
"14",67.2371895115786,1.05043226354601,70.6797759047578,-4.49301865672524,1,"subseries 2",FALSE,14,3.7425477873347,14,70.6797759047578
"15",74.6973219639325,2.9671860861269,71.8381119059327,-0.107976028127155,1,"subseries 3",FALSE,15,5.08780456165794,15,71.8381119059327
"16",83.1786311540954,5.16755674186586,72.3431155324899,5.66795887973961,1,"subseries 4",FALSE,16,4.84729045323643,16,72.3431155324899
"17",74.9614420463108,6.32073197062057,72.6469833894148,-4.00627331372455,1,"subseries 5",FALSE,17,9.26824147630025,17,72.6469833894148
"18",71.4027987091265,4.45519827742632,72.4703676733471,-5.5227672416469,1,"subseries 6",FALSE,18,13.6939575733649,18,72.4703676733471
"19",73.806578192024,-5.53636084402248,71.9874682563997,7.35547077964684,1,"subseries 7",FALSE,19,3.41218251009296,19,71.9874682563997
"20",69.7766483118635,-8.2108184711421,71.5614765733372,6.42599020966836,1,"subseries 8",FALSE,20,3.38390923736317,20,71.5614765733372
"21",69.466280109162,-9.22664592867892,70.8354024881229,7.85752354971798,1,"subseries 9",FALSE,21,3.4215581528948,21,70.8354024881229
"22",69.0863567997977,2.91686718354347,69.8366852933228,-3.66719567706858,1,"subseries 10",FALSE,22,3.38885987908459,22,69.8366852933228
"23",67.3483999015832,3.84072398016878,68.4922554299469,-4.98457950853243,1,"subseries 11",FALSE,23,2.8436499670931,23,68.4922554299469
"24",65.3102341676234,1.90977577997199,67.0853481421727,-3.68488975452126,1,"subseries 12",FALSE,24,2.55858854917153,24,67.0853481421727
"25",67.1766366706355,-5.6546470394264,65.7845741863447,7.04670952371717,1,"subseries 1",FALSE,25,4.17120099309274,25,65.7845741863447
"26",66.9499310036151,1.05043226354601,65.0604404817203,0.839058258348743,1,"subseries 2",FALSE,26,3.00138741894204,26,65.0604404817203
"27",63.5189884130705,2.9671860861269,65.167697994232,-4.6158956672884,1,"subseries 3",FALSE,27,4.48822744735267,27,65.167697994232
"28",57.012847626923,5.16755674186586,65.7448103775986,-13.8995194925415,1,"subseries 4",FALSE,28,5.54445986898829,28,65.7448103775986
"29",66.1606165991122,6.32073197062057,66.9694569614521,-7.12957233296044,1,"subseries 5",FALSE,29,3.31367857521922,29,66.9694569614521
"30",68.1396867391054,4.45519827742632,68.6192175851434,-4.93472912346434,1,"subseries 6",FALSE,30,3.01529801871075,30,68.6192175851434
"31",69.2493632454424,-5.53636084402248,70.4260421558381,4.35968193362673,1,"subseries 7",FALSE,31,4.58851353963868,31,70.4260421558381
"32",70.4938883682751,-8.2108184711421,72.3160876832238,6.38861915619343,1,"subseries 8",FALSE,32,3.25717434940295,32,72.3160876832238
"33",69.7318759753151,-9.22664592867892,74.2692120259405,4.68930987805356,1,"subseries 9",FALSE,33,2.58068787749757,33,74.2692120259405
"34",76.95127591031,2.91686718354347,76.313035522437,-2.2786267956705,1,"subseries 10",FALSE,34,4.68837915644822,34,76.313035522437
"35",80.3804056650436,3.84072398016878,78.3895616566015,-1.84987997172665,1,"subseries 11",FALSE,35,3.55047585574742,35,78.3895616566015
"36",80.3250555757775,1.90977577997199,80.485665872293,-2.07038607648749,1,"subseries 12",FALSE,36,2.90290108230557,36,80.485665872293
"37",78.7561156519152,-5.6546470394264,82.5989554557333,1.81180723560828,1,"subseries 1",FALSE,37,2.85910010138507,37,82.5989554557333
