"","raw","seasonal","trend","remainder","weights","sub.labels","interpolated","age","sigma","operating","power"
"1",119.26141925204,1.37870595483384,123.063680267077,-5.18096696987092,1,"subseries 1",FALSE,1,8.31080580355072,1,123.063680267077
"2",131.463015532856,4.53449085369227,122.702452020716,4.22607265844722,1,"subseries 2",FALSE,2,8.21235984544857,2,122.702452020716
"3",140.273356658293,12.5535680565134,122.359721300694,5.36006730108537,1,"subseries 3",FALSE,3,8.68157432531767,3,122.359721300694
"4",131.47100029248,9.27514040412464,122.089042015202,0.106817873153133,1,"subseries 4",FALSE,4,6.41666655514858,4,122.089042015202
"5",126.650346656512,2.67270045709399,121.838345081102,2.1393011183156,1,"subseries 5",FALSE,5,4.8411637375607,5,121.838345081102
"6",120.261083548038,0.790472987550933,121.642631090307,-2.17202052981979,1,"subseries 6",FALSE,6,5.21658829871028,6,121.642631090307
"7",115.532089748407,-2.0492886510908,121.4737170859,-3.89233868640268,1,"subseries 7",FALSE,7,5.22339881221143,7,121.4737170859
"8",111.577561263977,-5.00183994757528,121.075886831586,-4.49648562003416,1,"subseries 8",FALSE,8,6.58951239958501,8,121.075886831586
"9",117.426965418046,-2.18121433006209,120.879099241202,-1.27091949309364,1,"subseries 9",FALSE,9,5.72596595040131,9,120.879099241202
"10",116.838433278778,-2.10161765704899,120.915993028288,-1.97594209246128,1,"subseries 10",FALSE,10,3.77994951719024,10,120.915993028288
"11",111.230509563762,-9.73524041615973,121.09607760662,-0.130327626698289,1,"subseries 11",FALSE,11,5.84991291469006,11,121.09607760662
"12",115.078372858128,-10.1358777118722,121.361084172999,3.85316639700154,1,"subseries 12",FALSE,12,3.68602023681356,12,121.361084172999
"13",126.8964843163,1.37870595483384,121.444239195476,4.07353916598993,1,"subseries 1",FALSE,13,3.68447595761508,13,121.444239195476
"14",125.24280665791,4.53449085369227,121.585462473673,-0.877146669455612,1,"subseries 2",FALSE,14,6.1369360957859,14,121.585462473673
"15",138.096205719404,12.5535680565134,121.471058333781,4.07157932910933,1,"subseries 3",FALSE,15,6.93527398183518,15,121.471058333781
"16",128.200740628405,9.27514040412464,121.21653740405,-2.29093717976943,1,"subseries 4",FALSE,16,4.17809631201592,16,121.21653740405
"17",124.187208504897,2.67270045709399,120.846310874683,0.668197173119708,1,"subseries 5",FALSE,17,3.8224214880387,17,120.846310874683
"18",118.765147951548,0.790472987550933,120.148329015917,-2.17365405191971,1,"subseries 6",FALSE,18,4.27834854447862,18,120.148329015917
"19",116.134589782109,-2.0492886510908,119.389655609808,-1.20577717660863,1,"subseries 7",FALSE,19,4.97945878058733,19,119.389655609808
"20",115.22053950145,-5.00183994757528,118.612421793333,1.60995765569248,1,"subseries 8",FALSE,20,4.44998545289985,20,118.612421793333
"21",119.128975083497,-2.18121433006209,117.806264187777,3.50392522578258,1,"subseries 9",FALSE,21,4.47885389393642,21,117.806264187777
"22",115.084814970329,-2.10161765704899,117.043458996857,0.142973630521382,1,"subseries 10",FALSE,22,3.11459051125613,22,117.043458996857
"23",108.11331891768,-9.73524041615973,116.197080601387,1.65147873245246,1,"subseries 11",FALSE,23,5.43153750225078,23,116.197080601387
"24",101.878659410028,-10.1358777118722,115.329356266152,-3.31481914425224,1,"subseries 12",FALSE,24,3.034020734981,24,115.329356266152
"25",111.867727174809,1.37870595483384,114.427565508807,-3.93854428883212,1,"subseries 1",FALSE,25,9.43551454222846,25,114.427565508807
"26",125.17998174805,4.53449085369227,113.564436555596,7.08105433876129,1,"subseries 2",FALSE,26,6.27057642893551,26,113.564436555596
"27",122.573699105441,12.5535680565134,112.888755403374,-2.86862435444601,1,"subseries 3",FALSE,27,7.06329489006556,27,112.888755403374
"28",118.824858746034,9.27514040412464,112.500295812348,-2.9505774704383,1,"subseries 4",FALSE,28,7.4248991572862,28,112.500295812348
"29",112.89532375613,2.67270045709399,112.426486730105,-2.20386343106894,1,"subseries 5",FALSE,29,4.24882400378487,29,112.426486730105
"30",112.17165087656,0.790472987550933,112.667062777458,-1.28588488844856,1,"subseries 6",FALSE,30,4.40324116852444,30,112.667062777458
"31",107.991775997348,-2.0492886510908,113.268057043476,-3.22699239503704,1,"subseries 7",FALSE,31,4.49098090998648,31,113.268057043476
"32",106.962701086925,-5.00183994757528,113.69399136303,-1.72945032853005,1,"subseries 8",FALSE,32,5.16964686192723,32,113.69399136303
"33",113.840522469743,-2.18121433006209,114.161818927581,1.85991787222433,1,"subseries 9",FALSE,33,3.97350495630257,33,114.161818927581
"34",109.821405546189,-2.10161765704899,114.518294299594,-2.5952710963561,1,"subseries 10",FALSE,34,5.00476771314719,34,114.518294299594
"35",111.641337961984,-9.73524041615973,114.508723512852,6.867854865292,1,"subseries 11",FALSE,35,8.62929154675068,35,114.508723512852
"36",113.877292474784,-10.1358777118722,114.522696857611,9.49047332904563,1,"subseries 12",FALSE,36,3.65455642088802,36,114.522696857611
"37",117.699167631411,1.37870595483384,114.147352403719,2.17310927285845,1,"subseries 1",FALSE,37,3.61374463393929,37,114.147352403719
"38",114.767370635338,4.53449085369227,113.551486119989,-3.31860633834319,1,"subseries 2",FALSE,38,5.74092672031619,38,113.551486119989
"39",122.451238055489,12.5535680565134,112.662299661849,-2.76462966287336,1,"subseries 3",FALSE,39,8.32406702195109,39,112.662299661849
"40",119.57690989824,9.27514040412464,111.516387090636,-1.21461759652088,1,"subseries 4",FALSE,40,9.28067275918709,40,111.516387090636
"41",113.399950269641,2.67270045709399,110.474792999875,0.252456812672136,1,"subseries 5",FALSE,41,3.75662291663999,41,110.474792999875
"42",111.575014998822,0.790472987550933,109.557634607197,1.22690740407413,1,"subseries 6",FALSE,42,4.42344892158221,42,109.557634607197
"43",106.794057697119,-2.0492886510908,108.994596429336,-0.151250081126008,1,"subseries 7",FALSE,43,4.78211515291563,43,108.994596429336
"44",97.3500735271556,-5.00183994757528,108.656714669773,-6.30480119504172,1,"subseries 8",FALSE,44,5.2221260954075,44,108.656714669773
"45",104.313996010596,-2.18121433006209,108.447063161279,-1.95185282062056,1,"subseries 9",FALSE,45,9.78044385785691,45,108.447063161279
"46",107.521374252571,-2.10161765704899,108.286088952212,1.33690295740806,1,"subseries 10",FALSE,46,3.2369021181092,46,108.286088952212
"47",100.537088058287,-9.73524041615973,108.239203987572,2.03312448687457,1,"subseries 11",FALSE,47,3.48801148751531,47,108.239203987572
"48",99.7859005537116,-10.1358777118722,108.245571111909,1.67620715367478,1,"subseries 12",FALSE,48,10.2947820216548,48,108.245571111909
"49",109.195278886758,1.37870595483384,108.201760669308,-0.385187737383887,1,"subseries 1",FALSE,49,3.51737455635041,49,108.201760669308
"50",111.794168970217,4.53449085369227,108.088288999161,-0.828610882636468,1,"subseries 2",FALSE,50,4.41577963120267,50,108.088288999161
"51",118.437121917354,12.5535680565134,107.728759202634,-1.84520534179362,1,"subseries 3",FALSE,51,6.85469462826768,51,107.728759202634
"52",124.407260726422,9.27514040412464,107.22420089121,7.90791943108766,1,"subseries 4",FALSE,52,8.83245406613302,52,107.22420089121
"53",108.256725770701,2.67270045709399,106.632738989856,-1.04871367624922,1,"subseries 5",FALSE,53,3.58827840595438,53,106.632738989856
"54",105.623609507286,0.790472987550933,106.29733692711,-1.46420040737523,1,"subseries 6",FALSE,54,3.99666734273446,54,106.29733692711
"55",103.783021334235,-2.0492886510908,106.127000777841,-0.29469079251551,1,"subseries 7",FALSE,55,4.90743342226244,55,106.127000777841
"56",99.5306642046834,-5.00183994757528,105.777932101951,-1.2454279496924,1,"subseries 8",FALSE,56,3.55179146111404,56,105.777932101951
"57",95.8342301827248,-2.18121433006209,105.480153421509,-7.46470890872223,1,"subseries 9",FALSE,57,8.7984853022904,57,105.480153421509
"58",104.181557484309,-2.10161765704899,104.938882803387,1.34429233797137,1,"subseries 10",FALSE,58,7.37269070003596,58,104.938882803387
"59",95.4660647487797,-9.73524041615973,104.361920187666,0.839384977273497,1,"subseries 11",FALSE,59,4.8659725271257,59,104.361920187666
"60",104.693037356835,-10.1358777118722,104.165583797976,10.6633312707309,1,"subseries 12",FALSE,60,10.0005058649596,60,104.165583797976
"61",107.732001722884,1.37870595483384,103.967044318667,2.38625144938312,1,"subseries 1",FALSE,61,4.08728172760277,61,103.967044318667
"62",101.315081265222,4.53449085369227,104.033337913057,-7.25274750152727,1,"subseries 2",FALSE,62,2.95309370149132,62,104.033337913057
"63",113.480297011865,12.5535680565134,104.17490536813,-3.24817641277802,1,"subseries 3",FALSE,63,7.40726481492651,63,104.17490536813
"64",109.589632667722,9.27514040412464,103.665516847865,-3.35102458426749,1,"subseries 4",FALSE,64,7.19156851061586,64,103.665516847865
"65",104.335581772377,2.67270045709399,102.99167116828,-1.32878985299743,1,"subseries 5",FALSE,65,5.8595578579149,65,102.99167116828
"66",106.728867859833,0.790472987550933,100.865202136829,5.07319273545329,1,"subseries 6",FALSE,66,3.99044778378404,66,100.865202136829
"67",105.284761575404,-2.0492886510908,98.0022333604996,9.33181686599521,1,"subseries 7",FALSE,67,4.11451258324639,67,98.0022333604996
"68",104.847662617556,-5.00183994757528,95.6529070928078,14.1965954723235,1,"subseries 8",FALSE,68,3.79433377798965,68,95.6529070928078
"69",99.4108053028963,-2.18121433006209,93.1193342102176,8.47268542274075,1,"subseries 9",FALSE,69,3.0248555745038,69,93.1193342102176
"70",94.0644835681205,-2.10161765704899,90.6311220663663,5.53497915880314,1,"subseries 10",FALSE,70,4.62735007088426,70,90.6311220663663
"71",70.6476515386551,-9.73524041615973,88.0541938812422,-7.67130192642736,1,"subseries 11",FALSE,71,17.7791404120759,71,88.0541938812422
"72",56.2456710079307,-10.1358777118722,85.2673961783284,-18.8858474585255,1,"subseries 12",FALSE,72,8.91685286903316,72,85.2673961783284
"73",86.3393281168817,1.37870595483384,82.4030065024819,2.55761565956594,1,"subseries 1",FALSE,73,12.8281744366459,73,82.4030065024819
