"","raw","seasonal","trend","remainder","weights","sub.labels","interpolated","age","sigma","operating","power"
"1",7.82507765197337,-0.218497061607244,7.87987469260338,0.163700020977238,1,"subseries 1",FALSE,1,0.51573310708697,1,7.87987469260338
"2",7.59559402671889,-0.39948195345546,7.94706662188814,0.0480093582862118,1,"subseries 2",FALSE,2,0.423439223119239,2,7.94706662188814
"3",7.91751699293954,-0.167006203088449,8.01347472515281,0.07104847087518,1,"subseries 3",FALSE,3,0.271403972570802,3,8.01347472515281
"4",7.88936468649178,-0.0497087986828102,8.07724191338697,-0.138168428212383,1,"subseries 4",FALSE,4,0.2628405353064,4,8.07724191338697
"5",7.05528700057347,-0.0604570944660732,8.13981099493849,-1.02406689989895,1,"subseries 5",FALSE,5,0.656812243046557,5,8.13981099493849
"6",8.77893764818349,0.213659225840325,8.1955809498601,0.369697472483068,1,"subseries 6",FALSE,6,0.352298923399511,6,8.1955809498601
"7",8.93223515536794,0.316648038029031,8.25018621236666,0.365400904972248,1,"subseries 7",FALSE,7,0.265697277787358,7,8.25018621236666
"8",8.86959726481021,0.31012803053402,8.31285307321374,0.246616161062445,1,"subseries 8",FALSE,8,0.274970724407367,8,8.31285307321374
"9",8.58436109834589,0.138007520734976,8.36764266372833,0.0787109138825812,1,"subseries 9",FALSE,9,0.312537586302107,9,8.36764266372833
"10",8.85226796218197,0.105336179834685,8.40297311736195,0.343958664985335,1,"subseries 10",FALSE,10,0.310244738607675,10,8.40297311736195
"11",8.47692880420748,-0.0206534354549503,8.40348203485076,0.094100204811669,1,"subseries 11",FALSE,11,0.353608753916123,11,8.40348203485076
"12",8.23643114263223,-0.167974448218051,8.38718762974225,0.0172179611080256,1,"subseries 12",FALSE,12,0.407840792131198,12,8.38718762974225
"13",8.1505709019037,-0.218497061607244,8.36100354935979,0.00806441415115522,1,"subseries 1",FALSE,13,0.421706456596314,13,8.36100354935979
"14",7.88643513295643,-0.39948195345546,8.32627758196321,-0.0403604955513224,1,"subseries 2",FALSE,14,0.354316265092876,14,8.32627758196321
"15",7.85250547664604,-0.167006203088449,8.3018748882505,-0.282363208516013,1,"subseries 3",FALSE,15,0.269953259981528,15,8.3018748882505
"16",7.96444029243023,-0.0497087986828102,8.27700859607172,-0.262859504958675,1,"subseries 4",FALSE,16,0.28735132653747,16,8.27700859607172
"17",8.3834011073224,-0.0604570944660732,8.26681270122103,0.177045500567441,1,"subseries 5",FALSE,17,0.252920737219861,17,8.26681270122103
"18",8.44846891740918,0.213659225840325,8.26257804353031,-0.0277683519614591,1,"subseries 6",FALSE,18,0.361470002574791,18,8.26257804353031
"19",8.63383685716882,0.316648038029031,8.26329412171293,0.0538946974268608,1,"subseries 7",FALSE,19,0.322857861333596,19,8.26329412171293
"20",8.4963206766891,0.31012803053402,8.26844882627373,-0.0822561801186463,1,"subseries 8",FALSE,20,0.339266280724617,20,8.26844882627373
"21",8.6200332950671,0.138007520734976,8.26527029846889,0.216755475863234,1,"subseries 9",FALSE,21,0.289003854357427,21,8.26527029846889
"22",8.37957834139562,0.105336179834685,8.25761148530722,0.0166306762537118,1,"subseries 10",FALSE,22,0.321718781260714,22,8.25761148530722
"23",8.28714004941797,-0.0206534354549503,8.2391355416625,0.0686579432104235,1,"subseries 11",FALSE,23,0.383999699864858,23,8.2391355416625
"24",8.12666947961185,-0.167974448218051,8.21340902012613,0.0812349077037737,1,"subseries 12",FALSE,24,0.375384459141564,24,8.21340902012613
"25",7.8182985069665,-0.218497061607244,8.18107434523608,-0.144278776662334,1,"subseries 1",FALSE,25,0.394720021983081,25,8.18107434523608
"26",7.8949205524499,-0.39948195345546,8.14008197650451,0.154320529400847,1,"subseries 2",FALSE,26,0.376051433113875,26,8.14008197650451
"27",7.84891574146604,-0.167006203088449,8.09460000629579,-0.0786780617413054,1,"subseries 3",FALSE,27,0.316788442262578,27,8.09460000629579
"28",7.88159437961586,-0.0497087986828102,8.04699128669749,-0.115688108398815,1,"subseries 4",FALSE,28,0.255568266304554,28,8.04699128669749
"29",8.26128246287198,-0.0604570944660732,7.99921851022976,0.32252104710829,1,"subseries 5",FALSE,29,0.444000153336028,29,7.99921851022976
"30",8.04189951248085,0.213659225840325,7.94654253759457,-0.118302250954046,1,"subseries 6",FALSE,30,0.325020980883232,30,7.94654253759457
"31",8.13158860810709,0.316648038029031,7.88914671433996,-0.0742061442619022,1,"subseries 7",FALSE,31,0.343111891372302,31,7.88914671433996
"32",8.08248701992397,0.31012803053402,7.83763856836222,-0.0652795789722678,1,"subseries 8",FALSE,32,0.332470299051781,32,7.83763856836222
"33",8.08947230570651,0.138007520734976,7.78953515515884,0.161929629812697,1,"subseries 9",FALSE,33,0.304834980895584,33,7.78953515515884
"34",8.00091470879209,0.105336179834685,7.74236067870328,0.153217850254128,1,"subseries 10",FALSE,34,0.340976579627264,34,7.74236067870328
"35",7.41721846742042,-0.0206534354549503,7.69912211491009,-0.261250212034722,1,"subseries 11",FALSE,35,0.403844337794489,35,7.69912211491009
"36",7.26649203928432,-0.167974448218051,7.65591513504095,-0.221448647538578,1,"subseries 12",FALSE,36,0.382328463658901,36,7.65591513504095
"37",7.32427415554003,-0.218497061607244,7.61630174739902,-0.0735305302517428,1,"subseries 1",FALSE,37,0.393297449327733,37,7.61630174739902
"38",7.49072534843641,-0.39948195345546,7.58953520203522,0.300672099856649,1,"subseries 2",FALSE,38,0.371119637450278,38,7.58953520203522
"39",7.56761713654478,-0.167006203088449,7.57610403259562,0.158519307037612,1,"subseries 3",FALSE,39,0.314294235510944,39,7.57610403259562
"40",7.25665492208567,-0.0497087986828102,7.5779608709803,-0.271597150211819,1,"subseries 4",FALSE,40,0.309900646640628,40,7.5779608709803
"41",7.10224465236588,-0.0604570944660732,7.5919892927792,-0.429287545947246,1,"subseries 5",FALSE,41,0.245137191910024,41,7.5919892927792
"42",7.92082734084584,0.213659225840325,7.60067910632018,0.106489008685337,1,"subseries 6",FALSE,42,0.571138669998144,42,7.60067910632018
"43",7.87859052013873,0.316648038029031,7.61179748366176,-0.049855001552058,1,"subseries 7",FALSE,43,0.342065392007132,43,7.61179748366176
"44",7.99890995756144,0.31012803053402,7.62091382125285,0.0678681057745703,1,"subseries 8",FALSE,44,0.353772351975362,44,7.62091382125285
"45",8.0177710502848,0.138007520734976,7.63054476003398,0.249218769515842,1,"subseries 9",FALSE,45,0.349606540973916,45,7.63054476003398
"46",7.95098289224095,0.105336179834685,7.65121593101866,0.194430781387604,1,"subseries 10",FALSE,46,0.594088817891817,46,7.65121593101866
"47",7.4194675122552,-0.0206534354549503,7.66053058871594,-0.220409641005787,1,"subseries 11",FALSE,47,0.37517531512469,47,7.66053058871594
"48",7.49262144047665,-0.167974448218051,7.66331197944639,-0.0027160907516901,1,"subseries 12",FALSE,48,0.501095063385331,48,7.66331197944639
"49",7.51209734360984,-0.218497061607244,7.66173253572981,0.0688618694872742,1,"subseries 1",FALSE,49,0.38880909393527,49,7.66173253572981
"50",7.22094102996121,-0.39948195345546,7.65550213736572,-0.0350791539490451,1,"subseries 2",FALSE,50,0.390867465331068,50,7.65550213736572
"51",7.48208960385333,-0.167006203088449,7.65598052593186,-0.00688471899007759,1,"subseries 3",FALSE,51,0.318136400685262,51,7.65598052593186
"52",7.39080074624172,-0.0497087986828102,7.66774914289201,-0.227239597967477,1,"subseries 4",FALSE,52,0.449187461536303,52,7.66774914289201
"53",7.7239944475615,-0.0604570944660732,7.69143331879822,0.0930182232293504,1,"subseries 5",FALSE,53,0.305914978850271,53,7.69143331879822
"54",7.98564603929813,0.213659225840325,7.71711303226285,0.0548737811949511,1,"subseries 6",FALSE,54,0.325072220096009,54,7.71711303226285
"55",7.74981270758768,0.316648038029031,7.74822987311739,-0.315065203558738,1,"subseries 7",FALSE,55,0.310364876163669,55,7.74822987311739
"56",8.04780313310306,0.31012803053402,7.77817003481113,-0.0404949322420887,1,"subseries 8",FALSE,56,0.272269239270724,56,7.77817003481113
"57",8.21770596837686,0.138007520734976,7.80701116746093,0.272687280180959,1,"subseries 9",FALSE,57,0.231396978727941,57,7.80701116746093
"58",8.05619814178042,0.105336179834685,7.83935581093223,0.111506151013507,1,"subseries 10",FALSE,58,0.26107031975257,58,7.83935581093223
"59",7.8639295881364,-0.0206534354549503,7.86611724613159,0.0184657774597632,1,"subseries 11",FALSE,59,0.442171834603827,59,7.86611724613159
"60",7.65633885890466,-0.167974448218051,7.88653407210161,-0.0622207649788997,1,"subseries 12",FALSE,60,0.455918936420421,60,7.88653407210161
"61",7.72938217162644,-0.218497061607244,7.89580314289718,0.0520760903365076,1,"subseries 1",FALSE,61,0.464186850702502,61,7.89580314289718
"62",7.51352980246422,-0.39948195345546,7.89405026628805,0.0189614896316339,1,"subseries 2",FALSE,62,0.407494641913761,62,7.89405026628805
"63",7.71619188207696,-0.167006203088449,7.88472450566219,-0.0015264204967842,1,"subseries 3",FALSE,63,1.37564314385478,63,7.88472450566219
"64",7.94193245146583,-0.0497087986828102,7.87241076932835,0.119230480820287,1,"subseries 4",FALSE,64,0.322371798841585,64,7.87241076932835
"65",7.98049304574083,-0.0604570944660732,7.85844049691238,0.182509643294519,1,"subseries 5",FALSE,65,0.290021846996099,65,7.85844049691238
"66",7.76816043416443,0.213659225840325,7.84894681838905,-0.294445610064944,1,"subseries 6",FALSE,66,0.496468878057344,66,7.84894681838905
"67",8.12642113052375,0.316648038029031,7.8416865050889,-0.0319134125941831,1,"subseries 7",FALSE,67,0.317896593146072,67,7.8416865050889
"68",8.26329856251668,0.31012803053402,7.83771172209648,0.115458809886182,1,"subseries 8",FALSE,68,0.288326902344515,68,7.83771172209648
"69",7.77364854586378,0.138007520734976,7.84408678951822,-0.208445764389418,1,"subseries 9",FALSE,69,0.274671994638272,69,7.84408678951822
"70",7.92956351005695,0.105336179834685,7.85448778734768,-0.030260457125415,1,"subseries 10",FALSE,70,0.336974166370707,70,7.85448778734768
"71",7.81838796361452,-0.0206534354549503,7.87520552846124,-0.0361641293917643,1,"subseries 11",FALSE,71,0.483635996927356,71,7.87520552846124
"72",7.61701478498683,-0.167974448218051,7.89498946383456,-0.110000230629676,1,"subseries 12",FALSE,72,0.520679632656191,72,7.89498946383456
"73",7.84232108477076,-0.218497061607244,7.91095640868797,0.149861737690038,1,"subseries 1",FALSE,73,0.396067371634054,73,7.91095640868797
"74",7.60473565614634,-0.39948195345546,7.90864461947486,0.0955729901269384,1,"subseries 2",FALSE,74,0.402605933187262,74,7.90864461947486
"75",7.79979252777483,-0.167006203088449,7.88416942029744,0.082629310565844,1,"subseries 3",FALSE,75,0.34986851891204,75,7.88416942029744
"76",8.0716147070817,-0.0497087986828102,7.85907806640585,0.26224543935866,1,"subseries 4",FALSE,76,0.35169310953386,76,7.85907806640585
"77",7.98184108574615,-0.0604570944660732,7.8161102117078,0.226187968504418,1,"subseries 5",FALSE,77,0.281920043608457,77,7.8161102117078
"78",8.04019403340743,0.213659225840325,7.78596243925998,0.0405723683071244,1,"subseries 6",FALSE,78,0.355545222911605,78,7.78596243925998
"79",8.05712626458701,0.316648038029031,7.76279997938542,-0.0223217528274411,1,"subseries 7",FALSE,79,0.27214532738852,79,7.76279997938542
"80",7.46700877579881,0.31012803053402,7.73320649159507,-0.576325746330283,1,"subseries 8",FALSE,80,0.287215488594133,80,7.73320649159507
"81",7.50449730360858,0.138007520734976,7.72338067834581,-0.356890895472211,1,"subseries 9",FALSE,81,0.406886414799289,81,7.72338067834581
"82",7.66254855506514,0.105336179834685,7.72351559769307,-0.166303222462619,1,"subseries 10",FALSE,82,0.474403216156715,82,7.72351559769307
"83",8.0163475298049,-0.0206534354549503,7.7552054984675,0.281795466792354,1,"subseries 11",FALSE,83,0.328168391455449,83,7.7552054984675
"84",7.75908415714244,-0.167974448218051,7.81932682392605,0.107731781434442,1,"subseries 12",FALSE,84,0.461841428439823,84,7.81932682392605
"85",7.48455225263453,-0.218497061607244,7.90453055760868,-0.201481243366905,1,"subseries 1",FALSE,85,0.439730668000496,85,7.90453055760868
"86",7.3739235192622,-0.39948195345546,8.00383197145534,-0.230426498737681,1,"subseries 2",FALSE,86,0.412318476838231,86,8.00383197145534
"87",7.70898131296759,-0.167006203088449,8.10180565517902,-0.225818139122982,1,"subseries 3",FALSE,87,0.693812880184581,87,8.10180565517902
"88",8.47760305342306,-0.0497087986828102,8.1748237488694,0.352488103236466,1,"subseries 4",FALSE,88,0.353457296719551,88,8.1748237488694
"89",8.39688432087611,-0.0604570944660732,8.23304436725734,0.224297048084839,1,"subseries 5",FALSE,89,0.309057682399712,89,8.23304436725734
"90",8.47583879356447,0.213659225840325,8.28423867750426,-0.0220591097801197,1,"subseries 6",FALSE,90,0.398399956980064,90,8.28423867750426
"91",8.95985384059176,0.316648038029031,8.31084053669382,0.332365265868914,1,"subseries 7",FALSE,91,0.297653442225582,91,8.31084053669382
"92",8.95059482866127,0.31012803053402,8.3336312782662,0.306835519861053,1,"subseries 8",FALSE,92,0.32878589398668,92,8.3336312782662
"93",8.46233963354571,0.138007520734976,8.33415234175288,-0.00982022894214829,1,"subseries 9",FALSE,93,0.337212281170937,93,8.33415234175288
"94",8.1812606030575,0.105336179834685,8.32576648046066,-0.249842057237849,1,"subseries 10",FALSE,94,0.283159380513426,94,8.32576648046066
"95",8.21958938314971,-0.0206534354549503,8.32216828607526,-0.0819254674706045,1,"subseries 11",FALSE,95,0.323938164417415,95,8.32216828607526
"96",8.13744375536957,-0.167974448218051,8.31113833644964,-0.00572013286201845,1,"subseries 12",FALSE,96,0.40881102447161,96,8.31113833644964
"97",7.91322753523315,-0.218497061607244,8.31261442993864,-0.180889833098249,1,"subseries 1",FALSE,97,0.375134270148147,97,8.31261442993864
"98",7.64090440889756,-0.39948195345546,8.30425462388586,-0.26386826153284,1,"subseries 2",FALSE,98,0.493410275476798,98,8.30425462388586
"99",8.39191196368219,-0.167006203088449,8.29587963545569,0.263038531314951,1,"subseries 3",FALSE,99,0.39799150371614,99,8.29587963545569
"100",8.40105031149616,-0.0497087986828102,8.29254746939546,0.158211640783508,1,"subseries 4",FALSE,100,0.324194357799249,100,8.29254746939546
"101",8.53716502407492,-0.0604570944660732,8.27579564414748,0.321826474393513,1,"subseries 5",FALSE,101,0.650237911075964,101,8.27579564414748
"102",8.58904043517248,0.213659225840325,8.27511503928285,0.1002661700493,1,"subseries 6",FALSE,102,0.304323942794365,102,8.27511503928285
"103",8.35396152943781,0.316648038029031,8.27275674520541,-0.235443253796635,1,"subseries 7",FALSE,103,0.293776587397995,103,8.27275674520541
"104",8.62828983267287,0.31012803053402,8.26621523636809,0.0519465657707556,1,"subseries 8",FALSE,104,0.302650070178439,104,8.26621523636809
"105",8.02818895939828,0.138007520734976,8.26760002533573,-0.377418586672424,1,"subseries 9",FALSE,105,0.296777381791683,105,8.26760002533573
"106",8.0236312778733,0.105336179834685,8.26138910358609,-0.343094005547472,1,"subseries 10",FALSE,106,0.468320372232299,106,8.26138910358609
"107",8.40893106949366,-0.0206534354549503,8.26211054570897,0.167473959239643,1,"subseries 11",FALSE,107,0.336265416220599,107,8.26211054570897
"108",8.31679397894957,-0.167974448218051,8.26209624564784,0.222672181519776,1,"subseries 12",FALSE,108,0.330591587274894,108,8.26209624564784
"109",8.22383720146327,-0.218497061607244,8.25994437733061,0.182389885739905,1,"subseries 1",FALSE,109,0.372411126421381,109,8.25994437733061
"110",7.83569807925678,-0.39948195345546,8.26179583134529,-0.0266157986330455,1,"subseries 2",FALSE,110,0.372652577256554,110,8.26179583134529
"111",8.13630028197643,-0.167006203088449,8.26294646019132,0.0403600248735572,1,"subseries 3",FALSE,111,0.408815034877757,111,8.26294646019132
"112",8.35967971461326,-0.0497087986828102,8.2649527705309,0.144435742765166,1,"subseries 4",FALSE,112,0.311536681718749,112,8.2649527705309
"113",8.13451917768754,-0.0604570944660732,8.26654359229405,-0.0715673201404314,1,"subseries 5",FALSE,113,0.36981843568606,113,8.26654359229405
"114",8.29164270197615,0.213659225840325,8.26687858954885,-0.188895113413027,1,"subseries 6",FALSE,114,0.233174892071562,114,8.26687858954885
