"","raw","seasonal","trend","remainder","weights","sub.labels","interpolated","age","sigma","operating","power"
"1",120.146750023767,8.32695061032771,86.705975339491,25.1138240739483,1,"subseries 1",FALSE,1,34.2631868790829,1,86.705975339491
"2",101.321933124012,9.12207318403401,84.0552531834874,8.1446067564906,1,"subseries 2",FALSE,2,36.1232260917037,2,84.0552531834874
"3",69.5743232397192,3.59903458987341,81.4943599217554,-15.5190712719096,1,"subseries 3",FALSE,3,32.5353130259379,3,81.4943599217554
"4",60.4079061858636,-0.610019493811001,79.0158157575443,-17.9978900778697,1,"subseries 4",FALSE,4,17.9853209461793,4,79.0158157575443
"5",68.6664147167454,-1.15694711450994,76.6720426931805,-6.84868086192522,1,"subseries 5",FALSE,5,10.3446721257751,5,76.6720426931805
"6",68.362956027128,-3.72219457441814,74.1799905321199,-2.09483993057376,1,"subseries 6",FALSE,6,2.6039008921263,6,74.1799905321199
"7",67.4696101345705,-4.85768256484448,72.0217610057764,0.305531693638571,1,"subseries 7",FALSE,7,5.03529522158943,7,72.0217610057764
"8",63.2895708787853,-5.36444154789067,70.1482802492911,-1.49426782261513,1,"subseries 8",FALSE,8,7.87428463355321,8,70.1482802492911
"9",64.0885538826493,-3.61002554798955,68.9575220681521,-1.25894263751329,1,"subseries 9",FALSE,9,8.88788422518432,9,68.9575220681521
"10",63.0485755720685,-0.355631733131252,69.231901744162,-5.82769443896228,1,"subseries 10",FALSE,10,9.39014971075643,10,69.231901744162
"11",68.7828916778677,-2.67779131031951,69.6327797066411,1.82790328154606,1,"subseries 11",FALSE,11,3.58478560855996,11,69.6327797066411
"12",72.0296839547452,1.30667550267942,69.8995410730215,0.823467379044274,1,"subseries 12",FALSE,12,3.51563545728545,12,69.8995410730215
"13",74.1839261303732,8.32695061032771,70.3419259744139,-4.48495045436839,1,"subseries 1",FALSE,13,4.43661245102121,13,70.3419259744139
"14",80.187902034329,9.12207318403401,70.8066057263252,0.259223123969761,1,"subseries 2",FALSE,14,3.86744885993644,14,70.8066057263252
"15",77.0569256376886,3.59903458987341,71.2001458655916,2.25774518222359,1,"subseries 3",FALSE,15,4.63323070377788,15,71.2001458655916
"16",74.0910938066773,-0.610019493811001,71.5488495676653,3.15226373282296,1,"subseries 4",FALSE,16,4.78687843415511,16,71.5488495676653
"17",73.3104285041921,-1.15694711450994,71.6557816530512,2.81159396565084,1,"subseries 5",FALSE,17,7.855438312856,17,71.6557816530512
"18",67.6957805923172,-3.72219457441814,71.7253471254281,-0.307371958692784,1,"subseries 6",FALSE,18,3.49601465449753,18,71.7253471254281
"19",66.9655931415087,-4.85768256484448,71.610683629896,0.212592076457142,1,"subseries 7",FALSE,19,4.65509330230981,19,71.610683629896
"20",67.1363933031194,-5.36444154789067,71.3923588313711,1.10847601963897,1,"subseries 8",FALSE,20,3.55448906591893,20,71.3923588313711
"21",66.1856039195527,-3.61002554798955,71.1536501937106,-1.35802072616838,1,"subseries 9",FALSE,21,3.48344100079658,21,71.1536501937106
"22",66.6266522206689,-0.355631733131252,70.9205118564334,-3.93822790263323,1,"subseries 10",FALSE,22,2.70767309422706,22,70.9205118564334
"23",70.1484302892858,-2.67779131031951,70.885864830799,1.94035676880627,1,"subseries 11",FALSE,23,3.53078887269427,23,70.885864830799
"24",71.9045529685865,1.30667550267942,70.9055494462919,-0.307671980384825,1,"subseries 12",FALSE,24,4.85368592879399,24,70.9055494462919
"25",75.7496329936535,8.32695061032771,71.0482362561288,-3.62555387280304,1,"subseries 1",FALSE,25,4.32278016944336,25,71.0482362561288
"26",80.2187841841783,9.12207318403401,71.0729237966006,0.0237872035436482,1,"subseries 2",FALSE,26,4.03704598902547,26,71.0729237966006
"27",76.7474031384291,3.59903458987341,70.973894457051,2.17447409150473,1,"subseries 3",FALSE,27,4.40002770467672,27,70.973894457051
"28",73.9906036956068,-0.610019493811001,70.8043729402354,3.79625024918236,1,"subseries 4",FALSE,28,4.1195084154741,28,70.8043729402354
"29",70.6204962857215,-1.15694711450994,70.3837865305488,1.39365686968263,1,"subseries 5",FALSE,29,3.68754252077221,29,70.3837865305488
"30",68.244762801305,-3.72219457441814,70.0402461423643,1.92671123335884,1,"subseries 6",FALSE,30,4.09224614528144,30,70.0402461423643
"31",66.5906087964764,-4.85768256484448,69.5636369614162,1.88465439990466,1,"subseries 7",FALSE,31,3.62924948157581,31,69.5636369614162
"32",61.476877140833,-5.36444154789067,68.9645104697685,-2.12319178104484,1,"subseries 8",FALSE,32,11.7691505989567,32,68.9645104697685
"33",59.6152856684042,-3.61002554798955,68.3895563198866,-5.16424510349282,1,"subseries 9",FALSE,33,5.07114047983846,33,68.3895563198866
"34",65.4435198968314,-0.355631733131252,67.843857431881,-2.04470580191833,1,"subseries 10",FALSE,34,4.01163074861132,34,67.843857431881
"35",67.5335204641798,-2.67779131031951,67.5866491320185,2.62466264248077,1,"subseries 11",FALSE,35,3.52969754493061,35,67.5866491320185
"36",70.1158498679097,1.30667550267942,67.532176074599,1.27699829063133,1,"subseries 12",FALSE,36,4.11687745228982,36,67.532176074599
"37",70.6712307829648,8.32695061032771,67.7273650248242,-5.38308485218715,1,"subseries 1",FALSE,37,3.89259233910822,37,67.7273650248242
"38",75.4849282988223,9.12207318403401,68.0113528013074,-1.64849768651914,1,"subseries 2",FALSE,38,4.16302982830866,38,68.0113528013074
"39",72.2706238501757,3.59903458987341,68.2964561904868,0.375133069815519,1,"subseries 3",FALSE,39,3.74025689139234,39,68.2964561904868
"40",71.3349464748364,-0.610019493811001,68.4386789924306,3.50628697621683,1,"subseries 4",FALSE,40,3.72618700068488,40,68.4386789924306
"41",69.3046823391842,-1.15694711450994,68.4124173587681,2.04921209492608,1,"subseries 5",FALSE,41,6.38385512067816,41,68.4124173587681
"42",65.7062223002501,-3.72219457441814,68.1827588448857,1.24565802978259,1,"subseries 6",FALSE,42,3.19065191443352,42,68.1827588448857
"43",64.6870936926328,-4.85768256484448,67.5445349136049,2.00024134387237,1,"subseries 7",FALSE,43,3.8896784348769,43,67.5445349136049
"44",63.9731494054462,-5.36444154789067,66.6286715681047,2.70891938523219,1,"subseries 8",FALSE,44,3.44260155392909,44,66.6286715681047
"45",63.8897777087261,-3.61002554798955,65.30299822294,2.19680503377568,1,"subseries 9",FALSE,45,3.46363262923621,45,65.30299822294
"46",63.2181427288816,-0.355631733131252,64.0563654285928,-0.482590966579899,1,"subseries 10",FALSE,46,2.89330438444686,46,64.0563654285928
"47",64.6591448156795,-2.67779131031951,62.8899367147708,4.44699941122816,1,"subseries 11",FALSE,47,6.17226649382711,47,62.8899367147708
"48",58.7683983635983,1.30667550267942,61.8172250210536,-4.35550216013475,1,"subseries 12",FALSE,48,7.624622873338,48,61.8172250210536
"49",59.8253286694069,8.32695061032771,61.0633240817285,-9.56494602264929,1,"subseries 1",FALSE,49,7.59994667841036,49,61.0633240817285
"50",64.0886662933684,9.12207318403401,60.2628155961207,-5.29622248678634,1,"subseries 2",FALSE,50,7.63817706423056,50,60.2628155961207
"51",66.2932271618633,3.59903458987341,59.8214631574519,2.87272941453795,1,"subseries 3",FALSE,51,7.20799735404401,51,59.8214631574519
"52",61.5303425949706,-0.610019493811001,59.613087292555,2.52727479622659,1,"subseries 4",FALSE,52,8.2186425345577,52,59.613087292555
"53",58.9806763785783,-1.15694711450994,59.6079672590985,0.529656233989712,1,"subseries 5",FALSE,53,8.15985309848707,53,59.6079672590985
"54",56.6333635305159,-3.72219457441814,59.9915322337264,0.364025871207645,1,"subseries 6",FALSE,54,8.48149357318926,54,59.9915322337264
"55",54.9688024446935,-4.85768256484448,60.3281740777952,-0.501689068257221,1,"subseries 7",FALSE,55,7.98178465632117,55,60.3281740777952
"56",54.5176345886613,-5.36444154789067,60.6935759639681,-0.811499827416142,1,"subseries 8",FALSE,56,7.64253641643615,56,60.6935759639681
"57",57.966873696514,-3.61002554798955,61.0928234900762,0.484075754427373,1,"subseries 9",FALSE,57,7.57672527400455,57,61.0928234900762
"58",59.1277007013505,-0.355631733131252,61.6275929197764,-2.14426048529464,1,"subseries 10",FALSE,58,7.09699428661907,58,61.6275929197764
"59",57.1333713850686,-2.67779131031951,62.4661998349549,-2.65503713956683,1,"subseries 11",FALSE,59,7.65520713903652,59,62.4661998349549
"60",66.1573384345715,1.30667550267942,63.3846939739995,1.46596895789254,1,"subseries 12",FALSE,60,4.24709049052941,60,63.3846939739995
"61",68.4693092380988,8.32695061032771,64.4775952782577,-4.33523665048664,1,"subseries 1",FALSE,61,3.46941968071234,61,64.4775952782577
"62",70.9843603303359,9.12207318403401,65.7031875292548,-3.8409003829529,1,"subseries 2",FALSE,62,4.16230380932702,62,65.7031875292548
"63",76.1212321291226,3.59903458987341,67.0750298548617,5.44716768438752,1,"subseries 3",FALSE,63,3.96582091556209,63,67.0750298548617
"64",70.96738104438,-0.610019493811001,69.0438367979237,2.53356374026727,1,"subseries 4",FALSE,64,4.84094435095988,64,69.0438367979237
"65",67.6944969441606,-1.15694711450994,71.1949029351371,-2.3434588764666,1,"subseries 5",FALSE,65,4.29539944251797,65,71.1949029351371
"66",66.0023850253849,-3.72219457441814,73.1096712160805,-3.38509161627748,1,"subseries 6",FALSE,66,3.32655805614119,66,73.1096712160805
"67",64.361381354845,-4.85768256484448,75.0292314502644,-5.81016753057494,1,"subseries 7",FALSE,67,3.79289413178471,67,75.0292314502644
"68",70.6513383742933,-5.36444154789067,76.9371464907022,-0.921366568518238,1,"subseries 8",FALSE,68,6.48997110390717,68,76.9371464907022
"69",79.0616482860235,-3.61002554798955,78.8478023093405,3.82387152467253,1,"subseries 9",FALSE,69,4.29425719895105,69,78.8478023093405
"70",93.710215122576,-0.355631733131252,80.8155254049718,13.2503214507355,1,"subseries 10",FALSE,70,12.1196903625522,70,80.8155254049718
"71",70.6181168472837,-2.67779131031951,82.7920171771822,-9.49610901957895,1,"subseries 11",FALSE,71,15.3231040441482,71,82.7920171771822
