"","raw","seasonal","trend","remainder","weights","sub.labels","interpolated","age","sigma","operating","power"
"1",122.838475939498,1.91965275727636,116.372741656963,4.54608152525829,1,"subseries 1",FALSE,1,11.1736013122163,1,116.372741656963
"2",130.219547320346,8.89422277255323,116.369720568489,4.95560397930385,1,"subseries 2",FALSE,2,13.9320054792433,2,116.369720568489
"3",127.39713617085,13.3672423582437,116.39865015957,-2.36875634696406,1,"subseries 3",FALSE,3,20.1872205690187,3,116.39865015957
"4",133.688069275048,13.6947551462073,116.493210153199,3.50010397564199,1,"subseries 4",FALSE,4,19.2072196917495,4,116.493210153199
"5",102.40839874479,-6.08633171133882,116.626365359552,-8.13163490342346,1,"subseries 5",FALSE,5,30.3262150413422,5,116.626365359552
"6",101.139542467631,-5.87943938780568,116.692082279218,-9.67310042378082,1,"subseries 6",FALSE,6,12.1718819221905,6,116.692082279218
"7",104.5735612287,-9.21996017195726,116.848346449023,-3.05482504836561,1,"subseries 7",FALSE,7,10.6284942069858,7,116.848346449023
"8",106.214548611321,-11.413011333534,116.884551944219,0.743008000636166,1,"subseries 8",FALSE,8,11.1794399358015,8,116.884551944219
"9",115.561955539072,-5.66679538321913,117.199401364219,4.02934955807251,1,"subseries 9",FALSE,9,11.1326648427517,9,117.199401364219
"10",123.780003223252,0.809726956717131,118.039252357217,4.93102390931764,1,"subseries 10",FALSE,10,9.638613862722,10,118.039252357217
"11",120.212513324632,-2.15278051392801,118.753159644771,3.61213419378898,1,"subseries 11",FALSE,11,11.8619025001602,11,118.753159644771
"12",118.172240450327,1.73271851078527,119.594233394315,-3.15471145477353,1,"subseries 12",FALSE,12,10.936779146584,12,119.594233394315
"13",115.935918054665,1.91965275727636,120.213873418456,-6.19760812106699,1,"subseries 1",FALSE,13,12.1494480378111,13,120.213873418456
"14",132.701633360994,8.89422277255323,120.267270825372,3.54013976306847,1,"subseries 2",FALSE,14,8.56572623630986,14,120.267270825372
"15",142.034949280101,13.3672423582437,120.156944477212,8.51076244464576,1,"subseries 3",FALSE,15,21.7529597312922,15,120.156944477212
"16",119.21825301857,13.6947551462073,119.750773132777,-14.2272752604148,1,"subseries 4",FALSE,16,25.0932870734678,16,119.750773132777
"17",125.58556265511,-6.08633171133882,119.066256165559,12.6056382008899,1,"subseries 5",FALSE,17,16.9778022605975,17,119.066256165559
"18",118.865837171153,-5.87943938780568,118.432771633521,6.31250492543778,1,"subseries 6",FALSE,18,24.790487504551,18,118.432771633521
"19",106.133167114378,-9.21996017195726,117.506304815992,-2.15317752965716,1,"subseries 7",FALSE,19,9.96879888958481,19,117.506304815992
"20",105.013154661959,-11.413011333534,116.765575476372,-0.339409480879468,1,"subseries 8",FALSE,20,9.29269975299599,20,116.765575476372
"21",107.507204497695,-5.66679538321913,116.194688604041,-3.02068872312687,1,"subseries 9",FALSE,21,8.2495897815634,21,116.194688604041
"22",118.451680779872,0.809726956717131,115.309585949517,2.33236787363744,1,"subseries 10",FALSE,22,13.8707892389349,22,115.309585949517
"23",97.786231696814,-2.15278051392801,114.493343873747,-14.5543316630052,1,"subseries 11",FALSE,23,7.79418503198362,23,114.493343873747
"24",115.446109506252,1.73271851078527,113.35365999774,0.359730997726885,1,"subseries 12",FALSE,24,14.028500898044,24,113.35365999774
"25",122.057339037041,1.91965275727636,112.239546418004,7.8981398617607,1,"subseries 1",FALSE,25,9.10719302129701,25,112.239546418004
"26",130.110927685197,8.89422277255323,111.862908478349,9.35379643429522,1,"subseries 2",FALSE,26,7.68486950978422,26,111.862908478349
"27",125.069383719902,13.3672423582437,111.614377234243,0.0877641274153689,1,"subseries 3",FALSE,27,24.6811121650501,27,111.614377234243
"28",133.084049674256,13.6947551462073,111.491027000423,7.89826752762606,1,"subseries 4",FALSE,28,10.6715897356296,28,111.491027000423
"29",68.384668015164,-6.08633171133882,111.375933533952,-36.904933807449,1,"subseries 5",FALSE,29,35.2353773660917,29,111.375933533952
"30",114.326573208307,-5.87943938780568,110.809158340307,9.39685425580582,1,"subseries 6",FALSE,30,20.4831149194701,30,110.809158340307
"31",111.851543718943,-9.21996017195726,110.392433030256,10.6790708606438,1,"subseries 7",FALSE,31,10.0532299300844,31,110.392433030256
"32",99.6612811444442,-11.413011333534,110.015652079723,1.05864039825478,1,"subseries 8",FALSE,32,11.7106347228856,32,110.015652079723
"33",103.955141025241,-5.66679538321913,109.72608251251,-0.104146104049875,1,"subseries 9",FALSE,33,11.4602869699054,33,109.72608251251
"34",108.973446770948,0.809726956717131,109.86591955437,-1.70219974013948,1,"subseries 10",FALSE,34,10.2456202568038,34,109.86591955437
"35",110.17675909333,-2.15278051392801,109.710035123337,2.61950448392138,1,"subseries 11",FALSE,35,8.69001198356367,35,109.710035123337
"36",112.438563965361,1.73271851078527,109.196174870509,1.50967058406702,1,"subseries 12",FALSE,36,11.7550998992482,36,109.196174870509
"37",108.794059791246,1.91965275727636,108.596731540832,-1.72232450686271,1,"subseries 1",FALSE,37,10.2225601713443,37,108.596731540832
"38",114.426462418521,8.89422277255323,107.990509104769,-2.45826945880115,1,"subseries 2",FALSE,38,10.4103427688947,38,107.990509104769
"39",121.197390695599,13.3672423582437,107.508846987833,0.321301349522756,1,"subseries 3",FALSE,39,10.3883098946361,39,107.508846987833
"40",123.675094738809,13.6947551462073,107.213918734579,2.76642085802241,1,"subseries 4",FALSE,40,29.0348313717563,40,107.213918734579
"41",96.8317845635376,-6.08633171133882,107.098035747224,-4.17991947234805,1,"subseries 5",FALSE,41,38.3723877984461,41,107.098035747224
"42",100.499931326881,-5.87943938780568,107.051095791632,-0.671725076945123,1,"subseries 6",FALSE,42,13.9248211318471,42,107.051095791632
"43",95.3408422105398,-9.21996017195726,107.15191680786,-2.59111442536316,1,"subseries 7",FALSE,43,14.4427425353041,43,107.15191680786
"44",96.9536400259276,-11.413011333534,107.151768793377,1.21488256608482,1,"subseries 8",FALSE,44,9.33161430373177,44,107.151768793377
"45",101.561449521447,-5.66679538321913,107.087443909426,0.14080099524034,1,"subseries 9",FALSE,45,9.46216893860564,45,107.087443909426
"46",108.966665714113,0.809726956717131,107.268978347034,0.887960410362339,1,"subseries 10",FALSE,46,10.6351622759584,46,107.268978347034
"47",110.139446436934,-2.15278051392801,107.529285488303,4.76294146255897,1,"subseries 11",FALSE,47,10.0407638999826,47,107.529285488303
"48",108.770332757979,1.73271851078527,108.029434816964,-0.991820569769942,1,"subseries 12",FALSE,48,9.71879595904671,48,108.029434816964
"49",108.39239629304,1.91965275727636,108.63077255954,-2.15802902377686,1,"subseries 1",FALSE,49,10.1283309575327,49,108.63077255954
"50",109.556390775254,8.89422277255323,108.794455952749,-8.13228795004832,1,"subseries 2",FALSE,50,17.135112723814,50,108.794455952749
"51",121.228472440883,13.3672423582437,108.849730906905,-0.988500824265358,1,"subseries 3",FALSE,51,9.31213048502515,51,108.849730906905
"52",123.761450101626,13.6947551462073,108.673286865036,1.39340809038254,1,"subseries 4",FALSE,52,9.22555335340316,52,108.673286865036
"53",119.681113356612,-6.08633171133882,108.292639374221,17.4748056937293,1,"subseries 5",FALSE,53,13.2399987596808,53,108.292639374221
"54",100.75778047042,-5.87943938780568,108.232831770136,-1.59561191191041,1,"subseries 6",FALSE,54,10.4630678961737,54,108.232831770136
"55",96.8235496523746,-9.21996017195726,107.956253620391,-1.91274379605908,1,"subseries 7",FALSE,55,11.5015709281023,55,107.956253620391
"56",94.1386732381784,-11.413011333534,107.482493046029,-1.93080847431676,1,"subseries 8",FALSE,56,9.13309788273138,56,107.482493046029
"57",100.227088383086,-5.66679538321913,106.802123259664,-0.908239493358664,1,"subseries 9",FALSE,57,9.83641470619325,57,106.802123259664
"58",100.441481378126,0.809726956717131,105.92184248033,-6.29008805892096,1,"subseries 10",FALSE,58,10.5850292822313,58,105.92184248033
"59",106.84971323036,-2.15278051392801,105.392725332932,3.60976841135567,1,"subseries 11",FALSE,59,8.60683255105382,59,105.392725332932
"60",109.549364312989,1.73271851078527,105.57904365291,2.23760214929342,1,"subseries 12",FALSE,60,9.5169883583304,60,105.57904365291
"61",105.186712432442,1.91965275727636,106.184485661995,-2.91742598682944,1,"subseries 1",FALSE,61,10.2752768515778,61,106.184485661995
"62",107.760334354621,8.89422277255323,106.759981485597,-7.89386990352924,1,"subseries 2",FALSE,62,12.5244687192924,62,106.759981485597
"63",114.525071591348,13.3672423582437,107.382827992037,-6.22499875893241,1,"subseries 3",FALSE,63,11.6596625973014,63,107.382827992037
"64",119.647106638754,13.6947551462073,107.987481609368,-2.03513011682153,1,"subseries 4",FALSE,64,12.1388702348023,64,107.987481609368
"65",121.036214598859,-6.08633171133882,108.612636734359,18.5099095758385,1,"subseries 5",FALSE,65,11.446447774109,65,108.612636734359
"66",99.1790477274724,-5.87943938780568,109.319588895151,-4.26110177987266,1,"subseries 6",FALSE,66,22.3586686961493,66,109.319588895151
"67",99.5595382734462,-9.21996017195726,110.046217151733,-1.26671870632956,1,"subseries 7",FALSE,67,24.0240233272498,67,110.046217151733
"68",98.522988298845,-11.413011333534,110.805588946046,-0.869589313667234,1,"subseries 8",FALSE,68,18.8158850243821,68,110.805588946046
