"","raw","seasonal","trend","remainder","weights","sub.labels","interpolated","age","sigma","operating","power"
"1",22.5688667458292,-1.06038401979914,34.8177418064315,-11.1884910408032,1,"subseries 1",FALSE,12,4.11592461567171,1,34.8177418064315
"2",44.8302634083134,2.34062125216193,31.3247537151794,11.164888440972,1,"subseries 2",FALSE,13,2.70750046702957,2,31.3247537151794
"3",59.276406542251,4.55982108907146,27.8949350295844,26.8216504235951,1,"subseries 3",FALSE,14,2.159356482574,3,27.8949350295844
"4",NA,0.642404208512311,24.6886682333947,NA,1,"subseries 4",TRUE,15,NA,4,NA
"5",7.5469002179593,-1.1087660398707,21.5476487225622,-12.8919824647322,1,"subseries 5",FALSE,16,3.49897434110503,5,21.5476487225622
"6",5.61889974695157,-1.28683756958816,18.4544257551491,-11.5486884386093,1,"subseries 6",FALSE,17,0.312093508779783,6,18.4544257551491
"7",5.53812545225937,-1.12653442209353,15.4681295667072,-8.80346969235428,1,"subseries 7",FALSE,18,0.261503450758915,7,15.4681295667072
"8",5.40584582851845,-0.982002882055922,11.8311948280731,-5.44334611749874,1,"subseries 8",FALSE,19,0.323412550328492,8,11.8311948280731
"9",5.21416685769061,-0.840851205952351,8.73388661266932,-2.67886854902636,1,"subseries 9",FALSE,20,0.370522798885928,9,8.73388661266932
"10",5.02876529537701,-0.631912420867275,6.85425873558855,-1.19358101934427,1,"subseries 10",FALSE,21,0.32720161179304,10,6.85425873558855
"11",5.00337504092958,-0.39844868653959,5.64877301634453,-0.246949288875362,1,"subseries 11",FALSE,22,0.435337789261012,11,5.64877301634453
"12",5.14447210526119,-0.107109302979031,5.32622275400883,-0.0746413457686073,1,"subseries 12",FALSE,23,0.418533513008209,12,5.32622275400883
"13",5.37389495735444,-1.06038401979914,5.14494792476433,1.28933105238925,1,"subseries 1",FALSE,24,0.419059419812369,13,5.14494792476433
"14",5.40759771091275,2.34062125216193,5.13847204041643,-2.07149558166561,1,"subseries 2",FALSE,25,0.526683436769041,14,5.13847204041643
"15",5.61705417161275,4.55982108907146,5.25565606055859,-4.1984229780173,1,"subseries 3",FALSE,26,0.45438114123101,15,5.25565606055859
"16",5.76686377877226,0.642404208512311,5.32273139157959,-0.198271821319639,1,"subseries 4",FALSE,27,0.488153785107864,16,5.32273139157959
"17",5.83238090525851,-1.1087660398707,5.44124891702177,1.49989802810744,1,"subseries 5",FALSE,28,0.494531446219346,17,5.44124891702177
"18",5.75186569573274,-1.28683756958816,5.59067613073932,1.44802713458158,1,"subseries 6",FALSE,29,0.340057431767067,18,5.59067613073932
"19",5.72931519827473,-1.12653442209353,5.70294309176982,1.15290652859844,1,"subseries 7",FALSE,30,0.300899588400799,19,5.70294309176982
"20",5.51165660380096,-0.982002882055922,5.83794663624335,0.655712849613534,1,"subseries 8",FALSE,31,0.348598926274175,20,5.83794663624335
"21",5.28003157843236,-0.840851205952351,5.80371094888537,0.317171835499343,1,"subseries 9",FALSE,32,0.390538001303644,21,5.80371094888537
"22",5.1483246771235,-0.631912420867275,5.64472321700339,0.135513880987387,1,"subseries 10",FALSE,33,0.400318050162187,22,5.64472321700339
"23",5.07189812872958,-0.39844868653959,5.39026558087328,0.0800812343958937,1,"subseries 11",FALSE,34,0.371689136398558,23,5.39026558087328
"24",5.11041606302465,-0.107109302979031,5.18930126479845,0.028224101205228,1,"subseries 12",FALSE,35,0.415388560046247,24,5.18930126479845
"25",5.5002721648084,-1.06038401979914,5.09218807690723,1.46846810770031,1,"subseries 1",FALSE,36,0.407830851535133,25,5.09218807690723
"26",5.38945161023175,2.34062125216193,5.05710076096662,-2.0082704028968,1,"subseries 2",FALSE,37,0.389047341396681,26,5.05710076096662
"27",5.48239776800191,4.55982108907146,5.15500983789483,-4.23243315896438,1,"subseries 3",FALSE,38,0.450474729284884,27,5.15500983789483
"28",5.2169548820171,0.642404208512311,5.20483855852106,-0.630287885016272,1,"subseries 4",FALSE,39,1.45421262884887,28,5.20483855852106
"29",5.59172094836673,-1.1087660398707,5.31978560380638,1.38070138443105,1,"subseries 5",FALSE,40,0.324739699858542,29,5.31978560380638
"30",5.52973714771803,-1.28683756958816,5.46549720186384,1.35107751544235,1,"subseries 6",FALSE,41,0.906188844895712,30,5.46549720186384
"31",5.6814813410593,-1.12653442209353,5.58715590432662,1.2208598588262,1,"subseries 7",FALSE,42,0.356757818293516,31,5.58715590432662
"32",5.53384381979211,-0.982002882055922,5.74774659431207,0.768100107535962,1,"subseries 8",FALSE,43,0.362519467167962,32,5.74774659431207
"33",5.30573273615051,-0.840851205952351,5.74660365489868,0.399980287204178,1,"subseries 9",FALSE,44,0.464245216210248,33,5.74660365489868
"34",5.08745389112389,-0.631912420867275,5.63804941550816,0.081316896483,1,"subseries 10",FALSE,45,0.436389904290801,34,5.63804941550816
"35",4.92653917994548,-0.39844868653959,5.43574133004242,-0.110753463557353,1,"subseries 11",FALSE,46,0.365583711512063,35,5.43574133004242
"36",5.22112245143992,-0.107109302979031,5.27295326014312,0.0552784942758331,1,"subseries 12",FALSE,47,0.413368130967084,36,5.27295326014312
"37",5.59240354180646,-1.06038401979914,5.21088054110997,1.44190702049563,1,"subseries 1",FALSE,48,0.343532815782287,37,5.21088054110997
"38",5.54177733543256,2.34062125216193,5.19105835232969,-1.98990226905906,1,"subseries 2",FALSE,49,0.78779783623613,38,5.19105835232969
"39",5.68257278856875,4.55982108907146,5.28822275171717,-4.16547105221988,1,"subseries 3",FALSE,50,0.45111128896929,39,5.28822275171717
"40",5.83526510172345,0.642404208512311,5.33490209064178,-0.14204119743064,1,"subseries 4",FALSE,51,0.529091520639448,40,5.33490209064178
"41",5.80317491040388,-1.1087660398707,5.42481420546848,1.48712674480611,1,"subseries 5",FALSE,52,0.456804680420837,41,5.42481420546848
"42",5.76249365206334,-1.28683756958816,5.53566864442704,1.51366257722446,1,"subseries 6",FALSE,53,0.374344851968074,42,5.53566864442704
"43",5.54560367380265,-1.12653442209353,5.60395067391157,1.06818742198461,1,"subseries 7",FALSE,54,0.409662772139495,43,5.60395067391157
"44",5.35663500349165,-0.982002882055922,5.69869285942855,0.639945026119022,1,"subseries 8",FALSE,55,0.693406494626797,44,5.69869285942855
"45",5.1875936366282,-0.840851205952351,5.63097781682885,0.397467025751705,1,"subseries 9",FALSE,56,0.357020840140172,45,5.63097781682885
"46",4.91317848944934,-0.631912420867275,5.45728770937494,0.0878032009416696,1,"subseries 10",FALSE,57,0.414172251443973,46,5.45728770937494
"47",4.75084519146335,-0.39844868653959,5.20726665745779,-0.0579727794548521,1,"subseries 11",FALSE,58,0.32670663243896,47,5.20726665745779
"48",4.7684338355991,-0.107109302979031,5.01440879394405,-0.138865655365919,1,"subseries 12",FALSE,59,0.413524821815094,48,5.01440879394405
"49",4.88246919588233,-1.06038401979914,4.94028245738553,1.00257075829594,1,"subseries 1",FALSE,60,0.410377784600698,49,4.94028245738553
"50",5.49746722839634,2.34062125216193,4.92607758146704,-1.76923160523262,1,"subseries 2",FALSE,61,0.383465844852743,50,4.92607758146704
"51",5.3434098899911,4.55982108907146,5.04954698844286,-4.26595818752322,1,"subseries 3",FALSE,62,0.339764001268668,51,5.04954698844286
"52",5.52090417062167,0.642404208512311,5.13378374281632,-0.255283780706965,1,"subseries 4",FALSE,63,0.443557953284352,52,5.13378374281632
"53",5.59983264088215,-1.1087660398707,5.27553634988319,1.43306233086966,1,"subseries 5",FALSE,64,0.477232155740207,53,5.27553634988319
"54",5.52956897441306,-1.28683756958816,5.43819262482317,1.37821391917805,1,"subseries 6",FALSE,65,0.400421440484015,54,5.43819262482317
"55",5.58877914959928,-1.12653442209353,5.5516786539046,1.16363491778821,1,"subseries 7",FALSE,66,0.311354632405247,55,5.5516786539046
"56",5.56001809129847,-0.982002882055922,5.67675132057606,0.865269652778331,1,"subseries 8",FALSE,67,0.339034306272872,56,5.67675132057606
"57",5.38621098071574,-0.840851205952351,5.61861451798911,0.608447668678985,1,"subseries 9",FALSE,68,0.372514412914064,57,5.61861451798911
"58",5.1086266924784,-0.631912420867275,5.4482504941165,0.29228861922917,1,"subseries 10",FALSE,69,0.407268877481796,58,5.4482504941165
"59",4.79169512912279,-0.39844868653959,5.17683377895113,0.0133100367112533,1,"subseries 11",FALSE,70,0.402601093456211,59,5.17683377895113
"60",4.72666510275077,-0.107109302979031,4.94891189293967,-0.115137487209865,1,"subseries 12",FALSE,71,0.460996313194287,60,4.94891189293967
"61",4.96483869397845,-1.06038401979914,4.82447282139956,1.20074989237803,1,"subseries 1",FALSE,72,0.371111240617428,61,4.82447282139956
"62",5.00824842695313,2.34062125216193,4.74552036797143,-2.07789319318023,1,"subseries 2",FALSE,73,0.398700221274583,62,4.74552036797143
"63",5.08641426771148,4.55982108907146,4.80502446639262,-4.2784312877526,1,"subseries 3",FALSE,74,0.376787733107083,63,4.80502446639262
"64",5.20424426658596,0.642404208512311,4.82623507971923,-0.264395021645579,1,"subseries 4",FALSE,75,0.401095363936395,64,4.82623507971923
"65",5.35656900977266,-1.1087660398707,4.91443084357465,1.55090420606871,1,"subseries 5",FALSE,76,0.566350473051411,65,4.91443084357465
"66",4.91057325383526,-1.28683756958816,5.03864863577968,1.15876218764374,1,"subseries 6",FALSE,77,1.23800560822709,66,5.03864863577968
"67",5.12115895504842,-1.12653442209353,5.12919835643267,1.11849502070927,1,"subseries 7",FALSE,78,0.580366203713225,67,5.12919835643267
"68",5.06888134852912,-0.982002882055922,5.25460826046306,0.79627597012198,1,"subseries 8",FALSE,79,0.645058912540071,68,5.25460826046306
"69",4.84857647984718,-0.840851205952351,5.21921858925066,0.470209096548866,1,"subseries 9",FALSE,80,0.381973073389214,69,5.21921858925066
"70",4.58856373061664,-0.631912420867275,5.08300488906218,0.137471262421737,1,"subseries 10",FALSE,81,0.430917359411295,70,5.08300488906218
"71",4.27402925186804,-0.39844868653959,4.86756965666474,-0.195091718257107,1,"subseries 11",FALSE,82,0.404679505847169,71,4.86756965666474
"72",4.38075433165742,-0.107109302979031,4.70145237606,-0.213588741423552,1,"subseries 12",FALSE,83,0.429031907774832,72,4.70145237606
"73",4.85829070605774,-1.06038401979914,4.6457925729308,1.27288215292608,1,"subseries 1",FALSE,84,0.373250981277776,73,4.6457925729308
"74",5.05917259823584,2.34062125216193,4.63454993980826,-1.91599859373435,1,"subseries 2",FALSE,85,0.34863850191778,74,4.63454993980826
"75",5.16959900985118,4.55982108907146,4.75065484064306,-4.14087691986334,1,"subseries 3",FALSE,86,0.48796258600811,75,4.75065484064306
"76",5.36042035173009,0.642404208512311,4.8265918337286,-0.108575690510822,1,"subseries 4",FALSE,87,0.712725239193302,76,4.8265918337286
"77",5.41453654344071,-1.1087660398707,4.94935954261621,1.57394304069521,1,"subseries 5",FALSE,88,0.641507606809164,77,4.94935954261621
"78",5.15168000148535,-1.28683756958816,5.09645804655414,1.34205952451937,1,"subseries 6",FALSE,89,0.600800521966594,78,5.09645804655414
"79",5.17742833134279,-1.12653442209353,5.19551882664353,1.10844392679279,1,"subseries 7",FALSE,90,0.561879948400548,79,5.19551882664353
"80",5.07987412702125,-0.982002882055922,5.31457324438636,0.747303764690814,1,"subseries 8",FALSE,91,0.360339925225848,80,5.31457324438636
"81",4.79783514832458,-0.840851205952351,5.26831951383413,0.370366840442803,1,"subseries 9",FALSE,92,0.367487547346866,81,5.26831951383413
"82",4.67997769786632,-0.631912420867275,5.11746541953694,0.194424699196652,1,"subseries 10",FALSE,93,0.390013933357817,82,5.11746541953694
"83",4.36911189723908,-0.39844868653959,4.88949859620177,-0.121938012423097,1,"subseries 11",FALSE,94,0.380615904834125,83,4.88949859620177
"84",4.3924818145856,-0.107109302979031,4.79187798081123,-0.292286863246598,1,"subseries 12",FALSE,95,0.4217384670378,84,4.79187798081123
"85",4.72999216408966,-1.06038401979914,4.8259921210753,0.964384062813501,1,"subseries 1",FALSE,96,0.449651506949692,85,4.8259921210753
"86",5.08944019860483,2.34062125216193,4.90463662526799,-2.15581767882509,1,"subseries 2",FALSE,97,0.390313205058285,86,4.90463662526799
"87",5.13757604413409,4.55982108907146,5.04475299384422,-4.46699803878159,1,"subseries 3",FALSE,98,0.410080993681798,87,5.04475299384422
"88",5.33581398675058,0.642404208512311,5.14339471169929,-0.449984933461024,1,"subseries 4",FALSE,99,0.75538528123847,88,5.14339471169929
"89",5.42145295152481,-1.1087660398707,5.26254996519925,1.26766902619626,1,"subseries 5",FALSE,100,0.600547626841035,89,5.26254996519925
"90",5.51904165311097,-1.28683756958816,5.40815393936169,1.39772528333744,1,"subseries 6",FALSE,101,0.700901565465919,90,5.40815393936169
"91",5.29833776022521,-1.12653442209353,5.5681881410995,0.856684041219241,1,"subseries 7",FALSE,102,0.57245772843223,91,5.5681881410995
"92",5.17011854731318,-0.982002882055922,5.75927432056931,0.392847108799788,1,"subseries 8",FALSE,103,0.428240264514132,92,5.75927432056931
