"","raw","seasonal","trend","remainder","weights","sub.labels","interpolated","age","sigma","operating","power"
"1",103.931072176287,-4.54894860807286,109.38871949563,-0.908698711270219,1,"subseries 1",FALSE,1,8.65650534034073,1,109.38871949563
"2",111.848391259889,-0.595731274179841,108.712186384604,3.73193614946504,1,"subseries 2",FALSE,2,5.61218331248084,2,108.712186384604
"3",116.567944514397,7.56578477322228,108.049142131252,0.953017609923009,1,"subseries 3",FALSE,3,9.79742445032108,3,108.049142131252
"4",106.509120884355,3.45859679110896,107.41819260858,-4.36766851533436,1,"subseries 4",FALSE,4,6.02334168297905,4,107.41819260858
"5",113.016180217765,3.4795843148593,106.805028059563,2.7315678433424,1,"subseries 5",FALSE,5,5.67682804852183,5,106.805028059563
"6",107.12271199835,1.52323484277443,106.20538287514,-0.60590571956466,1,"subseries 6",FALSE,6,5.77832587085291,6,106.20538287514
"7",105.364821784312,0.386276048413535,105.641905969168,-0.663360233269714,1,"subseries 7",FALSE,7,6.32685383571931,7,105.641905969168
"8",101.364538096623,-1.42158286713754,105.018976997072,-2.23285603331105,1,"subseries 8",FALSE,8,6.46478654776693,8,105.018976997072
"9",97.3813930882939,-4.12909239103362,104.529579190874,-3.01909371154653,1,"subseries 9",FALSE,9,4.27718905658228,9,104.529579190874
"10",104.782572468306,0.492618276265349,104.421489093023,-0.131534900982075,1,"subseries 10",FALSE,10,8.60070362001383,10,104.421489093023
"11",104.40802471611,-1.2160306921133,104.542384682948,1.08167072527529,1,"subseries 11",FALSE,11,4.34589255831673,11,104.542384682948
"12",97.429964914346,-4.9947092141067,104.769033043224,-2.34435891477163,1,"subseries 12",FALSE,12,4.40108864290648,12,104.769033043224
"13",101.398313076692,-4.54894860807286,105.141373521273,0.805888163491488,1,"subseries 1",FALSE,13,6.6713779455097,13,105.141373521273
"14",101.049078269926,-0.595731274179841,105.464121964429,-3.81931242032341,1,"subseries 2",FALSE,14,9.13525896762164,14,105.464121964429
"15",115.530267289611,7.56578477322228,105.671935065457,2.29254745093151,1,"subseries 3",FALSE,15,8.68846523294027,15,105.671935065457
"16",112.603565745779,3.45859679110896,105.709554107702,3.4354148469676,1,"subseries 4",FALSE,16,5.71017012926631,16,105.709554107702
"17",112.104293152954,3.4795843148593,105.491562165221,3.13314667287402,1,"subseries 5",FALSE,17,5.13226534756806,17,105.491562165221
"18",107.547808226707,1.52323484277443,105.265960424588,0.758612959344987,1,"subseries 6",FALSE,18,5.79699858411317,18,105.265960424588
"19",107.018216401901,0.386276048413535,104.807370974274,1.82456937921339,1,"subseries 7",FALSE,19,6.00572790813848,19,104.807370974274
"20",103.719359808483,-1.42158286713754,104.35964352918,0.781299146441029,1,"subseries 8",FALSE,20,5.39390550977194,20,104.35964352918
"21",95.697942593344,-4.12909239103362,103.923640462681,-4.09660547830313,1,"subseries 9",FALSE,21,5.9184668943368,21,103.923640462681
"22",103.158368608244,0.492618276265349,103.330180511856,-0.664430179877058,1,"subseries 10",FALSE,22,5.16797618670267,22,103.330180511856
"23",99.2871393304535,-1.2160306921133,102.907085299695,-2.40391527712845,1,"subseries 11",FALSE,23,4.36929045214044,23,102.907085299695
"24",96.0980029446846,-4.9947092141067,102.510155553543,-1.41744339475179,1,"subseries 12",FALSE,24,4.23018211628732,24,102.510155553543
"25",97.1960383159582,-4.54894860807286,102.250324987443,-0.505338063412012,1,"subseries 1",FALSE,25,5.63031234108184,25,102.250324987443
"26",106.212981371832,-0.595731274179841,102.221347816254,4.58736482975831,1,"subseries 2",FALSE,26,5.67626595875613,26,102.221347816254
"27",109.667994482716,7.56578477322228,102.269429261437,-0.167219551943361,1,"subseries 3",FALSE,27,8.03389956089989,27,102.269429261437
"28",104.583996451057,3.45859679110896,102.486778665006,-1.36137900505828,1,"subseries 4",FALSE,28,6.76854252021746,28,102.486778665006
"29",103.240425506123,3.4795843148593,102.743735717573,-2.98289452630935,1,"subseries 5",FALSE,29,5.646341650107,29,102.743735717573
"30",105.116405837637,1.52323484277443,102.863946045881,0.72922494898117,1,"subseries 6",FALSE,30,5.63728697280999,30,102.863946045881
"31",102.625377150329,0.386276048413535,102.987581550318,-0.748480448402688,1,"subseries 7",FALSE,31,4.91019520946822,31,102.987581550318
"32",101.332655442196,-1.42158286713754,103.058902039473,-0.304663730139936,1,"subseries 8",FALSE,32,4.66232312199874,32,103.058902039473
"33",101.374403201267,-4.12909239103362,103.116537190585,2.38695840171559,1,"subseries 9",FALSE,33,5.30930309573959,33,103.116537190585
"34",106.286425262725,0.492618276265349,103.175408082145,2.61839890431509,1,"subseries 10",FALSE,34,4.89468803237648,34,103.175408082145
"35",102.149703849073,-1.2160306921133,103.053528988008,0.312205553178188,1,"subseries 11",FALSE,35,6.38263976900551,35,103.053528988008
"36",95.1932566669186,-4.9947092141067,102.854350861058,-2.6663849800327,1,"subseries 12",FALSE,36,3.75269301440107,36,102.854350861058
"37",100.41654788792,-4.54894860807286,102.531040410174,2.43445608581936,1,"subseries 1",FALSE,37,6.88524323354607,37,102.531040410174
"38",104.581129473504,-0.595731274179841,102.218199112502,2.95866163518191,1,"subseries 2",FALSE,38,5.26690435760435,38,102.218199112502
"39",106.295933490055,7.56578477322228,101.967177692547,-3.23702897571447,1,"subseries 3",FALSE,39,8.30995420642893,39,101.967177692547
"40",103.385216601845,3.45859679110896,101.730860321031,-1.80424051029482,1,"subseries 4",FALSE,40,8.14387449129664,40,101.730860321031
"41",103.685294754546,3.4795843148593,101.624695836766,-1.41898539707969,1,"subseries 5",FALSE,41,5.3726088205312,41,101.624695836766
"42",102.250429934176,1.52323484277443,101.469011623999,-0.741816532597284,1,"subseries 6",FALSE,42,6.09695913777019,42,101.469011623999
"43",101.820904414196,0.386276048413535,101.350540329771,0.0840880360110106,1,"subseries 7",FALSE,43,8.04946559904445,43,101.350540329771
"44",101.482887752549,-1.42158286713754,101.105615091379,1.7988555283076,1,"subseries 8",FALSE,44,4.73802587186739,44,101.105615091379
"45",98.4411973599608,-4.12909239103362,100.702830668715,1.8674590822793,1,"subseries 9",FALSE,45,4.17312074104937,45,100.702830668715
"46",102.340216882334,0.492618276265349,100.318957733676,1.52864087239243,1,"subseries 10",FALSE,46,5.873630489508,46,100.318957733676
"47",100.431314286733,-1.2160306921133,99.6889553366876,1.95838964215874,1,"subseries 11",FALSE,47,4.42464406100592,47,99.6889553366876
"48",96.5311982555288,-4.9947092141067,98.9731750866242,2.55273238301135,1,"subseries 12",FALSE,48,4.72900263780306,48,98.9731750866242
"49",92.394231154511,-4.54894860807286,98.1323903867405,-1.18921062415667,1,"subseries 1",FALSE,49,4.63300770260986,49,98.1323903867405
"50",93.2633333581283,-0.595731274179841,97.21399527513,-3.35493064282183,1,"subseries 2",FALSE,50,5.3770209855737,50,97.21399527513
"51",103.071036829163,7.56578477322228,96.3777111697957,-0.872459113855001,1,"subseries 3",FALSE,51,5.51771788368884,51,96.3777111697957
"52",100.082894292817,3.45859679110896,95.607285276096,1.01701222561201,1,"subseries 4",FALSE,52,9.07922598703804,52,95.607285276096
"53",96.8751357363834,3.4795843148593,95.0581121898423,-1.66256076831824,1,"subseries 5",FALSE,53,5.39119366072765,53,95.0581121898423
"54",95.0476566826792,1.52323484277443,94.6329110820732,-1.10848924216846,1,"subseries 6",FALSE,54,5.66203871292737,54,94.6329110820732
"55",92.9090533425237,0.386276048413535,94.3725981174374,-1.84982082332722,1,"subseries 7",FALSE,55,3.79353016276792,55,94.3725981174374
"56",91.7867917185236,-1.42158286713754,94.2146540939856,-1.00627950832448,1,"subseries 8",FALSE,56,6.65508183697132,56,94.2146540939856
"57",92.9900833693665,-4.12909239103362,94.0923325957589,3.02684316464122,1,"subseries 9",FALSE,57,5.31147632641512,57,94.0923325957589
"58",96.0356650951651,0.492618276265349,94.0539911454912,1.48905567340852,1,"subseries 10",FALSE,58,4.04983734242778,58,94.0539911454912
"59",88.8824443637019,-1.2160306921133,94.0410392409419,-3.94256418512671,1,"subseries 11",FALSE,59,3.81927585498426,59,94.0410392409419
"60",90.297523236577,-4.9947092141067,94.1118874105124,1.1803450401713,1,"subseries 12",FALSE,60,7.25773011846247,60,94.1118874105124
"61",93.0269746393818,-4.54894860807286,94.1929627866277,3.38296046082692,1,"subseries 1",FALSE,61,5.17157573486976,61,94.1929627866277
"62",88.4943126552656,-0.595731274179841,94.2483958887899,-5.15835195934446,1,"subseries 2",FALSE,62,14.7989259820379,62,94.2483958887899
"63",101.840754534205,7.56578477322228,94.356843585946,-0.0818738249632247,1,"subseries 3",FALSE,63,6.02964285520337,63,94.356843585946
"64",99.7514569373846,3.45859679110896,94.4231987648076,1.86966138146802,1,"subseries 4",FALSE,64,9.05352324240499,64,94.4231987648076
"65",97.1432062049923,3.4795843148593,94.4884190492966,-0.824797159163637,1,"subseries 5",FALSE,65,4.71035947802825,65,94.4884190492966
"66",96.3846607997112,1.52323484277443,94.562422365961,0.299003590975786,1,"subseries 6",FALSE,66,5.6520097663576,66,94.562422365961
"67",96.1774847404148,0.386276048413535,94.6037058267474,1.18750286525382,1,"subseries 7",FALSE,67,5.18414571639766,67,94.6037058267474
"68",94.4641533200863,-1.42158286713754,94.6047625992554,1.2809735879684,1,"subseries 8",FALSE,68,4.59822719813823,68,94.6047625992554
"69",90.8883644849651,-4.12909239103362,94.5781586134471,0.439298262551603,1,"subseries 9",FALSE,69,4.80649422818983,69,94.5781586134471
"70",90.933972826017,0.492618276265349,94.5511266520361,-4.10977210228445,1,"subseries 10",FALSE,70,5.83610586091933,70,94.5511266520361
"71",96.8741828945066,-1.2160306921133,94.5110796385744,3.57913394804554,1,"subseries 11",FALSE,71,4.22590320051518,71,94.5110796385744
"72",92.6640052270485,-4.9947092141067,94.4675221860326,3.19119225512263,1,"subseries 12",FALSE,72,4.20667975474654,72,94.4675221860326
"73",85.4865025957272,-4.54894860807286,94.4162286848729,-4.38077748107283,1,"subseries 1",FALSE,73,6.25479993711407,73,94.4162286848729
