"","raw","seasonal","trend","remainder","weights","sub.labels","interpolated","age","sigma","operating","power"
"1",206.350602139052,10.6534410938768,181.668497730657,14.0286633145186,1,"subseries 1",FALSE,1,17.4463536880202,1,181.668497730657
"2",188.8029792037,15.848127493093,180.45687558525,-7.50202387464259,1,"subseries 2",FALSE,2,16.6612899907609,2,180.45687558525
"3",190.565790657309,15.0807100991765,179.290378510635,-3.80529795250277,1,"subseries 3",FALSE,3,18.2190783074535,3,179.290378510635
"4",182.535881531426,6.08820093358462,178.171446665307,-1.72376606746548,1,"subseries 4",FALSE,4,13.3488925568917,4,178.171446665307
"5",175.127260993955,-0.681317989101687,177.124401910173,-1.31582292711667,1,"subseries 5",FALSE,5,10.0365157394897,5,177.124401910173
"6",170.229202292213,-7.34496696570228,176.098344234921,1.4758250229946,1,"subseries 6",FALSE,6,12.3968791996982,6,176.098344234921
"7",168.778279531203,-10.046020967511,175.229705636473,3.59459486224131,1,"subseries 7",FALSE,7,8.8267669047926,7,175.229705636473
"8",160.870592290513,-10.4580536671045,174.508222871833,-3.17957691421597,1,"subseries 8",FALSE,8,23.6841465384605,8,174.508222871833
"9",148.255712097277,-12.7223737453009,174.0958432724,-13.1177574298219,1,"subseries 9",FALSE,9,25.6961645808872,9,174.0958432724
"10",163.715463928512,-1.7531035486764,174.120290046083,-8.65172256889488,1,"subseries 10",FALSE,10,22.1192574784967,10,174.120290046083
"11",175.155528749118,-7.7996322782681,174.437006399482,8.51815462790378,1,"subseries 11",FALSE,11,8.43936491312546,11,174.437006399482
"12",181.167300954218,3.13498954193395,174.898034326823,3.13427708546155,1,"subseries 12",FALSE,12,7.68553276916203,12,174.898034326823
"13",183.99277778688,10.6534410938768,175.528776318708,-2.18943962570478,1,"subseries 1",FALSE,13,12.9952264883145,13,175.528776318708
"14",196.847412544801,15.848127493093,176.450570043927,4.54871500778103,1,"subseries 2",FALSE,14,8.58175431545998,14,176.450570043927
"15",190.373010877516,15.0807100991765,177.116724524134,-1.82442374579404,1,"subseries 3",FALSE,15,8.66722139451652,15,177.116724524134
"16",182.584745295624,6.08820093358462,177.464315036131,-0.967770674091497,1,"subseries 4",FALSE,16,12.2799571975924,16,177.464315036131
"17",181.954199413359,-0.681317989101687,177.493190151188,5.14232725127283,1,"subseries 5",FALSE,17,19.5329463196301,17,177.493190151188
"18",169.729288956313,-7.34496696570228,177.430392653615,-0.356136731599747,1,"subseries 6",FALSE,18,9.3010953494555,18,177.430392653615
"19",167.811435806047,-10.046020967511,177.357020198413,0.50043657514459,1,"subseries 7",FALSE,19,10.9986609367482,19,177.357020198413
"20",168.000646635251,-10.4580536671045,177.398560257018,1.06014004533705,1,"subseries 8",FALSE,20,8.02805788918703,20,177.398560257018
"21",163.69090013193,-12.7223737453009,177.53046220455,-1.11718832731876,1,"subseries 9",FALSE,21,7.38063376253316,21,177.53046220455
"22",166.562976915235,-1.7531035486764,177.539891629462,-9.22381116555079,1,"subseries 10",FALSE,22,6.22610640758579,22,177.539891629462
"23",174.020828321086,-7.7996322782681,177.65241508993,4.16804550942376,1,"subseries 11",FALSE,23,15.5171833868219,23,177.65241508993
"24",180.443520673464,3.13498954193395,177.686182998809,-0.377651867279155,1,"subseries 12",FALSE,24,12.2851503931527,24,177.686182998809
"25",190.452392819773,10.6534410938768,177.720938931574,2.07801279432195,1,"subseries 1",FALSE,25,9.81166697236874,25,177.720938931574
"26",195.65633655934,15.848127493093,177.683517697874,2.12469136837333,1,"subseries 2",FALSE,26,9.97868646781018,26,177.683517697874
"27",194.243557925809,15.0807100991765,177.334622416174,1.82822541045854,1,"subseries 3",FALSE,27,6.87653889698282,27,177.334622416174
"28",184.809385951571,6.08820093358462,176.72631069513,1.99487432285633,1,"subseries 4",FALSE,28,8.53643001941067,28,176.72631069513
"29",175.905588528492,-0.681317989101687,175.672364320022,0.91454219757162,1,"subseries 5",FALSE,29,8.0383123094644,29,175.672364320022
"30",170.190193467801,-7.34496696570228,174.638883597977,2.89627683552632,1,"subseries 6",FALSE,30,9.5220026622719,30,174.638883597977
"31",166.003898113281,-10.046020967511,173.581028539933,2.46889054085949,1,"subseries 7",FALSE,31,8.22338668509078,31,173.581028539933
"32",162.597119645531,-10.4580536671045,172.531089288878,0.524084023757069,1,"subseries 8",FALSE,32,11.5738688665423,32,172.531089288878
"33",148.012445626051,-12.7223737453009,171.665857505631,-10.9310381342788,1,"subseries 9",FALSE,33,12.094935268587,33,171.665857505631
"34",161.448305170159,-1.7531035486764,170.732251118752,-7.53084239991628,1,"subseries 10",FALSE,34,15.9044209937018,34,170.732251118752
"35",169.74185796098,-7.7996322782681,170.085259844705,7.45623039454301,1,"subseries 11",FALSE,35,7.87462761290984,35,170.085259844705
"36",174.886222177443,3.13498954193395,169.70501483384,2.04621780166866,1,"subseries 12",FALSE,36,9.49814409415696,36,169.70501483384
"37",175.605499570215,10.6534410938768,169.625867344035,-4.67380886769718,1,"subseries 1",FALSE,37,8.33841486904056,37,169.625867344035
"38",189.509788612693,15.848127493093,169.848276658248,3.813384461352,1,"subseries 2",FALSE,38,8.41061269474482,38,169.848276658248
"39",180.188418547141,15.0807100991765,170.067526771973,-4.95981832400804,1,"subseries 3",FALSE,39,8.54904945043519,39,170.067526771973
"40",175.953517266113,6.08820093358462,170.043691670888,-0.178375338359757,1,"subseries 4",FALSE,40,8.30190755239762,40,170.043691670888
"41",172.375612644644,-0.681317989101687,169.826175681213,3.23075495253315,1,"subseries 5",FALSE,41,15.4737637012232,41,169.826175681213
"42",164.340740744386,-7.34496696570228,169.514318174936,2.17138953515214,1,"subseries 6",FALSE,42,7.32201193994879,42,169.514318174936
"43",161.232279762403,-10.046020967511,169.058696918475,2.21960381143882,1,"subseries 7",FALSE,43,8.96747028376309,43,169.058696918475
"44",159.376829708705,-10.4580536671045,168.752820431633,1.08206294417661,1,"subseries 8",FALSE,44,7.01193588963139,44,168.752820431633
"45",158.226291663942,-12.7223737453009,168.380831644102,2.5678337651413,1,"subseries 9",FALSE,45,7.30720056262478,45,168.380831644102
"46",156.695572890195,-1.7531035486764,168.055403549447,-9.60672711057521,1,"subseries 10",FALSE,46,7.44410383602442,46,168.055403549447
"47",163.318797749994,-7.7996322782681,167.924896326044,3.19353370221771,1,"subseries 11",FALSE,47,9.88877789662373,47,167.924896326044
"48",168.032154562926,3.13498954193395,167.770799098084,-2.87363407709211,1,"subseries 12",FALSE,48,7.76671986995974,48,167.770799098084
"49",174.008676965273,10.6534410938768,167.911464873685,-4.55622900228926,1,"subseries 1",FALSE,49,9.11755219511479,49,167.911464873685
"50",184.588141374897,15.848127493093,168.138596462386,0.601417419417857,1,"subseries 2",FALSE,50,9.03733285291445,50,168.138596462386
"51",185.638832720352,15.0807100991765,168.466054399973,2.09206822120254,1,"subseries 3",FALSE,51,6.70616724678025,51,168.466054399973
"52",177.178209427792,6.08820093358462,168.806856643219,2.28315185098811,1,"subseries 4",FALSE,52,9.5726580027667,52,168.806856643219
"53",168.336347172324,-0.681317989101687,168.925506022359,0.0921591390670073,1,"subseries 5",FALSE,53,11.0579883097054,53,168.925506022359
"54",163.958096055314,-7.34496696570228,168.941953080577,2.36110994043892,1,"subseries 6",FALSE,54,8.17671069700431,54,168.941953080577
"55",161.002222369987,-10.046020967511,168.657123567107,2.3911197703909,1,"subseries 7",FALSE,55,6.15741785006652,55,168.657123567107
"56",158.117215883092,-10.4580536671045,168.29512657829,0.280142971906912,1,"subseries 8",FALSE,56,7.57053493262423,56,168.29512657829
"57",158.585898792333,-12.7223737453009,167.8395004434,3.46877209423431,1,"subseries 9",FALSE,57,6.71611111833688,57,167.8395004434
"58",158.141451320189,-1.7531035486764,167.516913811184,-7.6223589423189,1,"subseries 10",FALSE,58,7.59492502960264,58,167.516913811184
"59",161.947796080262,-7.7996322782681,167.433254785122,2.3141735734082,1,"subseries 11",FALSE,59,8.25604519375479,59,167.433254785122
"60",167.466346608043,3.13498954193395,167.338675559886,-3.00731849377723,1,"subseries 12",FALSE,60,7.19968139762075,60,167.338675559886
"61",172.68183313022,10.6534410938768,167.535283407296,-5.50689137095281,1,"subseries 1",FALSE,61,7.40201761789973,61,167.535283407296
"62",179.947461639587,15.848127493093,168.311466021853,-4.21213187535943,1,"subseries 2",FALSE,62,10.7588989034644,62,168.311466021853
"63",190.736269578701,15.0807100991765,169.738187755059,5.91737172446554,1,"subseries 3",FALSE,63,8.980156616175,63,169.738187755059
"64",176.785977456136,6.08820093358462,173.217554069057,-2.51977754650594,1,"subseries 4",FALSE,64,8.53434998851048,64,173.217554069057
"65",167.009102381188,-0.681317989101687,177.498957431705,-9.80853706141525,1,"subseries 5",FALSE,65,10.8096097997772,65,177.498957431705
"66",162.542321724265,-7.34496696570228,180.876810535944,-10.9895218459766,1,"subseries 6",FALSE,66,8.48938346815347,66,180.876810535944
"67",160.203967326834,-10.046020967511,184.335239355677,-14.0852510613318,1,"subseries 7",FALSE,67,7.23328699806146,67,184.335239355677
"68",174.417736958898,-10.4580536671045,187.823895896424,-2.94810527042128,1,"subseries 8",FALSE,68,15.94602336089,68,187.823895896424
"69",194.669175113432,-12.7223737453009,191.360259915788,16.0312889429453,1,"subseries 9",FALSE,69,10.730105963035,69,191.360259915788
"70",233.010569171989,-1.7531035486764,195.152115023764,39.6115576969016,1,"subseries 10",FALSE,70,27.8354084597294,70,195.152115023764
"71",162.707136147468,-7.7996322782681,199.001114031042,-28.4943456053057,1,"subseries 11",FALSE,71,35.6413053875912,71,199.001114031042
