"","raw","seasonal","trend","remainder","weights","sub.labels","interpolated","age","sigma","operating","power"
"1",222.367383398367,31.9970607898917,181.535259383706,8.83506322476956,1,"subseries 1",FALSE,1,27.4900251342012,1,181.535259383706
"2",210.549772943059,20.2141266563264,182.469216848419,7.86642943831356,1,"subseries 2",FALSE,2,31.6127224042649,2,182.469216848419
"3",198.350807430627,7.68643407722657,183.482043121553,7.18233023184706,1,"subseries 3",FALSE,3,45.2925756226474,3,183.482043121553
"4",173.684317492638,-4.37703649285331,184.671266819626,-6.60991283413475,1,"subseries 4",FALSE,4,21.2566690101151,4,184.671266819626
"5",167.783689077027,-5.97328761100955,185.954800491855,-12.197823803818,1,"subseries 5",FALSE,5,8.15847725942676,5,185.954800491855
"6",168.192315032411,-6.07770799882041,187.137211532855,-12.867188501624,1,"subseries 6",FALSE,6,15.4991685468165,6,187.137211532855
"7",165.778441448471,-15.5022004453299,188.524706936517,-7.24406504271593,1,"subseries 7",FALSE,7,7.44487708840214,7,188.524706936517
"8",167.39578603136,-23.3283204829254,189.602127452002,1.12197906228383,1,"subseries 8",FALSE,8,5.61806800570592,8,189.602127452002
"9",159.11248875005,-21.9306443874385,191.291275805774,-10.2481426682858,1,"subseries 9",FALSE,9,6.39075645513772,9,191.291275805774
"10",185.26171779834,-16.3324540258155,193.188242520387,8.40592930376843,1,"subseries 10",FALSE,10,11.5081361488497,10,193.188242520387
"11",217.820076394512,9.22285431392952,194.203137860368,14.3940842202143,1,"subseries 11",FALSE,11,8.33411371601239,11,194.203137860368
"12",237.554760254941,24.4011756068183,194.916943540927,18.236641107196,1,"subseries 12",FALSE,12,7.54953741397508,12,194.916943540927
"13",232.99809266011,31.9970607898917,194.127737401739,6.87329446847954,1,"subseries 1",FALSE,13,6.71995211568574,13,194.127737401739
"14",215.261525478444,20.2141266563264,191.499772067128,3.54762675498918,1,"subseries 2",FALSE,14,7.62076676968959,14,191.499772067128
"15",194.573871477407,7.68643407722657,186.802359351074,0.0850780491064143,1,"subseries 3",FALSE,15,17.0491699501308,15,186.802359351074
"16",182.333402547268,-4.37703649285331,180.045673254807,6.66476578531481,1,"subseries 4",FALSE,16,24.120930469579,16,180.045673254807
"17",178.030899650882,-5.97328761100955,171.574857457552,12.4293298043394,1,"subseries 5",FALSE,17,9.4301304146737,17,171.574857457552
"18",177.838117469059,-6.07770799882041,162.356992902578,21.558832565301,1,"subseries 6",FALSE,18,12.022283681203,18,162.356992902578
"19",144.928461167192,-15.5022004453299,152.24371381163,8.18694780089172,1,"subseries 7",FALSE,19,43.9050161469678,19,152.24371381163
"20",101.158800058116,-23.3283204829254,142.180722801297,-17.6936022602559,1,"subseries 8",FALSE,20,5.0582155773002,20,142.180722801297
"21",102.533555989633,-21.9306443874385,132.102715643998,-7.63851526692663,1,"subseries 9",FALSE,21,3.78394024076728,21,132.102715643998
"22",103.623540834656,-16.3324540258155,122.68338797946,-2.72739311898826,1,"subseries 10",FALSE,22,4.96897518189171,22,122.68338797946
"23",113.971013804407,9.22285431392952,115.116091150728,-10.3679316602504,1,"subseries 11",FALSE,23,3.7586913007296,23,115.116091150728
"24",118.503076451732,24.4011756068183,110.413265442307,-16.3113645973932,1,"subseries 12",FALSE,24,5.35782608379209,24,110.413265442307
"25",123.707582118404,31.9970607898917,109.459700046765,-17.7491787182523,1,"subseries 1",FALSE,25,4.11065835932262,25,109.459700046765
"26",105.424480390662,20.2141266563264,111.267979127035,-26.0576253926994,1,"subseries 2",FALSE,26,3.15220921887159,26,111.267979127035
"27",97.9656371354213,7.68643407722657,116.511893946536,-26.2326908883418,1,"subseries 3",FALSE,27,3.70845745677831,27,116.511893946536
"28",94.5307685783772,-4.37703649285331,122.754657742044,-23.8468526708136,1,"subseries 4",FALSE,28,4.10966185660851,28,122.754657742044
"29",126.579506903695,-5.97328761100955,130.860570173298,1.69222434140644,1,"subseries 5",FALSE,29,41.4804035281569,29,130.860570173298
"30",154.260604760906,-6.07770799882041,140.272336631613,20.0659761281132,1,"subseries 6",FALSE,30,10.9638837874744,30,140.272336631613
"31",151.9100940175,-15.5022004453299,149.49340378262,17.9188906802096,1,"subseries 7",FALSE,31,6.87251467490732,31,149.49340378262
"32",148.799623276805,-23.3283204829254,158.994185881001,13.1337578787292,1,"subseries 8",FALSE,32,5.14915549174028,32,158.994185881001
"33",142.107470953282,-21.9306443874385,166.575183182855,-2.5370678421348,1,"subseries 9",FALSE,33,6.04816656761041,33,166.575183182855
"34",163.438926903014,-16.3324540258155,172.534831623269,7.23654930556074,1,"subseries 10",FALSE,34,19.4773779788429,34,172.534831623269
"35",193.885948792517,9.22285431392952,176.507541150252,8.15555332833551,1,"subseries 11",FALSE,35,13.48317198139,35,176.507541150252
"36",214.557846730634,24.4011756068183,178.606554656464,11.5501164673517,1,"subseries 12",FALSE,36,7.30120595336514,36,178.606554656464
"37",216.159613323264,31.9970607898917,179.622902260545,4.53965027282723,1,"subseries 1",FALSE,37,7.60886990445311,37,179.622902260545
"38",200.579123502529,20.2141266563264,180.167452056298,0.197544789904271,1,"subseries 2",FALSE,38,9.37238852288714,38,180.167452056298
"39",186.870666727083,7.68643407722657,180.144471570477,-0.960238920620412,1,"subseries 3",FALSE,39,13.2247743852338,39,180.144471570477
"40",179.215011752485,-4.37703649285331,179.753035227532,3.83901301780634,1,"subseries 4",FALSE,40,9.45762083620555,40,179.753035227532
"41",169.131648392448,-5.97328761100955,179.378893625214,-4.27395762175632,1,"subseries 5",FALSE,41,10.3932727628789,41,179.378893625214
"42",166.1036710632,-6.07770799882041,178.628501085781,-6.44712202376022,1,"subseries 6",FALSE,42,11.2075503306204,42,178.628501085781
"43",160.462991145027,-15.5022004453299,178.082098833932,-2.11690724357484,1,"subseries 7",FALSE,43,13.4667838074154,43,178.082098833932
"44",157.363319599966,-23.3283204829254,177.679188347611,3.01245173528037,1,"subseries 8",FALSE,44,12.22179699107,44,177.679188347611
"45",155.741034117469,-21.9306443874385,177.388912907653,0.282765597254667,1,"subseries 9",FALSE,45,9.05644428282444,45,177.388912907653
"46",167.202742600809,-16.3324540258155,177.428792582568,6.10640404405615,1,"subseries 10",FALSE,46,12.3468278589601,46,177.428792582568
"47",185.049131215599,9.22285431392952,177.525403688898,-1.69912678722895,1,"subseries 11",FALSE,47,6.61947979857462,47,177.525403688898
"48",200.162278322595,24.4011756068183,177.382408407,-1.62130569122297,1,"subseries 12",FALSE,48,10.5103182051608,48,177.382408407
"49",201.37567108732,31.9970607898917,176.95101058617,-7.57240028874136,1,"subseries 1",FALSE,49,5.54565271333758,49,176.95101058617
"50",202.843284403785,20.2141266563264,176.405711963642,6.22344578381689,1,"subseries 2",FALSE,50,6.686308256496,50,176.405711963642
"51",186.844716737351,7.68643407722657,175.880737225541,3.27754543458315,1,"subseries 3",FALSE,51,7.91882367480812,51,175.880737225541
"52",176.928653215422,-4.37703649285331,175.657169317482,5.64852039079327,1,"subseries 4",FALSE,52,9.29199943540184,52,175.657169317482
"53",168.769047319137,-5.97328761100955,175.603086810457,-0.860751880310289,1,"subseries 5",FALSE,53,11.2603682390893,53,175.603086810457
"54",157.38422083754,-6.07770799882041,175.971728261518,-12.5097994251571,1,"subseries 6",FALSE,54,12.2071740803478,54,175.971728261518
"55",152.752665668168,-15.5022004453299,176.652891620651,-8.39802550715291,1,"subseries 7",FALSE,55,10.5557879418783,55,176.652891620651
"56",154.424136121859,-23.3283204829254,177.408245404037,0.344211200746969,1,"subseries 8",FALSE,56,10.8268263229138,56,177.408245404037
"57",162.179599380836,-21.9306443874385,178.543387055758,5.56685671251634,1,"subseries 9",FALSE,57,9.41793565862088,57,178.543387055758
"58",NA,-16.3324540258155,179.36359432168,NA,1,"subseries 10",TRUE,58,NA,58,NA
"59",NA,9.22285431392952,180.253632863629,NA,1,"subseries 11",TRUE,59,NA,59,NA
"60",200.461673775512,24.4011756068183,181.264775115022,-5.20427694632875,1,"subseries 12",FALSE,60,5.02044030181373,60,181.264775115022
"61",218.267028839411,31.9970607898917,181.807522876796,4.46244517272373,1,"subseries 1",FALSE,61,8.4817553131341,61,181.807522876796
"62",212.134176009073,20.2141266563264,182.460542479648,9.45950687309858,1,"subseries 2",FALSE,62,7.46901337996481,62,182.460542479648
"63",195.809342281314,7.68643407722657,182.545882774661,5.57702542942667,1,"subseries 3",FALSE,63,7.42117366706291,63,182.545882774661
"64",181.574433982746,-4.37703649285331,182.065955488642,3.88551498695705,1,"subseries 4",FALSE,64,8.2964652299343,64,182.065955488642
"65",174.830008342862,-5.97328761100955,181.349265635156,-0.545969681283992,1,"subseries 5",FALSE,65,10.5686299856431,65,181.349265635156
"66",167.719272021174,-6.07770799882041,180.481085400745,-6.68410538075022,1,"subseries 6",FALSE,66,10.191231340284,66,180.481085400745
"67",157.736951016152,-15.5022004453299,179.689022348801,-6.44987088731864,1,"subseries 7",FALSE,67,13.1764970201046,67,179.689022348801
"68",157.602331270458,-23.3283204829254,178.64075271395,2.28989903943318,1,"subseries 8",FALSE,68,11.648416743534,68,178.64075271395
"69",161.044129235641,-21.9306443874385,178.040662088937,4.9341115341422,1,"subseries 9",FALSE,69,18.9802212464718,69,178.040662088937
"70",151.279506414765,-16.3324540258155,178.254490362413,-10.6425299218323,1,"subseries 10",FALSE,70,29.0652470683832,70,178.254490362413
"71",187.289470385116,9.22285431392952,179.040563546736,-0.973947475549807,1,"subseries 11",FALSE,71,17.2408179029538,71,179.040563546736
"72",198.826149730546,24.4011756068183,179.75595944151,-5.33098531778219,1,"subseries 12",FALSE,72,9.78837560227301,72,179.75595944151
"73",213.387379998884,31.9970607898917,180.464230756993,0.926088451999249,1,"subseries 1",FALSE,73,7.84082185126466,73,180.464230756993
"74",199.903359831753,20.2141266563264,180.927509298271,-1.23827612284464,1,"subseries 2",FALSE,74,6.62920214340412,74,180.927509298271
"75",199.562474789964,7.68643407722657,181.110158947288,10.7658817654498,1,"subseries 3",FALSE,75,8.45898876266792,75,181.110158947288
"76",186.248473911072,-4.37703649285331,180.775290927167,9.85021947675824,1,"subseries 4",FALSE,76,10.91724108947,76,180.775290927167
"77",177.400164147856,-5.97328761100955,180.007600465452,3.36585129341393,1,"subseries 5",FALSE,77,14.895669120389,77,180.007600465452
"78",170.051778460952,-6.07770799882041,179.260646678446,-3.13116021867393,1,"subseries 6",FALSE,78,14.8619617947073,78,179.260646678446
"79",161.630828497097,-15.5022004453299,178.343760951705,-1.2107320092785,1,"subseries 7",FALSE,79,10.9345100151533,79,178.343760951705
"80",153.148802499577,-23.3283204829254,177.38002387513,-0.902900892628111,1,"subseries 8",FALSE,80,11.0574448507395,80,177.38002387513
"81",165.848291439915,-21.9306443874385,176.334652164534,11.444283662819,1,"subseries 9",FALSE,81,8.9306620521534,81,176.334652164534
"82",152.751962897528,-16.3324540258155,175.198752080604,-6.11433515726077,1,"subseries 10",FALSE,82,16.4252269715116,82,175.198752080604
"83",175.973852154054,9.22285431392952,174.00741984035,-7.25642200022554,1,"subseries 11",FALSE,83,5.92701230532678,83,174.00741984035
