"","raw","seasonal","trend","remainder","weights","sub.labels","interpolated","age","sigma","operating","power"
"1",176.419086336589,-2.19934139591846,177.870910887352,0.747516845155644,1,"subseries 1",FALSE,1,6.70534514033337,1,177.870910887352
"2",184.244893188823,6.19746419338868,176.874137166058,1.17329182937647,1,"subseries 2",FALSE,2,7.23257987091984,2,176.874137166058
"3",178.194591883995,6.44490241103459,175.853235455104,-4.10354598214343,1,"subseries 3",FALSE,3,7.56799149802033,3,175.853235455104
"4",178.062805464604,3.29930001267119,174.765729304301,-0.00222385236790501,1,"subseries 4",FALSE,4,8.44843047755652,4,174.765729304301
"5",172.103780536457,1.56708184354299,173.645464828647,-3.10876613573279,1,"subseries 5",FALSE,5,6.18931012515911,5,173.645464828647
"6",171.32147292104,-0.239103519720981,172.441411091617,-0.880834650855661,1,"subseries 6",FALSE,6,5.61089146634978,6,172.441411091617
"7",168.194729160211,-1.35488328055789,171.186542091509,-1.63692965074006,1,"subseries 7",FALSE,7,4.98275532446636,7,171.186542091509
"8",174.326997504695,-3.94009193758056,170.050944458057,8.21614498421854,1,"subseries 8",FALSE,8,7.36519281435728,8,170.050944458057
"9",176.391142786485,0.0256661977178574,168.730836099329,7.63464048943857,1,"subseries 9",FALSE,9,6.12217921351623,9,168.730836099329
"10",174.048723699227,0.997500258223311,167.904860309798,5.14636313120602,1,"subseries 10",FALSE,10,6.35831283849473,10,167.904860309798
"11",167.290757194534,-0.46215835986882,167.341382799632,0.411532754770434,1,"subseries 11",FALSE,11,5.41381743708621,11,167.341382799632
"12",147.09020120482,-10.3363364229319,166.883213383379,-9.45667575562729,1,"subseries 12",FALSE,12,12.1804892325447,12,166.883213383379
"13",136.758118910174,-2.19934139591846,166.990950443861,-28.0334901377688,1,"subseries 1",FALSE,13,4.35421629280858,13,166.990950443861
"14",176.850878646885,6.19746419338868,166.471208835865,4.1822056176309,1,"subseries 2",FALSE,14,8.29608527484592,14,166.471208835865
"15",175.626421266545,6.44490241103459,166.370947336074,2.81057151943597,1,"subseries 3",FALSE,15,7.45813404364734,15,166.370947336074
"16",178.705637413405,3.29930001267119,166.511949385362,8.89438801537148,1,"subseries 4",FALSE,16,6.02109522357194,16,166.511949385362
"17",174.211388094961,1.56708184354299,166.480307661618,6.16399858980037,1,"subseries 5",FALSE,17,6.69831192135163,17,166.480307661618
"18",172.871372278728,-0.239103519720981,167.381711275073,5.72876452337599,1,"subseries 6",FALSE,18,7.57210573033398,18,167.381711275073
"19",169.667939355757,-1.35488328055789,167.911401844454,3.11142079186112,1,"subseries 7",FALSE,19,7.30060089471034,19,167.911401844454
"20",156.460131477799,-3.94009193758056,168.147859178959,-7.7476357635795,1,"subseries 8",FALSE,20,12.4183991878726,20,168.147859178959
"21",163.828595989167,0.0256661977178574,168.467385862096,-4.66445607064722,1,"subseries 9",FALSE,21,7.43262375231755,21,168.467385862096
"22",161.16054058683,0.997500258223311,168.147485221566,-7.98444489295974,1,"subseries 10",FALSE,22,7.0982965803856,22,168.147485221566
"23",160.346883456535,-0.46215835986882,168.078607234606,-7.26956541820184,1,"subseries 11",FALSE,23,7.15719471779255,23,168.078607234606
"24",171.868352586412,-10.3363364229319,168.059142165763,14.1455468435809,1,"subseries 12",FALSE,24,5.71288104665077,24,168.059142165763
"25",172.427441303051,-2.19934139591846,168.011550682277,6.61523201669254,1,"subseries 1",FALSE,25,6.98526658597642,25,168.011550682277
"26",174.990450366125,6.19746419338868,168.413170766445,0.379815406291698,1,"subseries 2",FALSE,26,7.22260923249806,26,168.413170766445
"27",174.568871966254,6.44490241103459,168.503028798063,-0.37905924284351,1,"subseries 3",FALSE,27,7.13157280930426,27,168.503028798063
"28",171.003358421708,3.29930001267119,168.508362983107,-0.804304574070045,1,"subseries 4",FALSE,28,7.09284447449972,28,168.508362983107
"29",168.579606905587,1.56708184354299,168.384778837344,-1.37225377530029,1,"subseries 5",FALSE,29,7.13242607055962,29,168.384778837344
"30",164.873991320812,-0.239103519720981,168.120334375733,-3.00723953520051,1,"subseries 6",FALSE,30,7.94288775344414,30,168.120334375733
"31",163.768811562746,-1.35488328055789,168.288551828657,-3.16485698535348,1,"subseries 7",FALSE,31,8.37399625711323,31,168.288551828657
"32",164.440244918687,-3.94009193758056,168.618047660961,-0.237710804693222,1,"subseries 8",FALSE,32,7.42391227163606,32,168.618047660961
"33",168.81772290533,0.0256661977178574,169.195860511139,-0.40380380352704,1,"subseries 9",FALSE,33,7.00652312602523,33,169.195860511139
"34",167.200185621583,0.997500258223311,169.637092354122,-3.43440699076228,1,"subseries 10",FALSE,34,6.13592719859087,34,169.637092354122
"35",168.703498902819,-0.46215835986882,169.905081410826,-0.739424148137942,1,"subseries 11",FALSE,35,6.75018635873208,35,169.905081410826
"36",170.454657194344,-10.3363364229319,170.132841615409,10.6581520018672,1,"subseries 12",FALSE,36,5.55300792206877,36,170.132841615409
"37",173.109176570024,-2.19934139591846,169.990303411081,5.31821455486184,1,"subseries 1",FALSE,37,6.28416489432719,37,169.990303411081
"38",176.191152324196,6.19746419338868,169.76276727333,0.230920857477059,1,"subseries 2",FALSE,38,6.30755739533313,38,169.76276727333
"39",173.864409773008,6.44490241103459,169.172782297253,-1.7532749352799,1,"subseries 3",FALSE,39,6.11265727387994,39,169.172782297253
"40",171.105367806773,3.29930001267119,168.401770378517,-0.595702584415449,1,"subseries 4",FALSE,40,7.50905942389215,40,168.401770378517
"41",168.018238693377,1.56708184354299,167.570031849436,-1.11887499960218,1,"subseries 5",FALSE,41,6.34387394500528,41,167.570031849436
"42",166.211381455847,-0.239103519720981,166.805806261166,-0.355321285597682,1,"subseries 6",FALSE,42,7.45681714740959,42,166.805806261166
"43",163.581549336418,-1.35488328055789,166.485317589714,-1.54888497273859,1,"subseries 7",FALSE,43,7.72642343045913,43,166.485317589714
"44",158.974448994462,-3.94009193758056,166.102476966075,-3.18793603403259,1,"subseries 8",FALSE,44,5.90250229692918,44,166.102476966075
"45",161.465851131523,0.0256661977178574,165.793038770411,-4.35285383660556,1,"subseries 9",FALSE,45,20.5502791329939,45,165.793038770411
"46",167.446105061535,0.997500258223311,165.277603948694,1.17100085461794,1,"subseries 10",FALSE,46,6.02300856205438,46,165.277603948694
"47",165.01828764266,-0.46215835986882,164.520531480292,0.959914522236375,1,"subseries 11",FALSE,47,6.63006267256606,47,164.520531480292
"48",168.12840104323,-10.3363364229319,163.892449260526,14.5722882056356,1,"subseries 12",FALSE,48,5.84076464652695,48,163.892449260526
"49",167.340684985274,-2.19934139591846,162.975804219345,6.56422216184751,1,"subseries 1",FALSE,49,5.89449186004461,49,162.975804219345
"50",157.010985011519,6.19746419338868,162.119143092052,-11.305622273922,1,"subseries 2",FALSE,50,7.87954793045368,50,162.119143092052
"51",165.466684428863,6.44490241103459,161.058218081527,-2.03643606369832,1,"subseries 3",FALSE,51,8.89492047713866,51,161.058218081527
"52",164.636733752394,3.29930001267119,159.599662805993,1.73777093372951,1,"subseries 4",FALSE,52,6.99976620145936,52,159.599662805993
"53",156.590581905007,1.56708184354299,158.22296857419,-3.1994685127263,1,"subseries 5",FALSE,53,6.83833932581808,53,158.22296857419
"54",156.413359981109,-0.239103519720981,156.896592188012,-0.2441286871817,1,"subseries 6",FALSE,54,6.23289154635398,54,156.896592188012
"55",155.953166213992,-1.35488328055789,155.921941353619,1.38610814093076,1,"subseries 7",FALSE,55,6.28890207196415,55,155.921941353619
"56",149.483442864368,-3.94009193758056,155.482930343235,-2.05939554128653,1,"subseries 8",FALSE,56,8.98210354122717,56,155.482930343235
"57",157.675959103851,0.0256661977178574,155.225532846889,2.42476005924374,1,"subseries 9",FALSE,57,8.8009788119836,57,155.225532846889
"58",150.816270571181,0.997500258223311,154.701852794248,-4.88308248128993,1,"subseries 10",FALSE,58,8.12517248347064,58,154.701852794248
"59",148.08393981098,-0.46215835986882,154.114888801729,-5.56879063088064,1,"subseries 11",FALSE,59,8.29800182010759,59,154.114888801729
"60",148.292287732407,-10.3363364229319,153.462799703737,5.16582445160159,1,"subseries 12",FALSE,60,8.64043466257797,60,153.462799703737
"61",157.131030836293,-2.19934139591846,152.684781253246,6.64559097896498,1,"subseries 1",FALSE,61,7.7245564650279,61,152.684781253246
"62",161.15846493288,6.19746419338868,152.190629680166,2.77037105932493,1,"subseries 2",FALSE,62,7.9834584901717,62,152.190629680166
"63",161.03107098265,6.44490241103459,151.669646829956,2.91652174165921,1,"subseries 3",FALSE,63,7.01982794218141,63,151.669646829956
"64",142.678269255168,3.29930001267119,151.113740195589,-11.7347709530925,1,"subseries 4",FALSE,64,30.9888191443656,64,151.113740195589
"65",153.073099507388,1.56708184354299,150.528738310955,0.97727935288998,1,"subseries 5",FALSE,65,7.92528952631671,65,150.528738310955
"66",147.076401084177,-0.239103519720981,148.903832939646,-1.58832833574769,1,"subseries 6",FALSE,66,8.15279885943614,66,148.903832939646
"67",148.67635238701,-1.35488328055789,146.930834279256,3.10040138831229,1,"subseries 7",FALSE,67,9.35622797889518,67,146.930834279256
"68",148.798540678847,-3.94009193758056,145.03002461865,7.70860799777731,1,"subseries 8",FALSE,68,9.53635980674247,68,145.03002461865
"69",145.812820408646,0.0256661977178574,142.99512288902,2.79203132190824,1,"subseries 9",FALSE,69,7.00101826135121,69,142.99512288902
"70",155.745447358746,0.997500258223311,141.061076520586,13.6868705799369,1,"subseries 10",FALSE,70,8.80835976090271,70,141.061076520586
"71",154.077310881604,-0.46215835986882,139.068328437402,15.471140804071,1,"subseries 11",FALSE,71,7.46900688378884,71,139.068328437402
"72",94.6577950616717,-10.3363364229319,137.02914497313,-32.0350134885264,1,"subseries 12",FALSE,72,11.6508812824335,72,137.02914497313
