"","raw","seasonal","trend","remainder","weights","sub.labels","interpolated","age","sigma","operating","power"
"1",146.782545411307,-3.48714735180813,150.476980362641,-0.207287599526296,1,"subseries 1",FALSE,1,9.02148861112683,1,150.476980362641
"2",148.028363578945,-2.86910388794587,150.442032921618,0.455434545272823,1,"subseries 2",FALSE,2,8.14096276478251,2,150.442032921618
"3",147.44816901506,-2.59975667258627,150.403782633439,-0.355856945793107,1,"subseries 3",FALSE,3,6.78046285676099,3,150.403782633439
"4",148.128493059248,-1.64448097549447,150.359979474676,-0.587005439933932,1,"subseries 4",FALSE,4,7.85225215766293,4,150.359979474676
"5",150.950220639891,-0.169582352153019,150.310490087215,0.809312904828715,1,"subseries 5",FALSE,5,5.56097824617372,5,150.310490087215
"6",157.376616878914,5.85468523229598,150.25096842755,1.27096321906805,1,"subseries 6",FALSE,6,6.91712496702873,6,150.25096842755
"7",150.611854181633,3.1891334921288,150.17926501559,-2.75654432608545,1,"subseries 7",FALSE,7,7.29282024021408,7,150.17926501559
"8",150.894976889084,2.4817698205908,150.095923252384,-1.68271618389113,1,"subseries 8",FALSE,8,7.18518113064789,8,150.095923252384
"9",154.765430034547,3.10122986169639,149.973246405071,1.69095376777952,1,"subseries 9",FALSE,9,6.51522433928114,9,149.973246405071
"10",154.900534240724,-0.893251022514641,149.769166231201,6.02461903203755,1,"subseries 10",FALSE,10,4.73758869247562,10,149.769166231201
"11",147.944817481349,-0.276739376432759,149.487984086938,-1.26642722915582,1,"subseries 11",FALSE,11,7.65752203666997,11,149.487984086938
"12",145.811173695683,-2.68675676777683,149.238229767995,-0.740299304534773,1,"subseries 12",FALSE,12,8.22182124587521,12,149.238229767995
"13",144.649301550061,-3.48714735180813,148.928898899604,-0.792449997734622,1,"subseries 1",FALSE,13,9.69950739770382,13,148.928898899604
"14",145.173764669713,-2.86910388794587,148.502138752116,-0.459270194457105,1,"subseries 2",FALSE,14,8.01276999227413,14,148.502138752116
"15",144.903596349137,-2.59975667258627,148.058289404638,-0.55493638291469,1,"subseries 3",FALSE,15,7.70713718894642,15,148.058289404638
"16",146.295253634534,-1.64448097549447,147.217662000669,0.722072609359543,1,"subseries 4",FALSE,16,12.1864276243321,16,147.217662000669
"17",147.431780540461,-0.169582352153019,146.219517121774,1.38184577083967,1,"subseries 5",FALSE,17,6.0939076695304,17,146.219517121774
"18",151.988798686105,5.85468523229598,145.458100753086,0.67601270072339,1,"subseries 6",FALSE,18,7.31445584307726,18,145.458100753086
"19",151.255979772152,3.1891334921288,144.675559510811,3.3912867692118,1,"subseries 7",FALSE,19,9.1792455089111,19,144.675559510811
"20",151.208878116429,2.4817698205908,144.205948279715,4.52116001612288,1,"subseries 8",FALSE,20,9.07680077492244,20,144.205948279715
"21",143.090309017232,3.10122986169639,143.836888433562,-3.84780927802672,1,"subseries 9",FALSE,21,17.3640032081502,21,143.836888433562
"22",130.939617498028,-0.893251022514641,143.509203653025,-11.6763351324819,1,"subseries 10",FALSE,22,20.2370848581602,22,143.509203653025
"23",145.274493685445,-0.276739376432759,143.334700517365,2.21653254451257,1,"subseries 11",FALSE,23,13.0452178128404,23,143.334700517365
"24",NA,-2.68675676777683,143.108964316662,NA,1,"subseries 12",TRUE,24,NA,24,NA
"25",NA,-3.48714735180813,143.079667186182,NA,1,"subseries 1",TRUE,25,NA,25,NA
"26",NA,-2.86910388794587,143.117701984117,NA,1,"subseries 2",TRUE,26,NA,26,NA
"27",140.616435775556,-2.59975667258627,143.387530986353,-0.171338538210591,1,"subseries 3",FALSE,27,8.74168343022922,27,143.387530986353
"28",142.683612327069,-1.64448097549447,143.811357740092,0.516735562471467,1,"subseries 4",FALSE,28,5.44956610848682,28,143.811357740092
"29",141.797733289427,-0.169582352153019,144.366158621068,-2.39884297948808,1,"subseries 5",FALSE,29,5.89917778890475,29,144.366158621068
"30",146.525329679669,5.85468523229598,145.067936010126,-4.39729156275271,1,"subseries 6",FALSE,30,6.54381814559746,30,145.067936010126
"31",150.838441303981,3.1891334921288,145.720506618294,1.92880119355843,1,"subseries 7",FALSE,31,8.54782806942717,31,145.720506618294
"32",148.436902315484,2.4817698205908,146.261811027802,-0.306678532909274,1,"subseries 8",FALSE,32,10.372165530703,32,146.261811027802
"33",153.646764248281,3.10122986169639,146.714208643365,3.83132574321942,1,"subseries 9",FALSE,33,8.19926564661842,33,146.714208643365
"34",150.443339989447,-0.893251022514641,147.396635967756,3.93995504420565,1,"subseries 10",FALSE,34,6.14417471835581,34,147.396635967756
"35",148.719043225732,-0.276739376432759,147.930431401803,1.06535120036133,1,"subseries 11",FALSE,35,6.32759353067107,35,147.930431401803
"36",144.854459811464,-2.68675676777683,148.244737744777,-0.703521165536273,1,"subseries 12",FALSE,36,8.47447191042687,36,148.244737744777
"37",145.321300134012,-3.48714735180813,148.392825304311,0.415622181509377,1,"subseries 1",FALSE,37,8.70496724203484,37,148.392825304311
"38",144.152920809641,-2.86910388794587,148.260892496277,-1.23886779869005,1,"subseries 2",FALSE,38,8.8128063285889,38,148.260892496277
"39",145.017215816324,-2.59975667258627,148.084194977941,-0.467222489031087,1,"subseries 3",FALSE,39,7.43771246449349,39,148.084194977941
"40",145.209642507235,-1.64448097549447,147.856093872575,-1.0019703898451,1,"subseries 4",FALSE,40,5.90989691649608,40,147.856093872575
"41",149.012655278336,-0.169582352153019,147.671173587206,1.51106404328331,1,"subseries 5",FALSE,41,13.1934264420916,41,147.671173587206
"42",156.360921325768,5.85468523229598,147.611025771438,2.89521032203413,1,"subseries 6",FALSE,42,21.3626842569782,42,147.611025771438
"43",148.754573077319,3.1891334921288,147.579561988998,-2.01412240380779,1,"subseries 7",FALSE,43,9.46106666817563,43,147.579561988998
"44",148.126171502135,2.4817698205908,147.580230238316,-1.93582855677187,1,"subseries 8",FALSE,44,10.4445667216869,44,147.580230238316
"45",149.528300527167,3.10122986169639,147.614982588881,-1.1879119234099,1,"subseries 9",FALSE,45,9.12333907449347,45,147.614982588881
"46",148.792615155333,-0.893251022514641,147.646260179199,2.03960599864897,1,"subseries 10",FALSE,46,7.2110417932593,46,147.646260179199
"47",145.554052507725,-0.276739376432759,147.691886505283,-1.86109462112498,1,"subseries 11",FALSE,47,7.53377671173457,47,147.691886505283
"48",146.180274476581,-2.68675676777683,147.709718702898,1.15731254145979,1,"subseries 12",FALSE,48,7.2385763882206,48,147.709718702898
"49",144.072090966325,-3.48714735180813,147.724608489534,-0.165370171401349,1,"subseries 1",FALSE,49,7.80143581003232,49,147.724608489534
"50",145.38860207046,-2.86910388794587,147.754899306387,0.502806652019075,1,"subseries 2",FALSE,50,8.15839433784053,50,147.754899306387
"51",146.409212306774,-2.59975667258627,147.785311803514,1.22365717584589,1,"subseries 3",FALSE,51,7.49750036790404,51,147.785311803514
"52",146.33882945415,-1.64448097549447,147.822783821752,0.160526607892535,1,"subseries 4",FALSE,52,8.204807908918,52,147.822783821752
"53",146.348395480574,-0.169582352153019,147.860658646283,-1.34268081355592,1,"subseries 5",FALSE,53,6.21090131161655,53,147.860658646283
