"","raw","seasonal","trend","remainder","weights","sub.labels","interpolated","age","sigma","operating","power"
"1",128.333358387502,-1.04895665722527,132.695989688463,-3.31367464373531,1,"subseries 1",FALSE,1,10.2692634923088,1,132.695989688463
"2",133.723495621306,-1.0928832151155,133.312397612117,1.50398122430457,1,"subseries 2",FALSE,2,8.84530572587974,2,133.312397612117
"3",128.480155734244,-4.27124692444325,133.898325805984,-1.14692314729675,1,"subseries 3",FALSE,3,6.69529097896704,3,133.898325805984
"4",121.215521974231,-9.95461015939762,134.414556363111,-3.24442422948189,1,"subseries 4",FALSE,4,5.98329363611725,4,134.414556363111
"5",119.668373118596,-13.150019225305,134.890222663549,-2.07183031964809,1,"subseries 5",FALSE,5,6.45761542187706,5,134.890222663549
"6",137.070764692289,-7.88507703479856,135.337686605477,9.6181551216107,1,"subseries 6",FALSE,6,7.12032549939269,6,135.337686605477
"7",131.66716719407,-2.22447676538316,135.707728275989,-1.81608431653564,1,"subseries 7",FALSE,7,4.93356098595873,7,135.707728275989
"8",149.609103745156,6.27427266010733,136.203981457927,7.13084962712202,1,"subseries 8",FALSE,8,7.39940197385514,8,136.203981457927
"9",150.602938272464,13.1907698078771,136.446179239041,0.965989225546224,1,"subseries 9",FALSE,9,5.87954967293555,9,136.446179239041
"10",146.701351916954,10.4661030679375,136.279446722964,-0.0441978739479225,1,"subseries 10",FALSE,10,5.86302103864085,10,136.279446722964
"11",141.858874646181,6.92400140725755,135.904984908556,-0.970111669632701,1,"subseries 11",FALSE,11,7.92901843864963,11,135.904984908556
"12",136.810662211415,2.77212303848893,135.14771366531,-1.10917449238417,1,"subseries 12",FALSE,12,10.3571464368172,12,135.14771366531
"13",133.47470260252,-1.04895665722527,134.319017059952,0.204642199793597,1,"subseries 1",FALSE,13,8.63309397597815,13,134.319017059952
"14",132.003649504175,-1.0928832151155,133.367279448796,-0.27074672950522,1,"subseries 2",FALSE,14,7.10238794212901,14,133.367279448796
"15",129.06375338112,-4.27124692444325,132.390221336052,0.944778969511418,1,"subseries 3",FALSE,15,8.99996468154865,15,132.390221336052
"16",123.81579971209,-9.95461015939762,131.860395596753,1.91001427473469,1,"subseries 4",FALSE,16,6.62446495998894,16,131.860395596753
"17",120.99841954434,-13.150019225305,131.567368111155,2.58107065849046,1,"subseries 5",FALSE,17,6.03714105948254,17,131.567368111155
"18",117.98019167867,-7.88507703479856,131.462270184362,-5.59700147089391,1,"subseries 6",FALSE,18,4.26251357487353,18,131.462270184362
"19",123.592699933701,-2.22447676538316,131.668838692392,-5.85166199330824,1,"subseries 7",FALSE,19,5.11474378293909,19,131.668838692392
"20",130.038983387436,6.27427266010733,131.685393739833,-7.92068301250433,1,"subseries 8",FALSE,20,7.49409208955322,20,131.685393739833
"21",148.828718226216,13.1907698078771,131.86208752261,3.77586089572881,1,"subseries 9",FALSE,21,4.97685843382494,21,131.86208752261
"22",148.016160728705,10.4661030679375,131.81791204681,5.73214561395753,1,"subseries 10",FALSE,22,5.40387278570827,22,131.81791204681
"23",142.51645916321,6.92400140725755,131.492987209645,4.09947054630757,1,"subseries 11",FALSE,23,7.09887182980778,23,131.492987209645
"24",136.404066581313,2.77212303848893,131.316484227636,2.31545931518855,1,"subseries 12",FALSE,24,7.83673179782126,24,131.316484227636
"25",134.071866964331,-1.04895665722527,130.638880263399,4.48194335815717,1,"subseries 1",FALSE,25,9.37468731490941,25,130.638880263399
"26",131.407370717836,-1.0928832151155,130.185512533427,2.31474139952476,1,"subseries 2",FALSE,26,7.97176650065817,26,130.185512533427
"27",125.989041124943,-4.27124692444325,129.75280473461,0.507483314776351,1,"subseries 3",FALSE,27,6.73465707663587,27,129.75280473461
"28",110.399285842292,-9.95461015939762,128.92360920161,-8.56971319992051,1,"subseries 4",FALSE,28,9.56421469852793,28,128.92360920161
"29",106.527160032518,-13.150019225305,128.353101359256,-8.675922101433,1,"subseries 5",FALSE,29,4.55132319575817,29,128.353101359256
"30",112.707443695555,-7.88507703479856,127.53668981733,-6.94416908697598,1,"subseries 6",FALSE,30,11.3798905404429,30,127.53668981733
"31",136.167576526691,-2.22447676538316,126.867385344434,11.52466794764,1,"subseries 7",FALSE,31,6.48394342732103,31,126.867385344434
"32",139.764770118244,6.27427266010733,126.520368242444,6.97012921569245,1,"subseries 8",FALSE,32,4.7339397859717,32,126.520368242444
"33",141.622008118508,13.1907698078771,126.132203299658,2.29903501097249,1,"subseries 9",FALSE,33,4.1994482618559,33,126.132203299658
"34",132.904157606648,10.4661030679375,126.071328688318,-3.63327414960739,1,"subseries 10",FALSE,34,4.93290154775238,34,126.071328688318
"35",130.857871318523,6.92400140725755,125.774940107534,-1.8410701962689,1,"subseries 11",FALSE,35,6.73436381358053,35,125.774940107534
"36",127.503630115836,2.77212303848893,125.247744844828,-0.516237767481371,1,"subseries 12",FALSE,36,8.18190793171579,36,125.247744844828
"37",122.037780346271,-1.04895665722527,124.865202136703,-1.77846513320681,1,"subseries 1",FALSE,37,7.65364168993343,37,124.865202136703
"38",122.207867154132,-1.0928832151155,124.603435749113,-1.30268537986508,1,"subseries 2",FALSE,38,7.70077911963869,38,124.603435749113
"39",119.159443123502,-4.27124692444325,124.7740150043,-1.34332495635444,1,"subseries 3",FALSE,39,8.53172631318646,39,124.7740150043
"40",114.461118631994,-9.95461015939762,125.055552053608,-0.639823262216851,1,"subseries 4",FALSE,40,6.50233389957987,40,125.055552053608
"41",107.431324559967,-13.150019225305,125.37716136343,-4.79581757815816,1,"subseries 5",FALSE,41,6.3851623414104,41,125.37716136343
"42",120.413034680505,-7.88507703479856,125.567196888877,2.73091482642702,1,"subseries 6",FALSE,42,5.51313296480112,42,125.567196888877
"43",126.093313870879,-2.22447676538316,125.580697255805,2.73709338045761,1,"subseries 7",FALSE,43,5.00942470098849,43,125.580697255805
"44",139.896240305059,6.27427266010733,125.698908881889,7.92305876306223,1,"subseries 8",FALSE,44,5.71869203923335,44,125.698908881889
"45",139.148553510751,13.1907698078771,125.607979246173,0.349804456701335,1,"subseries 9",FALSE,45,4.59912347318608,45,125.607979246173
"46",133.605564365139,10.4661030679375,125.513914192699,-2.37445289549699,1,"subseries 10",FALSE,46,4.62525257661462,46,125.513914192699
"47",129.725778413932,6.92400140725755,125.300238476816,-2.49846147014166,1,"subseries 11",FALSE,47,6.29418089795747,47,125.300238476816
"48",126.179926453747,2.77212303848893,124.887882243609,-1.48007882835057,1,"subseries 12",FALSE,48,7.86784189391804,48,124.887882243609
"49",123.778735443621,-1.04895665722527,124.605580722275,0.222111378571753,1,"subseries 1",FALSE,49,9.50622884051623,49,124.605580722275
"50",122.38008656618,-1.0928832151155,124.2901751807,-0.817205399404443,1,"subseries 2",FALSE,50,9.54516427468337,50,124.2901751807
"51",119.836920968413,-4.27124692444325,124.125591613538,-0.0174237206821033,1,"subseries 3",FALSE,51,7.42906256391751,51,124.125591613538
"52",113.794526360405,-9.95461015939762,124.129510248361,-0.380373728558041,1,"subseries 4",FALSE,52,7.70671869336023,52,124.129510248361
"53",111.689679298679,-13.150019225305,124.104231835843,0.735466688141074,1,"subseries 5",FALSE,53,5.19803167085173,53,124.104231835843
"54",117.864773463973,-7.88507703479856,124.062172373469,1.68767812530299,1,"subseries 6",FALSE,54,5.83050525984385,54,124.062172373469
"55",122.467728732973,-2.22447676538316,123.943434929037,0.748770569319447,1,"subseries 7",FALSE,55,7.82273718328045,55,123.943434929037
"56",129.392723661085,6.27427266010733,123.743314537984,-0.62486353700649,1,"subseries 8",FALSE,56,5.16944514642473,56,123.743314537984
"57",134.98747149255,13.1907698078771,123.452157657541,-1.65545597286807,1,"subseries 9",FALSE,57,4.59044541663148,57,123.452157657541
"58",135.749436402491,10.4661030679375,123.297332024255,1.98600131029863,1,"subseries 10",FALSE,58,5.27987386348059,58,123.297332024255
"59",131.094651871256,6.92400140725755,123.272671440971,0.897979023027759,1,"subseries 11",FALSE,59,5.85098651175625,59,123.272671440971
"60",124.588749778807,2.77212303848893,123.264516886748,-1.44789014642947,1,"subseries 12",FALSE,60,6.71067422561828,60,123.264516886748
"61",119.371270079239,-1.04895665722527,123.358532798323,-2.93830606185833,1,"subseries 1",FALSE,61,7.60882202872651,61,123.358532798323
"62",119.590448726344,-1.0928832151155,122.912032668133,-2.22870072667379,1,"subseries 2",FALSE,62,8.34180065438695,62,122.912032668133
"63",117.112588054919,-4.27124692444325,122.095601934272,-0.711766954909493,1,"subseries 3",FALSE,63,7.41877500971106,63,122.095601934272
"64",118.418013935828,-9.95461015939762,121.263853710429,7.1087703847969,1,"subseries 4",FALSE,64,6.89936781262592,64,121.263853710429
"65",119.161787294316,-13.150019225305,120.145809783398,12.1659967362231,1,"subseries 5",FALSE,65,6.05217700765155,65,120.145809783398
"66",115.028725036125,-7.88507703479856,119.560904999685,3.35289707123842,1,"subseries 6",FALSE,66,4.98613580583871,66,119.560904999685
"67",110.781993319053,-2.22447676538316,119.040645371284,-6.03417528684821,1,"subseries 7",FALSE,67,3.87587338986249,67,119.040645371284
"68",111.344391960402,6.27427266010733,118.482394078961,-13.4122747786662,1,"subseries 8",FALSE,68,5.02009326695611,68,118.482394078961
"69",125.840539444991,13.1907698078771,118.326053315148,-5.67628367803407,1,"subseries 9",FALSE,69,5.36698083770697,69,118.326053315148
"70",126.754539997215,10.4661030679375,117.965918529195,-1.67748159991766,1,"subseries 10",FALSE,70,4.77026363710012,70,117.965918529195
"71",125.384346747499,6.92400140725755,118.217667312868,0.242678027373515,1,"subseries 11",FALSE,71,5.24225348303504,71,118.217667312868
"72",123.896846788271,2.77212303848893,118.939351121287,2.18537262849532,1,"subseries 12",FALSE,72,6.12761613324471,72,118.939351121287
"73",121.548537457054,-1.04895665722527,119.589475745102,3.00801836917744,1,"subseries 1",FALSE,73,7.46834294746702,73,119.589475745102
"74",119.975151835682,-1.0928832151155,120.312223509598,0.75581154119989,1,"subseries 2",FALSE,74,7.41161598619361,74,120.312223509598
"75",118.502137971986,-4.27124692444325,121.00269658276,1.77068831366907,1,"subseries 3",FALSE,75,6.46712652397384,75,121.00269658276
"76",115.588483321638,-9.95461015939762,121.732270563513,3.81082291752244,1,"subseries 4",FALSE,76,9.04878482465029,76,121.732270563513
"77",109.344350646339,-13.150019225305,122.446807396691,0.047562474953196,1,"subseries 5",FALSE,77,5.77609177976236,77,122.446807396691
"78",110.438217091321,-7.88507703479856,123.125801417119,-4.80250729099916,1,"subseries 6",FALSE,78,7.8654606062206,78,123.125801417119
"79",120.375106781164,-2.22447676538316,123.789931176405,-1.190347629858,1,"subseries 7",FALSE,79,5.14600865426733,79,123.789931176405
