"","raw","seasonal","trend","remainder","weights","sub.labels","interpolated","age","sigma","operating","power"
"1",156.162902354896,3.86309909332463,153.21766240388,-0.917859142309055,1,"subseries 1",FALSE,1,36.9687048424391,1,153.21766240388
"2",159.110147087155,5.5601219788345,153.567624479192,-0.0175993708717499,1,"subseries 2",FALSE,2,36.7669560996034,2,153.567624479192
"3",140.043742552155,5.86220086541078,153.881674837813,-19.700133151069,1,"subseries 3",FALSE,3,31.9234130567025,3,153.881674837813
"4",169.1663722775,3.29621476507551,154.101922128199,11.7682353842252,1,"subseries 4",FALSE,4,33.9167179339202,4,154.101922128199
"5",162.700429732108,-3.33673191064044,154.279874274285,11.757287368463,1,"subseries 5",FALSE,5,34.0234092914654,5,154.279874274285
"6",156.085114760119,-1.88202710584295,154.498497741924,3.46864412403801,1,"subseries 6",FALSE,6,34.945285075731,6,154.498497741924
"7",155.616075087395,0.631011304037808,154.618691325978,0.366372457379441,1,"subseries 7",FALSE,7,33.5143026968781,7,154.618691325978
"8",146.953518824398,-0.94968638961022,154.925855115633,-7.02264990162513,1,"subseries 8",FALSE,8,29.3649609848716,8,154.925855115633
"9",155.296702096163,-5.58620827540396,154.834145821802,6.04876454976534,1,"subseries 9",FALSE,9,29.6346020636083,9,154.834145821802
"10",144.829956083343,-7.51960870946144,153.605703501966,-1.25613870916158,1,"subseries 10",FALSE,10,31.3323724189201,10,153.605703501966
"11",157.397383961795,-1.53717179884177,152.11312435412,6.82143140651715,1,"subseries 11",FALSE,11,37.9123594018389,11,152.11312435412
"12",150.795133946961,1.59878618311755,151.195600789942,-1.99925302609887,1,"subseries 12",FALSE,12,35.4344043168806,12,151.195600789942
"13",156.084868773458,3.86309909332463,150.553465548405,1.66830413172838,1,"subseries 1",FALSE,13,37.7878237117745,13,150.553465548405
"14",156.604800259925,5.56012197883451,150.097261791437,0.947416489653079,1,"subseries 2",FALSE,14,35.1283555303016,14,150.097261791437
"15",147.577932675966,5.86220086541078,149.94074339428,-8.22501158372503,1,"subseries 3",FALSE,15,34.7652395173695,15,149.94074339428
"16",132.348623065707,3.29621476507551,149.387382254048,-20.3349739534169,1,"subseries 4",FALSE,16,32.9596911027485,16,149.387382254048
"17",152.777484832175,-3.33673191064044,149.07700562063,7.0372111221856,1,"subseries 5",FALSE,17,32.0465458707256,17,149.07700562063
"18",160.651731748803,-1.88202710584295,149.283832546745,13.2499263079011,1,"subseries 6",FALSE,18,35.7655038272523,18,149.283832546745
"19",153.268794455045,0.631011304037808,149.777968978147,2.85981417285993,1,"subseries 7",FALSE,19,32.6435915021981,19,149.777968978147
"20",154.532611647229,-0.94968638961022,150.748047409987,4.73425062685257,1,"subseries 8",FALSE,20,30.1526674796736,20,150.748047409987
"21",124.837782882995,-5.58620827540396,151.657695156971,-21.2337039985721,1,"subseries 9",FALSE,21,28.3774708531056,21,151.657695156971
"22",148.62127864021,-7.51960870946144,152.121659558639,4.01922779103265,1,"subseries 10",FALSE,22,33.3742440211757,22,152.121659558639
"23",152.234204263568,-1.53717179884177,152.35282766929,1.41854839312006,1,"subseries 11",FALSE,23,36.6248074484914,23,152.35282766929
"24",160.636023790595,1.59878618311755,152.39221039195,6.64502721552702,1,"subseries 12",FALSE,24,37.5049788484611,24,152.39221039195
"25",159.562195261321,3.86309909332463,152.549400853625,3.14969531437157,1,"subseries 1",FALSE,25,35.0311615674686,25,152.549400853625
"26",155.283280983059,5.56012197883451,153.135367185723,-3.41220818149884,1,"subseries 2",FALSE,26,37.2780708106631,26,153.135367185723
"27",168.468658692884,5.86220086541078,153.579600032804,9.02685779466884,1,"subseries 3",FALSE,27,34.1734395381895,27,153.579600032804
"28",133.770621235812,3.29621476507551,153.774126949548,-23.2997204788118,1,"subseries 4",FALSE,28,32.1501642339771,28,153.774126949548
"29",168.213856871945,-3.33673191064044,153.933585194966,17.6170035876198,1,"subseries 5",FALSE,29,33.5962894278725,29,153.933585194966
"30",146.675270210352,-1.88202710584295,153.764829595176,-5.20753227898066,1,"subseries 6",FALSE,30,36.2228161100085,30,153.764829595176
"31",154.810544276443,0.631011304037808,153.570141491872,0.609391480533276,1,"subseries 7",FALSE,31,33.9164514636657,31,153.570141491872
"32",152.203033879025,-0.94968638961022,153.371580519768,-0.218860251132838,1,"subseries 8",FALSE,32,30.0715964771541,32,153.371580519768
"33",153.936194359661,-5.58620827540396,152.897720073055,6.62468256200978,1,"subseries 9",FALSE,33,29.3556780534172,33,152.897720073055
"34",147.425891437774,-7.51960870946144,152.523925368912,2.42157477832325,1,"subseries 10",FALSE,34,32.1635116605024,34,152.523925368912
"35",148.468596467404,-1.53717179884177,152.009970188884,-2.0042019226386,1,"subseries 11",FALSE,35,34.3439082425329,35,152.009970188884
"36",153.538462149969,1.59878618311755,151.605846368527,0.333829598323945,1,"subseries 12",FALSE,36,36.0993969056271,36,151.605846368527
"37",150.166657674234,3.86309909332463,151.422944876777,-5.11938629586797,1,"subseries 1",FALSE,37,36.3400681520258,37,151.422944876777
"38",156.869703654404,5.56012197883451,150.786921008301,0.522660667268127,1,"subseries 2",FALSE,38,34.0395378642182,38,150.786921008301
"39",146.909767060231,5.86220086541078,150.15561782033,-9.10805162551003,1,"subseries 3",FALSE,39,32.0984378653138,39,150.15561782033
"40",154.641191659609,3.29621476507551,149.617717304423,1.72725959011018,1,"subseries 4",FALSE,40,32.9222274577814,40,149.617717304423
"41",156.461359086464,-3.33673191064044,149.116434232236,10.6816567648683,1,"subseries 5",FALSE,41,33.7422005142367,41,149.116434232236
"42",156.233814274002,-1.88202710584295,149.038891929392,9.07694945045264,1,"subseries 6",FALSE,42,33.1933403365678,42,149.038891929392
"43",144.786782156052,0.631011304037808,148.934891572845,-4.77912072083046,1,"subseries 7",FALSE,43,35.2672934704818,43,148.934891572845
"44",132.108202309226,-0.94968638961022,148.703658295388,-15.6457695965517,1,"subseries 8",FALSE,44,31.919216679269,44,148.703658295388
"45",147.496536908573,-5.58620827540396,148.400408821733,4.68233636224383,1,"subseries 9",FALSE,45,29.7902013299924,45,148.400408821733
"46",140.528470082444,-7.51960870946144,148.136386923003,-0.0883081310978753,1,"subseries 10",FALSE,46,29.7377140294833,46,148.136386923003
"47",150.13899805475,-1.53717179884177,148.320161318996,3.35600853459627,1,"subseries 11",FALSE,47,31.3341087364774,47,148.320161318996
"48",149.691680250233,1.59878618311755,149.008552457727,-0.915658390611128,1,"subseries 12",FALSE,48,36.2463847881259,48,149.008552457727
"49",148.588799464124,3.86309909332463,150.119357182286,-5.39365681148681,1,"subseries 1",FALSE,49,37.3103017731399,49,150.119357182286
"50",149.550297520821,5.56012197883451,150.852032843681,-6.8618573016945,1,"subseries 2",FALSE,50,37.8260432157837,50,150.852032843681
"51",155.816080950815,5.86220086541078,151.241553350641,-1.28767326523692,1,"subseries 3",FALSE,51,34.9743235417614,51,151.241553350641
"52",160.687798772264,3.29621476507551,151.272219188325,6.11936481886354,1,"subseries 4",FALSE,52,33.6454560419624,52,151.272219188325
"53",162.78745305332,-3.33673191064044,150.915920354233,15.2082646097276,1,"subseries 5",FALSE,53,33.0833274819521,53,150.915920354233
"54",159.241849770184,-1.88202710584295,150.714087868389,10.4097890076375,1,"subseries 6",FALSE,54,35.0742155857764,54,150.714087868389
"55",144.093370560267,0.631011304037808,149.94483725315,-6.48247799692126,1,"subseries 7",FALSE,55,32.7841509249873,55,149.94483725315
"56",143.974491632048,-0.94968638961022,148.926186071368,-4.0020080497093,1,"subseries 8",FALSE,56,33.3391129372576,56,148.926186071368
"57",134.299692515943,-5.58620827540396,147.642578318828,-7.75667752748146,1,"subseries 9",FALSE,57,27.41018218558,57,147.642578318828
"58",149.232151784,-7.51960870946144,146.036799201157,10.7149612923046,1,"subseries 10",FALSE,58,31.4200701441139,58,146.036799201157
"59",138.52902356979,-1.53717179884177,144.870468372457,-4.80427300382544,1,"subseries 11",FALSE,59,35.584057508673,59,144.870468372457
"60",138.626600430202,1.59878618311755,143.80299952874,-6.77518528165518,1,"subseries 12",FALSE,60,34.2859612057608,60,143.80299952874
"61",146.53836456221,3.86309909332463,142.987699708385,-0.312434239500078,1,"subseries 1",FALSE,61,36.5983548490324,61,142.987699708385
"62",145.710576250195,5.56012197883451,142.606735620328,-2.45628134896799,1,"subseries 2",FALSE,62,38.5807682280143,62,142.606735620328
"63",152.562001307727,5.86220086541078,142.401932973634,4.29786746868191,1,"subseries 3",FALSE,63,35.0418666953533,63,142.401932973634
"64",151.483636169637,3.29621476507551,142.521883904165,5.66553750039677,1,"subseries 4",FALSE,64,35.7238788996362,64,142.521883904165
"65",134.204493644353,-3.33673191064044,142.946944810042,-5.40571925504898,1,"subseries 5",FALSE,65,35.1369964271416,65,142.946944810042
"66",135.472702585561,-1.88202710584295,143.462386833339,-6.10765714193539,1,"subseries 6",FALSE,66,33.4755338970373,66,143.462386833339
"67",135.138966885252,0.631011304037808,144.043023392483,-9.53506781126839,1,"subseries 7",FALSE,67,32.5646744226125,67,144.043023392483
"68",153.22911327295,-0.94968638961022,144.516346135015,9.66245352754473,1,"subseries 8",FALSE,68,27.1962664797838,68,144.516346135015
"69",143.720953361095,-5.58620827540396,145.119688045072,4.18747359142662,1,"subseries 9",FALSE,69,29.0386762665378,69,145.119688045072
"70",136.391280935524,-7.51960870946144,145.734671684514,-1.82378203952854,1,"subseries 10",FALSE,70,28.8389603637155,70,145.734671684514
"71",147.241080052385,-1.53717179884177,146.121871569445,2.65638028178219,1,"subseries 11",FALSE,71,32.9859740675958,71,146.121871569445
"72",145.927988226159,1.59878618311755,146.302839808839,-1.97363776579758,1,"subseries 12",FALSE,72,34.9269045132141,72,146.302839808839
"73",151.659179124752,3.86309909332463,145.980312726584,1.81576730484366,1,"subseries 1",FALSE,73,35.4391036664409,73,145.980312726584
"74",157.238782438004,5.56012197883451,145.649850992976,6.02880946619354,1,"subseries 2",FALSE,74,34.1233613517298,74,145.649850992976
"75",155.841643614814,5.86220086541078,145.367665358635,4.61177739076808,1,"subseries 3",FALSE,75,40.0341390034803,75,145.367665358635
"76",147.68340411686,3.29621476507551,145.052021092506,-0.664831740721894,1,"subseries 4",FALSE,76,35.5621250105535,76,145.052021092506
"77",124.488453086837,-3.33673191064044,144.764436394751,-16.9392513972735,1,"subseries 5",FALSE,77,30.6400033888397,77,144.764436394751
"78",143.333672556267,-1.88202710584295,144.248561201027,0.96713846108284,1,"subseries 6",FALSE,78,32.7765030035445,78,144.248561201027
"79",145.813932432736,0.631011304037808,143.859534755028,1.3233863736701,1,"subseries 7",FALSE,79,35.5730343148587,79,143.859534755028
"80",150.452024127989,-0.94968638961022,143.71730788861,7.68440262898898,1,"subseries 8",FALSE,80,33.8079582754729,80,143.71730788861
"81",143.546856963913,-5.58620827540396,143.85125655058,5.28180868873656,1,"subseries 9",FALSE,81,28.0909827234681,81,143.85125655058
"82",126.001603124575,-7.51960870946144,144.410243454993,-10.8890316209564,1,"subseries 10",FALSE,82,29.6123710861575,82,144.410243454993
"83",138.732763165552,-1.53717179884177,144.963538276153,-4.6936033117596,1,"subseries 11",FALSE,83,33.3451053975957,83,144.963538276153
"84",151.442500358789,1.59878618311755,144.85188138159,4.99183279408174,1,"subseries 12",FALSE,84,36.4995778188855,84,144.85188138159
"85",147.332422836027,3.86309909332463,144.447131540119,-0.977807797416688,1,"subseries 1",FALSE,85,34.8013107867069,85,144.447131540119
"86",151.518821329446,5.56012197883451,144.11964870535,1.83905064526149,1,"subseries 2",FALSE,86,36.4130808251465,86,144.11964870535
"87",157.67432258681,5.86220086541078,143.735234512263,8.07688720913654,1,"subseries 3",FALSE,87,33.8942943267914,87,143.735234512263
"88",153.286076511258,3.29621476507551,143.649413578104,6.3404481680785,1,"subseries 4",FALSE,88,32.1694926795694,88,143.649413578104
"89",139.507247219799,-3.33673191064044,143.381381151709,-0.537402021269855,1,"subseries 5",FALSE,89,31.1723894046011,89,143.381381151709
"90",117.35051005655,-1.88202710584295,142.70220504692,-23.4696678845269,1,"subseries 6",FALSE,90,29.7167324206464,90,142.70220504692
"91",151.376074047937,0.631011304037808,142.018503110162,8.72655963373711,1,"subseries 7",FALSE,91,34.1610606466325,91,142.018503110162
"92",145.6799733271,-0.94968638961022,141.357713562631,5.27194615407913,1,"subseries 8",FALSE,92,32.8345894674784,92,141.357713562631
"93",137.776590152887,-5.58620827540396,141.006783544672,2.35601488361914,1,"subseries 9",FALSE,93,29.3541482479315,93,141.006783544672
"94",129.901262564667,-7.51960870946144,140.785247214271,-3.36437594014239,1,"subseries 10",FALSE,94,28.2702040200552,94,140.785247214271
"95",135.774700040609,-1.53717179884177,140.480874147795,-3.16900230834446,1,"subseries 11",FALSE,95,29.2471481766855,95,140.480874147795
"96",140.067531810469,1.59878618311755,139.094964136897,-0.626218509545282,1,"subseries 12",FALSE,96,32.3508302723246,96,139.094964136897
"97",147.581897176933,3.86309909332463,137.204713048382,6.5140850352262,1,"subseries 1",FALSE,97,33.6743399217618,97,137.204713048382
"98",145.851650721572,5.56012197883451,135.838269044133,4.45325969860409,1,"subseries 2",FALSE,98,33.6165523630229,98,135.838269044133
"99",154.133281797129,5.86220086541078,134.409100859056,13.861980072662,1,"subseries 3",FALSE,99,32.2902605646759,99,134.409100859056
"100",150.757448056995,3.29621476507551,132.988553540116,14.4726797518036,1,"subseries 4",FALSE,100,33.1090047532774,100,132.988553540116
"101",90.4700196190709,-3.33673191064044,131.534711506547,-37.7279599768362,1,"subseries 5",FALSE,101,41.937149300938,101,131.534711506547
"102",127.339047651923,-1.88202710584295,129.923095778787,-0.702021021021409,1,"subseries 6",FALSE,102,46.9235281861438,102,129.923095778787
"103",137.322899743873,0.631011304037808,128.273529604981,8.41835883485456,1,"subseries 7",FALSE,103,30.7080716900816,103,128.273529604981
