"","raw","seasonal","trend","remainder","weights","sub.labels","interpolated","age","sigma","operating","power"
"1",2.23973844512162,-0.594536279429437,3.74597188915534,-0.911697164604282,1,"subseries 1",FALSE,1,0.43398251350106,1,3.74597188915534
"2",3.64972631691757,-0.0655314762937584,3.84213267292091,-0.126874879709581,1,"subseries 2",FALSE,2,0.610443599876046,2,3.84213267292091
"3",4.56842025816538,-0.192823703608529,3.93645750587383,0.824786455900078,1,"subseries 3",FALSE,3,0.331249014167363,3,3.93645750587383
"4",4.63296258897684,0.109283939067665,4.03164060995614,0.492038039953039,1,"subseries 4",FALSE,4,0.429503968471737,4,4.03164060995614
"5",4.6508756975197,0.340101824645122,4.12360428851211,0.187169584362469,1,"subseries 5",FALSE,5,0.509570696522344,5,4.12360428851211
"6",4.51424339982376,0.382512288333904,4.22111925426009,-0.0893881427702299,1,"subseries 6",FALSE,6,0.589015277490082,6,4.22111925426009
"7",4.26312254042301,0.207430600452943,4.30974637406561,-0.254054434095544,1,"subseries 7",FALSE,7,0.655901811515783,7,4.30974637406561
"8",4.6376865319197,0.164836371463333,4.37945376857501,0.0933963918813605,1,"subseries 8",FALSE,8,0.417231500758942,8,4.37945376857501
"9",4.39229057819109,0.115723168772743,4.43641303467794,-0.159845625259589,1,"subseries 9",FALSE,9,0.428158264373566,9,4.43641303467794
"10",4.45024266183164,-0.053163934692818,4.44451716155593,0.0588894349685329,1,"subseries 10",FALSE,10,0.399270070412921,10,4.44451716155593
"11",4.46722758242992,-0.157464073164061,4.43848989102159,0.186201764572396,1,"subseries 11",FALSE,11,0.419547034035661,11,4.43848989102159
"12",4.61663601318789,-0.256368725547106,4.43614032651236,0.436864412222632,1,"subseries 12",FALSE,12,0.343797266082782,12,4.43614032651236
"13",4.25814301772653,-0.594536279429437,4.40491506683529,0.447764230320672,1,"subseries 1",FALSE,13,0.397165747582477,13,4.40491506683529
"14",4.20244879187457,-0.0655314762937584,4.36595584823918,-0.0979755800708535,1,"subseries 2",FALSE,14,0.344649075206946,14,4.36595584823918
"15",3.93636473162093,-0.192823703608529,4.3076254927995,-0.178437057570037,1,"subseries 3",FALSE,15,0.37340437807477,15,4.3076254927995
"16",4.30504945372606,0.109283939067665,4.2265911289117,-0.0308256142533061,1,"subseries 4",FALSE,16,0.39753112317964,16,4.2265911289117
"17",4.41333225812034,0.340101824645122,4.14150435348396,-0.068273920008747,1,"subseries 5",FALSE,17,0.460436391442736,17,4.14150435348396
"18",4.41838948379423,0.382512288333904,4.05019559314639,-0.0143183976860692,1,"subseries 6",FALSE,18,0.428801203271188,18,4.05019559314639
"19",4.12462711925157,0.207430600452943,3.97378736064797,-0.0565908418493395,1,"subseries 7",FALSE,19,0.530701098575952,19,3.97378736064797
"20",4.01921408181763,0.164836371463333,3.92905898826913,-0.0746812779148374,1,"subseries 8",FALSE,20,0.536657372918075,20,3.92905898826913
"21",4.25031762945944,0.115723168772743,3.90487249984042,0.229721960846279,1,"subseries 9",FALSE,21,0.430031995924593,21,3.90487249984042
"22",3.61419121317817,-0.053163934692818,3.88792556495749,-0.220570417086506,1,"subseries 10",FALSE,22,0.620468897074835,22,3.88792556495749
"23",2.94482389542347,-0.157464073164061,3.88600762363477,-0.783719655047239,1,"subseries 11",FALSE,23,0.900758228595955,23,3.88600762363477
"24",3.6927989219646,-0.256368725547106,3.89509039922437,0.054077248287336,1,"subseries 12",FALSE,24,0.493767044426164,24,3.89509039922437
"25",3.88199372086666,-0.594536279429437,3.92246564146477,0.554064358831326,1,"subseries 1",FALSE,25,0.516287171961609,25,3.92246564146477
"26",3.93973263173179,-0.0655314762937584,3.97500593390796,0.0302581741175882,1,"subseries 2",FALSE,26,0.476191376426103,26,3.97500593390796
"27",3.37929963028272,-0.192823703608529,4.04510437765827,-0.472981043767017,1,"subseries 3",FALSE,27,0.423152623509129,27,4.04510437765827
"28",4.14106644571799,0.109283939067665,4.12945734031715,-0.0976748336668267,1,"subseries 4",FALSE,28,0.517267406778453,28,4.12945734031715
"29",4.56007077208795,0.340101824645122,4.21880366490104,0.00116528254178316,1,"subseries 5",FALSE,29,0.517322207335187,29,4.21880366490104
"30",4.63835573940641,0.382512288333904,4.2865299360438,-0.0306864849712909,1,"subseries 6",FALSE,30,0.604459984611535,30,4.2865299360438
"31",4.60109733022289,0.207430600452943,4.34797026235372,0.045696467416227,1,"subseries 7",FALSE,31,0.64706930260398,31,4.34797026235372
"32",4.84972295269014,0.164836371463333,4.39707833482592,0.287808246400889,1,"subseries 8",FALSE,32,0.621926809548349,32,4.39707833482592
"33",4.68225152178594,0.115723168772743,4.41884528698029,0.147683066032908,1,"subseries 9",FALSE,33,0.574574099766938,33,4.41884528698029
"34",4.65098967862915,-0.053163934692818,4.42209254171829,0.282061071603676,1,"subseries 10",FALSE,34,0.449738349597571,34,4.42209254171829
"35",4.70667619376457,-0.157464073164061,4.38479756545527,0.479342701473363,1,"subseries 11",FALSE,35,0.453315716520798,35,4.38479756545527
"36",3.83564126815809,-0.256368725547106,4.32304482071687,-0.231034827011674,1,"subseries 12",FALSE,36,0.502697159743287,36,4.32304482071687
"37",3.85986397160989,-0.594536279429437,4.23357156047131,0.220828690568014,1,"subseries 1",FALSE,37,0.573266390285991,37,4.23357156047131
"38",4.05995615309978,-0.0655314762937584,4.14190354538001,-0.0164159159864674,1,"subseries 2",FALSE,38,0.472882584087558,38,4.14190354538001
"39",3.83607602675502,-0.192823703608529,4.05787398998235,-0.0289742596187965,1,"subseries 3",FALSE,39,0.422895038216666,39,4.05787398998235
"40",3.88565810227083,0.109283939067665,3.98583217318387,-0.209458009980703,1,"subseries 4",FALSE,40,0.461031398100554,40,3.98583217318387
"41",3.93536903362622,0.340101824645122,3.94722758445112,-0.351960375470018,1,"subseries 5",FALSE,41,0.536964416422013,41,3.94722758445112
"42",3.87361247655235,0.382512288333904,3.92191381068995,-0.4308136224715,1,"subseries 6",FALSE,42,0.677634183001643,42,3.92191381068995
"43",4.00869091705534,0.207430600452943,3.92864912907932,-0.127388812476927,1,"subseries 7",FALSE,43,0.523726560639266,43,3.92864912907932
"44",4.17114367979281,0.164836371463333,3.94546863185199,0.0608386764774873,1,"subseries 8",FALSE,44,0.432673430106511,44,3.94546863185199
"45",4.23079542993652,0.115723168772743,3.97577019697779,0.139302064185988,1,"subseries 9",FALSE,45,0.440977106452028,45,3.97577019697779
"46",4.01715725353724,-0.053163934692818,4.0145062859345,0.0558149022955563,1,"subseries 10",FALSE,46,0.501911401717795,46,4.0145062859345
"47",4.03801781873834,-0.157464073164061,4.03640645295543,0.15907543894697,1,"subseries 11",FALSE,47,0.464265936610302,47,4.03640645295543
"48",4.0972757063592,-0.256368725547106,4.05262268647607,0.301021745430233,1,"subseries 12",FALSE,48,0.547401802416265,48,4.05262268647607
"49",3.31982010007557,-0.594536279429437,4.04229346266232,-0.127937083157314,1,"subseries 1",FALSE,49,0.645243973447955,49,4.04229346266232
"50",4.28613273929105,-0.0655314762937584,3.9771175797634,0.374546635821412,1,"subseries 2",FALSE,50,0.462473334360536,50,3.9771175797634
"51",3.76416433630093,-0.192823703608529,3.86358406543698,0.0934039744724795,1,"subseries 3",FALSE,51,0.48110606730175,51,3.86358406543698
"52",3.85734168967204,0.109283939067665,3.68333865353903,0.064719097065348,1,"subseries 4",FALSE,52,0.459384401516459,52,3.68333865353903
"53",4.18286476148297,0.340101824645122,3.43445306227979,0.408309874558058,1,"subseries 5",FALSE,53,0.539158469902304,53,3.43445306227979
"54",4.24017719566127,0.382512288333904,3.15368429798505,0.703980609342321,1,"subseries 6",FALSE,54,0.588799079798198,54,3.15368429798505
"55",4.22759084932077,0.207430600452943,2.84436726602455,1.17579298284328,1,"subseries 7",FALSE,55,0.627881235965864,55,2.84436726602455
"56",2.07231512036707,0.164836371463333,2.54215692650256,-0.63467817759882,1,"subseries 8",FALSE,56,0.389145015035024,56,2.54215692650256
"57",1.69126359846069,0.115723168772743,2.24209963451848,-0.666559204830533,1,"subseries 9",FALSE,57,0.365109229517793,57,2.24209963451848
"58",1.38360724546882,-0.053163934692818,1.92898966236628,-0.492218482204645,1,"subseries 10",FALSE,58,0.181997064007986,58,1.92898966236628
"59",1.32697241331143,-0.157464073164061,1.61560726858863,-0.13117078211314,1,"subseries 11",FALSE,59,0.171006592049744,59,1.61560726858863
"60",0.865005130341344,-0.256368725547106,1.29689987948477,-0.175526023596321,1,"subseries 12",FALSE,60,0.179006481814551,60,1.29689987948477
"61",0.79762416571239,-0.594536279429437,0.977896192233185,0.414264252908641,1,"subseries 1",FALSE,61,0.0909582527218642,61,0.977896192233185
"62",0.833037850018596,-0.0655314762937584,0.661934836898451,0.236634489413903,1,"subseries 2",FALSE,62,0.0782561782337958,62,0.661934836898451
"63",NA,-0.192823703608529,0.346374195039232,NA,1,"subseries 3",TRUE,63,NA,63,NA
"64",NA,0.109283939067665,0.0356382391674849,NA,1,"subseries 4",TRUE,64,NA,64,NA
"65",NA,0.340101824645122,-0.274257871417945,NA,1,"subseries 5",TRUE,65,NA,65,NA
"66",NA,0.382512288333904,-0.580297195955206,NA,1,"subseries 6",TRUE,66,NA,66,NA
"67",NA,0.207430600452943,-0.885360633274097,NA,1,"subseries 7",TRUE,67,NA,67,NA
"68",NA,0.164836371463333,-1.18893960149538,NA,1,"subseries 8",TRUE,68,NA,68,NA
"69",NA,0.115723168772743,-1.49163030670902,NA,1,"subseries 9",TRUE,69,NA,69,NA
"70",NA,-0.053163934692818,-0.812107257704858,NA,1,"subseries 10",TRUE,70,NA,70,NA
"71",NA,-0.157464073164061,-0.0480930002406509,NA,1,"subseries 11",TRUE,71,NA,71,NA
"72",NA,-0.256368725547106,1.28686648903411,NA,1,"subseries 12",TRUE,72,NA,72,NA
"73",NA,-0.594536279429437,2.73979361617595,NA,1,"subseries 1",TRUE,73,NA,73,NA
"74",NA,-0.0655314762937583,3.00212537141364,NA,1,"subseries 2",TRUE,74,NA,74,NA
"75",NA,-0.192823703608529,3.28454699414993,NA,1,"subseries 3",TRUE,75,NA,75,NA
"76",NA,0.109283939067665,3.43233346294904,NA,1,"subseries 4",TRUE,76,NA,76,NA
"77",NA,0.340101824645122,3.5844761915553,NA,1,"subseries 5",TRUE,77,NA,77,NA
"78",NA,0.382512288333904,3.72939738835139,NA,1,"subseries 6",TRUE,78,NA,78,NA
"79",NA,0.207430600452943,3.87458064134412,NA,1,"subseries 7",TRUE,79,NA,79,NA
"80",NA,0.164836371463333,4.01706805017954,NA,1,"subseries 8",TRUE,80,NA,80,NA
"81",NA,0.115723168772743,4.15938924584485,NA,1,"subseries 9",TRUE,81,NA,81,NA
"82",NA,-0.053163934692818,4.30212712921533,NA,1,"subseries 10",TRUE,82,NA,82,NA
"83",NA,-0.157464073164061,4.44466687783667,NA,1,"subseries 11",TRUE,83,NA,83,NA
"84",NA,-0.256368725547106,4.58735291103212,NA,1,"subseries 12",TRUE,84,NA,84,NA
"85",NA,-0.594536279429437,4.7298649894666,NA,1,"subseries 1",TRUE,85,NA,85,NA
"86",NA,-0.0655314762937584,4.87232747852898,NA,1,"subseries 2",TRUE,86,NA,86,NA
"87",NA,-0.192823703608529,5.01464583998242,NA,1,"subseries 3",TRUE,87,NA,87,NA
"88",NA,0.109283939067665,5.15685845467672,NA,1,"subseries 4",TRUE,88,NA,88,NA
"89",NA,0.340101824645122,5.2989516625922,NA,1,"subseries 5",TRUE,89,NA,89,NA
"90",NA,0.382512288333904,5.44093168790693,NA,1,"subseries 6",TRUE,90,NA,90,NA
"91",5.11829426429583,0.207430600452943,5.58281007603033,-0.671946412187442,1,"subseries 7",FALSE,91,0.689731674324856,91,5.58281007603033
"92",6.24636949023547,0.164836371463333,5.72460351246929,0.356929606302842,1,"subseries 8",FALSE,92,0.633792095108767,92,5.72460351246929
"93",6.38301666506636,0.115723168772743,5.86630545174084,0.400988044552776,1,"subseries 9",FALSE,93,0.662173123479271,93,5.86630545174084
"94",6.36218109880805,-0.053163934692818,6.00796166570043,0.407383367800434,1,"subseries 10",FALSE,94,0.581556445714895,94,6.00796166570043
"95",6.19494931908065,-0.157464073164061,6.14952562998542,0.202887762259294,1,"subseries 11",FALSE,95,0.570732571783397,95,6.14952562998542
"96",5.7936181081819,-0.256368725547106,6.2908781187805,-0.240891285051495,1,"subseries 12",FALSE,96,0.582007820081005,96,6.2908781187805
"97",5.51196201406863,-0.594536279429437,6.43212748860357,-0.325629195105501,1,"subseries 1",FALSE,97,0.557864298607685,97,6.43212748860357
"98",6.40749200123296,-0.0655314762937584,6.57304841780479,-0.100024940278074,1,"subseries 2",FALSE,98,0.833984319413416,98,6.57304841780479
