"","raw","seasonal","trend","remainder","weights","sub.labels","interpolated","age","sigma","operating","power"
"1",173.555125296721,6.89913128829546,176.185102703412,-9.52910869498655,1,"subseries 1",FALSE,1,19.0156420705492,1,176.185102703412
"2",199.083265718357,18.4436733543715,175.281910610852,5.35768175313325,1,"subseries 2",FALSE,2,16.798461342223,2,175.281910610852
"3",200.191942437618,16.7767162344077,174.426976506884,8.98824969632605,1,"subseries 3",FALSE,3,19.8672750737442,3,174.426976506884
"4",191.698366755246,7.48262266849606,173.748232523293,10.4675115634565,1,"subseries 4",FALSE,4,15.4287078739449,4,173.748232523293
"5",182.953471292851,1.08684590697013,173.125545379553,8.74108000632745,1,"subseries 5",FALSE,5,11.4930077050154,5,173.125545379553
"6",145.026550148947,-10.8408771215667,172.649779905359,-16.7823526348451,1,"subseries 6",FALSE,6,61.5840600156974,6,172.649779905359
"7",142.445163637316,-14.1785883011533,172.253811403499,-15.6300594650298,1,"subseries 7",FALSE,7,57.0455463450871,7,172.253811403499
"8",160.99010998272,-10.413161950391,171.300493805723,0.102778127387637,1,"subseries 8",FALSE,8,19.6681896042241,8,171.300493805723
"9",164.719188729224,-8.96656474661061,170.89544535093,2.79030812490441,1,"subseries 9",FALSE,9,21.9180762741869,9,170.89544535093
"10",167.56858080476,-1.90053820584136,171.576138860224,-2.10701984962242,1,"subseries 10",FALSE,10,15.8536704025341,10,171.576138860224
"11",142.157721976895,-8.88253518919039,173.033119694434,-21.9928625283483,1,"subseries 11",FALSE,11,12.4786158152253,11,173.033119694434
"12",187.179333768988,4.49327606221251,175.072517500991,7.61354020578429,1,"subseries 12",FALSE,12,9.20076048139647,12,175.072517500991
"13",191.53995230796,6.89913128829546,177.167838480855,7.47298253880973,1,"subseries 1",FALSE,13,13.4139318372309,13,177.167838480855
"14",204.143117890701,18.4436733543715,179.182443922796,6.51700061353333,1,"subseries 2",FALSE,14,12.3576009254288,14,179.182443922796
"15",195.718107143782,16.7767162344077,180.896543893536,-1.95515298416169,1,"subseries 3",FALSE,15,11.9536926232581,15,180.896543893536
"16",189.473643248854,7.48262266849606,182.414554771748,-0.423534191389763,1,"subseries 4",FALSE,16,12.3141284661219,16,182.414554771748
"17",188.705519552064,1.08684590697013,183.273676361651,4.34499728344321,1,"subseries 5",FALSE,17,20.7267542737352,17,183.273676361651
"18",176.542871157445,-10.8408771215667,183.837288939819,3.54645933919255,1,"subseries 6",FALSE,18,10.7671627023074,18,183.837288939819
"19",173.880425889519,-14.1785883011533,184.187040827205,3.87197336346699,1,"subseries 7",FALSE,19,12.4763538547245,19,184.187040827205
"20",174.37764767284,-10.413161950391,184.453538089472,0.33727153375915,1,"subseries 8",FALSE,20,9.64422299083415,20,184.453538089472
"21",169.102017035586,-8.96656474661061,184.765873006642,-6.69729122444548,1,"subseries 9",FALSE,21,10.7309107068548,21,184.765873006642
"22",173.741764283342,-1.90053820584136,184.782785417868,-9.14048292868492,1,"subseries 10",FALSE,22,7.47754919638759,22,184.782785417868
"23",184.320339206788,-8.88253518919039,184.798966806113,8.4039075898653,1,"subseries 11",FALSE,23,9.70053923208083,23,184.798966806113
"24",187.409737602149,4.49327606221251,184.800238914512,-1.88377737457552,1,"subseries 12",FALSE,24,12.8678139246761,24,184.800238914512
"25",198.116975009473,6.89913128829546,184.891538667908,6.32630505326992,1,"subseries 1",FALSE,25,10.6844260030779,25,184.891538667908
"26",203.180999325468,18.4436733543715,185.120694582486,-0.383368611389216,1,"subseries 2",FALSE,26,9.60225458130295,26,185.120694582486
"27",201.623816469243,16.7767162344077,185.110069264926,-0.262969030090886,1,"subseries 3",FALSE,27,8.07458353602221,27,185.110069264926
"28",190.969708126213,7.48262266849606,184.616351905599,-1.12926644788243,1,"subseries 4",FALSE,28,11.7988107684041,28,184.616351905599
"29",183.573299507457,1.08684590697013,183.680687219678,-1.19423361919155,1,"subseries 5",FALSE,29,10.0571336289119,29,183.680687219678
"30",178.524854765517,-10.8408771215667,182.752817914058,6.61291397302597,1,"subseries 6",FALSE,30,11.2513779945691,30,182.752817914058
"31",174.42911155608,-14.1785883011533,181.811363590213,6.79633626702076,1,"subseries 7",FALSE,31,10.8240988853797,31,181.811363590213
"32",169.873335108584,-10.413161950391,181.023205542289,-0.736708483314032,1,"subseries 8",FALSE,32,15.4484855052098,32,181.023205542289
"33",164.035031833025,-8.96656474661061,180.299870019802,-7.29827344016624,1,"subseries 9",FALSE,33,33.7474770886916,33,180.299870019802
"34",163.454302747662,-1.90053820584136,179.354688916916,-13.9998479634122,1,"subseries 10",FALSE,34,16.0280138856433,34,179.354688916916
"35",179.201323593441,-8.88253518919039,178.537068448789,9.54679033384224,1,"subseries 11",FALSE,35,9.67906675646627,35,178.537068448789
"36",184.187080364429,4.49327606221251,177.939592691968,1.75421161024894,1,"subseries 12",FALSE,36,11.216167523323,36,177.939592691968
"37",184.425108326158,6.89913128829546,177.756620240501,-0.230643202638674,1,"subseries 1",FALSE,37,9.01508852602378,37,177.756620240501
"38",197.97852784685,18.4436733543715,178.035234881743,1.49961961073598,1,"subseries 2",FALSE,38,9.40110421281097,38,178.035234881743
"39",187.119126717412,16.7767162344077,178.430876095566,-8.088465612562,1,"subseries 3",FALSE,39,8.76195901907628,39,178.430876095566
"40",183.957832086251,7.48262266849606,178.47828067011,-2.00307125235497,1,"subseries 4",FALSE,40,10.1457342294002,40,178.47828067011
"41",180.398145975847,1.08684590697013,178.314008782897,0.997291285980083,1,"subseries 5",FALSE,41,17.3501888388149,41,178.314008782897
"42",172.82300151675,-10.8408771215667,177.995047866516,5.66883077180046,1,"subseries 6",FALSE,42,9.11629223011889,42,177.995047866516
"43",170.504562079381,-14.1785883011533,177.522385605887,7.16076477464708,1,"subseries 7",FALSE,43,10.1427628887948,43,177.522385605887
"44",168.368538468443,-10.413161950391,177.296812277761,1.4848881410725,1,"subseries 8",FALSE,44,8.88830242419047,44,177.296812277761
"45",167.833813703571,-8.96656474661061,176.845662438949,-0.0452839887670109,1,"subseries 9",FALSE,45,10.0487952500462,45,176.845662438949
"46",164.695782600136,-1.90053820584136,176.297622393975,-9.70130158799765,1,"subseries 10",FALSE,46,8.14490829700956,46,176.297622393975
"47",171.754140309993,-8.88253518919039,175.793480600607,4.84319489857663,1,"subseries 11",FALSE,47,11.0362692132384,47,175.793480600607
"48",175.609327099746,4.49327606221251,175.288343785437,-4.17229274790398,1,"subseries 12",FALSE,48,10.0353077113664,48,175.288343785437
"49",181.205731826853,6.89913128829546,175.242266627729,-0.935666089171576,1,"subseries 1",FALSE,49,9.17353739603537,49,175.242266627729
"50",190.541867153012,18.4436733543715,175.453047050998,-3.35485325235749,1,"subseries 2",FALSE,50,9.01027281598934,50,175.453047050998
"51",192.31647201172,16.7767162344077,175.935665497447,-0.395909720134227,1,"subseries 3",FALSE,51,7.05802738615142,51,175.935665497447
"52",183.335910617773,7.48262266849606,176.275275916762,-0.421987967485478,1,"subseries 4",FALSE,52,12.3943037667801,52,176.275275916762
"53",176.041239789026,1.08684590697013,176.410502132067,-1.45610825001074,1,"subseries 5",FALSE,53,12.6075218458451,53,176.410502132067
"54",172.098508963893,-10.8408771215667,176.433337616635,6.50604846882479,1,"subseries 6",FALSE,54,9.35269546111492,54,176.433337616635
"55",169.65564407012,-14.1785883011533,176.087568709255,7.74666366201799,1,"subseries 7",FALSE,55,7.75768739581051,55,176.087568709255
"56",166.864532256429,-10.413161950391,175.75588797243,1.52180623438986,1,"subseries 8",FALSE,56,8.94531955199837,56,175.75588797243
"57",166.967542476477,-8.96656474661061,175.106564092743,0.827543130344168,1,"subseries 9",FALSE,57,7.72374539866525,57,175.106564092743
"58",164.857117108035,-1.90053820584136,174.444981276939,-7.68732596306234,1,"subseries 10",FALSE,58,11.0842861193164,58,174.444981276939
"59",168.560111136007,-8.88253518919039,173.884809677657,3.55783664754051,1,"subseries 11",FALSE,59,11.4997916751496,59,173.884809677657
"60",173.046653439475,4.49327606221251,173.384101484715,-4.83072410745214,1,"subseries 12",FALSE,60,10.1489025808901,60,173.384101484715
"61",177.575409777498,6.89913128829546,173.443606161939,-2.7673276727364,1,"subseries 1",FALSE,61,8.80423230135909,61,173.443606161939
"62",183.943433463026,18.4436733543715,174.29099197788,-8.79123186922533,1,"subseries 2",FALSE,62,11.4502977499084,62,174.29099197788
"63",195.147956655123,16.7767162344077,176.069232693983,2.302007726732,1,"subseries 3",FALSE,63,10.0893785208288,63,176.069232693983
"64",181.55809941292,7.48262266849606,180.663113149336,-6.58763640491242,1,"subseries 4",FALSE,64,10.3476365369279,64,180.663113149336
"65",174.543116450408,1.08684590697013,186.452913241241,-12.9966426978033,1,"subseries 5",FALSE,65,10.203799937278,65,186.452913241241
"66",171.911999596399,-10.8408771215667,191.553180077322,-8.80030335935604,1,"subseries 6",FALSE,66,9.66030103527987,66,191.553180077322
"67",168.16245461368,-14.1785883011533,196.944738158248,-14.6036952434142,1,"subseries 7",FALSE,67,9.69192133955908,67,196.944738158248
"68",183.505497275981,-10.413161950391,202.332098021432,-8.41343879506047,1,"subseries 8",FALSE,68,16.8637318662342,68,202.332098021432
"69",203.473273454737,-8.96656474661061,207.857733731637,4.58210446971012,1,"subseries 9",FALSE,69,14.5158104820454,69,207.857733731637
"70",248.630028243229,-1.90053820584136,213.686430776581,36.8441356724892,1,"subseries 10",FALSE,70,31.4520407489599,70,213.686430776581
"71",201.146988540923,-8.88253518919039,219.629726694666,-9.60020296455292,1,"subseries 11",FALSE,71,31.4816950434732,71,219.629726694666
