"","raw","seasonal","trend","remainder","weights","sub.labels","interpolated","age","sigma","operating","power"
"1",59.8204765509004,-3.64641778935695,58.9749704338772,4.49192390638018,1,"subseries 1",FALSE,1,3.81152528072179,1,58.9749704338772
"2",58.3427019411866,-1.11864597196958,58.4633730492852,0.997974863871022,1,"subseries 2",FALSE,2,6.4417577373386,2,58.4633730492852
"3",55.7651164935387,-0.305107312903545,57.9681357092296,-1.89791190278739,1,"subseries 3",FALSE,3,3.84583819109205,3,57.9681357092296
"4",56.8799971693805,1.99891894400613,57.4894004370256,-2.60832221165124,1,"subseries 4",FALSE,4,2.97700615114429,4,57.4894004370256
"5",56.6168478861004,1.60434205615319,57.0349641732948,-2.02245834334757,1,"subseries 5",FALSE,5,3.38151852708565,5,57.0349641732948
"6",55.2811246688748,0.702313087241633,56.5507047908744,-1.97189320924126,1,"subseries 6",FALSE,6,3.52729258523471,6,56.5507047908744
"7",56.0391317421272,0.0849498783254364,56.127464229822,-0.173282366020281,1,"subseries 7",FALSE,7,3.00479798202848,7,56.127464229822
"8",56.0664132556469,-1.91821750555684,55.7490357500967,2.23559501110702,1,"subseries 8",FALSE,8,3.0630580306575,8,55.7490357500967
"9",54.0030519992997,-1.77253533767658,55.5068638154263,0.268723521549973,1,"subseries 9",FALSE,9,2.94186263038532,9,55.5068638154263
"10",55.2666088562983,0.503244176800207,55.4634398910095,-0.700075211511439,1,"subseries 10",FALSE,10,2.87950854727197,10,55.4634398910095
"11",54.7381345383749,1.33789353077519,55.3439579341129,-1.94371692651318,1,"subseries 11",FALSE,11,3.19209172078018,11,55.3439579341129
"12",55.3112096770058,2.52926224416173,55.0724906292547,-2.29054319641067,1,"subseries 12",FALSE,12,2.69990164117883,12,55.0724906292547
"13",55.9711224266458,-3.64641778935695,54.705027793976,4.91251242202671,1,"subseries 1",FALSE,13,3.31670651640797,13,54.705027793976
"14",55.5773222190859,-1.11864597196958,54.4677685739694,2.22819961708609,1,"subseries 2",FALSE,14,3.37779236353389,14,54.4677685739694
"15",54.7261573417933,-0.305107312903545,54.2789985877951,0.752266066901768,1,"subseries 3",FALSE,15,3.816749138094,15,54.2789985877951
"16",53.8852542054813,1.99891894400613,54.182237121151,-2.29590185967586,1,"subseries 4",FALSE,16,3.33726433799069,16,54.182237121151
"17",51.889173100977,1.60434205615319,54.1235247364349,-3.83869369161111,1,"subseries 5",FALSE,17,2.63091075554923,17,54.1235247364349
"18",52.3922379889657,0.702313087241633,53.7350500037019,-2.0451251019778,1,"subseries 6",FALSE,18,4.73851139356599,18,53.7350500037019
"19",55.7431167859927,0.0849498783254364,53.231239949401,2.4269269582663,1,"subseries 7",FALSE,19,2.94319492765468,19,53.231239949401
"20",53.0224220532376,-1.91821750555684,52.7852546384857,2.15538492030873,1,"subseries 8",FALSE,20,2.93633738772458,20,52.7852546384857
"21",53.2226607182621,-1.77253533767658,52.351091187491,2.64410486844766,1,"subseries 9",FALSE,21,3.42644309520216,21,52.351091187491
"22",55.4343583360015,0.503244176800207,52.222972179072,2.70814198012929,1,"subseries 10",FALSE,22,2.81053465276205,22,52.222972179072
"23",53.5094087939543,1.33789353077519,52.1448408760992,0.0266743870799502,1,"subseries 11",FALSE,23,2.85124907579488,23,52.1448408760992
"24",NA,2.52926224416173,51.9877579412236,NA,1,"subseries 12",TRUE,24,NA,24,NA
"25",32.9562803940082,-3.64641778935695,51.8404819934007,-15.2377838100355,1,"subseries 1",FALSE,25,16.3991926002293,25,51.8404819934007
"26",55.0749934264106,-1.11864597196958,51.4539534706729,4.73968592770725,1,"subseries 2",FALSE,26,3.04585273951905,26,51.4539534706729
"27",53.5992424552947,-0.305107312903545,51.1600907523891,2.74425901580914,1,"subseries 3",FALSE,27,3.33068704233436,27,51.1600907523891
"28",54.7000020607585,1.99891894400613,50.9981165688395,1.70296654791285,1,"subseries 4",FALSE,28,3.59523393635963,28,50.9981165688395
"29",54.2304474121937,1.60434205615319,50.9349922100652,1.69111314597533,1,"subseries 5",FALSE,29,3.51423008816965,29,50.9349922100652
"30",53.3966860861765,0.702313087241633,51.1841476158583,1.51022538307659,1,"subseries 6",FALSE,30,2.99849012570723,30,51.1841476158583
"31",49.8551711044003,0.0849498783254364,51.4319510526814,-1.66172982660657,1,"subseries 7",FALSE,31,2.91592663615392,31,51.4319510526814
"32",42.7430736218088,-1.91821750555684,51.5915181819241,-6.93022705455849,1,"subseries 8",FALSE,32,4.45965651236378,32,51.5915181819241
"33",53.3267472592126,-1.77253533767658,51.7992024866186,3.30008011027059,1,"subseries 9",FALSE,33,2.95106986042099,33,51.7992024866186
"34",53.7381513217056,0.503244176800207,51.9693890014226,1.26551814348277,1,"subseries 10",FALSE,34,3.14990949528001,34,51.9693890014226
"35",51.1506253732352,1.33789353077519,52.266546284329,-2.45381444186903,1,"subseries 11",FALSE,35,2.68624377992918,35,52.266546284329
"36",52.5716194312797,2.52926224416173,52.5241941591678,-2.48183697204988,1,"subseries 12",FALSE,36,2.85510986077797,36,52.5241941591678
"37",52.2770022875466,-3.64641778935695,52.6463954731762,3.27702460372731,1,"subseries 1",FALSE,37,2.84916190732272,37,52.6463954731762
"38",55.465217611474,-1.11864597196958,52.6839311887313,3.89993239471232,1,"subseries 2",FALSE,38,3.77551104368322,38,52.6839311887313
"39",54.3919695557831,-0.305107312903545,52.4553201461023,2.24175672258432,1,"subseries 3",FALSE,39,3.61805510930863,39,52.4553201461023
"40",54.7452766374514,1.99891894400613,52.2386680344919,0.507689658953339,1,"subseries 4",FALSE,40,3.28239706158539,40,52.2386680344919
"41",53.4096165842592,1.60434205615319,51.9065470540912,-0.101272525985152,1,"subseries 5",FALSE,41,3.22426576552514,41,51.9065470540912
"42",51.9409500249506,0.702313087241633,51.5758148255558,-0.337177887846842,1,"subseries 6",FALSE,42,2.97630192357231,42,51.5758148255558
"43",48.765779339393,0.0849498783254364,51.3350551602578,-2.65422569919019,1,"subseries 7",FALSE,43,3.11665665102383,43,51.3350551602578
"44",46.7164870191302,-1.91821750555684,51.101401963161,-2.46669743847398,1,"subseries 8",FALSE,44,2.23701711598854,44,51.101401963161
"45",46.0122444359747,-1.77253533767658,51.1686674802114,-3.38388770656009,1,"subseries 9",FALSE,45,4.35220357715247,45,51.1686674802114
"46",54.2301730287675,0.503244176800207,51.2892617157286,2.43766713623872,1,"subseries 10",FALSE,46,2.49184805915012,46,51.2892617157286
"47",51.5604301303536,1.33789353077519,51.5344302563383,-1.31189365675986,1,"subseries 11",FALSE,47,2.95204185891366,47,51.5344302563383
"48",52.273312615049,2.52926224416173,51.7932068743889,-2.04915650350167,1,"subseries 12",FALSE,48,2.73220292020747,48,51.7932068743889
"49",53.4844137121679,-3.64641778935695,51.9315539005219,5.19927760100297,1,"subseries 1",FALSE,49,3.17891885126353,49,51.9315539005219
"50",52.8111923083895,-1.11864597196958,52.1867021192013,1.74313616115782,1,"subseries 2",FALSE,50,3.39971029476558,50,52.1867021192013
"51",54.1032595638658,-0.305107312903545,52.3075342313851,2.10083264538428,1,"subseries 3",FALSE,51,3.15420195311186,51,52.3075342313851
"52",52.884034056109,1.99891894400613,52.3971402142255,-1.51202510212264,1,"subseries 4",FALSE,52,3.27666353135003,52,52.3971402142255
"53",52.9324743375299,1.60434205615319,52.4472070884499,-1.11907480707321,1,"subseries 5",FALSE,53,3.00266674655056,53,52.4472070884499
"54",49.9487928124801,0.702313087241633,52.043392226823,-2.79691250158456,1,"subseries 6",FALSE,54,2.65418141520133,54,52.043392226823
"55",51.8670090350137,0.0849498783254364,51.3893505873799,0.392708569308326,1,"subseries 7",FALSE,55,4.04143335427632,55,51.3893505873799
"56",51.8848386199425,-1.91821750555684,49.8719335548953,3.93112257060405,1,"subseries 8",FALSE,56,2.93684395751529,56,49.8719335548953
"57",52.0954765031908,-1.77253533767658,47.5991885756319,6.26882326523548,1,"subseries 9",FALSE,57,3.35932210957898,57,47.5991885756319
"58",53.0683666853385,0.503244176800207,45.8277372071285,6.73738530140979,1,"subseries 10",FALSE,58,2.58378417631787,58,45.8277372071285
"59",52.1597918789455,1.33789353077519,43.8328633205463,6.98903502762405,1,"subseries 11",FALSE,59,2.786534876112,59,43.8328633205463
"60",53.0289287346326,2.52926224416173,42.5608990348497,7.9387674556212,1,"subseries 12",FALSE,60,3.32811458222198,60,42.5608990348497
"61",18.0089054028968,-3.64641778935695,41.9154203853167,-20.260097193063,1,"subseries 1",FALSE,61,2.87367992161798,61,41.9154203853167
"62",16.9377489156513,-1.11864597196958,40.869864109314,-22.8134692216931,1,"subseries 2",FALSE,62,2.92355109438472,62,40.869864109314
"63",28.2655455094236,-0.305107312903545,40.6730110422867,-12.1023582199595,1,"subseries 3",FALSE,63,17.4779155940392,63,40.6730110422867
"64",51.0369736054515,1.99891894400613,40.3956688125811,8.64238584886428,1,"subseries 4",FALSE,64,3.67264488700778,64,40.3956688125811
"65",51.3765386564487,1.60434205615319,40.71372796109,9.05846863920549,1,"subseries 5",FALSE,65,3.30370646691049,65,40.71372796109
"66",49.6303182273939,0.702313087241633,42.1766885974126,6.75131654273972,1,"subseries 6",FALSE,66,2.78611924619933,66,42.1766885974126
"67",46.7969491580001,0.0849498783254364,43.5880831743162,3.12391610535849,1,"subseries 7",FALSE,67,2.76976305902924,67,43.5880831743162
"68",41.1959291965854,-1.91821750555684,45.4389423265779,-2.32479562443562,1,"subseries 8",FALSE,68,2.11493420990822,68,45.4389423265779
"69",40.1295122147155,-1.77253533767658,46.9171178720162,-5.01507031962415,1,"subseries 9",FALSE,69,2.6892806438908,69,46.9171178720162
"70",43.0821991303646,0.503244176800207,47.4976355277314,-4.91868057416704,1,"subseries 10",FALSE,70,4.17255266665614,70,47.4976355277314
"71",51.5467449929883,1.33789353077519,48.1156659330606,2.09318552915251,1,"subseries 11",FALSE,71,2.74336296039564,71,48.1156659330606
"72",51.7288437511979,2.52926224416173,48.5352205461708,0.664360960865359,1,"subseries 12",FALSE,72,3.13148283693306,72,48.5352205461708
"73",49.2513974225307,-3.64641778935695,48.8627101324453,4.03510507944232,1,"subseries 1",FALSE,73,3.25625322363793,73,48.8627101324453
"74",53.351425068081,-1.11864597196958,49.305364829054,5.16470621099658,1,"subseries 2",FALSE,74,3.45116465640268,74,49.305364829054
"75",51.4686227931678,-0.305107312903545,49.3477008609296,2.42602924514173,1,"subseries 3",FALSE,75,3.71373664519885,75,49.3477008609296
"76",50.6605733741041,1.99891894400613,49.196667873346,-0.535013443248033,1,"subseries 4",FALSE,76,4.00606415606434,76,49.196667873346
"77",50.2244392343086,1.60434205615319,48.7266261135173,-0.106528935361929,1,"subseries 5",FALSE,77,3.20963186730515,77,48.7266261135173
"78",48.858657093896,0.702313087241633,48.221380195445,-0.0650361887905859,1,"subseries 6",FALSE,78,3.37926058246805,78,48.221380195445
"79",46.9231873423245,0.0849498783254364,47.900131691456,-1.06189422745692,1,"subseries 7",FALSE,79,2.18050640695376,79,47.900131691456
"80",44.8393554629014,-1.91821750555684,47.7456091114436,-0.988036142985372,1,"subseries 8",FALSE,80,2.15893487566615,80,47.7456091114436
"81",40.6576636312546,-1.77253533767658,48.019828207753,-5.58962923882179,1,"subseries 9",FALSE,81,2.21860218598502,81,48.019828207753
"82",43.0427292448251,0.503244176800207,48.2806979676426,-5.74121289961769,1,"subseries 10",FALSE,82,5.31389653958239,82,48.2806979676426
"83",51.0135770124156,1.33789353077519,48.7302433440153,0.945440137625134,1,"subseries 11",FALSE,83,2.50166872478401,83,48.7302433440153
"84",53.1265532081453,2.52926224416173,49.2107494475284,1.38654151645515,1,"subseries 12",FALSE,84,2.84928962887488,84,49.2107494475284
"85",51.328777066994,-3.64641778935695,49.6408469863403,5.33434787001062,1,"subseries 1",FALSE,85,3.02145446894572,85,49.6408469863403
"86",52.8200155779732,-1.11864597196958,50.3234123698791,3.61524918006369,1,"subseries 2",FALSE,86,3.21418366455867,86,50.3234123698791
"87",51.0198914062025,-0.305107312903545,50.8120246361481,0.512974082957946,1,"subseries 3",FALSE,87,3.74122771076232,87,50.8120246361481
"88",51.2075277127273,1.99891894400613,51.1988294317477,-1.99022066302653,1,"subseries 4",FALSE,88,3.86587610238527,88,51.1988294317477
"89",51.3550562644474,1.60434205615319,51.4097294954386,-1.65901528714439,1,"subseries 5",FALSE,89,3.53754577084233,89,51.4097294954386
"90",50.8843404380281,0.702313087241633,51.2614311051743,-1.07940375438788,1,"subseries 6",FALSE,90,3.94042187440389,90,51.2614311051743
"91",52.0962412182397,0.0849498783254364,51.1060394756102,0.90525186430402,1,"subseries 7",FALSE,91,3.73710562120572,91,51.1060394756102
"92",50.8156989281701,-1.91821750555684,50.9924813982625,1.74143503546441,1,"subseries 8",FALSE,92,3.22065031394213,92,50.9924813982625
"93",49.821491749425,-1.77253533767658,50.9074198243017,0.686607262799875,1,"subseries 9",FALSE,93,3.18036322547312,93,50.9074198243017
"94",52.6112833446505,0.503244176800207,50.8899922655916,1.21804690225873,1,"subseries 10",FALSE,94,2.90573422916142,94,50.8899922655916
"95",50.7418315658884,1.33789353077519,50.783199377008,-1.37926134189484,1,"subseries 11",FALSE,95,3.01083330044427,95,50.783199377008
"96",50.5618188908599,2.52926224416173,50.5399679475113,-2.50741130081315,1,"subseries 12",FALSE,96,2.89852331983547,96,50.5399679475113
"97",49.4676956006217,-3.64641778935695,50.2284917410702,2.88562164890846,1,"subseries 1",FALSE,97,3.00467308530271,97,50.2284917410702
"98",48.9776930445093,-1.11864597196958,49.898375733658,0.197963282820837,1,"subseries 2",FALSE,98,3.33450469760198,98,49.898375733658
"99",50.7500962520233,-0.305107312903545,49.5859483433884,1.46925522153846,1,"subseries 3",FALSE,99,3.28078730606121,99,49.5859483433884
"100",50.3355859475428,1.99891894400613,49.357345618328,-1.02067861479133,1,"subseries 4",FALSE,100,3.52755929864326,100,49.357345618328
"101",49.0341197501875,1.60434205615319,49.1526952977385,-1.72291760370415,1,"subseries 5",FALSE,101,3.68888078550175,101,49.1526952977385
"102",49.8439722587028,0.702313087241633,48.9547945498256,0.186864621635536,1,"subseries 6",FALSE,102,3.93556467688274,102,48.9547945498256
"103",47.6937792983665,0.0849498783254364,48.8312346094424,-1.22240518940138,1,"subseries 7",FALSE,103,3.07786179847714,103,48.8312346094424
"104",46.8675500157519,-1.91821750555684,48.7767162922658,0.0090512290429885,1,"subseries 8",FALSE,104,3.00783357531955,104,48.7767162922658
"105",47.2421127382517,-1.77253533767658,48.8549026738178,0.159745402110481,1,"subseries 9",FALSE,105,3.06121049926923,105,48.8549026738178
"106",49.1624982805274,0.503244176800207,48.9128437061523,-0.253589602425059,1,"subseries 10",FALSE,106,2.8607751789876,106,48.9128437061523
"107",49.1730793932031,1.33789353077519,48.9287496792396,-1.09356381681165,1,"subseries 11",FALSE,107,2.70523155457401,107,48.9287496792396
"108",50.2372871847705,2.52926224416173,48.8632879012208,-1.15526296061205,1,"subseries 12",FALSE,108,2.67785337970034,108,48.8632879012208
"109",50.1258604195606,-3.64641778935695,48.6712769592551,5.10100124966244,1,"subseries 1",FALSE,109,2.52278527963238,109,48.6712769592551
"110",49.1009560217131,-1.11864597196958,48.5277718764813,1.69183011720138,1,"subseries 2",FALSE,110,3.16167046420375,110,48.5277718764813
"111",48.0978368187543,-0.305107312903545,48.3052323577636,0.0977117738942823,1,"subseries 3",FALSE,111,3.07380769997349,111,48.3052323577636
"112",48.3032985751821,1.99891894400613,47.9426467875964,-1.63826715642041,1,"subseries 4",FALSE,112,3.3681424999176,112,47.9426467875964
"113",48.3331152435576,1.60434205615319,47.5052233776445,-0.776450190240105,1,"subseries 5",FALSE,113,3.2304108316129,113,47.5052233776445
"114",47.1651366293695,0.702313087241633,46.9988544934691,-0.536030951341246,1,"subseries 6",FALSE,114,3.20225685105076,114,46.9988544934691
"115",46.4362106644783,0.0849498783254364,46.4496975632573,-0.0984367771043893,1,"subseries 7",FALSE,115,3.26619844532554,115,46.4496975632573
"116",46.894480898118,-1.91821750555684,45.8936336186685,2.91906478500638,1,"subseries 8",FALSE,116,2.79689544077594,116,45.8936336186685
"117",44.7170537131004,-1.77253533767658,45.3478919593917,1.1416970913853,1,"subseries 9",FALSE,117,2.63918805536969,117,45.3478919593917
"118",43.2254517460903,0.503244176800207,44.8188512331097,-2.09664366381965,1,"subseries 10",FALSE,118,2.39109268712036,118,44.8188512331097
"119",44.3860396581571,1.33789353077519,44.2952967856406,-1.24715065825868,1,"subseries 11",FALSE,119,2.88742866296613,119,44.2952967856406
"120",47.4424389178587,2.52926224416173,43.7636075120418,1.14956916165516,1,"subseries 12",FALSE,120,2.7205083455526,120,43.7636075120418
"121",NA,-3.64641778935695,43.2334225230616,NA,1,"subseries 1",TRUE,121,NA,121,NA
"122",39.9711910891609,-1.11864597196958,42.6990343556968,-1.60919729456636,1,"subseries 2",FALSE,122,15.3098020414684,122,42.6990343556968
"123",43.2531563729864,-0.305107312903545,42.1650538567396,1.39320982915035,1,"subseries 3",FALSE,123,7.62989045001977,123,42.1650538567396
