"","raw","seasonal","trend","remainder","weights","sub.labels","interpolated","age","sigma","operating","power"
"1",220.968315661437,-13.0693567374759,260.85729314826,-26.8196207493466,1,"subseries 1",FALSE,1,16.4398175245731,1,260.85729314826
"2",234.279419656307,-22.8259392057819,262.308261394815,-5.2029025327264,1,"subseries 2",FALSE,2,24.1046001187332,2,262.308261394815
"3",271.838085468806,-11.2850481564074,263.677910467453,19.4452231577606,1,"subseries 3",FALSE,3,14.7914885920716,3,263.677910467453
"4",255.79673642729,-26.8636734387432,264.912422445447,17.747987420586,1,"subseries 4",FALSE,4,14.2668886967443,4,264.912422445447
"5",244.453351277371,-2.89240854569515,266.033030253382,-18.6872704303154,1,"subseries 5",FALSE,5,22.7937064816902,5,266.033030253382
"6",293.586693995311,11.9588624005007,267.023185197684,14.6046463971268,1,"subseries 6",FALSE,6,7.09323081419631,6,267.023185197684
"7",299.29392863609,22.1282595210018,267.806704855491,9.35896425959754,1,"subseries 7",FALSE,7,5.97844818066186,7,267.806704855491
"8",290.338872846827,26.6564958908142,268.338607912283,-4.65623095627058,1,"subseries 8",FALSE,8,12.3295429400528,8,268.338607912283
"9",285.023191981782,12.9831334713129,268.401335065934,3.63872344453466,1,"subseries 9",FALSE,9,9.95798189023325,9,268.401335065934
"10",278.722425340418,5.67576897807893,267.627929774947,5.41872658739175,1,"subseries 10",FALSE,10,11.0339746111664,10,267.627929774947
"11",272.647863190026,0.284599143354651,266.318470590702,6.04479345596945,1,"subseries 11",FALSE,11,14.2902164621566,11,266.318470590702
"12",273.907760058113,-2.75069332095961,265.46976596641,11.1886874126626,1,"subseries 12",FALSE,12,12.6260460027654,12,265.46976596641
"13",NA,-13.0693567374759,264.694336406899,NA,1,"subseries 1",TRUE,13,NA,13,NA
"14",NA,-22.8259392057819,264.160223679869,NA,1,"subseries 2",TRUE,14,NA,14,NA
"15",NA,-11.2850481564074,263.960668376946,NA,1,"subseries 3",TRUE,15,NA,15,NA
"16",187.680233633846,-26.8636734387432,263.206097986424,-48.6621909138346,1,"subseries 4",FALSE,16,46.7445368549311,16,263.206097986424
"17",282.484349516374,-2.89240854569515,263.031706421837,22.3450516402319,1,"subseries 5",FALSE,17,22.6439092050197,17,263.031706421837
"18",266.516635885561,11.9588624005007,262.284781241434,-7.72700775637409,1,"subseries 6",FALSE,18,11.9849851084517,18,262.284781241434
"19",280.158822285012,22.1282595210018,262.317231992508,-4.28666922849811,1,"subseries 7",FALSE,19,9.46528400811214,19,262.317231992508
"20",295.175409572636,26.6564958908142,263.704236290187,4.8146773916348,1,"subseries 8",FALSE,20,9.61047242189231,20,263.704236290187
"21",284.4082173185,12.9831334713129,265.275517156516,6.14956669067061,1,"subseries 9",FALSE,21,8.78804315078951,21,265.275517156516
"22",274.453517262919,5.67576897807893,267.822310540794,0.955437744046321,1,"subseries 10",FALSE,22,12.910114717252,22,267.822310540794
"23",273.92045107663,0.284599143354651,269.991377819028,3.64447411424692,1,"subseries 11",FALSE,23,11.4372848046593,23,269.991377819028
"24",262.588588790692,-2.75069332095961,271.582131159196,-6.24284904754489,1,"subseries 12",FALSE,24,12.7511213004381,24,271.582131159196
"25",277.33138020292,-13.0693567374759,272.890446366487,17.5102905739085,1,"subseries 1",FALSE,25,18.4029596244142,25,272.890446366487
"26",239.954644633471,-22.8259392057819,273.57190535776,-10.7913215185069,1,"subseries 2",FALSE,26,17.62387238322,26,273.57190535776
"27",249.454230243553,-11.2850481564074,273.901960521237,-13.1626821212766,1,"subseries 3",FALSE,27,9.36002482061055,27,273.901960521237
"28",264.705968315046,-26.8636734387432,273.912413926455,17.6572278273343,1,"subseries 4",FALSE,28,12.4474751235015,28,273.912413926455
"29",281.145316730899,-2.89240854569515,273.610371800045,10.4273534765497,1,"subseries 5",FALSE,29,12.0130367090575,29,273.610371800045
"30",280.10748540879,11.9588624005007,273.536654954149,-5.38803194586012,1,"subseries 6",FALSE,30,7.82418818285374,30,273.536654954149
"31",292.094430106977,22.1282595210018,273.466453633713,-3.5002830477377,1,"subseries 7",FALSE,31,8.41223607988751,31,273.466453633713
"32",302.063370778233,26.6564958908142,273.901636498464,1.50523838895487,1,"subseries 8",FALSE,32,6.66660132611349,32,273.901636498464
"33",279.534169450427,12.9831334713129,274.808248029632,-8.25721205051815,1,"subseries 9",FALSE,33,10.9930958366851,33,274.808248029632
"34",276.468794315105,5.67576897807893,275.897463199352,-5.10443786232571,1,"subseries 10",FALSE,34,16.8491311310609,34,275.897463199352
"35",268.774545133762,0.284599143354651,277.236756727052,-8.74681073664436,1,"subseries 11",FALSE,35,12.2186083884879,35,277.236756727052
"36",271.062198842491,-2.75069332095961,278.188435255698,-4.37554309224703,1,"subseries 12",FALSE,36,13.4835997780728,36,278.188435255698
"37",274.901103578626,-13.0693567374759,279.144494361531,8.8259659545713,1,"subseries 1",FALSE,37,15.2205348697287,37,279.144494361531
"38",272.837328902321,-22.8259392057819,280.262242023862,15.4010260842408,1,"subseries 2",FALSE,38,12.7015234435327,38,280.262242023862
"39",263.27334713622,-11.2850481564074,281.400248870651,-6.84185357802403,1,"subseries 3",FALSE,39,20.765885950586,39,281.400248870651
"40",269.084016567838,-26.8636734387432,282.640323029982,13.3073669765996,1,"subseries 4",FALSE,40,13.0861920307475,40,282.640323029982
"41",266.949854129769,-2.89240854569515,283.899373900538,-14.0571112250736,1,"subseries 5",FALSE,41,9.1492757087443,41,283.899373900538
