"","raw","seasonal","trend","remainder","weights","sub.labels","interpolated","age","sigma","operating","power"
"1",145.612904330284,15.1615010448316,128.147705169036,2.30369811641611,1,"subseries 1",FALSE,1,43.86445828169,1,128.147705169036
"2",150.056920463505,16.4535147215764,128.848157807281,4.75524793464757,1,"subseries 2",FALSE,2,43.6971372684693,2,128.848157807281
"3",149.159236126949,15.0753874975309,129.582177306842,4.5016713225757,1,"subseries 3",FALSE,3,45.2029190511063,3,129.582177306842
"4",131.252095277506,7.30253517655802,130.394407437285,-6.44484733633743,1,"subseries 4",FALSE,4,44.4127988410445,4,130.394407437285
"5",130.899505714937,3.50515369419733,131.246552576379,-3.85220055563923,1,"subseries 5",FALSE,5,36.7292415014777,5,131.246552576379
"6",130.763817415869,-0.398145078387267,132.067213318576,-0.905250824319808,1,"subseries 6",FALSE,6,37.2390650096463,6,132.067213318576
"7",118.253262265913,-9.35796211146465,132.972913031545,-5.36168865416721,1,"subseries 7",FALSE,7,27.9504446092828,7,132.972913031545
"8",114.686149780201,-16.6966464923593,133.732632746616,-2.34983647405562,1,"subseries 8",FALSE,8,21.0279124510579,8,133.732632746616
"9",116.524107291859,-16.2314962074317,134.755362741272,-1.99975924198139,1,"subseries 9",FALSE,9,21.8069707816879,9,134.755362741272
"10",123.054908364143,-13.1822708404999,135.784304002023,0.452875202620106,1,"subseries 10",FALSE,10,31.552238108492,10,135.784304002023
"11",135.487887665321,-8.27972811504772,136.393029202999,7.37458657737002,1,"subseries 11",FALSE,11,39.4587172653011,11,136.393029202999
"12",152.994933514993,6.64815671049635,136.774904829688,9.57187197480889,1,"subseries 12",FALSE,12,41.4862506225065,12,136.774904829688
"13",156.105111906537,15.1615010448316,136.439369448394,4.50424141331129,1,"subseries 1",FALSE,13,42.5132693430488,13,136.439369448394
"14",154.196037234799,16.4535147215764,136.089496859327,1.65302565389592,1,"subseries 2",FALSE,14,45.9513289580057,14,136.089496859327
"15",147.409536079531,15.0753874975309,135.364845996788,-3.03069741478836,1,"subseries 3",FALSE,15,40.392412077531,15,135.364845996788
"16",144.848980388602,7.30253517655802,134.580323036762,2.96612217528155,1,"subseries 4",FALSE,16,43.0334286822593,16,134.580323036762
"17",129.321729381679,3.50515369419733,134.132387046886,-8.31581135940399,1,"subseries 5",FALSE,17,39.5588018513131,17,134.132387046886
"18",128.166418959193,-0.398145078387267,133.524191947841,-4.95962791026096,1,"subseries 6",FALSE,18,31.1517468266309,18,133.524191947841
"19",115.219159295409,-9.35796211146465,133.463240976692,-8.88611956981788,1,"subseries 7",FALSE,19,27.2253477549879,19,133.463240976692
"20",115.94959859062,-16.6966464923593,133.57562535996,-0.929380276980453,1,"subseries 8",FALSE,20,23.8569330797056,20,133.57562535996
"21",127.987534349625,-16.2314962074317,133.939454666998,10.2795758900587,1,"subseries 9",FALSE,21,19.0144559859629,21,133.939454666998
"22",123.895057614854,-13.1822708404999,134.900494775449,2.17683367990495,1,"subseries 10",FALSE,22,29.5535284073891,22,134.900494775449
"23",123.011288351697,-8.27972811504772,135.966968015324,-4.67595154857895,1,"subseries 11",FALSE,23,33.002993698442,23,135.966968015324
"24",147.067113984077,6.64815671049635,137.163176947089,3.25578032649136,1,"subseries 12",FALSE,24,42.8899650619367,24,137.163176947089
"25",151.390062943836,15.1615010448316,138.225171652228,-1.9966097532232,1,"subseries 1",FALSE,25,46.7792736732422,25,138.225171652228
"26",149.274938109467,16.4535147215764,138.797372782949,-5.97594939505839,1,"subseries 2",FALSE,26,40.4676923755127,26,138.797372782949
"27",153.676113562902,15.0753874975309,139.261264879092,-0.660538813720535,1,"subseries 3",FALSE,27,42.4904997050924,27,139.261264879092
"28",155.429867534073,7.30253517655802,139.596441761968,8.53089059554654,1,"subseries 4",FALSE,28,46.184277289576,28,139.596441761968
"29",151.64094865356,3.50515369419733,139.711587244429,8.42420771493349,1,"subseries 5",FALSE,29,42.1627837840401,29,139.711587244429
"30",132.39973014476,-0.398145078387267,139.586135790842,-6.78826056769481,1,"subseries 6",FALSE,30,36.6409970400199,30,139.586135790842
"31",134.765807390038,-9.35796211146465,138.921609049546,5.20216045195679,1,"subseries 7",FALSE,31,28.956226381677,31,138.921609049546
"32",120.016403771248,-16.6966464923593,137.886330822437,-1.17328055882956,1,"subseries 8",FALSE,32,26.8083813206854,32,137.886330822437
"33",125.867422036246,-16.2314962074317,136.384549239061,5.71436900461694,1,"subseries 9",FALSE,33,15.4507530842784,33,136.384549239061
"34",127.278948077489,-13.1822708404999,134.657056132338,5.80416278565122,1,"subseries 10",FALSE,34,16.0746860074627,34,134.657056132338
"35",118.971412693026,-8.27972811504772,132.876202530767,-5.62506172269316,1,"subseries 11",FALSE,35,29.3622403954063,35,132.876202530767
"36",134.492310194166,6.64815671049635,131.295301709235,-3.45114822556548,1,"subseries 12",FALSE,36,37.3636033935759,36,131.295301709235
"37",147.658300323431,15.1615010448316,129.918381081071,2.57841819752818,1,"subseries 1",FALSE,37,43.4896415799492,37,129.918381081071
"38",135.562734420379,16.4535147215764,128.521815827308,-9.41259612850531,1,"subseries 2",FALSE,38,40.8685585617675,38,128.521815827308
"39",145.846439239416,15.0753874975309,127.517804348879,3.25324739300618,1,"subseries 3",FALSE,39,43.2740250889336,39,127.517804348879
"40",128.388770961794,7.30253517655802,126.795024278425,-5.70878849318878,1,"subseries 4",FALSE,40,39.9092578317592,40,126.795024278425
"41",129.248712881987,3.50515369419733,126.429330152725,-0.685770964935571,1,"subseries 5",FALSE,41,40.7170564802017,41,126.429330152725
"42",131.756161110412,-0.398145078387267,126.415743368009,5.73856282079016,1,"subseries 6",FALSE,42,35.6747736215636,42,126.415743368009
"43",112.76294706686,-9.35796211146465,126.555402788151,-4.43449360982611,1,"subseries 7",FALSE,43,31.0888184111248,43,126.555402788151
"44",110.487796106988,-16.6966464923593,126.723671210196,0.46077138915139,1,"subseries 8",FALSE,44,24.2371383654507,44,126.723671210196
"45",107.908588987306,-16.2314962074317,126.864124773774,-2.72403957903676,1,"subseries 9",FALSE,45,13.726086621234,45,126.864124773774
"46",116.504900207907,-13.1822708404999,127.072907448803,2.61426359960373,1,"subseries 10",FALSE,46,25.4637207804416,46,127.072907448803
"47",121.464788120314,-8.27972811504772,127.270971133165,2.47354510219716,1,"subseries 11",FALSE,47,33.9146143151297,47,127.270971133165
"48",133.122110179795,6.64815671049635,127.415132925953,-0.941179456654595,1,"subseries 12",FALSE,48,34.1258982271407,48,127.415132925953
"49",144.193116904362,15.1615010448316,127.523226247013,1.5083896125177,1,"subseries 1",FALSE,49,43.9897596000258,49,127.523226247013
"50",140.930582954675,16.4535147215764,127.514153323195,-3.0370850900965,1,"subseries 2",FALSE,50,41.3942516697489,50,127.514153323195
"51",139.370677789017,15.0753874975309,127.384438558432,-3.08914826694603,1,"subseries 3",FALSE,51,41.8286705434858,51,127.384438558432
"52",143.345982956408,7.30253517655802,127.113209739821,8.93023804002887,1,"subseries 4",FALSE,52,41.0310015153238,52,127.113209739821
"53",NA,3.50515369419733,126.712240723611,NA,1,"subseries 5",TRUE,53,NA,53,NA
"54",120.780326028277,-0.398145078387267,126.275365796763,-5.09689469009847,1,"subseries 6",FALSE,54,33.7933715535246,54,126.275365796763
"55",121.414619069304,-9.35796211146465,125.728656860285,5.04392432048388,1,"subseries 7",FALSE,55,33.0695863117163,55,125.728656860285
"56",113.253675927884,-16.6966464923593,125.327814407376,4.62250801286717,1,"subseries 8",FALSE,56,26.0877560417117,56,125.327814407376
"57",103.152482325646,-16.2314962074317,124.93749717555,-5.55351864247201,1,"subseries 9",FALSE,57,19.516759207103,57,124.93749717555
"58",109.83593757561,-13.1822708404999,124.497876472585,-1.47966805647502,1,"subseries 10",FALSE,58,20.9856905520384,58,124.497876472585
"59",118.238273771346,-8.27972811504772,124.216273933235,2.30172795315869,1,"subseries 11",FALSE,59,33.9226113767305,59,124.216273933235
"60",124.050029059488,6.64815671049635,123.943347514991,-6.54147516599895,1,"subseries 12",FALSE,60,34.0155077013442,60,123.943347514991
"61",133.939661472894,15.1615010448316,123.796686203348,-5.01852577528562,1,"subseries 1",FALSE,61,39.547787200115,61,123.796686203348
"62",144.835989174203,16.4535147215764,123.602286770234,4.78018768239259,1,"subseries 2",FALSE,62,41.5057650989201,62,123.602286770234
"63",142.663721811739,15.0753874975309,123.505814255808,4.08252005839991,1,"subseries 3",FALSE,63,41.3721361004816,63,123.505814255808
"64",126.772137293594,7.30253517655802,123.574096132905,-4.10449401586855,1,"subseries 4",FALSE,64,38.5457688920577,64,123.574096132905
"65",131.067572251702,3.50515369419733,123.508928016852,4.05349054065304,1,"subseries 5",FALSE,65,42.3295478117904,65,123.508928016852
"66",125.5061049867,-0.398145078387267,123.539648779512,2.36460128557485,1,"subseries 6",FALSE,66,35.0640732807439,66,123.539648779512
"67",111.849374271285,-9.35796211146465,123.47421406913,-2.26687768638025,1,"subseries 7",FALSE,67,31.1639943637941,67,123.47421406913
"68",105.308413883006,-16.6966464923593,123.265767132214,-1.26070675684828,1,"subseries 8",FALSE,68,26.0423042738811,68,123.265767132214
"69",107.284308492477,-16.2314962074317,123.120857102202,0.394947597706619,1,"subseries 9",FALSE,69,17.5451734106607,69,123.120857102202
"70",105.178235326429,-13.1822708404999,122.956696312282,-4.59619014535271,1,"subseries 10",FALSE,70,22.1577883770156,70,122.956696312282
"71",117.793641140251,-8.27972811504772,122.877238310618,3.19613094468072,1,"subseries 11",FALSE,71,32.2620173805866,71,122.877238310618
"72",129.790765086478,6.64815671049635,123.10571604921,0.0368923267719765,1,"subseries 12",FALSE,72,35.4721361312698,72,123.10571604921
"73",137.483370530986,15.1615010448316,123.612399165144,-1.29052967898951,1,"subseries 1",FALSE,73,42.550212577131,73,123.612399165144
"74",139.86064823635,16.4535147215764,124.298207031713,-0.891073516939002,1,"subseries 2",FALSE,74,40.8036812642021,74,124.298207031713
"75",138.833728098392,15.0753874975309,125.128973265314,-1.37063266445297,1,"subseries 3",FALSE,75,40.4461627033269,75,125.128973265314
"76",127.884626260975,7.30253517655802,125.438946601989,-4.85685551757247,1,"subseries 4",FALSE,76,39.1477399222089,76,125.438946601989
"77",128.379572096933,3.50515369419733,125.439063706925,-0.56464530418954,1,"subseries 5",FALSE,77,38.012353196867,77,125.439063706925
"78",130.422836074366,-0.398145078387267,125.304442229483,5.51653892327019,1,"subseries 6",FALSE,78,35.6825390190199,78,125.304442229483
"79",133.068777952952,-9.35796211146465,124.773984849713,17.6527552147034,1,"subseries 7",FALSE,79,34.8530345283683,79,124.773984849713
"80",108.64355898889,-16.6966464923593,124.593290455756,0.746915025492868,1,"subseries 8",FALSE,80,28.3414545506626,80,124.593290455756
"81",101.891439452336,-16.2314962074317,124.214915157308,-6.09197949753994,1,"subseries 9",FALSE,81,20.2771955878676,81,124.214915157308
"82",105.327308232424,-13.1822708404999,123.60394236905,-5.0943632961263,1,"subseries 10",FALSE,82,18.9178346550926,82,123.60394236905
"83",109.599661256995,-8.27972811504772,123.046784347009,-5.16739497496606,1,"subseries 11",FALSE,83,26.5905871246279,83,123.046784347009
"84",127.073617627149,6.64815671049635,122.408392859868,-1.98293194321511,1,"subseries 12",FALSE,84,36.4411984521252,84,122.408392859868
"85",134.859448143541,15.1615010448316,121.906408250945,-2.20846115223529,1,"subseries 1",FALSE,85,39.8792564077109,85,121.906408250945
"86",146.496438489204,16.4535147215764,121.296870995377,8.74605277225052,1,"subseries 2",FALSE,86,40.6314104030796,86,121.296870995377
"87",132.893482890322,15.0753874975309,120.702029802766,-2.8839344099745,1,"subseries 3",FALSE,87,37.7935358900022,87,120.702029802766
"88",129.082266513442,7.30253517655802,120.183847620211,1.59588371667307,1,"subseries 4",FALSE,88,38.482748900448,88,120.183847620211
"89",124.919582458491,3.50515369419733,119.678224288958,1.73620447533543,1,"subseries 5",FALSE,89,40.3696036256143,89,119.678224288958
"90",123.748280823445,-0.398145078387267,119.21361948918,4.93280641265194,1,"subseries 6",FALSE,90,37.5450332356579,90,119.21361948918
"91",103.134817976506,-9.35796211146465,118.75833748851,-6.26555740053931,1,"subseries 7",FALSE,91,27.9084276432953,91,118.75833748851
