"","raw","seasonal","trend","remainder","weights","sub.labels","interpolated","age","sigma","operating","power"
"1",171.873582790212,6.69680250740188,170.226509025236,-5.0497287424258,1,"subseries 1",FALSE,1,18.962999745999,1,170.226509025236
"2",165.320564982501,12.1036788276006,171.374005071714,-18.1571189168131,1,"subseries 2",FALSE,2,13.7415663286087,2,171.374005071714
"3",195.322966954903,15.3541051883183,172.487229114958,7.48163265162623,1,"subseries 3",FALSE,3,19.7350730090939,3,172.487229114958
"4",194.49832076286,7.75716894946421,173.554661067276,13.1864907461199,1,"subseries 4",FALSE,4,13.275612892799,4,173.554661067276
"5",182.096446874416,0.583584188003769,174.581216095945,6.93164659046712,1,"subseries 5",FALSE,5,10.030338687675,5,174.581216095945
"6",174.893021064537,-6.97291508668841,175.778719420458,6.08721673076727,1,"subseries 6",FALSE,6,11.0026846315138,6,175.778719420458
"7",173.555283987943,-10.6210884335265,176.855570060732,7.32080236073773,1,"subseries 7",FALSE,7,8.35744740559032,7,176.855570060732
"8",156.091729508893,-12.7854887507981,177.946158612003,-9.06894035231224,1,"subseries 8",FALSE,8,18.3391802541297,8,177.946158612003
"9",163.937911433984,-12.5403882268966,178.738671124303,-2.26037146342256,1,"subseries 9",FALSE,9,19.2048837831502,9,178.738671124303
"10",163.151247691694,-2.5913168556585,178.810125025525,-13.0675604781721,1,"subseries 10",FALSE,10,22.757233285309,10,178.810125025525
"11",179.426605479715,-0.713939925241789,179.295892613483,0.844652791474033,1,"subseries 11",FALSE,11,7.36068800331678,11,179.295892613483
"12",186.555893232727,3.72979761802109,179.991481679543,2.83461393516279,1,"subseries 12",FALSE,12,7.0400332221555,12,179.991481679543
"13",190.294444909518,6.69680250740188,180.958227483937,2.63941491817869,1,"subseries 1",FALSE,13,12.2994910584969,13,180.958227483937
"14",200.324245506841,12.1036788276006,182.374579327113,5.84598735212725,1,"subseries 2",FALSE,14,8.78331700153986,14,182.374579327113
"15",195.166493678314,15.3541051883183,183.646122878782,-3.83373438878627,1,"subseries 3",FALSE,15,9.17546652074558,15,183.646122878782
"16",190.289987287167,7.75716894946421,184.666003999034,-2.13318566133137,1,"subseries 4",FALSE,16,12.8432630265942,16,184.666003999034
"17",189.764113468048,0.583584188003769,185.318898159261,3.86163112078316,1,"subseries 5",FALSE,17,20.3358254823994,17,185.318898159261
"18",179.128694587022,-6.97291508668841,185.729434744915,0.372174928794919,1,"subseries 6",FALSE,18,6.84043053493572,18,185.729434744915
"19",176.816628024078,-10.6210884335265,186.08178148108,1.3559349765242,1,"subseries 7",FALSE,19,9.10665376124322,19,186.08178148108
"20",177.45651737878,-12.7854887507981,186.676072609054,3.56593352052371,1,"subseries 8",FALSE,20,7.26506051907625,20,186.676072609054
"21",173.856472028071,-12.5403882268966,187.393875853626,-0.99701559865818,1,"subseries 9",FALSE,21,6.31270112605039,21,187.393875853626
"22",176.774192150073,-2.5913168556585,187.90193890342,-8.53642989768872,1,"subseries 10",FALSE,22,4.966892180663,22,187.90193890342
"23",186.636664919763,-0.713939925241789,188.392051290002,-1.04144644499706,1,"subseries 11",FALSE,23,7.52205322758908,23,188.392051290002
"24",191.850702715774,3.72979761802109,188.584697684747,-0.463792586994202,1,"subseries 12",FALSE,24,9.72162652981376,24,188.584697684747
"25",202.005470008186,6.69680250740188,188.678749363827,6.62991813695726,1,"subseries 1",FALSE,25,9.14133176584553,25,188.678749363827
"26",207.015652020659,12.1036788276006,188.818560731929,6.09341246112928,1,"subseries 2",FALSE,26,8.23863974059857,26,188.818560731929
"27",204.737085139863,15.3541051883183,188.658595243119,0.724384708425248,1,"subseries 3",FALSE,27,6.5246516055326,27,188.658595243119
"28",196.015806515146,7.75716894946421,188.273423485369,-0.0147859196875402,1,"subseries 4",FALSE,28,7.74075875981362,28,188.273423485369
"29",186.80620212403,0.583584188003769,187.392280166203,-1.16966223017693,1,"subseries 5",FALSE,29,6.46896584425556,29,187.392280166203
"30",180.747860840581,-6.97291508668841,186.24151431633,1.47926161093935,1,"subseries 6",FALSE,30,9.91798159566337,30,186.24151431633
"31",177.279277509701,-10.6210884335265,185.024594454842,2.87577148838523,1,"subseries 7",FALSE,31,7.65365113164459,31,185.024594454842
"32",175.667939812839,-12.7854887507981,183.893411853126,4.56001671051106,1,"subseries 8",FALSE,32,11.6132918889811,32,183.893411853126
"33",160.17556070088,-12.5403882268966,182.967660104442,-10.2517111766651,1,"subseries 9",FALSE,33,12.4768599813491,33,182.967660104442
"34",175.987757216188,-2.5913168556585,182.033960301299,-3.45488622945226,1,"subseries 10",FALSE,34,9.41330532808501,34,182.033960301299
"35",180.509506010478,-0.713939925241789,181.253698663155,-0.0302527274354532,1,"subseries 11",FALSE,35,7.22176054894022,35,181.253698663155
"36",185.92892362015,3.72979761802109,180.553950193705,1.64517580842406,1,"subseries 12",FALSE,36,9.69891607739634,36,180.553950193705
"37",185.586089136395,6.69680250740188,180.080061156107,-1.19077452711434,1,"subseries 1",FALSE,37,8.88161246132317,37,180.080061156107
"38",197.872107781918,12.1036788276006,179.866183177133,5.90224577718445,1,"subseries 2",FALSE,38,8.20366252613973,38,179.866183177133
"39",189.635616280007,15.3541051883183,179.686724993779,-5.40521390208986,1,"subseries 3",FALSE,39,6.40729023669073,39,179.686724993779
"40",185.142428295787,7.75716894946421,179.392313033165,-2.00705368684262,1,"subseries 4",FALSE,40,7.28179699128113,40,179.392313033165
"41",182.350169238468,0.583584188003769,178.910786551736,2.85579849872798,1,"subseries 5",FALSE,41,15.4588360805566,41,178.910786551736
"42",173.611484785957,-6.97291508668841,178.342981632456,2.24141824018901,1,"subseries 6",FALSE,42,5.92676421974148,42,178.342981632456
"43",167.804751775763,-10.6210884335265,177.7378074378,0.688032771489844,1,"subseries 7",FALSE,43,8.60242915995958,43,177.7378074378
"44",165.606731340171,-12.7854887507981,177.429164295552,0.963055795417034,1,"subseries 8",FALSE,44,6.25171906168791,44,177.429164295552
"45",166.164307028229,-12.5403882268966,177.268086089417,1.43660916570889,1,"subseries 9",FALSE,45,7.04715535145499,45,177.268086089417
"46",165.952495056997,-2.5913168556585,177.162907196358,-8.61909528370245,1,"subseries 10",FALSE,46,7.6749569843891,46,177.162907196358
"47",175.172490925235,-0.713939925241789,177.273645603754,-1.38721475327731,1,"subseries 11",FALSE,47,7.59643437897665,47,177.273645603754
"48",178.352366703049,3.72979761802109,177.335259742293,-2.71269065726466,1,"subseries 12",FALSE,48,11.2654493756631,48,177.335259742293
"49",184.919877510702,6.69680250740188,177.644792352637,0.578282650663567,1,"subseries 1",FALSE,49,6.19430866261127,49,177.644792352637
"50",193.655500091963,12.1036788276006,178.104810216692,3.44701104767091,1,"subseries 2",FALSE,50,7.93855397698083,50,178.104810216692
"51",194.758224534803,15.3541051883183,178.567290892499,0.836828453985731,1,"subseries 3",FALSE,51,6.12576524117252,51,178.567290892499
"52",186.894847620897,7.75716894946421,178.944158334492,0.193520336940566,1,"subseries 4",FALSE,52,8.74748981566642,52,178.944158334492
"53",179.934076709099,0.583584188003769,178.951126228203,0.399366292892608,1,"subseries 5",FALSE,53,8.74291978130062,53,178.951126228203
"54",174.095322196155,-6.97291508668841,178.742797156283,2.32544012656086,1,"subseries 6",FALSE,54,6.50704918046142,54,178.742797156283
"55",172.285737755413,-10.6210884335265,178.251773112583,4.65505307635604,1,"subseries 7",FALSE,55,5.06733515801358,55,178.251773112583
"56",167.103526397903,-12.7854887507981,177.852411605394,2.03660354330697,1,"subseries 8",FALSE,56,64.5872186390767,56,177.852411605394
"57",162.223229565595,-12.5403882268966,177.509689953005,-2.74607216051328,1,"subseries 9",FALSE,57,29.9380301665714,57,177.509689953005
"58",170.381574915266,-2.5913168556585,177.250745608464,-4.27785383753934,1,"subseries 10",FALSE,58,6.84824761454821,58,177.250745608464
"59",172.863693649844,-0.713939925241789,177.247443316302,-3.66980974121608,1,"subseries 11",FALSE,59,7.06902638039068,59,177.247443316302
"60",178.401453489114,3.72979761802109,177.215628717521,-2.54397284642818,1,"subseries 12",FALSE,60,5.93701653360517,60,177.215628717521
"61",182.587131939977,6.69680250740188,177.547337927053,-1.65700849447799,1,"subseries 1",FALSE,61,7.79219868572996,61,177.547337927053
"62",190.441105397817,12.1036788276006,178.744336967068,-0.406910396851629,1,"subseries 2",FALSE,62,10.4372994281281,62,178.744336967068
"63",198.742219410827,15.3541051883183,180.699697720593,2.68841650191601,1,"subseries 3",FALSE,63,8.97776902707456,63,180.699697720593
"64",185.959641565895,7.75716894946421,185.729742737958,-7.52727012152681,1,"subseries 4",FALSE,64,7.1049710786841,64,185.729742737958
"65",179.555117565878,0.583584188003769,192.113057982693,-13.1415246048186,1,"subseries 5",FALSE,65,8.15728310114413,65,192.113057982693
"66",175.752463635928,-6.97291508668841,197.791801579246,-15.0664228566297,1,"subseries 6",FALSE,66,7.46022247460967,66,197.791801579246
"67",171.672531155008,-10.6210884335265,203.834778667613,-21.5411590790785,1,"subseries 7",FALSE,67,6.93036269052432,67,203.834778667613
"68",188.709180966205,-12.7854887507981,209.810720597884,-8.31605088088111,1,"subseries 8",FALSE,68,16.8571655656794,68,209.810720597884
"69",211.590481023273,-12.5403882268966,215.955371641419,8.1754976087507,1,"subseries 9",FALSE,69,10.6453492784241,69,215.955371641419
"70",251.092317156264,-2.5913168556585,222.438791424067,31.2448425878558,1,"subseries 10",FALSE,70,31.4927304951144,70,222.438791424067
"71",227.659109763438,-0.713939925241789,229.060430075773,-0.687380387092929,1,"subseries 11",FALSE,71,28.7309850942361,71,229.060430075773
