"","raw","seasonal","trend","remainder","weights","sub.labels","interpolated","age","sigma","operating","power"
"1",88.0413425871592,4.04245374199289,89.2188230846094,-5.21993423944311,1,"subseries 1",FALSE,1,19.8978443221464,1,89.2188230846094
"2",100.843471475685,10.3922469745726,89.6355180880566,0.815706413055764,1,"subseries 2",FALSE,2,10.2318528929381,2,89.6355180880566
"3",102.01147682858,7.33291271347318,90.0529188614972,4.62564525360965,1,"subseries 3",FALSE,3,9.13341222828624,3,90.0529188614972
"4",99.2610533848426,4.59248106947383,90.5005839808778,4.16798833449097,1,"subseries 4",FALSE,4,9.68184333349951,4,90.5005839808778
"5",87.0399494943386,-1.93820954358519,90.9453520045998,-1.96719296667605,1,"subseries 5",FALSE,5,4.20063194471479,5,90.9453520045998
"6",89.4878034872069,-2.73692736033975,91.4337384530119,0.790992394534726,1,"subseries 6",FALSE,6,4.69153553431092,6,91.4337384530119
"7",85.9643233778999,-3.92540698209098,91.9037240712346,-2.01399371124371,1,"subseries 7",FALSE,7,3.44526274309805,7,91.9037240712346
"8",86.3004721591006,-4.2634990009016,92.2243907743904,-1.66041961438816,1,"subseries 8",FALSE,8,2.75770509814121,8,92.2243907743904
"9",87.9216587228037,-4.00632546581298,92.5928868646038,-0.664902675987108,1,"subseries 9",FALSE,9,3.98558416310626,9,92.5928868646038
"10",87.237565985958,-5.26641653419913,92.9490454213846,-0.445062901227487,1,"subseries 10",FALSE,10,4.06033229869192,10,92.9490454213846
"11",89.3204596796105,-3.80875177311535,93.3560228243961,-0.226811371670308,1,"subseries 11",FALSE,11,6.13424570637632,11,93.3560228243961
"12",93.5766462354492,-0.414557839467551,93.6661218609365,0.325082213980281,1,"subseries 12",FALSE,12,8.66458683275698,12,93.6661218609365
"13",98.3811653388079,4.04245374199289,93.7602083343514,0.57850326246357,1,"subseries 1",FALSE,13,7.75137549622966,13,93.7602083343514
"14",111.210591560306,10.3922469745726,93.8347005943222,6.9836439914112,1,"subseries 2",FALSE,14,10.0875389378219,14,93.8347005943222
"15",101.970491363011,7.33291271347318,93.6692116767854,0.968366972752392,1,"subseries 3",FALSE,15,12.4071487712592,15,93.6692116767854
"16",98.410140270533,4.59248106947383,93.4543669082694,0.363292292789765,1,"subseries 4",FALSE,16,8.36099277640443,16,93.4543669082694
"17",89.0456549441586,-1.93820954358519,93.1075607210172,-2.12369623327344,1,"subseries 5",FALSE,17,5.66804354621504,17,93.1075607210172
"18",88.043285258904,-2.73692736033975,92.6520337100843,-1.87182109084054,1,"subseries 6",FALSE,18,4.31294303313615,18,92.6520337100843
"19",87.7396752896931,-3.92540698209098,92.2841843383002,-0.619102066516106,1,"subseries 7",FALSE,19,2.83784410458077,19,92.2841843383002
"20",87.3108694139385,-4.2634990009016,91.9704158245346,-0.396047409694518,1,"subseries 8",FALSE,20,2.71308373872206,20,91.9704158245346
"21",87.3351194563975,-4.00632546581298,91.9196836701705,-0.578238747960015,1,"subseries 9",FALSE,21,2.59982136298868,21,91.9196836701705
"22",85.3883977693266,-5.26641653419913,91.9820751511414,-1.32726084761566,1,"subseries 10",FALSE,22,3.93846439631961,22,91.9820751511414
"23",86.4711723683593,-3.80875177311535,92.1225803760758,-1.84265623460117,1,"subseries 11",FALSE,23,6.87713338955932,23,92.1225803760758
"24",92.6084891512423,-0.414557839467551,92.2678556120914,0.755191378618406,1,"subseries 12",FALSE,24,10.3258904574441,24,92.2678556120914
"25",97.3299344039901,4.04245374199289,92.3654939092669,0.921986752730348,1,"subseries 1",FALSE,25,11.2458122426337,25,92.3654939092669
"26",106.858799610094,10.3922469745726,92.539517586043,3.92703504947839,1,"subseries 2",FALSE,26,9.9281612939976,26,92.539517586043
"27",99.9534755823493,7.33291271347318,92.6653115102484,-0.0447486413723226,1,"subseries 3",FALSE,27,9.1711726675861,27,92.6653115102484
"28",95.497039588061,4.59248106947383,92.8152193415636,-1.91066082297641,1,"subseries 4",FALSE,28,9.500072947912,28,92.8152193415636
"29",90.5293539388994,-1.93820954358519,92.9241521553108,-0.456588672826229,1,"subseries 5",FALSE,29,5.6223168917604,29,92.9241521553108
"30",88.973589366114,-2.73692736033975,92.923544680357,-1.21302795390328,1,"subseries 6",FALSE,30,8.47362990219069,30,92.923544680357
"31",89.4128048027888,-3.92540698209098,92.9615308865797,0.376680898300037,1,"subseries 7",FALSE,31,4.58025149227718,31,92.9615308865797
"32",89.0931163928442,-4.2634990009016,92.9226321231577,0.433983270588115,1,"subseries 8",FALSE,32,8.84227645233422,32,92.9226321231577
"33",89.3024094449179,-4.00632546581298,92.8714337457207,0.437301165010211,1,"subseries 9",FALSE,33,3.70889322196801,33,92.8714337457207
"34",87.5790613756585,-5.26641653419913,92.841266335356,0.00421157450163889,1,"subseries 10",FALSE,34,4.79462572825891,34,92.841266335356
"35",90.3909860425037,-3.80875177311535,92.6988474774532,1.5008903381658,1,"subseries 11",FALSE,35,6.61182013183517,35,92.6988474774532
"36",93.1554142149145,-0.414557839467551,92.6523981144463,0.917573939935721,1,"subseries 12",FALSE,36,8.7873870589088,36,92.6523981144463
"37",97.6382877207257,4.04245374199289,92.6309400466741,0.964893932058743,1,"subseries 1",FALSE,37,9.14275632617076,37,92.6309400466741
"38",100.464493300952,10.3922469745726,92.6035803385021,-2.53133401212271,1,"subseries 2",FALSE,38,9.71844666430989,38,92.6035803385021
"39",98.4130677978896,7.33291271347318,92.6582827923985,-1.57812770798212,1,"subseries 3",FALSE,39,9.92056616741477,39,92.6582827923985
"40",94.5632659423823,4.59248106947383,92.6194001795645,-2.64861530665604,1,"subseries 4",FALSE,40,7.65546606280003,40,92.6194001795645
"41",90.4913205753021,-1.93820954358519,92.6373313941765,-0.207801275289185,1,"subseries 5",FALSE,41,5.82118175078619,41,92.6373313941765
"42",94.012834682914,-2.73692736033975,92.695786169493,4.05397587376078,1,"subseries 6",FALSE,42,13.8225812093945,42,92.695786169493
"43",89.6755337129783,-3.92540698209098,92.7575236873706,0.84341700769869,1,"subseries 7",FALSE,43,11.8023744995335,43,92.7575236873706
"44",88.4978897268674,-4.2634990009016,92.8484248200525,-0.0870360922834692,1,"subseries 8",FALSE,44,4.24752499021894,44,92.8484248200525
"45",88.311901188684,-4.00632546581298,92.7823008069532,-0.464074152456263,1,"subseries 9",FALSE,45,4.41836740236384,45,92.7823008069532
"46",87.8773477425503,-5.26641653419913,92.6513755393436,0.492388737405847,1,"subseries 10",FALSE,46,5.19384979574973,46,92.6513755393436
"47",89.1746511126911,-3.80875177311535,92.4481188612595,0.535284024546925,1,"subseries 11",FALSE,47,5.8018198220901,47,92.4481188612595
"48",91.8155702396356,-0.414557839467551,92.2757215963641,-0.0455935172608974,1,"subseries 12",FALSE,48,8.81956963672512,48,92.2757215963641
"49",98.4158771802609,4.04245374199289,92.2227314912792,2.15069194698886,1,"subseries 1",FALSE,49,8.92333425451297,49,92.2227314912792
"50",97.9345979367798,10.3922469745726,92.2384554275791,-4.69610446537196,1,"subseries 2",FALSE,50,8.87346892422378,50,92.2384554275791
"51",96.6024420814506,7.33291271347318,92.3662188583756,-3.09668949039818,1,"subseries 3",FALSE,51,9.0463185212558,51,92.3662188583756
"52",97.4393733408027,4.59248106947383,92.4410356240536,0.4058566472753,1,"subseries 4",FALSE,52,9.74838695572756,52,92.4410356240536
"53",93.7769297718952,-1.93820954358519,92.578477225318,3.13666209016236,1,"subseries 5",FALSE,53,7.48384545443901,53,92.578477225318
"54",88.8651102730877,-2.73692736033975,92.7135596886748,-1.11152205524735,1,"subseries 6",FALSE,54,5.56740911684639,54,92.7135596886748
"55",90.4077755014522,-3.92540698209098,92.7706293627977,1.56255312074551,1,"subseries 7",FALSE,55,3.59232320570207,55,92.7706293627977
"56",89.845182225443,-4.2634990009016,92.8302829256744,1.2783983006702,1,"subseries 8",FALSE,56,3.96834050041069,56,92.8302829256744
"57",89.3885586436071,-4.00632546581298,92.6866274808151,0.708256628605014,1,"subseries 9",FALSE,57,3.73073497424667,57,92.6866274808151
"58",88.4242547134979,-5.26641653419913,92.4773647012783,1.21330654641876,1,"subseries 10",FALSE,58,4.35032969178139,58,92.4773647012783
"59",88.4640410880875,-3.80875177311535,92.2210250838928,0.0517677773100615,1,"subseries 11",FALSE,59,8.67079014083267,59,92.2210250838928
"60",89.6886922020205,-0.414557839467551,91.9807053086437,-1.87745526715568,1,"subseries 12",FALSE,60,8.16397648228326,60,91.9807053086437
"61",96.8184417839212,4.04245374199289,91.8251842821247,0.950803759803591,1,"subseries 1",FALSE,61,9.18109385178759,61,91.8251842821247
"62",98.0293298965458,10.3922469745726,91.767168714102,-4.13008579212887,1,"subseries 2",FALSE,62,8.82258199335433,62,91.767168714102
"63",98.5916078934839,7.33291271347318,91.788300324172,-0.529605144161252,1,"subseries 3",FALSE,63,9.34192849204918,63,91.788300324172
"64",96.3222200816555,4.59248106947383,91.7782687982907,-0.0485297861090714,1,"subseries 4",FALSE,64,8.6362566820867,64,91.7782687982907
"65",91.7276587015252,-1.93820954358519,91.7930877083766,1.87278053673377,1,"subseries 5",FALSE,65,12.8272288907997,65,91.7930877083766
"66",88.5852727691935,-2.73692736033975,91.827548564096,-0.505348434562734,1,"subseries 6",FALSE,66,8.89068155199348,66,91.827548564096
"67",87.8275193338801,-3.92540698209098,91.875398282038,-0.122471966066925,1,"subseries 7",FALSE,67,4.05620602352596,67,91.875398282038
"68",88.0436104819098,-4.2634990009016,91.9437051493908,0.363404333420632,1,"subseries 8",FALSE,68,2.57992152791049,68,91.9437051493908
"69",88.48910888775,-4.00632546581298,92.0214403421147,0.473994011448269,1,"subseries 9",FALSE,69,2.53678057928746,69,92.0214403421147
