"","raw","seasonal","trend","remainder","weights","sub.labels","interpolated","age","sigma","operating","power"
"1",79.8820778253277,-20.0210018627257,107.395248860878,-7.49216917282472,1,"subseries 1",FALSE,1,14.4235672099091,1,107.395248860878
"2",99.9612454707655,-9.71471457971031,106.451591782949,3.22436826752673,1,"subseries 2",FALSE,2,8.66911590417756,2,106.451591782949
"3",111.279714440305,-0.0808639557857423,105.517865680505,5.84271271558565,1,"subseries 3",FALSE,3,6.08860860574771,3,105.517865680505
"4",119.900972204299,12.6263589106325,104.640371525541,2.63424176812518,1,"subseries 4",FALSE,4,6.6238029403428,4,104.640371525541
"5",128.600361183988,26.5793900353458,103.773515224147,-1.75254407550457,1,"subseries 5",FALSE,5,7.391752504641,5,103.773515224147
"6",139.555882633307,30.9468190891339,102.991879053449,5.61718449072363,1,"subseries 6",FALSE,6,7.23138552208643,6,102.991879053449
"7",116.874924869537,18.4397394562841,102.215714227812,-3.78052881455875,1,"subseries 7",FALSE,7,7.57324606496175,7,102.215714227812
"8",103.218333261623,5.38155327247024,101.240444762284,-3.40366477313151,1,"subseries 8",FALSE,8,7.81097467721724,8,101.240444762284
"9",90.2099661737442,-5.60323989678449,100.426759263559,-4.61355319303031,1,"subseries 9",FALSE,9,7.59706769555766,9,100.426759263559
"10",83.579228739511,-14.059425972957,100.249344707949,-2.61068999548098,1,"subseries 10",FALSE,10,6.88822354842385,10,100.249344707949
"11",73.8917437298118,-19.9992924934515,100.715044567735,-6.82400834447168,1,"subseries 11",FALSE,11,5.78478254306551,11,100.715044567735
"12",80.4386372739709,-24.4953220024519,101.226176802972,3.70778247345108,1,"subseries 12",FALSE,12,5.65788852728836,12,101.226176802972
"13",79.5660188083597,-20.0210018627257,101.948810180389,-2.36178950930375,1,"subseries 1",FALSE,13,6.26403414310678,13,101.948810180389
"14",89.2166820164121,-9.71471457971031,102.485561654259,-3.55416505813639,1,"subseries 2",FALSE,14,6.83039532959262,14,102.485561654259
"15",108.10939560409,-0.0808639557857423,102.573784065415,5.61647549446087,1,"subseries 3",FALSE,15,15.9508012903533,15,102.573784065415
"16",128.227264876897,12.6263589106325,102.6409616648,12.9599443014648,1,"subseries 4",FALSE,16,6.65426481607209,16,102.6409616648
"17",135.695536672798,26.5793900353458,102.151871061689,6.96427557576276,1,"subseries 5",FALSE,17,7.49620924926184,17,102.151871061689
"18",130.912939436541,30.9468190891339,101.703532707483,-1.73741236007642,1,"subseries 6",FALSE,18,7.47647882443965,18,101.703532707483
"19",113.836485335793,18.4397394562841,101.025719377525,-5.62897349801572,1,"subseries 7",FALSE,19,8.26664717129084,19,101.025719377525
"20",102.658447021138,5.38155327247024,99.9316147572737,-2.65472100860596,1,"subseries 8",FALSE,20,8.37364292202524,20,99.9316147572737
"21",90.3771255098658,-5.60323989678449,98.9059049545851,-2.9255395479348,1,"subseries 9",FALSE,21,7.78936191803616,21,98.9059049545851
"22",79.2441647292269,-14.059425972957,97.1822523337043,-3.87866163152043,1,"subseries 10",FALSE,22,5.99558934736533,22,97.1822523337043
"23",81.1671954117688,-19.9992924934515,95.3889832434657,5.77750466175461,1,"subseries 11",FALSE,23,6.14802968167565,23,95.3889832434657
"24",72.7698683458281,-24.4953220024519,93.674185785243,3.59100456303698,1,"subseries 12",FALSE,24,6.01292135799043,24,93.674185785243
"25",79.0754483069411,-20.0210018627257,91.4889999222233,7.60745024744354,1,"subseries 1",FALSE,25,6.04618127404047,25,91.4889999222233
"26",86.4246926587623,-9.71471457971031,89.6287816648756,6.51062557359698,1,"subseries 2",FALSE,26,7.97223703469539,26,89.6287816648756
"27",87.3931433485461,-0.0808639557857423,87.54662459846,-0.0726172941281789,1,"subseries 3",FALSE,27,13.0336789549063,27,87.54662459846
"28",90.1321654281653,12.6263589106325,85.5090382495242,-8.00323173199143,1,"subseries 4",FALSE,28,7.43909969037982,28,85.5090382495242
"29",103.925164794158,26.5793900353458,83.8031079643982,-6.45733320558601,1,"subseries 5",FALSE,29,6.59412658415478,29,83.8031079643982
"30",105.141961597772,30.9468190891339,81.8993414868647,-7.70419897822666,1,"subseries 6",FALSE,30,5.61626550063987,30,81.8993414868647
"31",98.4061333611129,18.4397394562841,80.6030251818547,-0.636631277025884,1,"subseries 7",FALSE,31,6.05440057417712,31,80.6030251818547
"32",84.9197599801833,5.38155327247024,79.6710437829296,-0.132837075216514,1,"subseries 8",FALSE,32,6.61352978120692,32,79.6710437829296
"33",73.892794024409,-5.60323989678449,79.1754115205884,0.320622400605131,1,"subseries 9",FALSE,33,7.34808269201943,33,79.1754115205884
"34",68.3607055888178,-14.059425972957,79.4633780615098,2.95675350026492,1,"subseries 10",FALSE,34,7.4395975744219,34,79.4633780615098
"35",61.7727867246458,-19.9992924934515,79.9470981276844,1.82498109041289,1,"subseries 11",FALSE,35,6.04860813559062,35,79.9470981276844
"36",50.5949983714966,-24.4953220024519,80.8241965979367,-5.73387622398822,1,"subseries 12",FALSE,36,4.70256896570992,36,80.8241965979367
"37",57.7046325425953,-20.0210018627257,82.0160000041151,-4.29036559879411,1,"subseries 1",FALSE,37,5.40451742563612,37,82.0160000041151
"38",70.4742423953896,-9.71471457971031,83.1245959085207,-2.93563893342083,1,"subseries 2",FALSE,38,7.75681950207873,38,83.1245959085207
"39",82.6760522883454,-0.0808639557857423,84.5431329247204,-1.78621668058926,1,"subseries 3",FALSE,39,7.63583088360006,39,84.5431329247204
"40",95.7442667115098,12.6263589106325,85.9692736509974,-2.85136585012005,1,"subseries 4",FALSE,40,8.48570585178511,40,85.9692736509974
"41",120.002340094805,26.5793900353458,87.4630365807582,5.95991347870098,1,"subseries 5",FALSE,41,7.30908947414482,41,87.4630365807582
"42",123.182045929942,30.9468190891339,89.1252875618361,3.10993927897195,1,"subseries 6",FALSE,42,7.13944676280765,42,89.1252875618361
"43",112.398022509554,18.4397394562841,90.5145227435018,3.44376030976811,1,"subseries 7",FALSE,43,8.70492130627634,43,90.5145227435018
"44",96.0401368734656,5.38155327247024,91.8117734974011,-1.15318989640578,1,"subseries 8",FALSE,44,8.63145910481657,44,91.8117734974011
"45",87.5543462422032,-5.60323989678449,92.7964388561922,0.361147282795457,1,"subseries 9",FALSE,45,7.67352039483694,45,92.7964388561922
"46",80.962054443258,-14.059425972957,93.5367541833664,1.48472623284857,1,"subseries 10",FALSE,46,8.37118333451685,46,93.5367541833664
"47",73.6199515887836,-19.9992924934515,94.1828862581651,-0.563642175930028,1,"subseries 11",FALSE,47,6.54041530693038,47,94.1828862581651
"48",70.0453816874437,-24.4953220024519,94.8372249916727,-0.296521301777148,1,"subseries 12",FALSE,48,6.66389709112244,48,94.8372249916727
"49",73.0271329552652,-20.0210018627257,95.6628251844026,-2.61469036641169,1,"subseries 1",FALSE,49,5.59175351955849,49,95.6628251844026
"50",87.3881489498549,-9.71471457971031,96.5459636634277,0.556899866137499,1,"subseries 2",FALSE,50,7.73854730843564,50,96.5459636634277
"51",96.4509406264633,-0.0808639557857423,97.5507156695737,-1.01891108732464,1,"subseries 3",FALSE,51,8.1733992038857,51,97.5507156695737
"52",106.996901910031,12.6263589106325,98.418775836688,-4.0482328372895,1,"subseries 4",FALSE,52,9.15323651645153,52,98.418775836688
"53",128.583177496822,26.5793900353458,99.2368619012494,2.76692556022677,1,"subseries 5",FALSE,53,6.26149880213642,53,99.2368619012494
"54",133.993115340611,30.9468190891339,100.06285132817,2.98344492330682,1,"subseries 6",FALSE,54,5.62849350375422,54,100.06285132817
"55",122.890858589867,18.4397394562841,100.718163437887,3.7329556956963,1,"subseries 7",FALSE,55,6.00931249160131,55,100.718163437887
"56",107.162397009938,5.38155327247024,101.37043734105,0.410406396417727,1,"subseries 8",FALSE,56,7.75077522787629,56,101.37043734105
"57",96.1336096895586,-5.60323989678449,101.827592756394,-0.0907431700505015,1,"subseries 9",FALSE,57,7.36161376388177,57,101.827592756394
"58",86.9564851631449,-14.059425972957,102.081871987202,-1.0659608510999,1,"subseries 10",FALSE,58,6.40808913392937,58,102.081871987202
"59",81.1559394837241,-19.9992924934515,102.195693215212,-1.04046123803617,1,"subseries 11",FALSE,59,6.22023548780382,59,102.195693215212
"60",78.611235154764,-24.4953220024519,102.097505585017,1.00905157219842,1,"subseries 12",FALSE,60,5.35490898503889,60,102.097505585017
"61",83.4407796543724,-20.0210018627257,101.990816138094,1.47096537900411,1,"subseries 1",FALSE,61,6.2584053397402,61,101.990816138094
"62",92.562324568711,-9.71471457971031,102.04974124401,0.227297904410875,1,"subseries 2",FALSE,62,5.2963066784617,62,102.04974124401
"63",101.479699785949,-0.0808639557857423,102.175614274579,-0.61505053284418,1,"subseries 3",FALSE,63,5.99157993332327,63,102.175614274579
"64",114.959188138317,12.6263589106325,102.353330747167,-0.0205015194826501,1,"subseries 4",FALSE,64,6.93964022717126,64,102.353330747167
"65",127.169938837697,26.5793900353458,102.590599239552,-2.00005043720068,1,"subseries 5",FALSE,65,5.75257559564779,65,102.590599239552
"66",131.416286056354,30.9468190891339,102.671884176432,-2.20241720921162,1,"subseries 6",FALSE,66,6.18110874252902,66,102.671884176432
"67",120.71193397738,18.4397394562841,102.758214241507,-0.486019720411491,1,"subseries 7",FALSE,67,7.32417129857328,67,102.758214241507
"68",112.06574834096,5.38155327247024,102.883568204499,3.80062686399081,1,"subseries 8",FALSE,68,7.36414751607999,68,102.883568204499
"69",99.0727397157826,-5.60323989678449,102.968218418259,1.70776119430843,1,"subseries 9",FALSE,69,6.04857972290617,69,102.968218418259
"70",90.6322643824024,-14.059425972957,103.102791795577,1.58889855978244,1,"subseries 10",FALSE,70,6.91872766165741,70,103.102791795577
"71",81.113697144042,-19.9992924934515,103.118086273425,-2.00509663593151,1,"subseries 11",FALSE,71,6.04326817458361,71,103.118086273425
"72",76.6196084599447,-24.4953220024519,103.082089010224,-1.9671585478274,1,"subseries 12",FALSE,72,4.88884301753619,72,103.082089010224
"73",85.5133812585006,-20.0210018627257,103.021957918682,2.51242520254453,1,"subseries 1",FALSE,73,4.86359474740694,73,103.021957918682
"74",91.7057294534662,-9.71471457971031,103.068678993406,-1.64823496022908,1,"subseries 2",FALSE,74,6.05742135273478,74,103.068678993406
"75",103.64381574735,-0.0808639557857423,103.354658474353,0.37002122878279,1,"subseries 3",FALSE,75,9.86189309312379,75,103.354658474353
"76",115.163820374868,12.6263589106325,103.7210321624,-1.18357069816494,1,"subseries 4",FALSE,76,11.3518493990812,76,103.7210321624
"77",124.93709995666,26.5793900353458,104.226414917112,-5.86870499579797,1,"subseries 5",FALSE,77,6.95443515009454,77,104.226414917112
"78",135.300607372028,30.9468190891339,104.553124517457,-0.199336234562878,1,"subseries 6",FALSE,78,6.10316659978474,78,104.553124517457
"79",126.813189759645,18.4397394562841,104.787431985423,3.58601831793813,1,"subseries 7",FALSE,79,6.45603108266917,79,104.787431985423
"80",113.445907590557,5.38155327247024,104.437582154651,3.62677216343623,1,"subseries 8",FALSE,80,6.70671667620625,80,104.437582154651
"81",103.935146716138,-5.60323989678449,103.709342848744,5.82904376417825,1,"subseries 9",FALSE,81,6.8600044039409,81,103.709342848744
"82",91.1147845736551,-14.059425972957,103.035232481162,2.13897806545042,1,"subseries 10",FALSE,82,6.32524381007642,82,103.035232481162
"83",85.5183802480133,-19.9992924934515,102.212552008587,3.30512073287797,1,"subseries 11",FALSE,83,6.92439865326141,83,102.212552008587
"84",77.0001085522007,-24.4953220024519,101.407416124218,0.0880144304350807,1,"subseries 12",FALSE,84,5.63563701813615,84,101.407416124218
"85",85.5088431265458,-20.0210018627257,100.533885260739,4.9959597285323,1,"subseries 1",FALSE,85,6.15124783305431,85,100.533885260739
"86",87.1476148555538,-9.71471457971031,99.5765519126619,-2.71422247739783,1,"subseries 2",FALSE,86,5.5070434423045,86,99.5765519126619
"87",89.7147901446908,-0.0808639557857423,98.5698101554396,-8.77415605496307,1,"subseries 3",FALSE,87,5.53006607651105,87,98.5698101554396
