"","raw","seasonal","trend","remainder","weights","sub.labels","interpolated","age","sigma","operating","power"
"1",4.59686366858422,-0.118208948544892,4.75073900364728,-0.0356663865181677,1,"subseries 1",FALSE,1,1.68064756092976,1,4.75073900364728
"2",3.61210319807756,-0.33455352945283,4.81601642478084,-0.869359697250453,1,"subseries 2",FALSE,2,1.48479667282399,2,4.81601642478084
"3",5.79389680190491,-0.221324325570483,4.88103913011025,1.13418199736514,1,"subseries 3",FALSE,3,0.406395033616162,3,4.88103913011025
"4",4.62271767543409,-0.379365445672648,4.9477601086765,0.0543230124302339,1,"subseries 4",FALSE,4,0.363132050628704,4,4.9477601086765
"5",5.02004585201863,-0.145774272005433,5.01373134798375,0.152088776040316,1,"subseries 5",FALSE,5,0.288122918550955,5,5.01373134798375
"6",4.75323652888184,-0.00224906030578,5.08204000122179,-0.326554412034175,1,"subseries 6",FALSE,6,0.263870851584422,6,5.08204000122179
"7",5.33437006692917,0.365947459983853,5.14753512392786,-0.179112516982544,1,"subseries 7",FALSE,7,0.289154440856163,7,5.14753512392786
"8",5.41937450735502,0.381250417688445,5.20161957133024,-0.163495481663666,1,"subseries 8",FALSE,8,0.311626678447004,8,5.20161957133024
"9",5.46358623622818,0.319269867897719,5.25256336689459,-0.108246998564123,1,"subseries 9",FALSE,9,0.481155111090898,9,5.25256336689459
"10",6.10206587376812,0.178355565836395,5.28374206350061,0.639968244431119,1,"subseries 10",FALSE,10,0.341312784840042,10,5.28374206350061
"11",5.29670416585977,0.0220091476137024,5.30728347731957,-0.0325884590734979,1,"subseries 11",FALSE,11,0.496819700867404,11,5.30728347731957
"12",5.35821296454134,-0.0653568774680485,5.34634143141406,0.0772284105953309,1,"subseries 12",FALSE,12,0.684433726899571,12,5.34634143141406
"13",5.48497425622441,-0.118208948544892,5.36864188601969,0.234541318749616,1,"subseries 1",FALSE,13,0.500496469416955,13,5.36864188601969
"14",5.00464008372091,-0.33455352945283,5.3709438462458,-0.0317502330720574,1,"subseries 2",FALSE,14,0.470096107648402,14,5.3709438462458
"15",4.89631814650612,-0.221324325570483,5.35873755937529,-0.241095087298687,1,"subseries 3",FALSE,15,0.344102483657202,15,5.35873755937529
"16",4.89921930255289,-0.379365445672648,5.31201130875725,-0.0334265605317166,1,"subseries 4",FALSE,16,0.293714946518905,16,5.31201130875725
"17",5.2231532975993,-0.145774272005433,5.25128055351123,0.117647016093498,1,"subseries 5",FALSE,17,0.363614069792918,17,5.25128055351123
"18",5.58748662793998,-0.00224906030578,5.20009290632394,0.389642781921824,1,"subseries 6",FALSE,18,0.204067086330487,18,5.20009290632394
"19",5.63190367829042,0.365947459983853,5.14616574623363,0.119790472072935,1,"subseries 7",FALSE,19,0.213583938506655,19,5.14616574623363
"20",5.48482993872995,0.381250417688445,5.11416224328152,-0.0105827222400112,1,"subseries 8",FALSE,20,0.232817947285625,20,5.11416224328152
"21",5.24716008508452,0.319269867897719,5.09379862110782,-0.165908403921017,1,"subseries 9",FALSE,21,0.377624857829696,21,5.09379862110782
"22",4.61252836601226,0.178355565836395,5.07373839207179,-0.639565591895928,1,"subseries 10",FALSE,22,0.682634897176536,22,5.07373839207179
"23",4.84405557868623,0.0220091476137024,5.0782884731281,-0.256242042055575,1,"subseries 11",FALSE,23,0.732231512130025,23,5.0782884731281
"24",5.09179048096531,-0.0653568774680485,5.08410969202982,0.0730376664035415,1,"subseries 12",FALSE,24,0.562394352900374,24,5.08410969202982
"25",5.10932738570096,-0.118208948544892,5.11413705517959,0.113399279066266,1,"subseries 1",FALSE,25,0.380048268223577,25,5.11413705517959
"26",4.92456598687588,-0.33455352945283,5.15480251085492,0.104317005473788,1,"subseries 2",FALSE,26,0.57612027887424,26,5.15480251085492
"27",4.75712682507839,-0.221324325570483,5.18786611567243,-0.209414965023553,1,"subseries 3",FALSE,27,0.594784996762669,27,5.18786611567243
"28",5.14042061792057,-0.379365445672648,5.22493909201272,0.294846971580492,1,"subseries 4",FALSE,28,0.319030607529741,28,5.22493909201272
"29",5.45153737996325,-0.145774272005433,5.23976721778357,0.357544434185114,1,"subseries 5",FALSE,29,0.203248116489734,29,5.23976721778357
"30",5.35627634188977,-0.00224906030578,5.24743684976291,0.111088552432641,1,"subseries 6",FALSE,30,0.230178916636934,30,5.24743684976291
"31",5.45164494650704,0.365947459983853,5.24638687283673,-0.160689386313542,1,"subseries 7",FALSE,31,0.229033440674197,31,5.24638687283673
"32",5.49732702408162,0.381250417688445,5.23530132650767,-0.119224720114495,1,"subseries 8",FALSE,32,0.199473001837918,32,5.23530132650767
"33",5.43065229743979,0.319269867897719,5.22152213485193,-0.110139705309853,1,"subseries 9",FALSE,33,0.305138087276027,33,5.22152213485193
"34",5.3466536260371,0.178355565836395,5.18601550824587,-0.0177174480451621,1,"subseries 10",FALSE,34,0.329589316247738,34,5.18601550824587
"35",5.27016107006296,0.0220091476137024,5.14698125550926,0.10117066694,1,"subseries 11",FALSE,35,0.300044926977841,35,5.14698125550926
"36",5.16672180906637,-0.0653568774680485,5.10627793122371,0.125800755310707,1,"subseries 12",FALSE,36,0.384598993573107,36,5.10627793122371
"37",5.1001138525817,-0.118208948544892,5.05502925403075,0.163293547095843,1,"subseries 1",FALSE,37,0.291806092344021,37,5.05502925403075
"38",4.85773120586001,-0.33455352945283,5.01871125911994,0.173573476192903,1,"subseries 2",FALSE,38,0.250858564323504,38,5.01871125911994
"39",4.6688352858916,-0.221324325570483,4.97920276541757,-0.0890431539554859,1,"subseries 3",FALSE,39,0.286096135839515,39,4.97920276541757
"40",4.57724384751105,-0.379365445672648,4.94372433491483,0.0128849582688657,1,"subseries 4",FALSE,40,0.334994012142672,40,4.94372433491483
"41",4.32827279696301,-0.145774272005433,4.92350043619002,-0.449453367221579,1,"subseries 5",FALSE,41,0.175575847201862,41,4.92350043619002
"42",4.59621001552758,-0.00224906030578,4.92078325386051,-0.322324178027151,1,"subseries 6",FALSE,42,0.377720162401706,42,4.92078325386051
"43",5.40004155429603,0.365947459983853,4.95540762236087,0.0786864719513067,1,"subseries 7",FALSE,43,0.171441854412946,43,4.95540762236087
"44",5.27324396169254,0.381250417688445,5.00822374037887,-0.116230196374776,1,"subseries 8",FALSE,44,0.217862915800209,44,5.00822374037887
"45",5.17984382754815,0.319269867897719,5.09031002545792,-0.229736065807487,1,"subseries 9",FALSE,45,0.287469070575017,45,5.09031002545792
"46",4.98035644727224,0.178355565836395,5.17626303868457,-0.37426215724872,1,"subseries 10",FALSE,46,0.784719806268175,46,5.17626303868457
"47",5.61221821785055,0.0220091476137024,5.25897492684256,0.33123414339429,1,"subseries 11",FALSE,47,0.31030108997529,47,5.25897492684256
"48",5.63135036900325,-0.0653568774680485,5.33708624511037,0.359621001360929,1,"subseries 12",FALSE,48,0.401043614039745,48,5.33708624511037
"49",5.4992852096285,-0.118208948544892,5.39223079813985,0.225263360033546,1,"subseries 1",FALSE,49,0.323875019350588,49,5.39223079813985
"50",5.33103038468092,-0.33455352945283,5.44923236308957,0.216351551044178,1,"subseries 2",FALSE,50,0.304033826813362,50,5.44923236308957
"51",5.29018980948768,-0.221324325570483,5.48387868346069,0.027635451597475,1,"subseries 3",FALSE,51,0.273978250785668,51,5.48387868346069
"52",5.14333766589532,-0.379365445672648,5.50059883064402,0.0221042809239425,1,"subseries 4",FALSE,52,0.409819540030341,52,5.50059883064402
"53",5.13175638447813,-0.145774272005433,5.50425574887181,-0.226725092388245,1,"subseries 5",FALSE,53,0.284119459006568,53,5.50425574887181
"54",5.36878276611407,-0.00224906030578,5.48369272922197,-0.112660902802117,1,"subseries 6",FALSE,54,0.273834156295394,54,5.48369272922197
"55",5.9612724030141,0.365947459983853,5.46464474537982,0.130680197650427,1,"subseries 7",FALSE,55,0.288384044044668,55,5.46464474537982
"56",5.91656994899798,0.381250417688445,5.44933792755511,0.0859816037544272,1,"subseries 8",FALSE,56,0.293763619122532,56,5.44933792755511
"57",5.85268852519183,0.319269867897719,5.4353008652051,0.0981177920890106,1,"subseries 9",FALSE,57,0.312661863382688,57,5.4353008652051
"58",5.5516612164874,0.178355565836395,5.42810601430928,-0.0548003636582708,1,"subseries 10",FALSE,58,0.368621033408449,58,5.42810601430928
"59",5.39905018090246,0.0220091476137024,5.41895357401572,-0.0419125407269609,1,"subseries 11",FALSE,59,0.388677925311125,59,5.41895357401572
"60",5.29373736000486,-0.0653568774680485,5.41449689903062,-0.0554026615577143,1,"subseries 12",FALSE,60,0.328702005555237,60,5.41449689903062
"61",5.23341680604078,-0.118208948544892,5.41694415948547,-0.0653184048997932,1,"subseries 1",FALSE,61,0.378238400559456,61,5.41694415948547
"62",5.22312480002767,-0.33455352945283,5.41727409156545,0.14040423791505,1,"subseries 2",FALSE,62,0.312593442572694,62,5.41727409156545
"63",4.90226261168911,-0.221324325570483,5.42554392688707,-0.301956989627473,1,"subseries 3",FALSE,63,0.335531677024243,63,5.42554392688707
"64",4.91127673579373,-0.379365445672648,5.43054354948522,-0.139901368018844,1,"subseries 4",FALSE,64,0.340162552105593,64,5.43054354948522
"65",5.58137949869649,-0.145774272005433,5.43177685455303,0.295376916148891,1,"subseries 5",FALSE,65,0.371444281987352,65,5.43177685455303
"66",5.55242182661334,-0.00224906030578,5.42388154642836,0.130789340490762,1,"subseries 6",FALSE,66,0.30740461676431,66,5.42388154642836
"67",5.85558301628204,0.365947459983853,5.40040888574335,0.0892266705548339,1,"subseries 7",FALSE,67,0.328965975899153,67,5.40040888574335
"68",5.85230542340862,0.381250417688445,5.37119060264391,0.0998644030762685,1,"subseries 8",FALSE,68,0.250541329010158,68,5.37119060264391
"69",5.74765634916718,0.319269867897719,5.33827321990402,0.0901132613654463,1,"subseries 9",FALSE,69,0.31691886044877,69,5.33827321990402
"70",5.64196621005347,0.178355565836395,5.31051415967745,0.153096484539623,1,"subseries 10",FALSE,70,0.394453080013589,70,5.31051415967745
"71",5.04999099116667,0.0220091476137024,5.28256843886164,-0.254586595308673,1,"subseries 11",FALSE,71,0.398628283572747,71,5.28256843886164
"72",4.96166751623559,-0.0653568774680485,5.24629527109917,-0.219270877395533,1,"subseries 12",FALSE,72,0.319077934428559,72,5.24629527109917
"73",4.90351024297401,-0.118208948544892,5.20600067349123,-0.184281481972328,1,"subseries 1",FALSE,73,0.36952729776901,73,5.20600067349123
"74",5.08712345580806,-0.33455352945283,5.17046554081704,0.251211444443848,1,"subseries 2",FALSE,74,0.321247782739532,74,5.17046554081704
"75",5.00430036775165,-0.221324325570483,5.13662998239643,0.0889947109257019,1,"subseries 3",FALSE,75,0.356926446783009,75,5.13662998239643
"76",NA,-0.379365445672648,5.10634818346418,NA,1,"subseries 4",TRUE,76,NA,76,NA
"77",NA,-0.145774272005433,5.07929039016234,NA,1,"subseries 5",TRUE,77,NA,77,NA
"78",NA,-0.00224906030578,5.04826298404292,NA,1,"subseries 6",TRUE,78,NA,78,NA
"79",NA,0.365947459983853,5.01735187335218,NA,1,"subseries 7",TRUE,79,NA,79,NA
"80",NA,0.381250417688445,4.99363194933267,NA,1,"subseries 8",TRUE,80,NA,80,NA
"81",NA,0.319269867897719,4.96906801332053,NA,1,"subseries 9",TRUE,81,NA,81,NA
"82",NA,0.178355565836395,4.94015951639864,NA,1,"subseries 10",TRUE,82,NA,82,NA
"83",4.77470985040838,0.0220091476137024,4.91470419139099,-0.162003488596313,1,"subseries 11",FALSE,83,0.184693761401733,83,4.91470419139099
"84",4.88975291086222,-0.0653568774680485,4.8676608005473,0.0874489877829729,1,"subseries 12",FALSE,84,0.373059978888623,84,4.8676608005473
"85",4.79651611613936,-0.118208948544892,4.83276952207767,0.0819555426065852,1,"subseries 1",FALSE,85,0.340059206495219,85,4.83276952207767
"86",4.54324247251168,-0.33455352945283,4.83091771095672,0.046878291007789,1,"subseries 2",FALSE,86,0.343841031857364,86,4.83091771095672
"87",4.47376235214253,-0.221324325570483,4.82942736151108,-0.134340683798068,1,"subseries 3",FALSE,87,0.328672971336056,87,4.82942736151108
"88",4.22386929317493,-0.379365445672648,4.83006733867999,-0.226832599832417,1,"subseries 4",FALSE,88,0.339447547983236,88,4.83006733867999
"89",4.55531132712345,-0.145774272005433,4.83013320226763,-0.129047603138747,1,"subseries 5",FALSE,89,0.480408116249534,89,4.83013320226763
"90",4.99501234343962,-0.00224906030578,4.82521736548281,0.172044038262587,1,"subseries 6",FALSE,90,0.28892664253824,90,4.82521736548281
"91",5.0836050686865,0.365947459983853,4.8201972834454,-0.102539674742756,1,"subseries 7",FALSE,91,0.321388645342785,91,4.8201972834454
"92",5.536108538529,0.381250417688445,4.80699252377439,0.347865597066167,1,"subseries 8",FALSE,92,0.231598718341696,92,4.80699252377439
"93",5.39564699908212,0.319269867897719,4.77780303716343,0.298574094020968,1,"subseries 9",FALSE,93,0.200248118988713,93,4.77780303716343
"94",4.94950140424866,0.178355565836395,4.75075622653101,0.0203896118812557,1,"subseries 10",FALSE,94,0.386236467098425,94,4.75075622653101
"95",4.71409435631858,0.0220091476137024,4.70823451623354,-0.0161493075286572,1,"subseries 11",FALSE,95,0.341792367821045,95,4.70823451623354
"96",4.48253903445984,-0.0653568774680485,4.65560023779928,-0.107704325871395,1,"subseries 12",FALSE,96,0.357345969114366,96,4.65560023779928
"97",4.38878252154103,-0.118208948544892,4.60380127665298,-0.0968098065670597,1,"subseries 1",FALSE,97,0.385272159020188,97,4.60380127665298
"98",4.17791804394337,-0.33455352945283,4.55157369064352,-0.0391021172473236,1,"subseries 2",FALSE,98,0.330846980660103,98,4.55157369064352
"99",4.17653234860688,-0.221324325570483,4.51598357482946,-0.118126900652094,1,"subseries 3",FALSE,99,0.331596431508941,99,4.51598357482946
"100",4.11463420461597,-0.379365445672648,4.49040017683367,0.00359947345495026,1,"subseries 4",FALSE,100,0.389213836412152,100,4.49040017683367
"101",4.18120637726915,-0.145774272005433,4.47755413543732,-0.150573486162735,1,"subseries 5",FALSE,101,0.333950435940729,101,4.47755413543732
"102",4.39240293228582,-0.00224906030578,4.46491606738661,-0.0702640747950092,1,"subseries 6",FALSE,102,0.248470351640704,102,4.46491606738661
"103",4.92061056941211,0.365947459983853,4.45019782638063,0.104465283047626,1,"subseries 7",FALSE,103,0.259055943564178,103,4.45019782638063
"104",5.01448939114047,0.381250417688445,4.43252447472087,0.200714498731156,1,"subseries 8",FALSE,104,0.2703845393929,104,4.43252447472087
"105",4.67864980217451,0.319269867897719,4.40389204204919,-0.0445121077724009,1,"subseries 9",FALSE,105,0.264942706585358,105,4.40389204204919
"106",4.76741611308328,0.178355565836395,4.37519867290161,0.213861874345273,1,"subseries 10",FALSE,106,0.322942730852414,106,4.37519867290161
"107",4.49003361189997,0.0220091476137024,4.33519067017614,0.132833794110131,1,"subseries 11",FALSE,107,0.429144348357648,107,4.33519067017614
"108",4.07427528423412,-0.0653568774680485,4.28929312414571,-0.149660962443539,1,"subseries 12",FALSE,108,0.413551533979802,108,4.28929312414571
"109",4.02679301356486,-0.118208948544892,4.23896666514692,-0.0939647030371642,1,"subseries 1",FALSE,109,0.366004084591222,109,4.23896666514692
"110",3.90732304511747,-0.33455352945283,4.17856781238035,0.0633087621899522,1,"subseries 2",FALSE,110,0.381227720047832,110,4.17856781238035
"111",3.7903388639221,-0.221324325570483,4.12051519868562,-0.108852009193034,1,"subseries 3",FALSE,111,0.361030120072352,111,4.12051519868562
"112",3.7178430775637,-0.379365445672648,4.07198537945966,0.0252231437766914,1,"subseries 4",FALSE,112,0.354205644569807,112,4.07198537945966
"113",3.91935351090385,-0.145774272005433,4.03418521176923,0.0309425711400557,1,"subseries 5",FALSE,113,0.417771857102432,113,4.03418521176923
"114",4.00960302804797,-0.00224906030578,4.00394655319201,0.00790553516173542,1,"subseries 6",FALSE,114,0.254716111035189,114,4.00394655319201
"115",4.24408649328789,0.365947459983853,3.97666688501204,-0.0985278517080053,1,"subseries 7",FALSE,115,0.305154070929176,115,3.97666688501204
"116",4.00277921400397,0.381250417688445,3.94349524555878,-0.321966449243256,1,"subseries 8",FALSE,116,0.275004766546096,116,3.94349524555878
"117",4.436580863988,0.319269867897719,3.90877247356829,0.208538522521992,1,"subseries 9",FALSE,117,0.295755605075279,117,3.90877247356829
"118",4.17927887457375,0.178355565836395,3.87656685634698,0.124356452390376,1,"subseries 10",FALSE,118,0.359028246019589,118,3.87656685634698
"119",4.15673084517033,0.0220091476137024,3.84417531041528,0.290546387141348,1,"subseries 11",FALSE,119,0.386755391937542,119,3.84417531041528
"120",3.65859682916104,-0.0653568774680485,3.81292941412113,-0.0889757074920414,1,"subseries 12",FALSE,120,0.429900639528388,120,3.81292941412113
"121",3.42656162689145,-0.118208948544892,3.78165017105318,-0.236879595616836,1,"subseries 1",FALSE,121,0.336036559208141,121,3.78165017105318
"122",3.46147567989247,-0.33455352945283,3.74965822172684,0.0463709876184581,1,"subseries 2",FALSE,122,0.346238071477126,122,3.74965822172684
