"","raw","seasonal","trend","remainder","weights","sub.labels","interpolated","age","sigma","operating","power"
"1",117.930145205795,-9.56507679576226,133.405111469139,-5.90988946758168,1,"subseries 1",FALSE,1,12.8757794058499,1,133.405111469139
"2",118.376517442209,-13.1352796853095,131.326415365144,0.18538176237405,1,"subseries 2",FALSE,2,12.3380863510311,2,131.326415365144
"3",116.369830345749,-16.9508969392134,129.280220882374,4.04050640258831,1,"subseries 3",FALSE,3,9.33714078003564,3,129.280220882374
"4",121.585380510663,-14.5068188160942,127.349501792336,8.74269753442145,1,"subseries 4",FALSE,4,13.9467409050702,4,127.349501792336
"5",132.629411374649,-0.855637131094248,125.460373091511,8.02467541423178,1,"subseries 5",FALSE,5,11.9985851919626,5,125.460373091511
"6",135.403837760047,11.4615583771185,123.736610425255,0.205668957673694,1,"subseries 6",FALSE,6,18.2965911022783,6,123.736610425255
"7",134.18277352731,22.4996675973686,122.062502876653,-10.3793969467118,1,"subseries 7",FALSE,7,29.6204502359435,7,122.062502876653
"8",131.325954957849,21.5857870923563,120.046063384355,-10.3058955188619,1,"subseries 8",FALSE,8,21.2635760342672,8,120.046063384355
"9",120.199248385207,9.38747050256534,118.348285175175,-7.53650729253295,1,"subseries 9",FALSE,9,11.640307277741,9,118.348285175175
"10",113.335191255284,-1.58521217598321,117.217157635877,-2.29675420461002,1,"subseries 10",FALSE,10,13.0410729147059,10,117.217157635877
"11",114.077574751815,-2.66779720954717,116.867247974267,-0.12187601290475,1,"subseries 11",FALSE,11,14.9946008434138,11,116.867247974267
"12",112.28083360741,-5.66776481640481,117.385873645335,0.562724778479733,1,"subseries 12",FALSE,12,15.2160758179976,12,117.385873645335
"13",110.597621868812,-9.56507679576226,118.31873771976,1.8439609448138,1,"subseries 1",FALSE,13,11.236480133209,13,118.31873771976
"14",106.111049164121,-13.1352796853095,119.476458230752,-0.230129381321603,1,"subseries 2",FALSE,14,11.5883704591337,14,119.476458230752
"15",102.863588122161,-16.9508969392134,120.424055914762,-0.609570853387311,1,"subseries 3",FALSE,15,9.1972048754931,15,120.424055914762
"16",101.5466256679,-14.5068188160942,120.751316017082,-4.69787153308754,1,"subseries 4",FALSE,16,8.40117531707427,16,120.751316017082
"17",127.566770515778,-0.855637131094248,120.545975523207,7.87643212366527,1,"subseries 5",FALSE,17,10.8963564113158,17,120.545975523207
"18",136.957476630294,11.4615583771185,120.138406876538,5.35751137663711,1,"subseries 6",FALSE,18,17.0551163635163,18,120.138406876538
"19",153.871567550221,22.4996675973686,119.256635954927,12.1152639979255,1,"subseries 7",FALSE,19,20.554030124799,19,119.256635954927
"20",137.4920412935,21.5857870923563,118.427506142221,-2.52125194107748,1,"subseries 8",FALSE,20,25.8379919076856,20,118.427506142221
"21",121.974202358087,9.38747050256534,117.343414426382,-4.75668257086078,1,"subseries 9",FALSE,21,6.89868931321859,21,117.343414426382
"22",111.954120593055,-1.58521217598321,116.14746917536,-2.60813640632158,1,"subseries 10",FALSE,22,7.7463516623576,22,116.14746917536
"23",107.716435457428,-2.66779720954717,115.208139936773,-4.82390726979806,1,"subseries 11",FALSE,23,9.06986437905137,23,115.208139936773
"24",107.233431307275,-5.66776481640481,114.242013341236,-1.34081721755582,1,"subseries 12",FALSE,24,8.84785410980361,24,114.242013341236
"25",103.265076331903,-9.56507679576226,113.870086729872,-1.03993360220689,1,"subseries 1",FALSE,25,7.0372690584516,25,113.870086729872
"26",96.3114251315976,-13.1352796853095,113.943790982043,-4.49708616513553,1,"subseries 2",FALSE,26,6.2509723818295,26,113.943790982043
"27",95.5245152077389,-16.9508969392134,114.339138689508,-1.86372654255607,1,"subseries 3",FALSE,27,5.75147193597242,27,114.339138689508
"28",103.777620509813,-14.5068188160942,114.723293371589,3.56114595431838,1,"subseries 4",FALSE,28,12.7712183348421,28,114.723293371589
"29",117.329542437682,-0.855637131094248,114.938940736314,3.24623883246251,1,"subseries 5",FALSE,29,8.74951316010578,29,114.938940736314
"30",124.473527910245,11.4615583771185,114.989073420699,-1.97710388757278,1,"subseries 6",FALSE,30,4.85391366630691,30,114.989073420699
"31",141.127841895895,22.4996675973686,114.639288362555,3.98888593597111,1,"subseries 7",FALSE,31,5.24173823289872,31,114.639288362555
"32",144.518428645817,21.5857870923563,114.409962326898,8.52267922656283,1,"subseries 8",FALSE,32,5.12054536332258,32,114.409962326898
"33",122.24741614894,9.38747050256534,113.983477225468,-1.12353157909379,1,"subseries 9",FALSE,33,5.55602836815048,33,113.983477225468
"34",110.113321842019,-1.58521217598321,113.39941169332,-1.70087767531777,1,"subseries 10",FALSE,34,6.3199344932441,34,113.39941169332
"35",103.501244949953,-2.66779720954717,112.86978430223,-6.70074214272958,1,"subseries 11",FALSE,35,7.36497273549623,35,112.86978430223
"36",102.540711001825,-5.66776481640481,112.466915167985,-4.25843934975502,1,"subseries 12",FALSE,36,8.88020774655502,36,112.466915167985
"37",103.097453390164,-9.56507679576226,112.515453935968,0.147076249958204,1,"subseries 1",FALSE,37,8.66187724660988,37,112.515453935968
"38",102.555670418841,-13.1352796853095,112.914162940796,2.7767871633548,1,"subseries 2",FALSE,38,9.68864377502253,38,112.914162940796
"39",94.100504125968,-16.9508969392134,113.858019211989,-2.80661814680748,1,"subseries 3",FALSE,39,7.16051388526994,39,113.858019211989
"40",92.602092677668,-14.5068188160942,114.746127528375,-7.63721603461249,1,"subseries 4",FALSE,40,7.17684031443067,40,114.746127528375
"41",111.395231330824,-0.855637131094248,115.490764051927,-3.23989559000864,1,"subseries 5",FALSE,41,12.2109012189551,41,115.490764051927
"42",136.555465066316,11.4615583771185,115.82249603409,9.27141065510791,1,"subseries 6",FALSE,42,5.50376415554514,42,115.82249603409
"43",145.654741794776,22.4996675973686,115.599896042721,7.55517815468605,1,"subseries 7",FALSE,43,5.32133378102324,43,115.599896042721
"44",147.418296672603,21.5857870923563,115.551564009322,10.2809455709246,1,"subseries 8",FALSE,44,7.36995164651171,44,115.551564009322
"45",124.186586592663,9.38747050256534,115.103419037004,-0.304302946906816,1,"subseries 9",FALSE,45,4.60759250623057,45,115.103419037004
"46",111.935331013987,-1.58521217598321,114.903480544349,-1.38293735437927,1,"subseries 10",FALSE,46,4.45684051938145,46,114.903480544349
"47",105.557259694354,-2.66779720954717,114.751819352473,-6.52676244857146,1,"subseries 11",FALSE,47,4.31428628743701,47,114.751819352473
"48",101.04167800598,-5.66776481640481,113.970715153717,-7.26127233133198,1,"subseries 12",FALSE,48,4.15904089085971,48,113.970715153717
"49",98.4661189169058,-9.56507679576226,113.561605299257,-5.53040958658873,1,"subseries 1",FALSE,49,4.49268795964072,49,113.561605299257
"50",98.5737078238756,-13.1352796853095,113.242753443888,-1.53376593470261,1,"subseries 2",FALSE,50,3.89809954154604,50,113.242753443888
"51",102.336062934139,-16.9508969392134,113.274414913843,6.0125449595095,1,"subseries 3",FALSE,51,3.51490119001458,51,113.274414913843
"52",107.711866569114,-14.5068188160942,114.197824851838,8.02086053337054,1,"subseries 4",FALSE,52,3.79016256008186,52,114.197824851838
"53",113.113266488282,-0.855637131094248,115.339441399899,-1.37053778052226,1,"subseries 5",FALSE,53,4.01746676825871,53,115.339441399899
"54",121.499816213095,11.4615583771185,116.558723658182,-6.52046582220584,1,"subseries 6",FALSE,54,4.42546972689424,54,116.558723658182
"55",132.490582326424,22.4996675973686,117.765634981528,-7.77472025247236,1,"subseries 7",FALSE,55,4.82929472192427,55,117.765634981528
"56",136.035508754059,21.5857870923563,118.412794733951,-3.96307307224838,1,"subseries 8",FALSE,56,4.65163612512636,56,118.412794733951
"57",138.386249640385,9.38747050256534,118.967676491737,10.0311026460823,1,"subseries 9",FALSE,57,5.82788572915784,57,118.967676491737
"58",125.743324899747,-1.58521217598321,119.261255721553,8.06728135417693,1,"subseries 10",FALSE,58,7.62542341536768,58,119.261255721553
"59",115.046517658436,-2.66779720954717,119.133957420091,-1.41964255210733,1,"subseries 11",FALSE,59,7.00592193483407,59,119.133957420091
"60",116.79181225857,-5.66776481640481,119.481770283266,2.97780679170906,1,"subseries 12",FALSE,60,7.65634684548954,60,119.481770283266
"61",116.307393445456,-9.56507679576226,119.5403353142,6.33213492701827,1,"subseries 1",FALSE,61,10.4817376533112,61,119.5403353142
"62",106.368452014429,-13.1352796853095,119.894157954653,-0.390426254914388,1,"subseries 2",FALSE,62,12.2285422378468,62,119.894157954653
"63",92.5910043451995,-16.9508969392134,120.813023262147,-11.2711219777336,1,"subseries 3",FALSE,63,5.49813291994544,63,120.813023262147
"64",94.3591223409119,-14.5068188160942,121.706148554438,-12.8402073974323,1,"subseries 4",FALSE,64,9.42810166285289,64,121.706148554438
"65",115.067283149499,-0.855637131094248,123.401654688709,-7.47873440811526,1,"subseries 5",FALSE,65,5.11298989405078,65,123.401654688709
"66",136.644844733378,11.4615583771185,124.709209021505,0.474077334754668,1,"subseries 6",FALSE,66,9.56104871409886,66,124.709209021505
"67",152.455722416511,22.4996675973686,126.071510051976,3.88454476716628,1,"subseries 7",FALSE,67,5.92895307471275,67,126.071510051976
"68",156.611662246499,21.5857870923563,127.541393381871,7.48448177227205,1,"subseries 8",FALSE,68,6.52167305794909,68,127.541393381871
"69",152.000763070112,9.38747050256534,128.2606903256,14.3526022419468,1,"subseries 9",FALSE,69,5.84882921756495,69,128.2606903256
"70",136.145194651762,-1.58521217598321,128.940343587863,8.79006323988187,1,"subseries 10",FALSE,70,7.15364961609849,70,128.940343587863
"71",126.829624835429,-2.66779720954717,128.550262070176,0.947159974800428,1,"subseries 11",FALSE,71,7.04367994115651,71,128.550262070176
"72",118.63976430338,-5.66776481640481,127.138265984614,-2.83073686482922,1,"subseries 12",FALSE,72,8.03801331233,72,127.138265984614
"73",112.716558896895,-9.56507679576226,125.007450860486,-2.72581516782917,1,"subseries 1",FALSE,73,9.34100076310934,73,125.007450860486
"74",112.659367854701,-13.1352796853095,122.071573656038,3.72307388397283,1,"subseries 2",FALSE,74,7.81443493479118,74,122.071573656038
"75",104.76004972789,-16.9508969392134,118.960609441613,2.75033722549064,1,"subseries 3",FALSE,75,7.76807320292631,75,118.960609441613
"76",102.498906270283,-14.5068188160942,116.334995318656,0.67072976772107,1,"subseries 4",FALSE,76,7.15233689433568,76,116.334995318656
"77",115.397504492554,-0.855637131094248,114.15386539907,2.0992762245782,1,"subseries 5",FALSE,77,6.17001994672435,77,114.15386539907
"78",116.403439749227,11.4615583771185,113.06830506671,-8.12642369460113,1,"subseries 6",FALSE,78,4.99352839828573,78,113.06830506671
"79",125.351634005061,22.4996675973686,113.028423229292,-10.1764568215997,1,"subseries 7",FALSE,79,5.62833511792509,79,113.028423229292
"80",124.766673984466,21.5857870923563,112.989205225359,-9.80831833324898,1,"subseries 8",FALSE,80,6.69019017034242,80,112.989205225359
"81",112.509806791379,9.38747050256534,113.883111409709,-10.7607751208955,1,"subseries 9",FALSE,81,6.94017391978727,81,113.883111409709
"82",104.54360542887,-1.58521217598321,115.088787232502,-8.95996962764903,1,"subseries 10",FALSE,82,4.52546417601487,82,115.088787232502
"83",131.73991105898,-2.66779720954717,116.170036654809,18.2376716137183,1,"subseries 11",FALSE,83,9.10235649993794,83,116.170036654809
"84",123.165088082837,-5.66776481640481,117.346530066581,11.4863228326605,1,"subseries 12",FALSE,84,8.50403243616285,84,117.346530066581
"85",113.960740036544,-9.56507679576226,118.451043062047,5.0747737702595,1,"subseries 1",FALSE,85,8.21930978045449,85,118.451043062047
"86",104.44430584483,-13.1352796853095,119.692076228022,-2.11249069788241,1,"subseries 2",FALSE,86,6.11410571487239,86,119.692076228022
"87",105.492852064423,-16.9508969392134,120.904142984867,1.53960601876987,1,"subseries 3",FALSE,87,8.32543889743154,87,120.904142984867
"88",109.370280990504,-14.5068188160942,122.069830754281,1.80726905231703,1,"subseries 4",FALSE,88,5.8133758616281,88,122.069830754281
"89",110.967172192797,-0.855637131094248,123.207977875225,-11.3851685513342,1,"subseries 5",FALSE,89,3.08169726440155,89,123.207977875225
