"","raw","seasonal","trend","remainder","weights","sub.labels","interpolated","age","sigma","operating","power"
"1",113.047192682226,2.74783986245443,105.188232657297,5.11112016247483,1,"subseries 1",FALSE,1,7.43546591438597,1,105.188232657297
"2",109.042702550006,-0.770210974476932,104.68502256481,5.12789095967244,1,"subseries 2",FALSE,2,6.15622812270874,2,104.68502256481
"3",103.744193404428,-5.53693190582711,104.250787836628,5.03033747362738,1,"subseries 3",FALSE,3,4.95454473008101,3,104.250787836628
"4",98.9074017819646,-8.94658385808832,103.988173295274,3.86581234477904,1,"subseries 4",FALSE,4,7.29785355719649,4,103.988173295274
"5",84.3992830767195,-12.1288535426384,103.807793271589,-7.27965665223132,1,"subseries 5",FALSE,5,19.6572992248982,5,103.807793271589
"6",80.8313669482911,-10.1871843315758,103.593468915319,-12.5749176354522,1,"subseries 6",FALSE,6,6.32216270138426,6,103.593468915319
"7",85.2872982738675,0.888288284898338,103.545766235469,-19.1467562464998,1,"subseries 7",FALSE,7,12.5625385832322,7,103.545766235469
"8",114.327006327042,7.76805362860924,103.102883297995,3.45606940043734,1,"subseries 8",FALSE,8,6.40791395050995,8,103.102883297995
"9",112.448446649231,8.2769542210526,103.250397295454,0.921095132724275,1,"subseries 9",FALSE,9,6.25288750911533,9,103.250397295454
"10",117.472889990294,8.05739683783616,104.195888711643,5.21960444081469,1,"subseries 10",FALSE,10,7.85163226772406,10,104.195888711643
"11",118.425237191279,6.17149343030091,104.999652928369,7.25409083260952,1,"subseries 11",FALSE,11,7.24191312772956,11,104.999652928369
"12",111.02634982454,3.65973834745488,106.173044416008,1.19356706107676,1,"subseries 12",FALSE,12,7.65727152097945,12,106.173044416008
"13",112.957546079958,2.74783986245443,106.748342632591,3.46136358491253,1,"subseries 1",FALSE,13,8.34209569748686,13,106.748342632591
"14",106.74950842386,-0.770210974476932,106.912932992385,0.606786405951652,1,"subseries 2",FALSE,14,6.28435711025543,14,106.912932992385
"15",100.688062768455,-5.53693190582711,106.809773249724,-0.584778575441916,1,"subseries 3",FALSE,15,6.00004984174406,15,106.809773249724
"16",93.9124350300391,-8.94658385808832,106.208665729767,-3.34964684163938,1,"subseries 4",FALSE,16,4.55445191512652,16,106.208665729767
"17",91.84200785056,-12.1288535426384,105.541906742988,-1.5710453497896,1,"subseries 5",FALSE,17,4.64943808395173,17,105.541906742988
"18",95.6651845940972,-10.1871843315758,104.827912402115,1.0244565235576,1,"subseries 6",FALSE,18,8.83044911446711,18,104.827912402115
"19",109.974705269098,0.888288284898338,104.134546803663,4.95187018053676,1,"subseries 7",FALSE,19,5.96981767247588,19,104.134546803663
"20",112.621915165138,7.76805362860924,103.677306748109,1.17655478841932,1,"subseries 8",FALSE,20,5.84881950654926,20,103.677306748109
"21",109.313565636154,8.2769542210526,103.278086854625,-2.24147543952404,1,"subseries 9",FALSE,21,5.29269097261845,21,103.278086854625
"22",109.124744492713,8.05739683783616,102.883537426304,-1.81618977142716,1,"subseries 10",FALSE,22,5.87429754242413,22,102.883537426304
"23",103.742406713404,6.17149343030091,102.521905931088,-4.95099264798452,1,"subseries 11",FALSE,23,7.20593968067712,23,102.521905931088
"24",107.539921582875,3.65973834745488,102.217681379621,1.66250185579918,1,"subseries 12",FALSE,24,8.2664512923912,24,102.217681379621
"25",106.104583245327,2.74783986245443,102.180456560281,1.17628682259155,1,"subseries 1",FALSE,25,7.41386393415409,25,102.180456560281
"26",101.487324570985,-0.770210974476932,102.242688090642,0.014847454819602,1,"subseries 2",FALSE,26,7.06095446382189,26,102.242688090642
"27",95.440492843499,-5.53693190582711,102.387915924049,-1.41049117472247,1,"subseries 3",FALSE,27,6.70495173150159,27,102.387915924049
"28",91.6568985019956,-8.94658385808832,102.462101070962,-1.85861871087822,1,"subseries 4",FALSE,28,4.38635304655515,28,102.462101070962
"29",86.2394963961645,-12.1288535426384,102.360271258436,-3.99192131963326,1,"subseries 5",FALSE,29,5.42614869867219,29,102.360271258436
"30",104.775189455768,-10.1871843315758,102.158540108503,12.8038336788409,1,"subseries 6",FALSE,30,6.16748269515543,30,102.158540108503
"31",104.285441724619,0.888288284898338,101.790001443445,1.60715199627585,1,"subseries 7",FALSE,31,5.42061144610343,31,101.790001443445
"32",105.291130161665,7.76805362860924,101.39821871526,-3.87514218220439,1,"subseries 8",FALSE,32,5.66902887139119,32,101.39821871526
"33",109.515515060058,8.2769542210526,100.80685375707,0.431707081935883,1,"subseries 9",FALSE,33,5.68998345699132,33,100.80685375707
"34",107.218921690252,8.05739683783616,100.076278271348,-0.914753418932506,1,"subseries 10",FALSE,34,5.71748137460574,34,100.076278271348
"35",106.816873625888,6.17149343030091,99.2807940903932,1.36458610519391,1,"subseries 11",FALSE,35,6.27335477520533,35,99.2807940903932
"36",101.879860583556,3.65973834745488,98.3849685799202,-0.164846343819065,1,"subseries 12",FALSE,36,6.85227349164046,36,98.3849685799202
"37",99.9330378055632,2.74783986245443,97.6501395754817,-0.464941632372899,1,"subseries 1",FALSE,37,7.01928497013042,37,97.6501395754817
"38",93.6425986625663,-0.770210974476932,97.271224315165,-2.85841467812172,1,"subseries 2",FALSE,38,7.19166235405267,38,97.271224315165
"39",91.900356418687,-5.53693190582711,97.1067135423734,0.330574782140687,1,"subseries 3",FALSE,39,5.96484758926132,39,97.1067135423734
"40",86.1115401397087,-8.94658385808832,97.0557312607196,-1.99760726292256,1,"subseries 4",FALSE,40,5.24717112539688,40,97.0557312607196
"41",85.2622915724969,-12.1288535426384,97.2788293635172,0.112315751618084,1,"subseries 5",FALSE,41,4.21448413691676,41,97.2788293635172
"42",77.8191548378315,-10.1871843315758,97.6668418627031,-9.66050269329578,1,"subseries 6",FALSE,42,4.89335863100043,42,97.6668418627031
"43",106.664510752967,0.888288284898338,98.2766820157027,7.49954045236593,1,"subseries 7",FALSE,43,4.65508001481508,43,98.2766820157027
"44",107.280934476472,7.76805362860924,98.9875111789724,0.525369668890349,1,"subseries 8",FALSE,44,5.6328959058642,44,98.9875111789724
"45",103.864256588618,8.2769542210526,99.7282860092593,-4.14098364169392,1,"subseries 9",FALSE,45,5.4137148617388,45,99.7282860092593
"46",110.785617224362,8.05739683783616,100.409474708401,2.31874567812453,1,"subseries 10",FALSE,46,5.85354180488361,46,100.409474708401
"47",109.163631613692,6.17149343030091,100.895439842818,2.09669834057345,1,"subseries 11",FALSE,47,6.64398800477033,47,100.895439842818
"48",106.733871594437,3.65973834745488,101.23660337368,1.83752987330217,1,"subseries 12",FALSE,48,7.98892850286588,48,101.23660337368
"49",105.572392295904,2.74783986245443,101.317908656961,1.50664377648809,1,"subseries 1",FALSE,49,8.17020053897398,49,101.317908656961
"50",102.457451994433,-0.770210974476932,101.421639230429,1.80602373848123,1,"subseries 2",FALSE,50,6.60666806497687,50,101.421639230429
"51",94.8838167796068,-5.53693190582711,101.476972857327,-1.05622417189296,1,"subseries 3",FALSE,51,6.83355251088951,51,101.476972857327
"52",93.7668712571426,-8.94658385808832,101.552545149986,1.16090996524451,1,"subseries 4",FALSE,52,5.32446879817951,52,101.552545149986
"53",84.4934998147249,-12.1288535426384,101.758621396195,-5.13626803883214,1,"subseries 5",FALSE,53,9.37023602071428,53,101.758621396195
"54",87.1793514556405,-10.1871843315758,101.85380208114,-4.48726629392328,1,"subseries 6",FALSE,54,13.8069835325571,54,101.85380208114
"55",106.671323712601,0.888288284898338,102.110396321078,3.67263910662477,1,"subseries 7",FALSE,55,4.82468442417549,55,102.110396321078
"56",107.631177425063,7.76805362860924,102.409420010228,-2.54629621377383,1,"subseries 8",FALSE,56,5.60922078015571,56,102.409420010228
"57",114.283870651645,8.2769542210526,102.744913674454,3.26200275613866,1,"subseries 9",FALSE,57,3.87445727971498,57,102.744913674454
"58",113.932750530441,8.05739683783616,103.16384063994,2.71151305266446,1,"subseries 10",FALSE,58,4.40831889542132,58,103.16384063994
"59",108.409405614787,6.17149343030091,103.4229071864,-1.18499500191358,1,"subseries 11",FALSE,59,5.67984447912755,59,103.4229071864
"60",107.685476319458,3.65973834745488,103.595903072674,0.429834899329535,1,"subseries 12",FALSE,60,8.01670622222957,60,103.595903072674
"61",107.820786413219,2.74783986245443,103.591792950163,1.48115360060133,1,"subseries 1",FALSE,61,8.73566517895671,61,103.591792950163
"62",103.417850738796,-0.770210974476932,103.599156272967,0.588905440306306,1,"subseries 2",FALSE,62,8.03890401229595,62,103.599156272967
"63",96.7209205204132,-5.53693190582711,103.67668119282,-1.41882876657969,1,"subseries 3",FALSE,63,7.08540776005923,63,103.67668119282
"64",94.2885125706665,-8.94658385808832,103.684733963442,-0.449637534687199,1,"subseries 4",FALSE,64,7.56263392226214,64,103.684733963442
"65",90.6635462321332,-12.1288535426384,103.761766794687,-0.969367019915552,1,"subseries 5",FALSE,65,5.94179246790493,65,103.761766794687
"66",88.8313240137667,-10.1871843315758,103.671010676294,-4.65250233095131,1,"subseries 6",FALSE,66,4.36064410611074,66,103.671010676294
"67",107.123927190027,0.888288284898338,103.488240138302,2.74739876682678,1,"subseries 7",FALSE,67,4.3178507646118,67,103.488240138302
"68",117.281007884126,7.76805362860924,103.361009089316,6.1519451662006,1,"subseries 8",FALSE,68,4.28578361172053,68,103.361009089316
"69",112.465710580261,8.2769542210526,103.193242708061,0.995513651147064,1,"subseries 9",FALSE,69,5.41632930154422,69,103.193242708061
"70",108.716718821059,8.05739683783616,103.120270683897,-2.46094870067408,1,"subseries 10",FALSE,70,4.4979140985334,70,103.120270683897
"71",111.921036327289,6.17149343030092,103.021721294702,2.72782160228574,1,"subseries 11",FALSE,71,5.45781320065624,71,103.021721294702
"72",105.423341863063,3.65973834745488,102.755640916748,-0.992037401139839,1,"subseries 12",FALSE,72,7.28301252722321,72,102.755640916748
"73",101.57361417002,2.74783986245443,102.400664438911,-3.57489013134526,1,"subseries 1",FALSE,73,10.678610841989,73,102.400664438911
"74",NA,-0.770210974476932,101.83428079201,NA,1,"subseries 2",TRUE,74,NA,74,NA
"75",NA,-5.53693190582711,101.185680305445,NA,1,"subseries 3",TRUE,75,NA,75,NA
"76",NA,-8.94658385808832,100.533081454243,NA,1,"subseries 4",TRUE,76,NA,76,NA
"77",89.8621040654538,-12.1288535426384,99.8460440743887,2.14491353370353,1,"subseries 5",FALSE,77,9.67682227868653,77,99.8460440743887
"78",96.2238409774163,-10.1871843315758,99.3666468635644,7.04437844542771,1,"subseries 6",FALSE,78,6.59883851433137,78,99.3666468635644
"79",100.126785669063,0.888288284898338,98.8511933396385,0.387304044526203,1,"subseries 7",FALSE,79,3.85585343173931,79,98.8511933396385
"80",102.034428525506,7.76805362860924,98.3854825985329,-4.11910770163615,1,"subseries 8",FALSE,80,6.61753943121167,80,98.3854825985329
"81",102.662404981087,8.2769542210526,98.0449585775419,-3.65950781750752,1,"subseries 9",FALSE,81,3.87991825321959,81,98.0449585775419
"82",105.577828074614,8.05739683783616,97.8622631045475,-0.341831867769699,1,"subseries 10",FALSE,82,4.31731116797415,82,97.8622631045475
"83",99.1608316782226,6.17149343030091,97.9745849591543,-4.98524671123265,1,"subseries 11",FALSE,83,5.63683155889948,83,97.9745849591543
"84",101.357473463391,3.65973834745488,97.7509303171452,-0.053195201209121,1,"subseries 12",FALSE,84,6.09507538831041,84,97.7509303171452
"85",97.6236188790379,2.74783986245443,97.9379993502715,-3.06222033368802,1,"subseries 1",FALSE,85,7.92417628112423,85,97.9379993502715
"86",93.4336292616932,-0.770210974476932,98.6545841654517,-4.45074392928153,1,"subseries 2",FALSE,86,7.5240482899541,86,98.6545841654517
"87",92.5125163081797,-5.53693190582711,99.3847762632826,-1.33532804927577,1,"subseries 3",FALSE,87,8.16436338716861,87,99.3847762632826
"88",92.5915113855676,-8.94658385808832,99.9023858981285,1.63570934552742,1,"subseries 4",FALSE,88,7.73028682198379,88,99.9023858981285
"89",98.2061056897998,-12.1288535426384,100.07697812588,10.2579811065577,1,"subseries 5",FALSE,89,7.25151786931858,89,100.07697812588
"90",96.1978790428433,-10.1871843315758,100.205270880133,6.17979249428632,1,"subseries 6",FALSE,90,5.11483405547723,90,100.205270880133
"91",100.562045641006,0.888288284898338,99.8158691942763,-0.142111838168631,1,"subseries 7",FALSE,91,4.59333952538295,91,99.8158691942763
"92",106.917921783319,7.76805362860924,99.3284098630779,-0.178541708368158,1,"subseries 8",FALSE,92,4.21242646736702,92,99.3284098630779
"93",107.385260585628,8.2769542210526,98.5461917865125,0.562114578062889,1,"subseries 9",FALSE,93,4.7099594091381,93,98.5461917865125
"94",104.270856950927,8.05739683783616,97.5831971217729,-1.36973700868208,1,"subseries 10",FALSE,94,4.19207105400621,94,97.5831971217729
"95",99.1401763919147,6.17149343030091,96.8894001568725,-3.92071719525869,1,"subseries 11",FALSE,95,4.91312108876931,95,96.8894001568725
"96",97.6515341972647,3.65973834745488,96.3686103171382,-2.37681446732837,1,"subseries 12",FALSE,96,6.23409618483198,96,96.3686103171382
"97",94.3888920501919,2.74783986245443,96.3438076216659,-4.70275543392846,1,"subseries 1",FALSE,97,7.28674400586392,97,96.3438076216659
"98",94.3782054103972,-0.770210974476932,96.5404093334357,-1.39199294856161,1,"subseries 2",FALSE,98,8.11009930071961,98,96.5404093334357
"99",92.0352419031333,-5.53693190582711,97.0362967636952,0.53587704526521,1,"subseries 3",FALSE,99,7.13106510169959,99,97.0362967636952
"100",88.3098300016031,-8.94658385808832,97.7216264732416,-0.46521261355015,1,"subseries 4",FALSE,100,6.34858949439904,100,97.7216264732416
"101",86.2111955456034,-12.1288535426384,98.4526421315382,-0.112593043296371,1,"subseries 5",FALSE,101,4.93797737925125,101,98.4526421315382
"102",94.8810516022281,-10.1871843315758,99.2866795373937,5.7815563964102,1,"subseries 6",FALSE,102,7.21658481475502,102,99.2866795373937
"103",98.8573045354331,0.888288284898338,99.9631693195161,-1.99415306898135,1,"subseries 7",FALSE,103,6.62267092793727,103,99.9631693195161
"104",107.586774634191,7.76805362860924,100.565513483847,-0.746792478264751,1,"subseries 8",FALSE,104,4.44807327689151,104,100.565513483847
"105",113.177829882164,8.2769542210526,101.027688106973,3.87318755413853,1,"subseries 9",FALSE,105,3.19260365213273,105,101.027688106973
"106",106.301086674347,8.05739683783616,101.494985050543,-3.25129521403174,1,"subseries 10",FALSE,106,4.31156587961787,106,101.494985050543
"107",109.743986642662,6.17149343030091,102.018292237783,1.55420097457835,1,"subseries 11",FALSE,107,5.04203989784585,107,102.018292237783
"108",104.458869117458,3.65973834745488,102.545566053194,-1.74643528319042,1,"subseries 12",FALSE,108,6.33537401946546,108,102.545566053194
"109",104.126690132672,2.74783986245443,103.110438421412,-1.73158815119493,1,"subseries 1",FALSE,109,7.27210060360756,109,103.110438421412
"110",102.375371880657,-0.770210974476932,103.634309499196,-0.4887266440617,1,"subseries 2",FALSE,110,7.87921913025409,110,103.634309499196
"111",97.3774607982709,-5.53693190582711,104.167832456979,-1.25343975288054,1,"subseries 3",FALSE,111,7.92981740733156,111,104.167832456979
"112",95.9806194312949,-8.94658385808832,104.717977407438,0.209225881945457,1,"subseries 4",FALSE,112,6.69935410534721,112,104.717977407438
"113",98.5617674321637,-12.1288535426384,105.275929861862,5.41469111294032,1,"subseries 5",FALSE,113,5.67708213308336,113,105.275929861862
"114",93.1946211822776,-10.1871843315758,105.860049255621,-2.47824374176746,1,"subseries 6",FALSE,114,5.41645772520581,114,105.860049255621
