"","raw","seasonal","trend","remainder","weights","sub.labels","interpolated","age","sigma","operating","power"
"1",138.581107560675,9.3092114149664,111.17234690623,18.0995492394782,1,"subseries 1",FALSE,1,21.4956976122498,1,111.17234690623
"2",107.562106444392,2.89783365511362,109.736334810358,-5.07206202107973,1,"subseries 2",FALSE,2,7.64909954262188,2,109.736334810358
"3",101.418404473441,3.58371289017915,108.326388905885,-10.4916973226235,1,"subseries 3",FALSE,3,8.04192301038062,3,108.326388905885
"4",104.358537333411,4.49938373573176,106.898310605566,-7.0391570078866,1,"subseries 4",FALSE,4,14.8977063658467,4,106.898310605566
"5",NA,3.99853327818866,105.515770627166,NA,1,"subseries 5",TRUE,5,NA,5,NA
"6",96.7295362273349,-3.63369071299208,104.053912029919,-3.6906850895918,1,"subseries 6",FALSE,6,14.9454271375678,6,104.053912029919
"7",109.305998299614,-2.14674571843337,102.705214274473,8.74752974357396,1,"subseries 7",FALSE,7,7.27935000290785,7,102.705214274473
"8",98.6237003059533,-4.47714112098688,101.433786880089,1.66705454685079,1,"subseries 8",FALSE,8,6.81103158360025,8,101.433786880089
"9",93.8137516731317,-4.16604529820623,100.400603419183,-2.42080644784555,1,"subseries 9",FALSE,9,4.91919199950567,9,100.400603419183
"10",89.2197767316408,-4.82502737123124,100.116718668271,-6.0719145653992,1,"subseries 10",FALSE,10,4.14412336217828,10,100.116718668271
"11",94.7656365669891,-4.91846216460025,99.9121568973853,-0.228058165795915,1,"subseries 11",FALSE,11,7.38690398552658,11,99.9121568973853
"12",99.127765883363,-0.121562587729539,99.5856839345893,-0.336355463496716,1,"subseries 12",FALSE,12,6.72077916859529,12,99.5856839345893
"13",103.621858695834,9.3092114149664,99.415326733606,-5.10267945273841,1,"subseries 1",FALSE,13,7.77404081675004,13,99.415326733606
"14",102.909776095806,2.89783365511362,99.1694580439857,0.842484396706652,1,"subseries 2",FALSE,14,9.33075070212097,14,99.1694580439857
"15",104.495543716585,3.58371289017915,99.0627113365673,1.84911948983853,1,"subseries 3",FALSE,15,7.48235398661411,15,99.0627113365673
"16",105.342108276695,4.49938373573176,99.0040342089518,1.83869033201148,1,"subseries 4",FALSE,16,6.67542885858327,16,99.0040342089518
"17",102.59753797066,3.99853327818866,98.6431009308118,-0.0440962383404866,1,"subseries 5",FALSE,17,5.90426273807316,17,98.6431009308118
"18",100.271626366693,-3.63369071299208,98.2850483563439,5.62026872334121,1,"subseries 6",FALSE,18,6.62374576956569,18,98.2850483563439
"19",95.8624948147492,-2.14674571843337,97.71589226851,0.293348264672531,1,"subseries 7",FALSE,19,4.7266922189307,19,97.71589226851
"20",93.4118427359259,-4.47714112098688,97.1746587602382,0.714325096674614,1,"subseries 8",FALSE,20,5.49072875783216,20,97.1746587602382
"21",92.116158413904,-4.16604529820623,96.664055567039,-0.381851854928783,1,"subseries 9",FALSE,21,4.57836339427082,21,96.664055567039
"22",85.9100378809146,-4.82502737123124,96.1081526578179,-5.37308740567202,1,"subseries 10",FALSE,22,5.70726946957721,22,96.1081526578179
"23",83.1477575170694,-4.91846216460025,95.7720155139095,-7.70579583223989,1,"subseries 11",FALSE,23,7.04762414885285,23,95.7720155139095
"24",103.743560128015,-0.121562587729539,95.1342341630491,8.73088855269545,1,"subseries 12",FALSE,24,8.83921844610042,24,95.1342341630491
"25",99.6279861386219,9.3092114149664,94.4753654473528,-4.15659072369728,1,"subseries 1",FALSE,25,5.63198000497385,25,94.4753654473528
"26",97.5725022290237,2.89783365511362,93.7258200784431,0.948848495466962,1,"subseries 2",FALSE,26,9.85954744186822,26,93.7258200784431
"27",104.135765138059,3.58371289017915,92.6404320195862,7.91162022829361,1,"subseries 3",FALSE,27,7.66578198238448,27,92.6404320195862
"28",101.642050881392,4.49938373573176,92.0621724616715,5.08049468398876,1,"subseries 4",FALSE,28,7.18298407049017,28,92.0621724616715
"29",96.208348875718,3.99853327818866,91.4560914889751,0.753724108554252,1,"subseries 5",FALSE,29,6.32548757686698,29,91.4560914889751
"30",82.9701478881544,-3.63369071299208,90.9167817122525,-4.31294311110604,1,"subseries 6",FALSE,30,4.78492523072287,30,90.9167817122525
"31",79.9820156944467,-2.14674571843337,90.7152755488232,-8.58651413594309,1,"subseries 7",FALSE,31,4.64389708694632,31,90.7152755488232
"32",74.6737152823101,-4.47714112098688,90.3802208925664,-11.2293644892694,1,"subseries 8",FALSE,32,5.68183318478023,32,90.3802208925664
"33",85.9103349184303,-4.16604529820623,90.5422233155824,-0.465843098945911,1,"subseries 9",FALSE,33,7.43399900147225,33,90.5422233155824
"34",92.3500010523471,-4.82502737123124,91.003527418455,6.17150100512337,1,"subseries 10",FALSE,34,4.12188521220393,34,91.003527418455
"35",92.2856674655994,-4.91846216460025,91.8602949575512,5.34383467264841,1,"subseries 11",FALSE,35,8.31935378089998,35,91.8602949575512
"36",85.4734011499345,-0.121562587729539,93.2266148757423,-7.63165113807825,1,"subseries 12",FALSE,36,6.7492952115924,36,93.2266148757423
"37",107.65221262245,9.3092114149664,94.5066656508849,3.83633555659871,1,"subseries 1",FALSE,37,6.79655142928797,37,94.5066656508849
"38",96.2500080990982,2.89783365511362,95.6444125628345,-2.29223811884991,1,"subseries 2",FALSE,38,9.52247543199672,38,95.6444125628345
"39",102.706410698508,3.58371289017915,96.5375430757474,2.58515473258144,1,"subseries 3",FALSE,39,8.50604480410611,39,96.5375430757474
"40",102.617401508198,4.49938373573176,96.9536792661633,1.16433850630298,1,"subseries 4",FALSE,40,6.23343833970606,40,96.9536792661633
"41",102.922880260793,3.99853327818866,97.1144056184627,1.80994136414165,1,"subseries 5",FALSE,41,6.68939320809032,41,97.1144056184627
"42",95.2719187270358,-3.63369071299208,97.0594911324454,1.84611830758249,1,"subseries 6",FALSE,42,7.08461403293899,42,97.0594911324454
"43",97.672269346597,-2.14674571843337,96.5127472287319,3.30626783629843,1,"subseries 7",FALSE,43,7.6928780933101,43,96.5127472287319
"44",96.8917948326565,-4.47714112098688,95.585043360796,5.78389259284739,1,"subseries 8",FALSE,44,5.02790433725282,44,95.585043360796
"45",88.7188152023833,-4.16604529820623,94.211627674074,-1.32676717348451,1,"subseries 9",FALSE,45,4.85940282310772,45,94.211627674074
"46",88.17492037301,-4.82502737123124,92.8028389495223,0.197108794718929,1,"subseries 10",FALSE,46,4.10234991826551,46,92.8028389495223
"47",89.6062274191491,-4.91846216460025,91.3300459045863,3.19464367916306,1,"subseries 11",FALSE,47,8.86609132309821,47,91.3300459045863
"48",89.7727652429822,-0.121562587729539,90.1402173306744,-0.245889499962672,1,"subseries 12",FALSE,48,7.24332725507156,48,90.1402173306744
"49",87.8401332930284,9.3092114149664,89.284569848014,-10.753647969952,1,"subseries 1",FALSE,49,8.38064964666208,49,89.284569848014
"50",87.967927378301,2.89783365511362,88.3937573939643,-3.32366367077691,1,"subseries 2",FALSE,50,7.74013055303242,50,88.3937573939643
"51",89.5245905029512,3.58371289017915,87.7283440756108,-1.78746646283879,1,"subseries 3",FALSE,51,5.92804240633021,51,87.7283440756108
"52",91.3982357721943,4.49938373573176,87.3368303073238,-0.437978270861279,1,"subseries 4",FALSE,52,5.3140246590179,52,87.3368303073238
"53",90.0304051795332,3.99853327818866,87.3069833675186,-1.27511146617407,1,"subseries 5",FALSE,53,6.54913382714669,53,87.3069833675186
"54",86.6848388712895,-3.63369071299208,88.6895278915784,1.62900169270314,1,"subseries 6",FALSE,54,4.35384518557025,54,88.6895278915784
"55",83.2265552539911,-2.14674571843337,90.6202215728955,-5.24692060047104,1,"subseries 7",FALSE,55,5.41225025971982,55,90.6202215728955
"56",83.7348819566868,-4.47714112098688,91.8543724865922,-3.64234940891848,1,"subseries 8",FALSE,56,10.2027571119733,56,91.8543724865922
"57",NA,-4.16604529820623,93.2737714688733,NA,1,"subseries 9",TRUE,57,NA,57,NA
"58",NA,-4.82502737123124,94.1535742302711,NA,1,"subseries 10",TRUE,58,NA,58,NA
"59",NA,-4.91846216460025,94.8929504029651,NA,1,"subseries 11",TRUE,59,NA,59,NA
"60",NA,-0.121562587729539,95.7283946258136,NA,1,"subseries 12",TRUE,60,NA,60,NA
"61",109.212011755415,9.3092114149664,96.3741179782148,3.52868236223384,1,"subseries 1",FALSE,61,9.82311303253599,61,96.3741179782148
"62",110.144473749597,2.89783365511362,97.5131536760191,9.73348641846427,1,"subseries 2",FALSE,62,6.92601280397951,62,97.5131536760191
"63",107.584259313295,3.58371289017915,98.3643947128728,5.636151710243,1,"subseries 3",FALSE,63,9.05009229762274,63,98.3643947128728
"64",NA,4.49938373573176,99.2822754420721,NA,1,"subseries 4",TRUE,64,NA,64,NA
"65",NA,3.99853327818866,99.7802676932782,NA,1,"subseries 5",TRUE,65,NA,65,NA
"66",83.1041027914982,-3.63369071299208,99.2645642226293,-12.526770718139,1,"subseries 6",FALSE,66,9.36161124092021,66,99.2645642226293
"67",97.2432276846167,-2.14674571843337,98.5664328884984,0.823540514551667,1,"subseries 7",FALSE,67,7.92933644641725,67,98.5664328884984
"68",99.3796413595075,-4.47714112098688,97.6217520439146,6.23503043657982,1,"subseries 8",FALSE,68,6.99374841816968,68,97.6217520439146
"69",97.0182114955463,-4.16604529820623,96.7089374748713,4.47531931888119,1,"subseries 9",FALSE,69,5.80707372704465,69,96.7089374748713
"70",96.0040335249322,-4.82502737123124,95.9934692955714,4.83559160059205,1,"subseries 10",FALSE,70,5.37082558289019,70,95.9934692955714
"71",89.462131867614,-4.91846216460025,95.3388500098953,-0.958255977681048,1,"subseries 11",FALSE,71,4.47547341342276,71,95.3388500098953
"72",93.8107251460403,-0.121562587729539,94.7060880978374,-0.77380036406754,1,"subseries 12",FALSE,72,10.4570340419326,72,94.7060880978374
"73",96.4747293733468,9.3092114149664,94.100421327713,-6.93490336933262,1,"subseries 1",FALSE,73,7.64492036057691,73,94.100421327713
"74",94.162370965355,2.89783365511362,93.4724001325714,-2.20786282233,1,"subseries 2",FALSE,74,9.08832666676543,74,93.4724001325714
"75",89.5335406435043,3.58371289017915,92.8562391347865,-6.90641138146137,1,"subseries 3",FALSE,75,8.96339692950903,75,92.8562391347865
"76",95.5719903840106,4.49938373573176,92.2291826876029,-1.15657603932409,1,"subseries 4",FALSE,76,7.1317577298838,76,92.2291826876029
"77",94.4698941399823,3.99853327818866,91.6089419689417,-1.13758110714807,1,"subseries 5",FALSE,77,7.03853543142268,77,91.6089419689417
"78",98.2234213921383,-3.63369071299208,91.0023988346045,10.8547132705258,1,"subseries 6",FALSE,78,4.37135085502707,78,91.0023988346045
