"","raw","seasonal","trend","remainder","weights","sub.labels","interpolated","age","sigma","operating","power"
"1",143.988012670665,3.32890371158491,141.497289538172,-0.838180579091613,1,"subseries 1",FALSE,1,30.3996494074027,1,141.497289538172
"2",138.555378436175,-0.421403066386181,142.145514881692,-3.16873337913091,1,"subseries 2",FALSE,2,27.7599503480811,2,142.145514881692
"3",NA,-6.78576619537551,142.761701289493,NA,1,"subseries 3",TRUE,3,NA,3,NA
"4",127.280808144275,-7.97478128487087,143.296913398221,-8.04132396907531,1,"subseries 4",FALSE,4,28.1812130427107,4,143.296913398221
"5",145.981143296514,-3.2285284497085,143.793126405186,5.41654534103682,1,"subseries 5",FALSE,5,29.5773955044814,5,143.793126405186
"6",152.054611295211,-0.101288700339013,144.274990428489,7.88090956706105,1,"subseries 6",FALSE,6,24.7810259157493,6,144.274990428489
"7",147.151816209428,1.76896363105533,144.685907671306,0.696944907067149,1,"subseries 7",FALSE,7,21.3359308421251,7,144.685907671306
"8",143.121209930537,-3.54754797208647,145.255248257305,1.41350964531813,1,"subseries 8",FALSE,8,26.1221189134342,8,145.255248257305
"9",149.334016947054,3.18734497695734,145.586951631282,0.559720338814714,1,"subseries 9",FALSE,9,27.7264845225678,9,145.586951631282
"10",154.871598394383,3.87521490028867,145.603138116703,5.39324537739105,1,"subseries 10",FALSE,10,32.7825541374884,10,145.603138116703
"11",149.823224017446,4.30396614934577,145.558067807029,-0.0388099389283809,1,"subseries 11",FALSE,11,33.8209516456822,11,145.558067807029
"12",146.576007737691,5.59492229953452,145.335267466293,-4.35418202813622,1,"subseries 12",FALSE,12,32.1722758079069,12,145.335267466293
"13",150.640950278332,3.32890371158491,145.280645078792,2.03140148795546,1,"subseries 1",FALSE,13,31.9500069515633,13,145.280645078792
"14",135.926470338789,-0.421403066386181,145.410138031209,-9.06226462603422,1,"subseries 2",FALSE,14,32.2726072716768,14,145.410138031209
"15",135.390223822517,-6.78576619537551,145.848923291156,-3.67293327326311,1,"subseries 3",FALSE,15,33.5916378582373,15,145.848923291156
"16",139.426152258049,-7.97478128487087,146.160887514429,1.24004602849135,1,"subseries 4",FALSE,16,32.0357614059114,16,146.160887514429
"17",146.901814745506,-3.2285284497085,146.566778990711,3.56356420450348,1,"subseries 5",FALSE,17,30.3086714932812,17,146.566778990711
"18",149.58781122544,-0.101288700339013,147.03188436106,2.65721556471854,1,"subseries 6",FALSE,18,27.4050779130595,18,147.03188436106
"19",148.236082836412,1.76896363105533,147.189820565264,-0.722701359907745,1,"subseries 7",FALSE,19,24.0246117721356,19,147.189820565264
"20",151.972281637472,-3.54754797208647,147.259194016109,8.26063559344956,1,"subseries 8",FALSE,20,21.7463216082293,20,147.259194016109
"21",151.055353879663,3.18734497695734,146.878877534791,0.989131367914155,1,"subseries 9",FALSE,21,29.5803263046817,21,146.878877534791
"22",146.941379038516,3.87521490028867,146.36885234732,-3.30268820909299,1,"subseries 10",FALSE,22,33.1606640929601,22,146.36885234732
"23",154.194232106237,4.30396614934577,145.763985223113,4.12628073377843,1,"subseries 11",FALSE,23,34.3938822472109,23,145.763985223113
"24",147.046937444866,5.59492229953452,144.977714392294,-3.52569924696209,1,"subseries 12",FALSE,24,32.5941678193971,24,144.977714392294
"25",146.223341778611,3.32890371158491,144.296517576224,-1.40207950919751,1,"subseries 1",FALSE,25,30.8739855853228,25,144.296517576224
"26",134.808455555674,-0.421403066386181,143.779532344943,-8.54967372288314,1,"subseries 2",FALSE,26,28.2441277423907,26,143.779532344943
"27",143.166950191627,-6.78576619537551,143.612700041961,6.34001634504162,1,"subseries 3",FALSE,27,31.8818525320036,27,143.612700041961
"28",137.372629498154,-7.97478128487087,143.595244846045,1.75216593697937,1,"subseries 4",FALSE,28,32.0275439878181,28,143.595244846045
"29",136.711694031239,-3.2285284497085,143.743739608884,-3.80351712793683,1,"subseries 5",FALSE,29,29.2974298274595,29,143.743739608884
"30",136.338903722569,-0.101288700339013,143.865023870104,-7.42483144719571,1,"subseries 6",FALSE,30,25.2855618631683,30,143.865023870104
"31",150.193469182564,1.76896363105533,143.870313326561,4.55419222494771,1,"subseries 7",FALSE,31,21.4800400409909,31,143.870313326561
"32",149.816690955766,-3.54754797208647,143.849657967552,9.51458096030018,1,"subseries 8",FALSE,32,25.0847384642506,32,143.849657967552
"33",146.134046175564,3.18734497695734,143.664130519413,-0.71742932080636,1,"subseries 9",FALSE,33,26.008142200347,33,143.664130519413
"34",143.724189196746,3.87521490028867,143.662228211184,-3.81325391472646,1,"subseries 10",FALSE,34,29.9300497660259,34,143.662228211184
"35",152.342159189675,4.30396614934577,143.655531090113,4.38266195021629,1,"subseries 11",FALSE,35,32.9889910789173,35,143.655531090113
"36",147.214680291298,5.59492229953452,143.676463034108,-2.05670504234499,1,"subseries 12",FALSE,36,33.9146831469023,36,143.676463034108
"37",137.900359927619,3.32890371158491,143.864225329368,-9.29276911333429,1,"subseries 1",FALSE,37,28.9100199332223,37,143.864225329368
"38",146.090004515525,-0.421403066386181,144.017158517137,2.49424906477395,1,"subseries 2",FALSE,38,29.7181962466539,38,144.017158517137
"39",134.637066916371,-6.78576619537551,144.514228564899,-3.09139545315296,1,"subseries 3",FALSE,39,29.2160747401916,39,144.514228564899
"40",140.774751295897,-7.97478128487087,145.009234772314,3.74029780845345,1,"subseries 4",FALSE,40,31.199559629614,40,145.009234772314
"41",139.775497358674,-3.2285284497085,145.441935306981,-2.43790949859863,1,"subseries 5",FALSE,41,30.1450375633726,41,145.441935306981
"42",145.962307656441,-0.101288700339013,145.678695231303,0.384901125476659,1,"subseries 6",FALSE,42,28.3907225744243,42,145.678695231303
"43",154.627363625055,1.76896363105533,145.458835829888,7.39956416411118,1,"subseries 7",FALSE,43,23.8824677001431,43,145.458835829888
"44",148.292534842139,-3.54754797208647,145.070487695516,6.76959511870911,1,"subseries 8",FALSE,44,20.217186582025,44,145.070487695516
"45",146.991759644363,3.18734497695734,144.222513317066,-0.418098649659925,1,"subseries 9",FALSE,45,19.8328415666971,45,144.222513317066
"46",147.97912331461,3.87521490028867,143.313711165034,0.790197249287701,1,"subseries 10",FALSE,46,29.2019401108646,46,143.313711165034
"47",147.25121266218,4.30396614934577,142.255178580722,0.69206793211174,1,"subseries 11",FALSE,47,31.136518235741,47,142.255178580722
"48",143.609563157356,5.59492229953452,140.921168562596,-2.90652770477482,1,"subseries 12",FALSE,48,32.9632255715199,48,140.921168562596
"49",135.734861691815,3.32890371158491,139.689146280116,-7.28318829988601,1,"subseries 1",FALSE,49,28.6586394607009,49,139.689146280116
"50",140.587555482358,-0.421403066386181,138.380176108105,2.62878244063953,1,"subseries 2",FALSE,50,30.2284949007947,50,138.380176108105
"51",129.000932045108,-6.78576619537551,137.291688580758,-1.50499034027479,1,"subseries 3",FALSE,51,25.8419437633973,51,137.291688580758
"52",133.681213056442,-7.97478128487087,136.379231381062,5.27676296025118,1,"subseries 4",FALSE,52,30.3626145240446,52,136.379231381062
"53",129.936071373059,-3.2285284497085,135.501627141493,-2.33702731872535,1,"subseries 5",FALSE,53,27.9121108109545,53,135.501627141493
"54",134.850608739545,-0.101288700339013,134.934132502566,0.0177649373180202,1,"subseries 6",FALSE,54,25.0927916778028,54,134.934132502566
"55",134.338503954486,1.76896363105533,134.433854084638,-1.86431376120751,1,"subseries 7",FALSE,55,22.0488505791249,55,134.433854084638
"56",131.70384860066,-3.54754797208647,134.11726893728,1.13412763546637,1,"subseries 8",FALSE,56,19.6731943703221,56,134.11726893728
"57",137.673269413379,3.18734497695734,134.106142737954,0.379781698467184,1,"subseries 9",FALSE,57,26.3576974722296,57,134.106142737954
"58",127.719227663999,3.87521490028867,134.226388462346,-10.382375698636,1,"subseries 10",FALSE,58,26.479719347172,58,134.226388462346
"59",138.120542503935,4.30396614934577,134.698259654559,-0.881683299969325,1,"subseries 11",FALSE,59,30.7113210901757,59,134.698259654559
"60",143.943544458068,5.59492229953452,135.277312701306,3.07130945722727,1,"subseries 12",FALSE,60,33.0538265169432,60,135.277312701306
"61",135.127812317878,3.32890371158491,136.020026318553,-4.22111771225983,1,"subseries 1",FALSE,61,29.5844341110467,61,136.020026318553
"62",142.62038691391,-0.421403066386181,136.86735711712,6.17443286317658,1,"subseries 2",FALSE,62,29.7190350889846,62,136.86735711712
"63",129.090949545488,-6.78576619537551,137.649383917878,-1.77266817701459,1,"subseries 3",FALSE,63,27.1304125362446,63,137.649383917878
"64",132.887020930954,-7.97478128487087,138.403988387001,2.45781382882382,1,"subseries 4",FALSE,64,29.8269537005424,64,138.403988387001
"65",137.619341905613,-3.2285284497085,138.84113087245,2.00673948287178,1,"subseries 5",FALSE,65,30.8521326672816,65,138.84113087245
"66",139.399069724905,-0.101288700339013,139.016488242018,0.48387018322552,1,"subseries 6",FALSE,66,28.2580494694784,66,139.016488242018
"67",140.199790011228,1.76896363105533,138.975885213479,-0.545058833306257,1,"subseries 7",FALSE,67,23.8780580976885,67,138.975885213479
"68",139.693604084958,-3.54754797208647,139.032885175368,4.20826688167659,1,"subseries 8",FALSE,68,23.3533848555556,68,139.032885175368
"69",139.225536652895,3.18734497695734,139.161131928909,-3.12294025297126,1,"subseries 9",FALSE,69,25.1451033126946,69,139.161131928909
"70",146.531870849061,3.87521490028867,139.230023654922,3.42663229384999,1,"subseries 10",FALSE,70,30.6810997593257,70,139.230023654922
"71",132.364417155542,4.30396614934577,139.410668128759,-11.350217122563,1,"subseries 11",FALSE,71,27.4888928886407,71,139.410668128759
"72",144.194015163834,5.59492229953452,139.191944595098,-0.592851730798998,1,"subseries 12",FALSE,72,31.5655013900841,72,139.191944595098
"73",148.11305308915,3.32890371158491,138.789624706088,5.99452467147728,1,"subseries 1",FALSE,73,31.206533704303,73,138.789624706088
"74",142.748419330568,-0.421403066386181,138.022815873695,5.14700652325914,1,"subseries 2",FALSE,74,31.7286489671936,74,138.022815873695
"75",132.752244261293,-6.78576619537551,136.745207267291,2.79280318937762,1,"subseries 3",FALSE,75,30.8965123640978,75,136.745207267291
"76",134.686446850035,-7.97478128487087,136.069523404522,6.59170473038341,1,"subseries 4",FALSE,76,32.8694101839026,76,136.069523404522
"77",134.685403592317,-3.2285284497085,135.320218286778,2.5937137552479,1,"subseries 5",FALSE,77,29.8630788630218,77,135.320218286778
"78",129.805236743301,-0.101288700339013,134.739775351758,-4.83324990811826,1,"subseries 6",FALSE,78,27.5411205999006,78,134.739775351758
"79",132.096710439672,1.76896363105533,134.611712009845,-4.28396520122874,1,"subseries 7",FALSE,79,23.0329930859094,79,134.611712009845
"80",102.018062035338,-3.54754797208647,134.109655976944,-28.5440459695194,1,"subseries 8",FALSE,80,10.1842395527087,80,134.109655976944
"81",145.892540762668,3.18734497695734,134.155307036288,8.54988874942256,1,"subseries 9",FALSE,81,25.8922909001222,81,134.155307036288
"82",145.444582397587,3.87521490028867,134.296178141743,7.27318935555581,1,"subseries 10",FALSE,82,30.0343516037158,82,134.296178141743
"83",141.802367324111,4.30396614934577,134.630193322261,2.86820785250467,1,"subseries 11",FALSE,83,29.3806362980043,83,134.630193322261
"84",145.483542718252,5.59492229953452,135.497415747374,4.3912046713431,1,"subseries 12",FALSE,84,34.2002866458748,84,135.497415747374
"85",142.449923334406,3.32890371158491,135.970110886785,3.15090873603583,1,"subseries 1",FALSE,85,33.3560738443484,85,135.970110886785
"86",134.834253015479,-0.421403066386181,135.925457273899,-0.669801192033816,1,"subseries 2",FALSE,86,32.231152453398,86,135.925457273899
"87",129.149821526613,-6.78576619537551,135.427726319531,0.507861402457991,1,"subseries 3",FALSE,87,30.0686233411397,87,135.427726319531
"88",126.206272591921,-7.97478128487087,134.833176875344,-0.652122998551846,1,"subseries 4",FALSE,88,29.6041577482421,88,134.833176875344
"89",133.935860014368,-3.2285284497085,134.11172146744,3.05266699663633,1,"subseries 5",FALSE,89,31.8397356987399,89,134.11172146744
"90",135.119467170783,-0.101288700339013,133.907393980877,1.31336189024489,1,"subseries 6",FALSE,90,29.7417306531392,90,133.907393980877
"91",130.663909041633,1.76896363105533,134.101167591962,-5.20622218138448,1,"subseries 7",FALSE,91,24.3414738592531,91,134.101167591962
"92",127.337974227555,-3.54754797208647,134.030500884156,-3.14497868451417,1,"subseries 8",FALSE,92,23.8568895809638,92,134.030500884156
"93",130.530088491386,3.18734497695734,134.016337812505,-6.67359429807624,1,"subseries 9",FALSE,93,22.9284547174528,93,134.016337812505
"94",NA,3.87521490028867,133.412572450535,NA,1,"subseries 10",TRUE,94,NA,94,NA
"95",NA,4.30396614934577,132.633508945433,NA,1,"subseries 11",TRUE,95,NA,95,NA
"96",144.182565847211,5.59492229953452,132.066573204413,6.52107034326323,1,"subseries 12",FALSE,96,31.1520398507378,96,132.066573204413
"97",147.97767440282,3.32890371158491,131.445290968938,13.2034797222966,1,"subseries 1",FALSE,97,30.9207603742905,97,131.445290968938
"98",137.188046756699,-0.421403066386181,130.931210433841,6.67823938924451,1,"subseries 2",FALSE,98,30.1359201306874,98,130.931210433841
"99",125.514183571854,-6.78576619537551,130.394834463567,1.9051153036628,1,"subseries 3",FALSE,99,29.5268491268074,99,130.394834463567
"100",111.280049915687,-7.97478128487087,129.827423303475,-10.5725921029171,1,"subseries 4",FALSE,100,26.0774219584582,100,129.827423303475
"101",119.478899727155,-3.2285284497085,129.2396926221,-6.53226444523681,1,"subseries 5",FALSE,101,27.9331342980277,101,129.2396926221
