"","raw","seasonal","trend","remainder","weights","sub.labels","interpolated","age","sigma","operating","power"
"1",55.4275645406221,-2.8386185240355,96.4822542993153,-38.2160712346577,1,"subseries 1",FALSE,12,8.23140862763254,1,96.4822542993153
"2",116.667367749603,4.72515717447352,97.510769620456,14.4314409546735,1,"subseries 2",FALSE,13,4.50061791652885,2,97.510769620456
"3",113.099285511365,3.25955310554011,98.4888327543842,11.3508996514407,1,"subseries 3",FALSE,14,6.28378914584155,3,98.4888327543842
"4",112.224515205168,1.53148854591795,99.4957258014883,11.1973008577618,1,"subseries 4",FALSE,15,6.50787146684677,4,99.4957258014883
"5",112.05562628943,1.35148940156683,100.423064654544,10.2810722333189,1,"subseries 5",FALSE,16,6.4002184672627,5,100.423064654544
"6",111.352994281063,0.533993527231003,101.640210395585,9.17879035824667,1,"subseries 6",FALSE,17,5.36868040708889,6,101.640210395585
"7",109.138399016752,-0.635278103999215,102.625455630642,7.14822149010882,1,"subseries 7",FALSE,18,4.21634524173474,7,102.625455630642
"8",97.0760056515475,-5.45171116520776,103.140520581356,-0.612803764600798,1,"subseries 8",FALSE,19,13.1777819705004,8,103.140520581356
"9",72.2447913817716,-6.1946324417166,103.437631414132,-24.9982075906438,1,"subseries 9",FALSE,20,5.56728747480909,9,103.437631414132
"10",84.3901191354468,-2.0794902295852,103.099070565254,-16.6294612002217,1,"subseries 10",FALSE,21,6.38204267955484,10,103.099070565254
"11",112.863696617139,2.76314763084752,103.403676665016,6.69687232127559,1,"subseries 11",FALSE,22,6.01701352906522,11,103.403676665016
"12",109.938445296809,3.03490107896734,103.814531296486,3.08901292135528,1,"subseries 12",FALSE,23,9.46756093912664,12,103.814531296486
"13",113.337018766951,-2.8386185240355,104.454454651977,11.7211826390092,1,"subseries 1",FALSE,24,5.93323676439641,13,104.454454651977
"14",112.918394495502,4.72515717447352,105.760184149911,2.43305317111786,1,"subseries 2",FALSE,25,4.73240842260049,14,105.760184149911
"15",111.165310494174,3.25955310554011,106.525428910668,1.38032847796606,1,"subseries 3",FALSE,26,6.34302091908211,15,106.525428910668
"16",109.357750282425,1.53148854591795,107.256987756581,0.569273979926436,1,"subseries 4",FALSE,27,5.20498134865207,16,107.256987756581
"17",108.611130973214,1.35148940156683,107.594810093552,-0.335168521904805,1,"subseries 5",FALSE,28,4.70730239123063,17,107.594810093552
"18",108.067276245338,0.533993527231003,107.328249917332,0.205032800775228,1,"subseries 6",FALSE,29,5.05751939953682,18,107.328249917332
"19",103.120298202413,-0.635278103999215,107.189731654552,-3.43415534813951,1,"subseries 7",FALSE,30,4.89628629588056,19,107.189731654552
"20",93.4451343311167,-5.45171116520776,107.052744379555,-8.15589888323063,1,"subseries 8",FALSE,31,8.56487659805576,20,107.052744379555
"21",107.147237896896,-6.1946324417166,107.063047053734,6.27882328487831,1,"subseries 9",FALSE,32,13.0178212377812,21,107.063047053734
"22",111.522112161582,-2.0794902295852,107.17867991304,6.42292247812749,1,"subseries 10",FALSE,33,6.35757425064342,22,107.17867991304
"23",104.54210202234,2.76314763084752,107.308644281053,-5.52968988956022,1,"subseries 11",FALSE,34,5.71894173516384,23,107.308644281053
"24",108.448259363592,3.03490107896734,107.469833877731,-2.05647559310611,1,"subseries 12",FALSE,35,7.48764017230593,24,107.469833877731
"25",110.475936910972,-2.8386185240355,107.480550187335,5.83400524767262,1,"subseries 1",FALSE,36,6.56112769753761,25,107.480550187335
"26",111.369014051059,4.72515717447352,107.378711002658,-0.73485412607279,1,"subseries 2",FALSE,37,5.68432949043926,26,107.378711002658
"27",109.363702178584,3.25955310554011,107.161980237911,-1.05783116486707,1,"subseries 3",FALSE,38,5.38973308101889,27,107.161980237911
"28",109.997171520889,1.53148854591795,107.082793408607,1.38288956636427,1,"subseries 4",FALSE,39,5.32080203515211,28,107.082793408607
"29",108.907573349723,1.35148940156683,107.172181050982,0.38390289717448,1,"subseries 5",FALSE,40,6.3083442821955,29,107.172181050982
"30",105.695099265534,0.533993527231003,107.527463118718,-2.36635738041538,1,"subseries 6",FALSE,41,5.43691768184265,30,107.527463118718
"31",103.489101187591,-0.635278103999215,108.200530647564,-4.07615135597331,1,"subseries 7",FALSE,42,4.99856022454259,31,108.200530647564
"32",98.1808595546233,-5.45171116520776,108.820029578988,-5.18745885915649,1,"subseries 8",FALSE,43,4.65876269831649,32,108.820029578988
"33",103.974104198026,-6.1946324417166,109.664186814387,0.504549825355241,1,"subseries 9",FALSE,44,6.32524578532177,33,109.664186814387
"34",108.582551329054,-2.0794902295852,110.406349302364,0.255692256275566,1,"subseries 10",FALSE,45,7.33365706468571,34,110.406349302364
"35",116.985713380913,2.76314763084752,111.051264372645,3.17130137742083,1,"subseries 11",FALSE,46,5.80350815561627,35,111.051264372645
"36",118.320193719151,3.03490107896734,111.816791699673,3.46850094051103,1,"subseries 12",FALSE,47,8.8053792039411,36,111.816791699673
"37",115.950393173228,-2.8386185240355,112.27559507237,6.51341662489313,1,"subseries 1",FALSE,48,8.72290574446818,37,112.27559507237
"38",115.920568865419,4.72515717447352,112.832118064864,-1.63670637391859,1,"subseries 2",FALSE,49,4.76131294004666,38,112.832118064864
"39",114.838894922999,3.25955310554011,113.25174507485,-1.67240325739145,1,"subseries 3",FALSE,50,5.56597753644436,39,113.25174507485
"40",113.078611269634,1.53148854591795,113.56693368499,-2.01981096127376,1,"subseries 4",FALSE,51,5.15039793788896,40,113.56693368499
"41",112.419640378869,1.35148940156683,114.083020794955,-3.01486981765302,1,"subseries 5",FALSE,52,5.20009316347167,41,114.083020794955
"42",112.477064873837,0.533993527231003,114.397682679992,-2.45461133338557,1,"subseries 6",FALSE,53,4.9477392148901,42,114.397682679992
"43",112.348902760239,-0.635278103999215,114.896542155842,-1.91236129160343,1,"subseries 7",FALSE,54,4.17106408845083,43,114.896542155842
"44",111.171364916821,-5.45171116520776,115.324814169448,1.29826191258113,1,"subseries 8",FALSE,55,4.30117958116996,44,115.324814169448
"45",114.661758161286,-6.1946324417166,115.56463017941,5.29176042359224,1,"subseries 9",FALSE,56,5.7815330002468,45,115.56463017941
"46",118.398733750881,-2.0794902295852,115.754145711639,4.72407826882763,1,"subseries 10",FALSE,57,8.89563917049247,46,115.754145711639
"47",119.000506676853,2.76314763084752,115.515224105119,0.722134940886178,1,"subseries 11",FALSE,58,4.94102553799459,47,115.515224105119
"48",120.001122074978,3.03490107896734,115.184715188963,1.78150580704798,1,"subseries 12",FALSE,59,3.67584655374445,48,115.184715188963
"49",115.344775004187,-2.8386185240355,114.547369584152,3.63602394407071,1,"subseries 1",FALSE,60,6.8499184433872,49,114.547369584152
"50",114.865512189744,4.72515717447352,113.678031034561,-3.5376760192905,1,"subseries 2",FALSE,61,4.01369500688087,50,113.678031034561
"51",113.215865854536,3.25955310554011,112.823326720278,-2.86701397128174,1,"subseries 3",FALSE,62,4.83739500396296,51,112.823326720278
"52",112.199127364568,1.53148854591795,111.971650405277,-1.30401158662676,1,"subseries 4",FALSE,63,6.00634849812782,52,111.971650405277
"53",112.16140414749,1.35148940156683,111.387663209348,-0.577748463424982,1,"subseries 5",FALSE,64,6.09766190724332,53,111.387663209348
"54",112.02769630121,0.533993527231003,110.973946150062,0.51975662391682,1,"subseries 6",FALSE,65,4.66851666317603,54,110.973946150062
"55",106.684445291274,-0.635278103999215,110.814955558276,-3.49523216300294,1,"subseries 7",FALSE,66,4.99199697347496,55,110.814955558276
"56",105.094642598234,-5.45171116520776,110.775387189164,-0.229033425722534,1,"subseries 8",FALSE,67,3.60203041994555,56,110.775387189164
"57",103.890397392945,-6.1946324417166,110.777941697587,-0.69291186292557,1,"subseries 9",FALSE,68,5.00978534554702,57,110.777941697587
"58",111.06666750476,-2.0794902295852,110.737082563101,2.40907517124383,1,"subseries 10",FALSE,69,7.46517704451759,58,110.737082563101
"59",114.826980221562,2.76314763084752,110.591924992774,1.47190759793997,1,"subseries 11",FALSE,70,5.15267338034914,59,110.591924992774
"60",113.475238333962,3.03490107896734,110.601389731034,-0.161052476039316,1,"subseries 12",FALSE,71,5.62143066596938,60,110.601389731034
"61",110.773996251567,-2.8386185240355,110.59667850629,3.01593626931266,1,"subseries 1",FALSE,72,8.1902815083801,61,110.59667850629
"62",113.825797761392,4.72515717447352,110.957510393835,-1.85686980691649,1,"subseries 2",FALSE,73,4.20564411821055,62,110.957510393835
"63",111.204532747409,3.25955310554011,111.647262937904,-3.70228329603528,1,"subseries 3",FALSE,74,5.14250582112617,63,111.647262937904
"64",109.530188134386,1.53148854591795,112.310370979707,-4.31167139123917,1,"subseries 4",FALSE,75,5.75065318129591,64,112.310370979707
"65",110.439738239894,1.35148940156683,113.317734043678,-4.22948520535088,1,"subseries 5",FALSE,76,6.08305768475537,65,113.317734043678
"66",110.834735961191,0.533993527231003,114.047716044723,-3.74697361076316,1,"subseries 6",FALSE,77,6.67393016467302,66,114.047716044723
"67",117.181952650745,-0.635278103999215,114.726295178253,3.09093557649116,1,"subseries 7",FALSE,78,6.99231316400066,67,114.726295178253
"68",119.227580007331,-5.45171116520776,115.190621475032,9.48866969750708,1,"subseries 8",FALSE,79,5.83596682593722,68,115.190621475032
"69",115.522119687948,-6.1946324417166,115.252413750773,6.4643383788918,1,"subseries 9",FALSE,80,4.69718899843592,69,115.252413750773
"70",118.081809475659,-2.0794902295852,115.600807522031,4.56049218321367,1,"subseries 10",FALSE,81,8.46070617131577,70,115.600807522031
"71",116.277715865226,2.76314763084752,115.574770659696,-2.06020242531736,1,"subseries 11",FALSE,82,5.6383743255218,71,115.574770659696
"72",114.973920489952,3.03490107896734,115.445246113958,-3.50622670297312,1,"subseries 12",FALSE,83,6.04177215431515,72,115.445246113958
"73",115.658525689292,-2.8386185240355,115.201323679065,3.29582053426297,1,"subseries 1",FALSE,84,7.43792961537241,73,115.201323679065
"74",115.310813436955,4.72515717447352,114.816536512726,-4.23088025024475,1,"subseries 2",FALSE,85,5.30418291220762,74,114.816536512726
"75",115.406279523503,3.25955310554011,114.666322746932,-2.51959632896885,1,"subseries 3",FALSE,86,4.27330708757683,75,114.666322746932
"76",112.421829700478,1.53148854591795,114.353020819443,-3.46267966488286,1,"subseries 4",FALSE,87,5.63329947684823,76,114.353020819443
"77",NA,1.35148940156683,114.204042009118,NA,1,"subseries 5",TRUE,88,NA,77,NA
"78",113.924859115408,0.533993527231003,114.195666118956,-0.804800530778635,1,"subseries 6",FALSE,89,8.37660932131892,78,114.195666118956
"79",116.385846568672,-0.635278103999215,114.19855410448,2.82257056819103,1,"subseries 7",FALSE,90,6.02530694748626,79,114.19855410448
"80",113.35793060145,-5.45171116520776,114.310737935172,4.49890383148598,1,"subseries 8",FALSE,91,7.47356690059531,80,114.310737935172
"81",110.962740450511,-6.1946324417166,114.321055163214,2.83631772901411,1,"subseries 9",FALSE,92,3.93400725252385,81,114.321055163214
"82",108.033223470267,-2.0794902295852,114.296303850374,-4.18359015052215,1,"subseries 10",FALSE,93,6.32744063372208,82,114.296303850374
"83",115.962707849049,2.76314763084752,114.062577172096,-0.86301695389453,1,"subseries 11",FALSE,94,6.59581090653967,83,114.062577172096
"84",117.395574371164,3.03490107896734,113.472999602651,0.887673689545281,1,"subseries 12",FALSE,95,5.32837486755979,84,113.472999602651
"85",114.875240124841,-2.8386185240355,112.711184938421,5.00267371045591,1,"subseries 1",FALSE,96,8.12289214931422,85,112.711184938421
"86",114.909352707561,4.72515717447352,111.870374496312,-1.68617896322462,1,"subseries 2",FALSE,97,6.66921327119576,86,111.870374496312
"87",115.615492312243,3.25955310554011,110.880636537502,1.47530266920057,1,"subseries 3",FALSE,98,4.97544888740159,87,110.880636537502
"88",114.683934598401,1.53148854591795,109.745985309817,3.40646074266618,1,"subseries 4",FALSE,99,5.77091675613664,88,109.745985309817
"89",108.855985374051,1.35148940156683,108.367119425703,-0.862623453218546,1,"subseries 5",FALSE,100,6.01674398688051,89,108.367119425703
"90",109.458603318872,0.533993527231003,106.715855168488,2.20875462315252,1,"subseries 6",FALSE,101,5.22534521119079,90,106.715855168488
"91",104.290327444548,-0.635278103999215,104.895950571616,0.0296549769312549,1,"subseries 7",FALSE,102,4.70639457125289,91,104.895950571616
"92",94.4099214731585,-5.45171116520776,103.055388996268,-3.19375635790198,1,"subseries 8",FALSE,103,14.6720170842173,92,103.055388996268
"93",98.158267947595,-6.1946324417166,101.215303599688,3.13759678962354,1,"subseries 9",FALSE,104,10.8471926373253,93,101.215303599688
"94",99.2056732401135,-2.0794902295852,99.4830353712772,1.80212809842145,1,"subseries 10",FALSE,105,7.07666731612339,94,99.4830353712772
"95",96.5498359522596,2.76314763084752,97.9385081221299,-4.15181980071786,1,"subseries 11",FALSE,106,5.96687993268452,95,97.9385081221299
"96",95.6226767495405,3.03490107896734,96.5982856836087,-4.01051001303556,1,"subseries 12",FALSE,107,6.29648315676933,96,96.5982856836087
"97",92.4507496139001,-2.8386185240355,95.5568353896694,-0.267467251733834,1,"subseries 1",FALSE,108,7.04340686549921,97,95.5568353896694
"98",97.5655718640107,4.72515717447352,95.1068743667409,-2.26645967720368,1,"subseries 2",FALSE,109,6.58035562538147,98,95.1068743667409
"99",97.113191891424,3.25955310554011,94.9214934945033,-1.06785470861938,1,"subseries 3",FALSE,110,4.57813295343577,99,94.9214934945033
"100",92.4999739026893,1.53148854591795,94.6452812941595,-3.67679593738818,1,"subseries 4",FALSE,111,28.061273284514,100,94.6452812941595
"101",95.9284760303429,1.35148940156683,94.4477994986192,0.129187130156879,1,"subseries 5",FALSE,112,11.9245704757511,101,94.4477994986192
"102",93.656759945957,0.533993527231003,94.2696268712323,-1.14686045250635,1,"subseries 6",FALSE,113,8.59332014863397,102,94.2696268712323
"103",94.3419996947274,-0.635278103999215,94.1296376246765,0.847640174050113,1,"subseries 7",FALSE,114,4.4622984749478,103,94.1296376246765
"104",91.2350627646124,-5.45171116520776,94.0507214662805,2.6360524635397,1,"subseries 8",FALSE,115,4.59103381589212,104,94.0507214662805
"105",89.1998860390398,-6.1946324417166,93.999896792883,1.39462168787345,1,"subseries 9",FALSE,116,3.28781384194694,105,93.999896792883
