"","raw","seasonal","trend","remainder","weights","sub.labels","interpolated","age","sigma","operating","power"
"1",152.868175401325,9.00209641033769,136.963654007859,6.90242498312824,1,"subseries 1",FALSE,1,13.7456621644591,1,136.963654007859
"2",144.027356385497,13.4971010048195,136.602972940381,-6.07271755970373,1,"subseries 2",FALSE,2,14.6191917633518,2,136.602972940381
"3",145.205971841126,8.54541036706109,136.262506508496,0.398054965568832,1,"subseries 3",FALSE,3,9.93426261144877,3,136.262506508496
"4",143.393687048291,4.41188364034201,135.95109928938,3.03070411856856,1,"subseries 4",FALSE,4,8.57447207083083,4,135.95109928938
"5",129.680167722984,-3.07775418689471,135.669507389678,-2.91158547979882,1,"subseries 5",FALSE,5,4.5230216353445,5,135.669507389678
"6",130.17609214256,-4.42906690723987,135.389263079875,-0.784104030074815,1,"subseries 6",FALSE,6,5.49332318975337,6,135.389263079875
"7",127.696951394564,-5.25783114890573,135.171884748149,-2.21710220467929,1,"subseries 7",FALSE,7,5.05353177040192,7,135.171884748149
"8",127.109753228124,-5.16517517326969,134.960782500512,-2.68585409911793,1,"subseries 8",FALSE,8,4.51363809665081,8,134.960782500512
"9",128.721341308386,-5.62735355412214,134.887505076275,-0.538810213767363,1,"subseries 9",FALSE,9,6.85858333862977,9,134.887505076275
"10",131.149334542534,-5.97114791313814,134.867154394723,2.2533280609494,1,"subseries 10",FALSE,10,7.06635903847665,10,134.867154394723
"11",129.991857197509,-5.08973987374111,134.784837891103,0.296759180147319,1,"subseries 11",FALSE,11,14.2449988442983,11,134.784837891103
"12",134.062796076822,-0.838422665248921,134.544552976701,0.356665765369968,1,"subseries 12",FALSE,12,18.955627582154,12,134.544552976701
"13",143.388409614365,9.00209641033769,133.963069644702,0.423243559325101,1,"subseries 1",FALSE,13,7.88703110991757,13,133.963069644702
"14",154.961537874612,13.4971010048195,133.343179357663,8.12125751212935,1,"subseries 2",FALSE,14,12.4298357814052,14,133.343179357663
"15",143.153530297611,8.54541036706109,132.457992819237,2.15012711131283,1,"subseries 3",FALSE,15,16.8318260532997,15,132.457992819237
"16",134.437502198406,4.41188364034201,131.553625747594,-1.52800718952977,1,"subseries 4",FALSE,16,7.08658117655124,16,131.553625747594
"17",124.031939018332,-3.07775418689471,130.626908849889,-3.51721564466195,1,"subseries 5",FALSE,17,5.01799057195101,17,130.626908849889
"18",122.526792393803,-4.42906690723987,129.599053405592,-2.6431941045487,1,"subseries 6",FALSE,18,4.84386074512197,18,129.599053405592
"19",121.691240963285,-5.25783114890573,128.749824534971,-1.80075242278029,1,"subseries 7",FALSE,19,4.60885972624665,19,128.749824534971
"20",122.745416347302,-5.16517517326969,127.992570621627,-0.0819791010552962,1,"subseries 8",FALSE,20,3.73247481399074,20,127.992570621627
"21",121.003708997073,-5.62735355412214,127.579989849445,-0.948927298249927,1,"subseries 9",FALSE,21,4.85297591672266,21,127.579989849445
"22",121.672353632246,-5.97114791313814,127.448649367885,0.194852177499115,1,"subseries 10",FALSE,22,4.29361144663439,22,127.448649367885
"23",121.386982781822,-5.08973987374111,127.44016735191,-0.963444696347096,1,"subseries 11",FALSE,23,5.94960294072901,23,127.44016735191
"24",126.47379962899,-0.838422665248921,127.470234397983,-0.158012103743772,1,"subseries 12",FALSE,24,8.4897786673925,24,127.470234397983
"25",133.071618409767,9.00209641033769,127.472163353911,-3.40264135448156,1,"subseries 1",FALSE,25,12.6982710142786,25,127.472163353911
"26",147.315863719064,13.4971010048195,127.507928767009,6.31083394723581,1,"subseries 2",FALSE,26,12.685145972034,26,127.507928767009
"27",136.648151854291,8.54541036706109,127.527838779885,0.57490270734526,1,"subseries 3",FALSE,27,10.3962502973619,27,127.527838779885
"28",129.9777460806,4.41188364034201,127.598215753968,-2.03235331371022,1,"subseries 4",FALSE,28,8.12417720386505,28,127.598215753968
"29",124.095480466472,-3.07775418689471,127.646158060897,-0.472923407530033,1,"subseries 5",FALSE,29,5.62066718722507,29,127.646158060897
"30",122.451327172371,-4.42906690723987,127.606475660221,-0.726081580610057,1,"subseries 6",FALSE,30,4.96077463693794,30,127.606475660221
"31",122.173723908356,-5.25783114890573,127.533818459938,-0.102263402676513,1,"subseries 7",FALSE,31,5.0405246640334,31,127.533818459938
"32",123.206043804192,-5.16517517326969,127.29567131183,1.0755476656313,1,"subseries 8",FALSE,32,4.06704753122049,32,127.29567131183
"33",122.013637967403,-5.62735355412214,126.998145833051,0.64284568847367,1,"subseries 9",FALSE,33,5.64067171806546,33,126.998145833051
"34",121.117233128637,-5.97114791313814,126.783524818331,0.304856223444631,1,"subseries 10",FALSE,34,6.13964922382925,34,126.783524818331
"35",123.775676632935,-5.08973987374111,126.48394758995,2.38146891672591,1,"subseries 11",FALSE,35,5.94518567583395,35,126.48394758995
"36",126.352595707507,-0.838422665248921,126.368718550753,0.822299822002989,1,"subseries 12",FALSE,36,7.42304342014262,36,126.368718550753
"37",132.2363291783,9.00209641033769,126.384219828583,-3.14998706062043,1,"subseries 1",FALSE,37,9.61395792909472,37,126.384219828583
"38",137.731437586033,13.4971010048195,126.34802435309,-2.11368777187683,1,"subseries 2",FALSE,38,11.3649587593182,38,126.34802435309
"39",133.104121583165,8.54541036706109,126.463991806664,-1.90528059055988,1,"subseries 3",FALSE,39,10.4257949838444,39,126.463991806664
"40",127.877219770964,4.41188364034201,126.408853653643,-2.94351752302111,1,"subseries 4",FALSE,40,7.11967818354378,40,126.408853653643
"41",123.658651133637,-3.07775418689471,126.358046979443,0.378358341088443,1,"subseries 5",FALSE,41,5.01952350916885,41,126.358046979443
"42",129.20461570707,-4.42906690723987,126.439698343515,7.19398427079459,1,"subseries 6",FALSE,42,18.2693641464969,42,126.439698343515
"43",123.562198958132,-5.25783114890573,126.424847216401,2.39518289063703,1,"subseries 7",FALSE,43,15.6847138632569,43,126.424847216401
"44",120.797980361303,-5.16517517326969,126.497213718254,-0.53405818368104,1,"subseries 8",FALSE,44,4.93298615634827,44,126.497213718254
"45",119.634042317177,-5.62735355412214,126.399741846001,-1.13834597470198,1,"subseries 9",FALSE,45,5.75009834508828,45,126.399741846001
"46",117.923797273575,-5.97114791313814,126.224894383506,-2.32994919679329,1,"subseries 10",FALSE,46,6.89953494612348,46,126.224894383506
"47",120.122878029443,-5.08973987374111,126.103687100502,-0.891069197317549,1,"subseries 11",FALSE,47,8.23741074175935,47,126.103687100502
"48",125.936286753619,-0.838422665248921,125.976047420012,0.798661998855678,1,"subseries 12",FALSE,48,7.6690666689252,48,125.976047420012
"49",135.341662045645,9.00209641033769,126.110910061054,0.228655574253636,1,"subseries 1",FALSE,49,9.86464958732562,49,126.110910061054
"50",135.423899380145,13.4971010048195,126.450771300723,-4.52397292539705,1,"subseries 2",FALSE,50,10.8609234433429,50,126.450771300723
"51",133.715072924656,8.54541036706109,126.947042838086,-1.77738028049129,1,"subseries 3",FALSE,51,11.0045526132794,51,126.947042838086
"52",133.69263200912,4.41188364034201,127.432083364496,1.84866500428166,1,"subseries 4",FALSE,52,11.6739048741998,52,127.432083364496
"53",127.22833260382,-3.07775418689471,127.908436324809,2.39765046590621,1,"subseries 5",FALSE,53,7.79366529507009,53,127.908436324809
"54",121.976684926664,-4.42906690723987,128.293628538644,-1.88787670473999,1,"subseries 6",FALSE,54,5.1162338646187,54,128.293628538644
"55",125.672368767529,-5.25783114890573,128.501735568148,2.42846434828627,1,"subseries 7",FALSE,55,5.37960250301178,55,128.501735568148
"56",126.086193751949,-5.16517517326969,128.678734063193,2.57263486202609,1,"subseries 8",FALSE,56,8.11333698230936,56,128.678734063193
"57",124.889200078445,-5.62735355412214,128.61724403611,1.89930959645741,1,"subseries 9",FALSE,57,4.98941363121209,57,128.61724403611
"58",122.486547153175,-5.97114791313814,128.524737701344,-0.067042635030873,1,"subseries 10",FALSE,58,5.89382610220917,58,128.524737701344
"59",122.696033030606,-5.08973987374111,128.415584505586,-0.629811601238401,1,"subseries 11",FALSE,59,13.7601385710467,59,128.415584505586
"60",125.680549217481,-0.838422665248921,128.269113282297,-1.75014139956666,1,"subseries 12",FALSE,60,8.18303738107518,60,128.269113282297
"61",135.632630192605,9.00209641033769,128.219412419577,-1.58887863731002,1,"subseries 1",FALSE,61,10.426658973392,61,128.219412419577
"62",139.300061579026,13.4971010048195,128.199152645562,-2.39619207135542,1,"subseries 2",FALSE,62,11.2726708039117,62,128.199152645562
"63",136.66833636872,8.54541036706109,128.228038326304,-0.105112324645233,1,"subseries 3",FALSE,63,13.209455207226,63,128.228038326304
"64",133.623036807733,4.41188364034201,128.263822017337,0.947331150053657,1,"subseries 4",FALSE,64,9.57125300403744,64,128.263822017337
"65",128.832327313709,-3.07775418689471,128.318114683173,3.59196681743057,1,"subseries 5",FALSE,65,13.4966562906687,65,128.318114683173
"66",122.502742701321,-4.42906690723987,128.399540128907,-1.46773052034617,1,"subseries 6",FALSE,66,15.31056643228,66,128.399540128907
"67",122.494841247802,-5.25783114890573,128.491103239959,-0.738430843251678,1,"subseries 7",FALSE,67,9.19436875638216,67,128.491103239959
"68",123.299374395856,-5.16517517326969,128.591386282599,-0.126836713472983,1,"subseries 8",FALSE,68,6.19955083396084,68,128.591386282599
"69",123.481701352735,-5.62735355412214,128.697491633067,0.411563273790591,1,"subseries 9",FALSE,69,4.23115390020058,69,128.697491633067
