"","raw","seasonal","trend","remainder","weights","sub.labels","interpolated","age","sigma","operating","power"
"1",51.3856127122233,-4.74966809997259,58.5306088141829,-2.39532800198699,1,"subseries 1",FALSE,1,5.34651835055431,1,58.5306088141829
"2",51.2304090701404,-6.38722410898846,57.5395363542805,0.0780968248483802,1,"subseries 2",FALSE,2,5.08547831200655,2,57.5395363542805
"3",50.1673942928135,-8.67218952822989,56.5659784840389,2.27360533700449,1,"subseries 3",FALSE,3,3.93988556137385,3,56.5659784840389
"4",52.6743288053222,-6.05957359438761,55.6494859754743,3.08441642423548,1,"subseries 4",FALSE,4,5.61059450370341,4,55.6494859754743
"5",57.666839764349,-0.955711830727085,54.7560475497674,3.86650404530868,1,"subseries 5",FALSE,5,4.85658978422432,5,54.7560475497674
"6",58.8232316076304,4.91333424715543,53.9406455124152,-0.0307481519402231,1,"subseries 6",FALSE,6,7.55436402396743,6,53.9406455124152
"7",58.746721134279,9.82078307681147,53.1568607147417,-4.23092265727421,1,"subseries 7",FALSE,7,12.3975838055664,7,53.1568607147417
"8",57.3591449017773,9.65278752581112,52.219417718839,-4.51306034287285,1,"subseries 8",FALSE,8,8.75355449301179,8,52.219417718839
"9",52.6659572856555,5.56409859741622,51.452453168652,-4.3505944804127,1,"subseries 9",FALSE,9,4.71390720863471,9,51.452453168652
"10",49.7601514930296,1.10417941103966,50.9749034687449,-2.31893138675492,1,"subseries 10",FALSE,10,5.25353842172635,10,50.9749034687449
"11",49.7764745770989,-1.39812143133385,50.8662445996967,0.308351408736094,1,"subseries 11",FALSE,11,6.05010999107479,11,50.8662445996967
"12",48.9350635326503,-2.83269426459441,51.1146502562045,0.653107541040207,1,"subseries 12",FALSE,12,6.09289275417411,12,51.1146502562045
"13",48.019519422074,-4.74966809997259,51.5350030189164,1.23418450313021,1,"subseries 1",FALSE,13,4.2898128754563,13,51.5350030189164
"14",45.9370700744165,-6.38722410898846,52.0788962213296,0.245397962075408,1,"subseries 2",FALSE,14,4.65554332969367,14,52.0788962213296
"15",44.6763233661132,-8.67218952822989,52.4804347841594,0.86807811018366,1,"subseries 3",FALSE,15,3.78641519914276,15,52.4804347841594
"16",44.0346185976126,-6.05957359438761,52.6041547493465,-2.50996255734626,1,"subseries 4",FALSE,16,3.44125670574449,16,52.6041547493465
"17",54.8895419058712,-0.955711830727085,52.454125041086,3.39112869551231,1,"subseries 5",FALSE,17,4.46835968181002,17,52.454125041086
"18",59.3131164962648,4.91333424715543,52.2186034240365,2.1811788250729,1,"subseries 6",FALSE,18,6.95482575444438,18,52.2186034240365
"19",66.5369671834914,9.82078307681147,51.822095700557,4.8940884061229,1,"subseries 7",FALSE,19,8.51706422912635,19,51.822095700557
"20",59.8445285118169,9.65278752581112,51.4702368011451,-1.27849581513927,1,"subseries 8",FALSE,20,10.7320423047572,20,51.4702368011451
"21",53.8444966790685,5.56409859741622,51.0791266360895,-2.79872855443722,1,"subseries 9",FALSE,21,2.53583323088203,21,51.0791266360895
"22",49.3697339010174,1.10417941103966,50.6389641580821,-2.37340966810434,1,"subseries 10",FALSE,22,2.96638084439759,22,50.6389641580821
"23",47.4126756400058,-1.39812143133385,50.3353456906795,-1.52454861933981,1,"subseries 11",FALSE,23,3.49255929221332,23,50.3353456906795
"24",47.2191163995218,-2.83269426459441,50.0351893111096,0.0166213530066273,1,"subseries 12",FALSE,24,3.49156685246839,24,50.0351893111096
"25",45.4220834312401,-4.74966809997259,49.9771549751382,0.194596556074465,1,"subseries 1",FALSE,25,2.8095495555779,25,49.9771549751382
"26",42.0097426158844,-6.38722410898846,50.1191162768424,-1.72214955196959,1,"subseries 2",FALSE,26,2.73201584621141,26,50.1191162768424
"27",41.5087519596496,-8.67218952822989,50.342071547874,-0.16113005999452,1,"subseries 3",FALSE,27,2.47092594637306,27,50.342071547874
"28",45.1378105216858,-6.05957359438761,50.5143341834741,0.683049932599275,1,"subseries 4",FALSE,28,5.66722347321823,28,50.5143341834741
"29",51.4997068177414,-0.955711830727085,50.5610786527755,1.89433999569298,1,"subseries 5",FALSE,29,3.52305587557853,29,50.5610786527755
"30",54.849291529523,4.91333424715543,50.5383737195525,-0.602416437184949,1,"subseries 6",FALSE,30,2.09885204816502,30,50.5383737195525
"31",62.0984611956384,9.82078307681147,50.3723812764512,1.90529684237573,1,"subseries 7",FALSE,31,1.69074248747106,31,50.3723812764512
"32",63.350411315062,9.65278752581112,50.2692652853771,3.42835850387383,1,"subseries 8",FALSE,32,1.73564292667402,32,50.2692652853771
"33",54.0894179398209,5.56409859741622,50.1147070552844,-1.58938771287976,1,"subseries 9",FALSE,33,1.90477262479953,33,50.1147070552844
"34",49.074577317486,1.10417941103966,49.8522085268024,-1.88181062035606,1,"subseries 10",FALSE,34,2.37302213537315,34,49.8522085268024
"35",46.3158926921679,-1.39812143133385,49.6062966908095,-1.89228256730772,1,"subseries 11",FALSE,35,2.76544381482853,35,49.6062966908095
"36",45.7087909438939,-2.83269426459441,49.3854648984236,-0.84397968993526,1,"subseries 12",FALSE,36,2.95364415545811,36,49.3854648984236
"37",45.2713052941271,-4.74966809997259,49.3168047602968,0.704168633802936,1,"subseries 1",FALSE,37,3.33680712410741,37,49.3168047602968
"38",44.2403345012274,-6.38722410898846,49.4694174054289,1.15814120478694,1,"subseries 2",FALSE,38,2.40975329536358,38,49.4694174054289
"39",40.6876790384253,-8.67218952822989,49.8328473048935,-0.472978738238304,1,"subseries 3",FALSE,39,2.05508039603769,39,49.8328473048935
"40",40.5966964459505,-6.05957359438761,50.2222195352569,-3.56594949491879,1,"subseries 4",FALSE,40,3.45704396638416,40,50.2222195352569
"41",46.6862406395255,-0.955711830727085,50.617449477231,-2.97549700697846,1,"subseries 5",FALSE,41,4.63223549830489,41,50.617449477231
"42",58.5781978076161,4.91333424715543,50.8528878047548,2.8119757557059,1,"subseries 6",FALSE,42,2.12741224287827,42,50.8528878047548
"43",62.9461027262423,9.82078307681147,50.9866962312202,2.13862341821063,1,"subseries 7",FALSE,43,1.77720730769573,43,50.9866962312202
"44",64.798938671337,9.65278752581112,51.2396876145432,3.90646353098272,1,"subseries 8",FALSE,44,2.42356094737535,44,51.2396876145432
"45",57.4540074653133,5.56409859741622,51.4124835262302,0.47742534166693,1,"subseries 9",FALSE,45,2.13041054150247,45,51.4124835262302
"46",51.8114166279819,1.10417941103966,51.7402324532816,-1.0329952363394,1,"subseries 10",FALSE,46,2.06125811447457,46,51.7402324532816
"47",48.8598564808497,-1.39812143133385,52.072354363918,-1.81437645173443,1,"subseries 11",FALSE,47,1.99589842727324,47,52.072354363918
"48",46.780820029279,-2.83269426459441,52.1365911205574,-2.52307682668396,1,"subseries 12",FALSE,48,1.92350758703921,48,52.1365911205574
"49",45.5884144345772,-4.74966809997259,52.2699910562573,-1.93190852170746,1,"subseries 1",FALSE,49,2.07783642477167,49,52.2699910562573
"50",45.627154536572,-6.38722410898846,52.3399517800195,-0.325573134459027,1,"subseries 2",FALSE,50,1.80272265958618,50,52.3399517800195
"51",47.379415741978,-8.67218952822989,52.4374831019895,3.61412216821841,1,"subseries 3",FALSE,51,1.62585469179943,51,52.4374831019895
"52",49.8597424078627,-6.05957359438761,52.728204960752,3.1911110414983,1,"subseries 4",FALSE,52,1.75344170617066,52,52.728204960752
"53",52.3519376715143,-0.955711830727085,52.9431300253441,0.364519476897314,1,"subseries 5",FALSE,53,1.85742715495867,53,52.9431300253441
"54",56.2291291860353,4.91333424715543,53.1645375992627,-1.84874266038285,1,"subseries 6",FALSE,54,2.04677394717916,54,53.1645375992627
"55",61.2850670415787,9.82078307681147,53.3067833446963,-1.84249937992907,1,"subseries 7",FALSE,55,2.23264436190172,55,53.3067833446963
"56",62.9015647350149,9.65278752581112,53.3059369042615,-0.0571596950576989,1,"subseries 8",FALSE,56,2.15066240359844,56,53.3059369042615
"57",59.7875759955847,5.56409859741622,53.3517710167583,0.871706381410135,1,"subseries 9",FALSE,57,2.36317718816328,57,53.3517710167583
"58",54.7520137940023,1.10417941103966,53.3082168287458,0.339617554216808,1,"subseries 10",FALSE,58,3.06803700959954,58,53.3082168287458
"59",50.7967879787212,-1.39812143133385,53.2460175214454,-1.05110811139038,1,"subseries 11",FALSE,59,2.8322457674557,59,53.2460175214454
"60",51.0707851352796,-2.83269426459441,53.2489264144761,0.654552985397956,1,"subseries 12",FALSE,60,3.15352872161353,60,53.2489264144761
"61",50.4467833867589,-4.74966809997259,53.167842871963,2.02860861476845,1,"subseries 1",FALSE,61,4.43348861894557,61,53.167842871963
"62",48.075531659715,-6.38722410898846,53.2592126733005,1.20354309540294,1,"subseries 2",FALSE,62,3.49024620438842,62,53.2592126733005
"63",44.1656754379603,-8.67218952822989,53.4711841435974,-0.63331917740723,1,"subseries 3",FALSE,63,2.79813757841029,63,53.4711841435974
"64",45.4230486678732,-6.05957359438761,53.7634911298319,-2.28086886757113,1,"subseries 4",FALSE,64,12.0606498658508,64,53.7634911298319
"65",47.6320507909338,-0.955711830727085,54.2441541852519,-5.65639156359106,1,"subseries 5",FALSE,65,5.87956147027112,65,54.2441541852519
"66",58.7941822876151,4.91333424715543,54.5304926687573,-0.649644628297651,1,"subseries 6",FALSE,66,4.13768557497319,66,54.5304926687573
"67",65.4978158293637,9.82078307681147,54.8615601521099,0.815472600442348,1,"subseries 7",FALSE,67,2.23627721683187,67,54.8615601521099
"68",66.9672625978273,9.65278752581112,55.1241758533216,2.19029921869461,1,"subseries 8",FALSE,68,2.48095434389067,68,55.1241758533216
"69",65.5902867191438,5.56409859741622,55.1959229606622,4.83026516106536,1,"subseries 9",FALSE,69,2.14103469568222,69,55.1959229606622
"70",58.9844573252615,1.10417941103966,55.3479634092746,2.53231450494721,1,"subseries 10",FALSE,70,2.88136105090462,70,55.3479634092746
"71",55.0304212099991,-1.39812143133385,55.1878154076586,1.24072723367433,1,"subseries 11",FALSE,71,2.87212495379509,71,55.1878154076586
"72",51.488801831599,-2.83269426459441,54.9282279682185,-0.606731872025101,1,"subseries 12",FALSE,72,3.44010791189429,72,54.9282279682185
"73",48.8942036623242,-4.74966809997259,54.5524704700502,-0.908598707753406,1,"subseries 1",FALSE,73,3.85135564677058,73,54.5524704700502
"74",48.5171873380584,-6.38722410898846,53.9766680872854,0.927743359761408,1,"subseries 2",FALSE,74,5.76871967557031,74,53.9766680872854
"75",37.9785372140508,-8.67218952822989,53.5207655027518,-6.87003876047115,1,"subseries 3",FALSE,75,9.97279627786215,75,53.5207655027518
"76",47.7635060457764,-6.05957359438761,53.2840428796422,0.539036760521824,1,"subseries 4",FALSE,76,6.49815016199896,76,53.2840428796422
"77",55.8954514181253,-0.955711830727085,53.3693800781256,3.48178317072681,1,"subseries 5",FALSE,77,2.91667119909898,77,53.3693800781256
"78",56.4026388808361,4.91333424715543,53.6670778622807,-2.17777322860006,1,"subseries 6",FALSE,78,2.35300124018956,78,53.6670778622807
"79",60.1778234714664,9.82078307681147,54.1669480741388,-3.80990767948389,1,"subseries 7",FALSE,79,2.55498629335023,79,54.1669480741388
"80",60.5342777508254,9.65278752581112,54.5398928019483,-3.65840257693399,1,"subseries 8",FALSE,80,2.93558493836749,80,54.5398928019483
"81",63.0341659144926,5.56409859741622,54.8144738965855,2.65559342049087,1,"subseries 9",FALSE,81,1.95120503161455,81,54.8144738965855
"82",60.6855883977097,1.10417941103966,54.7326676878345,4.84874129883551,1,"subseries 10",FALSE,82,2.3526584434723,82,54.7326676878345
"83",57.7910855084225,-1.39812143133385,54.410124069251,4.77908287050536,1,"subseries 11",FALSE,83,2.95778777429178,83,54.410124069251
"84",54.0250400815425,-2.83269426459441,54.1823509635324,2.67538338260447,1,"subseries 12",FALSE,84,3.67179411958533,84,54.1823509635324
"85",49.9065165352804,-4.74966809997259,53.869636185729,0.786548449523949,1,"subseries 1",FALSE,85,3.54907398324265,85,53.869636185729
"86",45.2330067095352,-6.38722410898846,53.5504258168652,-1.93019499834154,1,"subseries 2",FALSE,86,2.69623389897006,86,53.5504258168652
"87",45.4633006500988,-8.67218952822989,53.1891358457634,0.946354332565292,1,"subseries 3",FALSE,87,3.67462764994063,87,53.1891358457634
"88",47.0415749174417,-6.05957359438761,52.7644825494932,0.336665962336141,1,"subseries 4",FALSE,88,2.71057002838776,88,52.7644825494932
"89",46.4813018745779,-0.955711830727085,52.30837442626,-4.87136072095505,1,"subseries 5",FALSE,89,2.15956789014478,89,52.30837442626
