"","raw","seasonal","trend","remainder","weights","sub.labels","interpolated","age","sigma","operating","power"
"1",131.579520475843,14.7717575765274,113.05119850042,3.75656439889531,1,"subseries 1",FALSE,1,25.7018622493471,1,113.05119850042
"2",128.804043763299,11.2137824826338,112.321470300161,5.26879098050374,1,"subseries 2",FALSE,2,12.1025071431461,2,112.321470300161
"3",116.046819050878,5.53293288831491,111.617459719053,-1.10357355648986,1,"subseries 3",FALSE,3,15.8076547094178,3,111.617459719053
"4",109.761940806984,4.34733861067583,110.949496400418,-5.53489420410932,1,"subseries 4",FALSE,4,5.8421252003892,4,110.949496400418
"5",108.303659058343,1.23265428529834,110.317995511115,-3.24699073807,1,"subseries 5",FALSE,5,5.67790352272961,5,110.317995511115
"6",103.881465109657,-0.945238481528822,109.637161749876,-4.81045815869,1,"subseries 6",FALSE,6,5.55080794113298,6,109.637161749876
"7",102.462968448193,-4.65834023787785,109.05078470077,-1.92947601469956,1,"subseries 7",FALSE,7,5.17635909738093,7,109.05078470077
"8",106.004984453485,-7.76426175269903,108.468722066539,5.3005241396452,1,"subseries 8",FALSE,8,14.2253901872257,8,108.468722066539
"9",105.594616161393,-4.47430720623559,108.166257691124,1.9026656765043,1,"subseries 9",FALSE,9,6.04576922297232,9,108.166257691124
"10",107.376794805377,-7.89611237867652,108.779517249025,6.49338993502806,1,"subseries 10",FALSE,10,10.8547465146693,10,108.779517249025
"11",86.7574294235008,-7.55701243337487,109.648190101783,-15.3337482449075,1,"subseries 11",FALSE,11,2.89361103248475,11,109.648190101783
"12",96.8098266567969,-3.8031933530577,110.293382095904,-9.68036208604912,1,"subseries 12",FALSE,12,9.12947333212479,12,110.293382095904
"13",130.285236882202,14.7717575765274,111.078358952862,4.43512035281238,1,"subseries 1",FALSE,13,3.22221650124224,13,111.078358952862
"14",126.27275836512,11.2137824826338,111.711181623739,3.34779425874675,1,"subseries 2",FALSE,14,4.7017966726885,14,111.711181623739
"15",123.834767819268,5.53293288831491,112.397088325486,5.90474660546728,1,"subseries 3",FALSE,15,4.66171431134084,15,112.397088325486
"16",118.145956320257,4.34733861067583,113.562772448106,0.235845261474836,1,"subseries 4",FALSE,16,5.47449558269544,16,113.562772448106
"17",117.419248771842,1.23265428529834,114.586295962303,1.60029852424071,1,"subseries 5",FALSE,17,6.98792268714553,17,114.586295962303
"18",114.222342595441,-0.945238481528822,115.728576413971,-0.560995337000676,1,"subseries 6",FALSE,18,6.79620380578003,18,115.728576413971
"19",108.793479214092,-4.65834023787785,116.830340833481,-3.37852138151081,1,"subseries 7",FALSE,19,8.1612573000625,19,116.830340833481
"20",105.854044877546,-7.76426175269903,117.19625192686,-3.57794529661535,1,"subseries 8",FALSE,20,7.13218774823523,20,117.19625192686
"21",113.06838797682,-4.47430720623559,117.444166669121,0.098528513934582,1,"subseries 9",FALSE,21,5.99914028751903,21,117.444166669121
"22",109.345433955839,-7.89611237867652,117.434684137955,-0.193137803439512,1,"subseries 10",FALSE,22,6.82292368173271,22,117.434684137955
"23",118.336997956887,-7.55701243337487,117.047012820245,8.84699757001725,1,"subseries 11",FALSE,23,5.3496581430117,23,117.047012820245
"24",126.277942383257,-3.8031933530577,116.892647582453,13.1884881538618,1,"subseries 12",FALSE,24,3.53248032387944,24,116.892647582453
"25",128.933629855949,14.7717575765274,116.426021119242,-2.26414883982017,1,"subseries 1",FALSE,25,3.04729039040103,25,116.426021119242
"26",120.398855978527,11.2137824826338,116.071372554771,-6.8862990588774,1,"subseries 2",FALSE,26,3.48873198571442,26,116.071372554771
"27",118.802951900729,5.53293288831491,115.755731484198,-2.48571247178359,1,"subseries 3",FALSE,27,4.43931561869975,27,115.755731484198
"28",115.040220272378,4.34733861067583,114.961142734314,-4.26826107261195,1,"subseries 4",FALSE,28,5.85766415665789,28,114.961142734314
"29",112.068104072344,1.23265428529834,114.42779500854,-3.59234522149416,1,"subseries 5",FALSE,29,5.61139480799602,29,114.42779500854
"30",112.085138042639,-0.945238481528822,113.651058092313,-0.620681568145102,1,"subseries 6",FALSE,30,7.24771411130951,30,113.651058092313
"31",112.938244718555,-4.65834023787785,112.883967037611,4.71261791882161,1,"subseries 7",FALSE,31,9.68922381793577,31,112.883967037611
"32",111.901369825115,-7.76426175269903,112.686066951729,6.9795646260847,1,"subseries 8",FALSE,32,6.11325419557701,32,112.686066951729
"33",110.286748305605,-4.47430720623559,112.331457930658,2.42959758118255,1,"subseries 9",FALSE,33,5.83916810655836,33,112.331457930658
"34",107.119190056326,-7.89611237867652,112.160917454365,2.85438498063729,1,"subseries 10",FALSE,34,8.5602973730948,34,112.160917454365
"35",95.490024115862,-7.55701243337487,112.003806914067,-8.95677036482991,1,"subseries 11",FALSE,35,3.91227485385335,35,112.003806914067
"36",99.6225777382506,-3.8031933530577,111.548526442079,-8.12275535077053,1,"subseries 12",FALSE,36,3.79342974796461,36,111.548526442079
"37",126.310237279792,14.7717575765274,111.302669824709,0.235809878555273,1,"subseries 1",FALSE,37,6.45429124326679,37,111.302669824709
"38",124.705121114091,11.2137824826338,110.926025093223,2.56531353823405,1,"subseries 2",FALSE,38,3.19976521744462,38,110.926025093223
"39",118.422275329389,5.53293288831491,110.729192820955,2.16014962011877,1,"subseries 3",FALSE,39,4.19511628864051,39,110.729192820955
"40",116.251816002294,4.34733861067583,110.783638330623,1.12083906099504,1,"subseries 4",FALSE,40,5.30229037551097,40,110.783638330623
"41",113.522774950791,1.23265428529834,110.642262476629,1.64785818886398,1,"subseries 5",FALSE,41,6.28100535972992,41,110.642262476629
"42",111.194991673973,-0.945238481528822,110.567193889457,1.57303626604491,1,"subseries 6",FALSE,42,8.81463630635663,42,110.567193889457
"43",107.0391456343,-4.65834023787785,110.278969891976,1.41851598020146,1,"subseries 7",FALSE,43,8.47103885965336,43,110.278969891976
"44",98.172754691632,-7.76426175269903,109.956097778747,-4.01908133441549,1,"subseries 8",FALSE,44,4.79094010494279,44,109.956097778747
"45",109.84334567482,-4.47430720623559,109.808902302627,4.50875057842869,1,"subseries 9",FALSE,45,8.81440938777726,45,109.808902302627
"46",91.5873948493709,-7.89611237867652,109.788989610993,-10.305482382946,1,"subseries 10",FALSE,46,9.58534205349726,46,109.788989610993
"47",104.364541188713,-7.55701243337487,110.078657987578,1.84289563450989,1,"subseries 11",FALSE,47,14.030344023381,47,110.078657987578
"48",106.049456147643,-3.8031933530577,110.347287193358,-0.494637692657037,1,"subseries 12",FALSE,48,3.88180658807148,48,110.347287193358
"49",118.723171214958,14.7717575765274,110.782220171597,-6.83080653316658,1,"subseries 1",FALSE,49,4.16838577022988,49,110.782220171597
"50",128.301838148284,11.2137824826338,111.201835365306,5.88622030034459,1,"subseries 2",FALSE,50,3.46516126190145,50,111.201835365306
"51",121.021514292383,5.53293288831491,111.476458670425,4.0121227336431,1,"subseries 3",FALSE,51,4.02636656544852,51,111.476458670425
"52",118.56243952912,4.34733861067583,111.795895469052,2.41920544939252,1,"subseries 4",FALSE,52,5.34756349622978,52,111.795895469052
"53",112.846572428119,1.23265428529834,111.814513335448,-0.200595192627688,1,"subseries 5",FALSE,53,7.36794967553021,53,111.814513335448
"54",112.015094817411,-0.945238481528822,111.737270846482,1.22306245245777,1,"subseries 6",FALSE,54,6.17000680762567,54,111.737270846482
"55",110.089099110108,-4.65834023787785,111.461890502015,3.28554884597095,1,"subseries 7",FALSE,55,9.86272710422721,55,111.461890502015
"56",98.2962082885719,-7.76426175269903,110.701106350243,-4.64063630897233,1,"subseries 8",FALSE,56,5.85764232603983,56,110.701106350243
"57",104.658721161246,-4.47430720623559,109.734944774413,-0.601916406931764,1,"subseries 9",FALSE,57,8.43059944668762,57,109.734944774413
"58",103.122051184855,-7.89611237867652,108.782471621419,2.23569194211214,1,"subseries 10",FALSE,58,6.00676657038393,58,108.782471621419
"59",101.44987301549,-7.55701243337487,107.846807107668,1.16007834119725,1,"subseries 11",FALSE,59,12.8129110502458,59,107.846807107668
"60",108.05795039283,-3.8031933530577,107.29266817374,4.56847557214742,1,"subseries 12",FALSE,60,5.52209768282787,60,107.29266817374
"61",121.714827056878,14.7717575765274,106.999500177693,-0.0564306973428188,1,"subseries 1",FALSE,61,3.45337084986227,61,106.999500177693
"62",106.972124978054,11.2137824826338,106.688491409691,-10.9301489142705,1,"subseries 2",FALSE,62,4.17452809392952,62,106.688491409691
"63",102.825975895008,5.53293288831491,106.554130099014,-9.26108709232049,1,"subseries 3",FALSE,63,5.12358900395578,63,106.554130099014
"64",116.420317884511,4.34733861067583,106.825580239833,5.24739903400182,1,"subseries 4",FALSE,64,5.6607623140328,64,106.825580239833
"65",111.596417302692,1.23265428529834,107.339572141023,3.02419087637071,1,"subseries 5",FALSE,65,5.56160329304924,65,107.339572141023
"66",109.562465645357,-0.945238481528822,108.067840443076,2.43986368380948,1,"subseries 6",FALSE,66,6.02113899897291,66,108.067840443076
"67",99.4307769785284,-4.65834023787785,108.931399028118,-4.84228181171184,1,"subseries 7",FALSE,67,4.8635449602583,67,108.931399028118
"68",101.251160910056,-7.76426175269903,109.780833180403,-0.765410517647993,1,"subseries 8",FALSE,68,10.6826107282169,68,109.780833180403
"69",97.1629459263427,-4.47430720623559,110.686728854706,-9.04947572212816,1,"subseries 9",FALSE,69,5.38238991456051,69,110.686728854706
"70",101.939143502419,-7.89611237867652,111.609707146318,-1.7744512652221,1,"subseries 10",FALSE,70,13.0327105036149,70,111.609707146318
"71",116.774191524349,-7.55701243337487,112.566185437044,11.7650185206797,1,"subseries 11",FALSE,71,12.9235315045675,71,112.566185437044
