"","raw","seasonal","trend","remainder","weights","sub.labels","interpolated","age","sigma","operating","power"
"1",123.546997585492,-5.059610193415,135.98981885831,-7.38321107940345,1,"subseries 1",FALSE,1,32.258778106027,1,135.98981885831
"2",157.637906163787,8.52884185169357,137.082784492796,12.0262798192977,1,"subseries 2",FALSE,2,40.9038044828458,2,137.082784492796
"3",144.550085395862,8.80269129366625,138.158373091909,-2.41097898971313,1,"subseries 3",FALSE,3,43.8390526296308,3,138.158373091909
"4",144.970216179633,6.84957954236136,139.218453955782,-1.09781731850995,1,"subseries 4",FALSE,4,44.6347707441795,4,139.218453955782
"5",143.385073860051,1.47099349305586,140.246281927048,1.6677984399474,1,"subseries 5",FALSE,5,47.5117665513966,5,140.246281927048
"6",126.727055541841,-4.32075660027776,141.194104263925,-10.1462921218061,1,"subseries 6",FALSE,6,41.347356767064,6,141.194104263925
"7",131.079853866647,-2.19527241847085,142.084064295229,-8.80893801011101,1,"subseries 7",FALSE,7,40.710942239503,7,142.084064295229
"8",154.14323624314,-1.9098047298475,142.862347274068,13.1906936989195,1,"subseries 8",FALSE,8,46.1277859760865,8,142.862347274068
"9",160.599756563395,1.96670808554751,143.571618638443,15.0614298394046,1,"subseries 9",FALSE,9,40.1894171314753,9,143.571618638443
"10",150.784543183665,0.480396009986217,144.631050911421,5.67309626225801,1,"subseries 10",FALSE,10,20.7255051266474,10,144.631050911421
"11",128.560034055732,-2.00388462906703,145.613666686444,-15.0497480016453,1,"subseries 11",FALSE,11,23.127426069945,11,145.613666686444
"12",137.642662473068,-12.6098817052326,146.660588446351,3.59195573194953,1,"subseries 12",FALSE,12,23.2005630833248,12,146.660588446351
"13",129.80212415599,-5.059610193415,147.839993647837,-12.9782592984323,1,"subseries 1",FALSE,13,29.4950619742831,13,147.839993647837
"14",158.687046307079,8.52884185169357,148.339733961617,1.81847049376802,1,"subseries 2",FALSE,14,30.4225910668268,14,148.339733961617
"15",153.894462222825,8.80269129366625,149.168178926407,-4.07640799724857,1,"subseries 3",FALSE,15,39.0454100838754,15,149.168178926407
"16",164.494457106347,6.84957954236136,150.356456238878,7.28842132510724,1,"subseries 4",FALSE,16,46.2058518161795,16,150.356456238878
"17",151.158148457506,1.47099349305586,151.573148011423,-1.88599304697243,1,"subseries 5",FALSE,17,42.6682066232475,17,151.573148011423
"18",163.070632566095,-4.32075660027776,153.512201174128,13.8791879922447,1,"subseries 6",FALSE,18,48.211064816512,18,153.512201174128
"19",143.81846715035,-2.19527241847085,155.527209475209,-9.51346990638797,1,"subseries 7",FALSE,19,43.013615738857,19,155.527209475209
"20",153.163711075711,-1.9098047298475,157.307062182977,-2.23354637741818,1,"subseries 8",FALSE,20,45.5187683935561,20,157.307062182977
"21",154.619990697648,1.96670808554751,159.131286523099,-6.47800391099821,1,"subseries 9",FALSE,21,39.5418242381775,21,159.131286523099
"22",154.959983435465,0.480396009986217,160.403652567739,-5.92406514225996,1,"subseries 10",FALSE,22,34.744896008055,22,160.403652567739
"23",164.633975877,-2.00388462906703,161.592211248192,5.04564925787469,1,"subseries 11",FALSE,23,18.3568202379995,23,161.592211248192
"24",161.702586681414,-12.6098817052326,162.481048076996,11.8314203096507,1,"subseries 12",FALSE,24,20.3923375092504,24,162.481048076996
"25",168.362836624736,-5.059610193415,162.789993134067,10.6324536840841,1,"subseries 1",FALSE,25,27.3853326371264,25,162.789993134067
"26",165.474136214355,8.52884185169357,162.966106646079,-6.02081228341783,1,"subseries 2",FALSE,26,35.3239815731316,26,162.966106646079
"27",175.163521810896,8.80269129366625,162.246287820927,4.11454269630283,1,"subseries 3",FALSE,27,44.520659546716,27,162.246287820927
"28",181.023692740314,6.84957954236136,161.177171425032,12.9969417729208,1,"subseries 4",FALSE,28,48.6571663431561,28,161.177171425032
"29",153.744906447956,1.47099349305586,159.776391219205,-7.50247826430498,1,"subseries 5",FALSE,29,47.228009561397,29,159.776391219205
"30",147.796159229775,-4.32075660027776,157.968569436318,-5.85165360626524,1,"subseries 6",FALSE,30,41.2993555721682,30,157.968569436318
"31",158.877478929257,-2.19527241847085,156.363291850861,4.70945949686734,1,"subseries 7",FALSE,31,46.4725986510337,31,156.363291850861
"32",139.163894754008,-1.9098047298475,154.980860362206,-13.9071608783505,1,"subseries 8",FALSE,32,43.6803068558413,32,154.980860362206
"33",159.464459391395,1.96670808554751,154.042879444689,3.45487186115875,1,"subseries 9",FALSE,33,42.0274496108891,33,154.042879444689
"34",159.2033697862,0.480396009986217,153.429087213545,5.29388656266869,1,"subseries 10",FALSE,34,33.3097111136419,34,153.429087213545
"35",144.590805143286,-2.00388462906703,153.281452931384,-6.68676315903124,1,"subseries 11",FALSE,35,15.2160624422343,35,153.281452931384
"36",135.047257944814,-12.6098817052326,153.180322137027,-5.52318248698012,1,"subseries 12",FALSE,36,20.012291528155,36,153.180322137027
"37",151.572889171968,-5.059610193415,152.978606104102,3.65389326128098,1,"subseries 1",FALSE,37,23.5181685043547,37,152.978606104102
"38",157.863072377024,8.52884185169357,152.755905195793,-3.42167467046227,1,"subseries 2",FALSE,38,45.180362112617,38,152.755905195793
"39",177.151212549658,8.80269129366625,152.349499407507,15.9990218484851,1,"subseries 3",FALSE,39,42.0796377314669,39,152.349499407507
"40",155.081780380841,6.84957954236136,152.159505444788,-3.92730460630835,1,"subseries 4",FALSE,40,46.0543105223736,40,152.159505444788
"41",157.242845552875,1.47099349305586,151.90483184445,3.86702021536911,1,"subseries 5",FALSE,41,50.4595768004733,41,151.90483184445
"42",141.011517955901,-4.32075660027776,151.593048750134,-6.26077419395492,1,"subseries 6",FALSE,42,43.539757620301,42,151.593048750134
"43",138.561384637584,-2.19527241847085,151.247724850617,-10.491067794562,1,"subseries 7",FALSE,43,39.1203897099943,43,151.247724850617
"44",156.985915205255,-1.9098047298475,150.386550556207,8.50916937889531,1,"subseries 8",FALSE,44,44.5804259613009,44,150.386550556207
"45",150.188531747667,1.96670808554751,149.544838939162,-1.32301527704226,1,"subseries 9",FALSE,45,36.4263617907904,45,149.544838939162
"46",151.321497770723,0.480396009986217,149.027837159796,1.81326460094047,1,"subseries 10",FALSE,46,30.723728836492,46,149.027837159796
"47",150.459696826923,-2.00388462906703,148.588997207749,3.87458424824078,1,"subseries 11",FALSE,47,22.0348674565709,47,148.588997207749
"48",133.083928111322,-12.6098817052326,148.674820705076,-2.98101088852138,1,"subseries 12",FALSE,48,22.1046779414973,48,148.674820705076
"49",151.414649123105,-5.059610193415,148.93101570504,7.5432436114796,1,"subseries 1",FALSE,49,30.0247706995972,49,148.93101570504
"50",139.78674143405,8.52884185169357,149.021181570208,-17.7632819878515,1,"subseries 2",FALSE,50,28.204774441064,50,149.021181570208
"51",152.752428968693,8.80269129366625,149.391623053955,-5.44188537892788,1,"subseries 3",FALSE,51,33.6796201809303,51,149.391623053955
"52",164.629526529272,6.84957954236136,149.592539272761,8.18740771414986,1,"subseries 4",FALSE,52,45.8535873339855,52,149.592539272761
"53",147.734529530681,1.47099349305586,149.89479932749,-3.63126328986505,1,"subseries 5",FALSE,53,45.2289386357181,53,149.89479932749
"54",156.249278474804,-4.32075660027776,150.069304763005,10.5007303120769,1,"subseries 6",FALSE,54,47.1676015492616,54,150.069304763005
"55",146.493681017529,-2.19527241847085,149.771474228234,-1.08252079223459,1,"subseries 7",FALSE,55,42.5280414110379,55,149.771474228234
"56",151.748565270624,-1.9098047298475,149.270998296111,4.38737170436013,1,"subseries 8",FALSE,56,44.7779958562866,56,149.270998296111
"57",156.164609215872,1.96670808554751,148.020869931464,6.17703119886045,1,"subseries 9",FALSE,57,42.4024126064322,57,148.020869931464
"58",147.079941067682,0.480396009986217,146.980589898726,-0.381044841029905,1,"subseries 10",FALSE,58,27.8792055445986,58,146.980589898726
"59",148.188469749527,-2.00388462906703,146.079154174902,4.11320020369152,1,"subseries 11",FALSE,59,25.9327314858019,59,146.079154174902
"60",137.323703468363,-12.6098817052326,145.294685489943,4.63889968365299,1,"subseries 12",FALSE,60,20.2513954668424,60,145.294685489943
"61",103.452145507955,-5.059610193415,145.110518914312,-36.5987632129425,1,"subseries 1",FALSE,61,11.6894351185425,61,145.110518914312
"62",154.485203858765,8.52884185169357,144.774512791935,1.18184921513608,1,"subseries 2",FALSE,62,21.1497530096452,62,144.774512791935
"63",157.451276523223,8.80269129366625,145.031070324365,3.61751490519148,1,"subseries 3",FALSE,63,41.0669876910425,63,145.031070324365
"64",161.018216446889,6.84957954236136,145.585146048266,8.58349085626156,1,"subseries 4",FALSE,64,44.8051302722329,64,145.585146048266
"65",146.274806853226,1.47099349305586,146.379882849738,-1.57606948956834,1,"subseries 5",FALSE,65,38.9451741534025,65,146.379882849738
"66",137.825988204282,-4.32075660027776,147.818781988031,-5.6720371834713,1,"subseries 6",FALSE,66,41.4410509593963,66,147.818781988031
"67",166.206962775949,-2.19527241847085,149.010246830492,19.3919883639276,1,"subseries 7",FALSE,67,45.8550283551238,67,149.010246830492
"68",135.80733107494,-1.9098047298475,150.25848886572,-12.5413530609326,1,"subseries 8",FALSE,68,40.5977431116188,68,150.25848886572
"69",150.552685173128,1.96670808554751,151.471085376798,-2.88510828921713,1,"subseries 9",FALSE,69,42.906195014017,69,151.471085376798
"70",154.188754168024,0.480396009986217,152.056560453303,1.65179770473506,1,"subseries 10",FALSE,70,38.2509798910536,70,152.056560453303
"71",151.147640192281,-2.00388462906703,152.575422875979,0.576101945368833,1,"subseries 11",FALSE,71,26.8902907322823,71,152.575422875979
"72",126.33979220002,-12.6098817052326,152.87957617039,-13.9299022651377,1,"subseries 12",FALSE,72,17.8564208558404,72,152.87957617039
"73",170.508513922797,-5.059610193415,152.920277073283,22.6478470429286,1,"subseries 1",FALSE,73,19.0415048950228,73,152.920277073283
"74",171.144504449764,8.52884185169357,152.617403886411,9.99825871165945,1,"subseries 2",FALSE,74,25.5284616876324,74,152.617403886411
"75",151.197836516964,8.80269129366625,151.899071593512,-9.50392637021409,1,"subseries 3",FALSE,75,46.2713530584889,75,151.899071593512
"76",158.144960461413,6.84957954236136,151.179530905358,0.11585001369366,1,"subseries 4",FALSE,76,45.440084934835,76,151.179530905358
"77",157.310591809715,1.47099349305586,150.216887729402,5.6227105872571,1,"subseries 5",FALSE,77,47.2245682148742,77,150.216887729402
"78",145.469884977254,-4.32075660027776,149.222706260837,0.567935316694502,1,"subseries 6",FALSE,78,46.484069479751,78,149.222706260837
"79",144.611817168071,-2.19527241847085,148.117163237834,-1.31007365129244,1,"subseries 7",FALSE,79,44.147954005945,79,148.117163237834
"80",139.17659044177,-1.9098047298475,147.620786119961,-6.5343909483438,1,"subseries 8",FALSE,80,41.788072931783,80,147.620786119961
"81",149.258234586814,1.96670808554751,147.501070909019,-0.209544407752134,1,"subseries 9",FALSE,81,42.9903448503254,81,147.501070909019
"82",144.070450656073,0.480396009986217,147.342713403483,-3.75265875739606,1,"subseries 10",FALSE,82,39.0648641146582,82,147.342713403483
"83",NA,-2.00388462906703,147.504671316771,NA,1,"subseries 11",TRUE,83,NA,83,NA
"84",NA,-12.6098817052326,147.499398002828,NA,1,"subseries 12",TRUE,84,NA,84,NA
"85",NA,-5.059610193415,147.660842582977,NA,1,"subseries 1",TRUE,85,NA,85,NA
"86",NA,8.52884185169357,147.996442548622,NA,1,"subseries 2",TRUE,86,NA,86,NA
"87",159.602252350361,8.80269129366625,148.405980241505,2.39358081518998,1,"subseries 3",FALSE,87,43.2230903225167,87,148.405980241505
"88",151.1064390477,6.84957954236136,148.901137057468,-4.64427755212935,1,"subseries 4",FALSE,88,43.8863898335623,88,148.901137057468
"89",155.497138335274,1.47099349305586,149.44622189799,4.57992294422863,1,"subseries 5",FALSE,89,46.8662725528964,89,149.44622189799
"90",143.416719700435,-4.32075660027776,150.055536789581,-2.31806048886867,1,"subseries 6",FALSE,90,41.2038286521309,90,150.055536789581
"91",146.052143005851,-2.19527241847085,150.561216324278,-2.31380089995594,1,"subseries 7",FALSE,91,45.8604743337763,91,150.561216324278
"92",152.452034953451,-1.9098047298475,150.500210506376,3.86162917692272,1,"subseries 8",FALSE,92,45.5524379576119,92,150.500210506376
"93",154.59917968091,1.96670808554751,150.082191753781,2.55027984158193,1,"subseries 9",FALSE,93,45.0581881426183,93,150.082191753781
"94",150.034403991916,0.480396009986217,149.632472189469,-0.0784642075388433,1,"subseries 10",FALSE,94,39.3518274461558,94,149.632472189469
"95",152.33660583259,-2.00388462906703,148.941003113573,5.39948734808408,1,"subseries 11",FALSE,95,33.0196169480918,95,148.941003113573
"96",NA,-12.6098817052326,148.437174605583,NA,1,"subseries 12",TRUE,96,NA,96,NA
"97",NA,-5.059610193415,147.675416365025,NA,1,"subseries 1",TRUE,97,NA,97,NA
"98",168.659815936405,8.52884185169357,146.967761587884,13.163212496827,1,"subseries 2",FALSE,98,95.2934402322309,98,146.967761587884
"99",166.58190920392,8.80269129366625,146.3360085755,11.4432093347539,1,"subseries 3",FALSE,99,42.2649530769842,99,146.3360085755
"100",120.541396524194,6.84957954236136,145.456500586359,-31.7646836045268,1,"subseries 4",FALSE,100,34.0980316930766,100,145.456500586359
"101",141.962314818931,1.47099349305586,144.918442616644,-4.42712129076884,1,"subseries 5",FALSE,101,39.5839548842337,101,144.918442616644
"102",140.532463205799,-4.32075660027776,144.336640609433,0.516579196643761,1,"subseries 6",FALSE,102,42.1259325256157,102,144.336640609433
"103",135.093572547993,-2.19527241847085,144.214622307912,-6.92577734144785,1,"subseries 7",FALSE,103,43.0791717991047,103,144.214622307912
"104",157.364167517959,-1.9098047298475,144.226719049994,15.0472531978128,1,"subseries 8",FALSE,104,46.983699136021,104,144.226719049994
"105",141.111294910709,1.96670808554751,144.287948676387,-5.14336185122522,1,"subseries 9",FALSE,105,43.6548551748897,105,144.287948676387
"106",144.752085381159,0.480396009986217,145.023274062671,-0.75158469149838,1,"subseries 10",FALSE,106,34.6420453458951,106,145.023274062671
"107",146.418064869561,-2.00388462906703,145.444619155667,2.97733034296115,1,"subseries 11",FALSE,107,28.431418075737,107,145.444619155667
"108",135.409174740932,-12.6098817052326,145.707495538765,2.31156090739955,1,"subseries 12",FALSE,108,17.5673254998226,108,145.707495538765
"109",153.879723711534,-5.059610193415,145.9918111591,12.9475227458488,1,"subseries 1",FALSE,109,15.211493641726,109,145.9918111591
"110",144.133301273313,8.52884185169357,145.850078857745,-10.2456194361258,1,"subseries 2",FALSE,110,21.9821721945138,110,145.850078857745
"111",139.525957274273,8.80269129366625,145.550347077757,-14.8270810971498,1,"subseries 3",FALSE,111,32.62396304234,111,145.550347077757
"112",157.498300308246,6.84957954236136,144.657641334763,5.99107943112182,1,"subseries 4",FALSE,112,42.079641208391,112,144.657641334763
"113",150.332343925859,1.47099349305586,143.551796637736,5.30955379506665,1,"subseries 5",FALSE,113,47.5378369880028,113,143.551796637736
"114",145.257374030679,-4.32075660027776,142.63234860892,6.94578202203687,1,"subseries 6",FALSE,114,42.2195272456918,114,142.63234860892
"115",157.75936243616,-2.19527241847085,141.655603734656,18.2990311199752,1,"subseries 7",FALSE,115,49.8519473219368,115,141.655603734656
"116",130.686488356477,-1.9098047298475,140.71063148087,-8.11433839454585,1,"subseries 8",FALSE,116,42.6941401020842,116,140.71063148087
"117",131.833972878912,1.96670808554751,139.735580187726,-9.86831539436119,1,"subseries 9",FALSE,117,39.1572769483682,117,139.735580187726
"118",136.783616448297,0.480396009986217,138.676225297876,-2.3730048595651,1,"subseries 10",FALSE,118,37.5567426396423,118,138.676225297876
